{"photos":{"page":1,"pages":141405,"perpage":15,"total":"2121062","photo":[{"id":"20123195736","owner":"73422502@N08","secret":"2dfd241695","server":"508","farm":1,"title":"Africa","ispublic":1,"isfriend":0,"isfamily":0,"ownername":"Zeeyolq Photography"},{"id":"27695893295","owner":"27964309@N06","secret":"8d249df974","server":"7285","farm":8,"title":"Africa!","ispublic":1,"isfriend":0,"isfamily":0,"ownername":"vittorio vida"},{"id":"41225901971","owner":"14974601@N06","secret":"488397079f","server":"817","farm":1,"title":"Africa!","ispublic":1,"isfriend":0,"isfamily":0,"ownername":"Thomas Retterath"},{"id":"14320900877","owner":"85183081@N00","secret":"273f02eec3","server":"3872","farm":4,"title":"Africa!","ispublic":1,"isfriend":0,"isfamily":0,"ownername":"olroux"},{"id":"14662348882","owner":"73422502@N08","secret":"942d3e0129","server":"3856","farm":4,"title":"Africa","ispublic":1,"isfriend":0,"isfamily":0,"ownername":"Zeeyolq Photography"},{"id":"6162082604","owner":"63861434@N04","secret":"3bc6c79ddb","server":"6175","farm":7,"title":"Africa","ispublic":1,"isfriend":0,"isfamily":0,"ownername":"Carlos J. Ayala"},{"id":"2657763031","owner":"24068135@N06","secret":"4c6b4f4cf7","server":"3294","farm":4,"title":"Africa","ispublic":1,"isfriend":0,"isfamily":0,"ownername":"renat.o"},{"id":"6181175740","owner":"45689939@N02","secret":"9ec8f1b813","server":"6179","farm":7,"title":"Africa.","ispublic":1,"isfriend":0,"isfamily":0,"ownername":"BeboFlickr"},{"id":"15179400491","owner":"37300257@N03","secret":"f11464ebca","server":"5577","farm":6,"title":"Africa","ispublic":1,"isfriend":0,"isfamily":0,"ownername":"Fabio Bianchi 83"},{"id":"38772982744","owner":"14974601@N06","secret":"b2a0f0a4fe","server":"4646","farm":5,"title":"Africa!","ispublic":1,"isfriend":0,"isfamily":0,"ownername":"Thomas Retterath"},{"id":"12950590813","owner":"73422502@N08","secret":"71d0e84cb3","server":"3681","farm":4,"title":"Africa","ispublic":1,"isfriend":0,"isfamily":0,"ownername":"Zeeyolq Photography"},{"id":"26551003703","owner":"73422502@N08","secret":"96f2ffc716","server":"7054","farm":8,"title":"Africa","ispublic":1,"isfriend":0,"isfamily":0,"ownername":"Zeeyolq Photography"},{"id":"13511718995","owner":"73422502@N08","secret":"7352a42435","server":"3830","farm":4,"title":"Africa","ispublic":1,"isfriend":0,"isfamily":0,"ownername":"Zeeyolq Photography"},{"id":"21012570448","owner":"73422502@N08","secret":"afb6dbdca7","server":"5793","farm":6,"title":"Africa","ispublic":1,"isfriend":0,"isfamily":0,"ownername":"Zeeyolq Photography"},{"id":"20604796635","owner":"73422502@N08","secret":"6b4f7c9a8c","server":"582","farm":1,"title":"Africa","ispublic":1,"isfriend":0,"isfamily":0,"ownername":"Zeeyolq Photography"}]},"stat":"ok"}