{"photos":{"page":1,"pages":84869,"perpage":15,"total":"1273022","photo":[{"id":"5007341489","owner":"50949295@N03","secret":"92dd7628d6","server":"4146","farm":5,"title":"Air","ispublic":1,"isfriend":0,"isfamily":0,"ownername":"Hu,hanse"},{"id":"102786594","owner":"15363357@N00","secret":"fabe4457c9","server":"40","farm":1,"title":"Air","ispublic":1,"isfriend":0,"isfamily":0,"ownername":"Jan Tik"},{"id":"4491788096","owner":"7695444@N03","secret":"9632c7ff84","server":"4017","farm":5,"title":"Air","ispublic":1,"isfriend":0,"isfamily":0,"ownername":"TOM \u2715 TOM"},{"id":"5000738769","owner":"44142995@N08","secret":"129fb3014d","server":"4148","farm":5,"title":"Air","ispublic":1,"isfriend":0,"isfamily":0,"ownername":"donedward787"},{"id":"4491157363","owner":"7695444@N03","secret":"7f1324acd7","server":"4018","farm":5,"title":"Air","ispublic":1,"isfriend":0,"isfamily":0,"ownername":"TOM \u2715 TOM"},{"id":"5579933449","owner":"26435217@N05","secret":"11b2316772","server":"5021","farm":6,"title":"air","ispublic":1,"isfriend":0,"isfamily":0,"ownername":"Frits Kooijmans"},{"id":"16591034746","owner":"38815309@N04","secret":"67eefb26f9","server":"8614","farm":9,"title":"Air Plant","ispublic":1,"isfriend":0,"isfamily":0,"ownername":"JAKE473"},{"id":"5717383222","owner":"21692577@N02","secret":"bcc120166d","server":"3496","farm":4,"title":"Air","ispublic":1,"isfriend":0,"isfamily":0,"ownername":"Danny VB"},{"id":"29010101116","owner":"28596055@N02","secret":"23383c2275","server":"8065","farm":9,"title":"air","ispublic":1,"isfriend":0,"isfamily":0,"ownername":"dorinser"},{"id":"4788765634","owner":"51189009@N07","secret":"64a43a2ebf","server":"4119","farm":5,"title":"Air","ispublic":1,"isfriend":0,"isfamily":0,"ownername":"Laura Wick"},{"id":"1897885607","owner":"18749218@N05","secret":"15bb5638e7","server":"2389","farm":3,"title":"air","ispublic":1,"isfriend":0,"isfamily":0,"ownername":"sshafer86"},{"id":"10144421763","owner":"57246201@N07","secret":"696ecf2582","server":"2842","farm":3,"title":"Air","ispublic":1,"isfriend":0,"isfamily":0,"ownername":"Lumbergher"},{"id":"3949939097","owner":"39810451@N04","secret":"79948f5757","server":"3479","farm":4,"title":"Air","ispublic":1,"isfriend":0,"isfamily":0,"ownername":"Cintia Marques"},{"id":"13493798083","owner":"101096037@N03","secret":"3e98dee1f5","server":"7249","farm":8,"title":"Air","ispublic":1,"isfriend":0,"isfamily":0,"ownername":"BazIli2013"},{"id":"35121901171","owner":"155540078@N08","secret":"f957cc3edb","server":"4223","farm":5,"title":"40-------------------45","ispublic":1,"isfriend":0,"isfamily":0,"ownername":"Ho QH"}]},"stat":"ok"}