{"photos":{"page":1,"pages":3132,"perpage":15,"total":"46967","photo":[{"id":"3664523479","owner":"49823434@N00","secret":"226aaf7c2a","server":"2462","farm":3,"title":"ALIENS","ispublic":1,"isfriend":0,"isfamily":0,"ownername":"kingkong21"},{"id":"225583969","owner":"21819563@N00","secret":"6504bd3d11","server":"86","farm":1,"title":"Aliens","ispublic":1,"isfriend":0,"isfamily":0,"ownername":"ukdenners"},{"id":"3476717139","owner":"23797229@N06","secret":"90c4b1579e","server":"3316","farm":4,"title":"Aliens","ispublic":1,"isfriend":0,"isfamily":0,"ownername":"Kelly Malloy"},{"id":"5741789926","owner":"12743747@N03","secret":"6bf25d3a49","server":"2247","farm":3,"title":"aliens","ispublic":1,"isfriend":0,"isfamily":0,"ownername":"djFargo"},{"id":"5713699334","owner":"27437005@N06","secret":"f73a83755e","server":"2248","farm":3,"title":"Aliens","ispublic":1,"isfriend":0,"isfamily":0,"ownername":"Obscure-Artwork"},{"id":"15406418575","owner":"95000313@N07","secret":"6d04ebb4c8","server":"3927","farm":4,"title":"aliens?","ispublic":1,"isfriend":0,"isfamily":0,"ownername":"neil aldred"},{"id":"6643950419","owner":"73669077@N07","secret":"0d9e04e996","server":"7014","farm":8,"title":"aliens","ispublic":1,"isfriend":0,"isfamily":0,"ownername":"irishcoolguy14"},{"id":"14949939402","owner":"94918488@N08","secret":"5293f67df8","server":"5585","farm":6,"title":"Aliens","ispublic":1,"isfriend":0,"isfamily":0,"ownername":"manman1000"},{"id":"2950849443","owner":"49823434@N00","secret":"3cc57cf9c4","server":"3036","farm":4,"title":"ALIENS","ispublic":1,"isfriend":0,"isfamily":0,"ownername":"kingkong21"},{"id":"7983002820","owner":"99484035@N00","secret":"79ebf40082","server":"8441","farm":9,"title":"ALIENS","ispublic":1,"isfriend":0,"isfamily":0,"ownername":"Cooney-Hughes"},{"id":"14822595283","owner":"71365382@N00","secret":"a4ce83af90","server":"3910","farm":4,"title":"alien","ispublic":1,"isfriend":0,"isfamily":0,"ownername":"captaincrumple"},{"id":"7983004462","owner":"99484035@N00","secret":"78d69e09b4","server":"8175","farm":9,"title":"ALIENS","ispublic":1,"isfriend":0,"isfamily":0,"ownername":"Cooney-Hughes"},{"id":"8099342425","owner":"69389852@N04","secret":"b15637d972","server":"8476","farm":9,"title":"Aliens","ispublic":1,"isfriend":0,"isfamily":0,"ownername":"indukPark"},{"id":"16074943300","owner":"44512513@N06","secret":"3b7f79857e","server":"7553","farm":8,"title":"Alien","ispublic":1,"isfriend":0,"isfamily":0,"ownername":"egoitz moreno"},{"id":"30475221177","owner":"131891584@N02","secret":"bda09701bb","server":"1913","farm":2,"title":"Aliens","ispublic":1,"isfriend":0,"isfamily":0,"ownername":"anatoliimalikov"}]},"stat":"ok"}