{"photos":{"page":1,"pages":13821,"perpage":15,"total":"207313","photo":[{"id":"5956700646","owner":"64115990@N04","secret":"7dd2a204e4","server":"6013","farm":7,"title":"alone...","ispublic":1,"isfriend":0,"isfamily":0,"ownername":"MrSeabra"},{"id":"3403530995","owner":"27159997@N08","secret":"34410ba35f","server":"3562","farm":4,"title":"alone . .","ispublic":1,"isfriend":0,"isfamily":0,"ownername":"\u0633\u0628\u062d\u0627\u0646 \u0627\u0644\u0644\u0647 \u0648\u0628\u062d\u0645\u062f\u0647 \u2192 {\u0627\u0644\u0639\u0646\u0648\u062f"},{"id":"3350899881","owner":"30252769@N02","secret":"8d6282822c","server":"3575","farm":4,"title":"alone","ispublic":1,"isfriend":0,"isfamily":0,"ownername":"ABCDEFG \u79d1\u79d1"},{"id":"14855400814","owner":"48695150@N06","secret":"49cb9e32d5","server":"3856","farm":4,"title":"Alone.","ispublic":1,"isfriend":0,"isfamily":0,"ownername":"ziggystardust111"},{"id":"6097311540","owner":"9614663@N05","secret":"bb11d2b876","server":"6077","farm":7,"title":"Alone","ispublic":1,"isfriend":0,"isfamily":0,"ownername":"FaHaD.K."},{"id":"10115704114","owner":"73030365@N06","secret":"9292849aed","server":"3697","farm":4,"title":"Alone","ispublic":1,"isfriend":0,"isfamily":0,"ownername":"labukuning"},{"id":"2983229029","owner":"24373496@N08","secret":"67e13950ec","server":"3009","farm":4,"title":"alone","ispublic":1,"isfriend":0,"isfamily":0,"ownername":"Al!!lA"},{"id":"35388529542","owner":"77581337@N05","secret":"1b8c1b6e5b","server":"4216","farm":5,"title":"Alone","ispublic":1,"isfriend":0,"isfamily":0,"ownername":"IdaDipa (captura65)"},{"id":"4030912863","owner":"36213114@N02","secret":"c18e8d1f33","server":"2674","farm":3,"title":"Alone","ispublic":1,"isfriend":0,"isfamily":0,"ownername":"Prashan Dematage - Commercial Photographer"},{"id":"4690916502","owner":"50895167@N04","secret":"aef8eb1025","server":"4034","farm":5,"title":"alone-","ispublic":1,"isfriend":0,"isfamily":0,"ownername":"GideanyMaiara"},{"id":"3829561623","owner":"26457442@N08","secret":"56e6520a69","server":"2581","farm":3,"title":"alone","ispublic":1,"isfriend":0,"isfamily":0,"ownername":"geuggis"},{"id":"5479401364","owner":"49365126@N07","secret":"5365484aa3","server":"5255","farm":6,"title":"Alone","ispublic":1,"isfriend":0,"isfamily":0,"ownername":"CamillaLindskoug"},{"id":"2911241112","owner":"30908248@N04","secret":"9c823448ae","server":"3278","farm":4,"title":"Alone","ispublic":1,"isfriend":0,"isfamily":0,"ownername":"Xx.Broken_Girl17.xX"},{"id":"3828307625","owner":"24504828@N03","secret":"b87d0e4abf","server":"3452","farm":4,"title":"Alone","ispublic":1,"isfriend":0,"isfamily":0,"ownername":"jcdriftwood"},{"id":"4560579210","owner":"11963886@N00","secret":"4a384b177e","server":"26","farm":1,"title":"Alone...","ispublic":1,"isfriend":0,"isfamily":0,"ownername":"Anusca76"}]},"stat":"ok"}