{"photos":{"page":1,"pages":67005,"perpage":15,"total":"1005061","photo":[{"id":"3883075414","owner":"20905078@N04","secret":"40b46def62","server":"3421","farm":4,"title":"American","ispublic":1,"isfriend":0,"isfamily":0,"ownername":"patrickjoust"},{"id":"5859284921","owner":"45923298@N00","secret":"fe63c8cc68","server":"5080","farm":6,"title":"american","ispublic":1,"isfriend":0,"isfamily":0,"ownername":"army.arch"},{"id":"16074176632","owner":"51459032@N00","secret":"5dde15353a","server":"7540","farm":8,"title":"AMERICAN","ispublic":1,"isfriend":0,"isfamily":0,"ownername":"FotoEdge"},{"id":"42532675622","owner":"82161892@N00","secret":"56ec777f2e","server":"1722","farm":2,"title":"American","ispublic":1,"isfriend":0,"isfamily":0,"ownername":"Luis Montemayor"},{"id":"3420232759","owner":"28757493@N03","secret":"798307f462","server":"3355","farm":4,"title":".american","ispublic":1,"isfriend":0,"isfamily":0,"ownername":"bex finch"},{"id":"4687765250","owner":"27420180@N08","secret":"7ab778d1ae","server":"4061","farm":5,"title":"American sky","ispublic":1,"isfriend":0,"isfamily":0,"ownername":"A.G. Photographe"},{"id":"25247903794","owner":"120861725@N07","secret":"3f369d8bb4","server":"1661","farm":2,"title":"American Rover","ispublic":1,"isfriend":0,"isfamily":0,"ownername":"GSB Photography"},{"id":"39171996375","owner":"131073008@N07","secret":"d901bef3ba","server":"4715","farm":5,"title":"American Kestrel","ispublic":1,"isfriend":0,"isfamily":0,"ownername":"gilamonster8"},{"id":"28418571570","owner":"131551548@N03","secret":"2ff403f395","server":"8790","farm":9,"title":"American Dipper","ispublic":1,"isfriend":0,"isfamily":0,"ownername":"VancouverBirder"},{"id":"40214935461","owner":"131073008@N07","secret":"a032355dc5","server":"4741","farm":5,"title":"American Kestrel","ispublic":1,"isfriend":0,"isfamily":0,"ownername":"gilamonster8"},{"id":"26348243317","owner":"131073008@N07","secret":"59044cb0de","server":"876","farm":1,"title":"American Kestrel","ispublic":1,"isfriend":0,"isfamily":0,"ownername":"gilamonster8"},{"id":"25081607827","owner":"131073008@N07","secret":"19dd60be67","server":"4631","farm":5,"title":"American Kestrel","ispublic":1,"isfriend":0,"isfamily":0,"ownername":"gilamonster8"},{"id":"27554875468","owner":"131073008@N07","secret":"7de720668b","server":"815","farm":1,"title":"American Kestrel","ispublic":1,"isfriend":0,"isfamily":0,"ownername":"gilamonster8"},{"id":"1480627554","owner":"12931455@N00","secret":"df97bd2896","server":"1108","farm":2,"title":"American Chestnut","ispublic":1,"isfriend":0,"isfamily":0,"ownername":"javadoug"},{"id":"6701605719","owner":"28316736@N03","secret":"167c11510d","server":"7013","farm":8,"title":"American Cowboy","ispublic":1,"isfriend":0,"isfamily":0,"ownername":"Colorado Sands"}]},"stat":"ok"}