{"photos":{"page":1,"pages":11204,"perpage":15,"total":"168059","photo":[{"id":"34556161183","owner":"65089906@N00","secret":"81c609e542","server":"4256","farm":5,"title":"angels","ispublic":1,"isfriend":0,"isfamily":0,"ownername":"PHOTOPHANATIC1"},{"id":"2366268822","owner":"11797640@N03","secret":"113ddee5f1","server":"2348","farm":3,"title":"angel","ispublic":1,"isfriend":0,"isfamily":0,"ownername":"acroms"},{"id":"7427991470","owner":"77782297@N06","secret":"5c1a3c7480","server":"5071","farm":6,"title":"Angels","ispublic":1,"isfriend":0,"isfamily":0,"ownername":"Clackamas County Historical Society"},{"id":"46812025352","owner":"143529937@N08","secret":"7434a177e2","server":"7892","farm":8,"title":"angels","ispublic":1,"isfriend":0,"isfamily":0,"ownername":"lavetasegura"},{"id":"2735031628","owner":"28297928@N08","secret":"fd1318317a","server":"3043","farm":4,"title":"Angel","ispublic":1,"isfriend":0,"isfamily":0,"ownername":"stanleymoss"},{"id":"46338176092","owner":"131560689@N04","secret":"01da65f847","server":"4825","farm":5,"title":"Angel","ispublic":1,"isfriend":0,"isfamily":0,"ownername":"jackiecomer994"},{"id":"6540845317","owner":"44326132@N00","secret":"e0dcbd83eb","server":"7004","farm":8,"title":"Angels","ispublic":1,"isfriend":0,"isfamily":0,"ownername":"ewan traveler"},{"id":"35663981781","owner":"11786007@N07","secret":"967a9208a1","server":"4241","farm":5,"title":"Angels","ispublic":1,"isfriend":0,"isfamily":0,"ownername":"dycken"},{"id":"3982680698","owner":"35244909@N06","secret":"63fa70c5c9","server":"2631","farm":3,"title":"Angels","ispublic":1,"isfriend":0,"isfamily":0,"ownername":"badzmanaois"},{"id":"4720155153","owner":"16937231@N08","secret":"85aa0be5cd","server":"1007","farm":2,"title":"Angels","ispublic":1,"isfriend":0,"isfamily":0,"ownername":"[alfred bosker] photography"},{"id":"32916889210","owner":"148451367@N03","secret":"6879295d55","server":"570","farm":1,"title":"angels","ispublic":1,"isfriend":0,"isfamily":0,"ownername":"Svet-ok"},{"id":"16273458185","owner":"129796149@N04","secret":"e2462b5982","server":"8578","farm":9,"title":"Angel","ispublic":1,"isfriend":0,"isfamily":0,"ownername":"moralesramosa"},{"id":"4676794491","owner":"90819592@N00","secret":"d0c011494a","server":"4011","farm":5,"title":"Angels","ispublic":1,"isfriend":0,"isfamily":0,"ownername":"Carlos Porto"},{"id":"6666468591","owner":"30823956@N04","secret":"b1ff51f8ea","server":"7014","farm":8,"title":"Angel","ispublic":1,"isfriend":0,"isfamily":0,"ownername":"pianoforte109"},{"id":"3448548778","owner":"37232253@N06","secret":"0d7602be1c","server":"3568","farm":4,"title":"angels","ispublic":1,"isfriend":0,"isfamily":0,"ownername":"AGImOmOTO 255"}]},"stat":"ok"}