{"photos":{"page":1,"pages":192665,"perpage":15,"total":"2889968","photo":[{"id":"7740405218","owner":"69148745@N02","secret":"deedfa35cb","server":"7254","farm":8,"title":"animal","ispublic":1,"isfriend":0,"isfamily":0,"ownername":"land[e]scape"},{"id":"8556925380","owner":"32594277@N04","secret":"dffd16b427","server":"8110","farm":9,"title":"animal","ispublic":1,"isfriend":0,"isfamily":0,"ownername":"Kenny Teo (zoompict)"},{"id":"5164748081","owner":"21692577@N02","secret":"b2e7e19108","server":"1429","farm":2,"title":"animal","ispublic":1,"isfriend":0,"isfamily":0,"ownername":"Danny VB"},{"id":"9428906352","owner":"50154521@N08","secret":"ed6f189d55","server":"7393","farm":8,"title":"Animal","ispublic":1,"isfriend":0,"isfamily":0,"ownername":"iweatherman"},{"id":"6132002231","owner":"32594277@N04","secret":"bf57e8010d","server":"6078","farm":7,"title":"animal","ispublic":1,"isfriend":0,"isfamily":0,"ownername":"Kenny Teo (zoompict)"},{"id":"6363665913","owner":"21692577@N02","secret":"b72d36df0b","server":"6238","farm":7,"title":"animal","ispublic":1,"isfriend":0,"isfamily":0,"ownername":"Danny VB"},{"id":"10264461753","owner":"32594277@N04","secret":"de55cb1721","server":"5504","farm":6,"title":"animal","ispublic":1,"isfriend":0,"isfamily":0,"ownername":"Kenny Teo (zoompict)"},{"id":"7415427428","owner":"69148745@N02","secret":"d1133b8f21","server":"7254","farm":8,"title":"animal","ispublic":1,"isfriend":0,"isfamily":0,"ownername":"land[e]scape"},{"id":"10395774134","owner":"32594277@N04","secret":"423e4d3b26","server":"3761","farm":4,"title":"animal","ispublic":1,"isfriend":0,"isfamily":0,"ownername":"Kenny Teo (zoompict)"},{"id":"10340454686","owner":"32594277@N04","secret":"d86a4c1cfb","server":"5491","farm":6,"title":"animal","ispublic":1,"isfriend":0,"isfamily":0,"ownername":"Kenny Teo (zoompict)"},{"id":"9435135460","owner":"69148745@N02","secret":"5906293c2f","server":"5459","farm":6,"title":"animal","ispublic":1,"isfriend":0,"isfamily":0,"ownername":"land[e]scape"},{"id":"7740221586","owner":"69148745@N02","secret":"d9dae3cd5a","server":"8282","farm":9,"title":"animal","ispublic":1,"isfriend":0,"isfamily":0,"ownername":"land[e]scape"},{"id":"6602199515","owner":"58130019@N08","secret":"6e4edd6a32","server":"7001","farm":8,"title":"Animal","ispublic":1,"isfriend":0,"isfamily":0,"ownername":"Giant_Schnauzer"},{"id":"39893901830","owner":"73422502@N08","secret":"909b292fcf","server":"867","farm":1,"title":"Animal","ispublic":1,"isfriend":0,"isfamily":0,"ownername":"Zeeyolq Photography"},{"id":"8546917613","owner":"32594277@N04","secret":"910da552e8","server":"8387","farm":9,"title":"animal","ispublic":1,"isfriend":0,"isfamily":0,"ownername":"Kenny Teo (zoompict)"}]},"stat":"ok"}