{"photos":{"page":1,"pages":4416,"perpage":15,"total":"66235","photo":[{"id":"4487685929","owner":"7163248@N04","secret":"6c665af140","server":"4065","farm":5,"title":"Ant","ispublic":1,"isfriend":0,"isfamily":0,"ownername":"sanchom"},{"id":"2720988253","owner":"23555295@N04","secret":"ed44346067","server":"3262","farm":4,"title":"ants","ispublic":1,"isfriend":0,"isfamily":0,"ownername":"John Joe Terry"},{"id":"9376596222","owner":"76748906@N03","secret":"8cda88ece4","server":"7288","farm":8,"title":"Ant","ispublic":1,"isfriend":0,"isfamily":0,"ownername":"Abdulelah Alqarni"},{"id":"3409453035","owner":"30867687@N08","secret":"c4d2940b89","server":"3040","farm":4,"title":"Ant","ispublic":1,"isfriend":0,"isfamily":0,"ownername":"matuka11"},{"id":"5093284259","owner":"28573309@N06","secret":"cced67c317","server":"4149","farm":5,"title":"Ant","ispublic":1,"isfriend":0,"isfamily":0,"ownername":"Bulldog Pottery - Bruce Gholson and Samantha Henne"},{"id":"8399625914","owner":"91557229@N06","secret":"ed00a8c592","server":"8084","farm":9,"title":"Ants","ispublic":1,"isfriend":0,"isfamily":0,"ownername":"Gods Amazing Creations"},{"id":"6780534533","owner":"26811616@N04","secret":"691c5f9626","server":"7167","farm":8,"title":"Ants","ispublic":1,"isfriend":0,"isfamily":0,"ownername":"bonkhz"},{"id":"6933747285","owner":"7605130@N02","secret":"a788a882ca","server":"7068","farm":8,"title":"Ant","ispublic":1,"isfriend":0,"isfamily":0,"ownername":"mike_0220"},{"id":"15665572860","owner":"63870646@N05","secret":"1f5b459632","server":"8597","farm":9,"title":"Ant","ispublic":1,"isfriend":0,"isfamily":0,"ownername":"Jert13830"},{"id":"15362004523","owner":"40170245@N06","secret":"5e40ea7a40","server":"7463","farm":8,"title":"ant","ispublic":1,"isfriend":0,"isfamily":0,"ownername":"Atul Vartak"},{"id":"15513974657","owner":"31914013@N05","secret":"cec88f8f9d","server":"7558","farm":8,"title":"Ant","ispublic":1,"isfriend":0,"isfamily":0,"ownername":"iainrmacaulay"},{"id":"6148662403","owner":"57787144@N04","secret":"b5c78fa348","server":"6089","farm":7,"title":"Ant","ispublic":1,"isfriend":0,"isfamily":0,"ownername":"Alberto Cavazos"},{"id":"7118242031","owner":"27228208@N05","secret":"0214a6fd8b","server":"7038","farm":8,"title":"Ant","ispublic":1,"isfriend":0,"isfamily":0,"ownername":"Rich.C"},{"id":"7462037646","owner":"56636237@N03","secret":"80ca8dbe7b","server":"8162","farm":9,"title":"ant","ispublic":1,"isfriend":0,"isfamily":0,"ownername":"ashperkins (dont follow me i`m lost)"},{"id":"7000145412","owner":"58448496@N00","secret":"f775e290e7","server":"7067","farm":8,"title":"ant","ispublic":1,"isfriend":0,"isfamily":0,"ownername":"gchurch44"}]},"stat":"ok"}