{"photos":{"page":1,"pages":2226,"perpage":15,"total":"33379","photo":[{"id":"33846692900","owner":"9528374@N06","secret":"89016be5be","server":"2919","farm":3,"title":"Ants","ispublic":1,"isfriend":0,"isfamily":0,"ownername":"ECPrice"},{"id":"3189039332","owner":"34427470616@N01","secret":"6b9779180f","server":"3509","farm":4,"title":"Ants","ispublic":1,"isfriend":0,"isfamily":0,"ownername":"duncan"},{"id":"14322227286","owner":"42274578@N07","secret":"d2369e40c5","server":"3872","farm":4,"title":"ants","ispublic":1,"isfriend":0,"isfamily":0,"ownername":"icx1"},{"id":"6780534533","owner":"26811616@N04","secret":"691c5f9626","server":"7167","farm":8,"title":"Ants","ispublic":1,"isfriend":0,"isfamily":0,"ownername":"bonkhz"},{"id":"5909757595","owner":"38410927@N04","secret":"965b44885c","server":"6051","farm":7,"title":"ANTS","ispublic":1,"isfriend":0,"isfamily":0,"ownername":"Amaresh Chandra Das Photography"},{"id":"6845456112","owner":"25258702@N04","secret":"da136aa109","server":"7050","farm":8,"title":"Ants","ispublic":1,"isfriend":0,"isfamily":0,"ownername":"Mick E. Talbot"},{"id":"7004683533","owner":"45578095@N08","secret":"af10a44253","server":"7193","farm":8,"title":"Ant","ispublic":1,"isfriend":0,"isfamily":0,"ownername":"waruzm"},{"id":"5823197070","owner":"25258702@N04","secret":"b4ab69df8a","server":"3420","farm":4,"title":"Ants","ispublic":1,"isfriend":0,"isfamily":0,"ownername":"Mick E. Talbot"},{"id":"5752450615","owner":"41713950@N02","secret":"1959d9c868","server":"2551","farm":3,"title":"\"Ants\"","ispublic":1,"isfriend":0,"isfamily":0,"ownername":"John C. Akers jr."},{"id":"14458839759","owner":"13445944@N07","secret":"45abc370f3","server":"3842","farm":4,"title":"Ants","ispublic":1,"isfriend":0,"isfamily":0,"ownername":"punkocska"},{"id":"8572443358","owner":"93165437@N07","secret":"d34fddc893","server":"8100","farm":9,"title":"Ant","ispublic":1,"isfriend":0,"isfamily":0,"ownername":"Eye of a Zoologist"},{"id":"6780532275","owner":"26811616@N04","secret":"6e8d78b1a4","server":"7153","farm":8,"title":"Ants","ispublic":1,"isfriend":0,"isfamily":0,"ownername":"bonkhz"},{"id":"7481053254","owner":"10411218@N03","secret":"0847a15b1d","server":"8010","farm":9,"title":"ants","ispublic":1,"isfriend":0,"isfamily":0,"ownername":"VickyvdL"},{"id":"4643804521","owner":"49601746@N04","secret":"80045e8bb2","server":"4038","farm":5,"title":"ants","ispublic":1,"isfriend":0,"isfamily":0,"ownername":"svintus2010"},{"id":"9486178615","owner":"75987722@N00","secret":"3296e058d1","server":"3678","farm":4,"title":"Ants","ispublic":1,"isfriend":0,"isfamily":0,"ownername":"mattbeee"}]},"stat":"ok"}