{"photos":{"page":1,"pages":1359,"perpage":15,"total":"20376","photo":[{"id":"3504013315","owner":"7786550@N05","secret":"52008a895e","server":"3333","farm":4,"title":"Ape","ispublic":1,"isfriend":0,"isfamily":0,"ownername":"samlane"},{"id":"4922294701","owner":"11264958@N04","secret":"dd2f0f3bfe","server":"4079","farm":5,"title":"apes_kissing","ispublic":1,"isfriend":0,"isfamily":0,"ownername":"APH0risma"},{"id":"6050551891","owner":"35797910@N08","secret":"41d3fd15fc","server":"6193","farm":7,"title":"GORILLAS73\/","ispublic":1,"isfriend":0,"isfamily":0,"ownername":"Glenn Losack, M.D."},{"id":"3727166094","owner":"29030369@N03","secret":"3c45b3446e","server":"2545","farm":3,"title":"Ape","ispublic":1,"isfriend":0,"isfamily":0,"ownername":"Olivia Byles"},{"id":"2372955181","owner":"71604223@N00","secret":"004e8e1322","server":"3247","farm":4,"title":"Barbary apes","ispublic":1,"isfriend":0,"isfamily":0,"ownername":"hebdomadar"},{"id":"5083018528","owner":"46930896@N06","secret":"3018f24cab","server":"4113","farm":5,"title":"","ispublic":1,"isfriend":0,"isfamily":0,"ownername":"ericsaurio"},{"id":"1551864865","owner":"84346589@N00","secret":"ebdb501605","server":"2007","farm":3,"title":"ape","ispublic":1,"isfriend":0,"isfamily":0,"ownername":"drburtoni"},{"id":"6035137561","owner":"35797910@N08","secret":"fa5331db0f","server":"6078","farm":7,"title":"GORILLAS65A\/","ispublic":1,"isfriend":0,"isfamily":0,"ownername":"Glenn Losack, M.D."},{"id":"11619566293","owner":"97372397@N08","secret":"8e71a9ca4f","server":"7293","farm":8,"title":"Grooming Apes, Gibraltar","ispublic":1,"isfriend":0,"isfamily":0,"ownername":"simon whitfield lake district photography"},{"id":"30877349626","owner":"10822706@N05","secret":"714b1148c6","server":"5604","farm":6,"title":"baby-ape","ispublic":1,"isfriend":0,"isfamily":0,"ownername":"Claudia Daniels Photography"},{"id":"4035482271","owner":"39623674@N02","secret":"652bd8d7cf","server":"2699","farm":3,"title":"Apes Image","ispublic":1,"isfriend":0,"isfamily":0,"ownername":"SexandPassion"},{"id":"5504945531","owner":"12054060@N04","secret":"a85116660d","server":"5260","farm":6,"title":"Let's Play!  (DSC_0084)","ispublic":1,"isfriend":0,"isfamily":0,"ownername":"Schristia"},{"id":"2958555796","owner":"31591126@N06","secret":"0547aea2ed","server":"3036","farm":4,"title":"apes","ispublic":1,"isfriend":0,"isfamily":0,"ownername":"wurldwurm"},{"id":"2627258942","owner":"28052088@N04","secret":"5458425f40","server":"3170","farm":4,"title":"orangatan","ispublic":1,"isfriend":0,"isfamily":0,"ownername":"3 Shades of Blue art"},{"id":"3340534947","owner":"24990828@N04","secret":"9fc3141f0c","server":"3391","farm":4,"title":"Mama, Papa and the Child","ispublic":1,"isfriend":0,"isfamily":0,"ownername":"H. Eisenreich"}]},"stat":"ok"}