{"photos":{"page":1,"pages":5156,"perpage":15,"total":"77337","photo":[{"id":"21982802134","owner":"9116178@N05","secret":"e4c135c7f8","server":"647","farm":1,"title":"Apples","ispublic":1,"isfriend":0,"isfamily":0,"ownername":"hotelcurly"},{"id":"6042016463","owner":"55639605@N07","secret":"8d5c8fba7a","server":"6182","farm":7,"title":"Apples","ispublic":1,"isfriend":0,"isfamily":0,"ownername":"TheRandomness"},{"id":"16248524621","owner":"75800169@N02","secret":"2216a1388d","server":"8649","farm":9,"title":"Apples","ispublic":1,"isfriend":0,"isfamily":0,"ownername":"Steve Bosselman"},{"id":"10414265306","owner":"26373024@N04","secret":"e07208ab78","server":"7339","farm":8,"title":"apples","ispublic":1,"isfriend":0,"isfamily":0,"ownername":"TON70"},{"id":"5447513061","owner":"12625998@N06","secret":"7e3ec2d897","server":"5053","farm":6,"title":"Apples","ispublic":1,"isfriend":0,"isfamily":0,"ownername":"pingpong222"},{"id":"5217069231","owner":"49273955@N08","secret":"3ec55166ca","server":"5008","farm":6,"title":"Apples","ispublic":1,"isfriend":0,"isfamily":0,"ownername":"ajcabrer"},{"id":"162108241","owner":"98508000@N00","secret":"e60bdb9ab7","server":"49","farm":1,"title":"apples","ispublic":1,"isfriend":0,"isfamily":0,"ownername":"cleverocity"},{"id":"6265287079","owner":"14458148@N03","secret":"b1d04ab8a7","server":"6049","farm":7,"title":"apples","ispublic":1,"isfriend":0,"isfamily":0,"ownername":"funnelcloud rachel"},{"id":"10570501464","owner":"7509448@N02","secret":"9be44b51c7","server":"5473","farm":6,"title":"Apples","ispublic":1,"isfriend":0,"isfamily":0,"ownername":"\u041a\u0443\u043b\u0438\u043d\u0430\u0440\u043d\u043e"},{"id":"6265288663","owner":"14458148@N03","secret":"3cb6636d29","server":"6049","farm":7,"title":"apples","ispublic":1,"isfriend":0,"isfamily":0,"ownername":"funnelcloud rachel"},{"id":"15247395254","owner":"46842345@N07","secret":"6ee75ea611","server":"8588","farm":9,"title":"Apples","ispublic":1,"isfriend":0,"isfamily":0,"ownername":"Elisue's world..."},{"id":"7472026480","owner":"57678416@N07","secret":"51720564c4","server":"8146","farm":9,"title":"Apples","ispublic":1,"isfriend":0,"isfamily":0,"ownername":"darrenjcampbell"},{"id":"198578527","owner":"34222925@N00","secret":"5a02aa0633","server":"74","farm":1,"title":"Apples","ispublic":1,"isfriend":0,"isfamily":0,"ownername":"rehughey"},{"id":"6765228439","owner":"52867305@N03","secret":"304a6c51a7","server":"7002","farm":8,"title":"Apples","ispublic":1,"isfriend":0,"isfamily":0,"ownername":"almondcorner"},{"id":"6127305544","owner":"66101029@N04","secret":"06c7089c80","server":"6068","farm":7,"title":"Apples","ispublic":1,"isfriend":0,"isfamily":0,"ownername":"thismomentmark"}]},"stat":"ok"}