{"photos":{"page":1,"pages":45470,"perpage":15,"total":"682049","photo":[{"id":"7910673688","owner":"64025277@N00","secret":"c664fbd2d7","server":"8031","farm":9,"title":"Apples","ispublic":1,"isfriend":0,"isfamily":0,"ownername":"1sock"},{"id":"5380930175","owner":"31990868@N04","secret":"469b1c4aff","server":"5163","farm":6,"title":"Apple...","ispublic":1,"isfriend":0,"isfamily":0,"ownername":"aish.aish"},{"id":"14784889249","owner":"117611265@N05","secret":"6f546c7bba","server":"3865","farm":4,"title":"apple","ispublic":1,"isfriend":0,"isfamily":0,"ownername":"www.tOrange.biz"},{"id":"212833788","owner":"71753457@N00","secret":"37b037de12","server":"59","farm":1,"title":"Apple","ispublic":1,"isfriend":0,"isfamily":0,"ownername":"orangeacid"},{"id":"2906849739","owner":"46567233@N00","secret":"b942c783f7","server":"3135","farm":4,"title":"Apple","ispublic":1,"isfriend":0,"isfamily":0,"ownername":"Paul Linton"},{"id":"16079378039","owner":"55794391@N02","secret":"7b56100008","server":"8661","farm":9,"title":"Apple","ispublic":1,"isfriend":0,"isfamily":0,"ownername":"Usama Attia"},{"id":"3600866644","owner":"23406099@N06","secret":"35794645b0","server":"3332","farm":4,"title":"Apple","ispublic":1,"isfriend":0,"isfamily":0,"ownername":"masf"},{"id":"6564524179","owner":"69273534@N02","secret":"50284c2ed3","server":"7142","farm":8,"title":"Apple","ispublic":1,"isfriend":0,"isfamily":0,"ownername":"Ewa Rogoyska"},{"id":"2133721692","owner":"16578480@N07","secret":"6df8dcab88","server":"2345","farm":3,"title":"apple","ispublic":1,"isfriend":0,"isfamily":0,"ownername":"Guy Radford"},{"id":"3207884924","owner":"24610142@N02","secret":"d591d88c54","server":"3312","farm":4,"title":"Apple","ispublic":1,"isfriend":0,"isfamily":0,"ownername":"Sebastian Skarp"},{"id":"5587551412","owner":"45159379@N07","secret":"fa3c7e9160","server":"5108","farm":6,"title":"Apple","ispublic":1,"isfriend":0,"isfamily":0,"ownername":"Miico !"},{"id":"10422809944","owner":"77829388@N00","secret":"349406d86f","server":"7360","farm":8,"title":"Apples","ispublic":1,"isfriend":0,"isfamily":0,"ownername":"GraemeK"},{"id":"8630097623","owner":"38612401@N04","secret":"9b97de1ea9","server":"8391","farm":9,"title":"Apple","ispublic":1,"isfriend":0,"isfamily":0,"ownername":"SohailIqbal1973"},{"id":"16613993262","owner":"74080603@N07","secret":"4bb7f7874a","server":"8577","farm":9,"title":"apples","ispublic":1,"isfriend":0,"isfamily":0,"ownername":"Hayashina"},{"id":"4129089943","owner":"87229284@N00","secret":"c64329441e","server":"2583","farm":3,"title":"apple","ispublic":1,"isfriend":0,"isfamily":0,"ownername":"life is developing"}]},"stat":"ok"}