{"photos":{"page":1,"pages":9408,"perpage":15,"total":"141107","photo":[{"id":"40725901991","owner":"133703767@N02","secret":"cbccd2c686","server":"4782","farm":5,"title":"Arctic","ispublic":1,"isfriend":0,"isfamily":0,"ownername":"MaxxPr87"},{"id":"11603238584","owner":"22634466@N00","secret":"c7a31447a2","server":"3706","farm":4,"title":"ARCTIC","ispublic":1,"isfriend":0,"isfamily":0,"ownername":"Herman Verheij"},{"id":"44450406372","owner":"10814807@N05","secret":"bca3d2bbc7","server":"1895","farm":2,"title":"Arctic fox","ispublic":1,"isfriend":0,"isfamily":0,"ownername":"Maria_Johnsen"},{"id":"9232190468","owner":"65131113@N02","secret":"d18791b95c","server":"2817","farm":3,"title":"arctic tern","ispublic":1,"isfriend":0,"isfamily":0,"ownername":"Paul_ McMullen"},{"id":"15742169914","owner":"74887817@N00","secret":"9c8fa2cf42","server":"7447","farm":8,"title":"ARCTIC","ispublic":1,"isfriend":0,"isfamily":0,"ownername":"Worker101"},{"id":"34822957274","owner":"58149020@N06","secret":"13b6402aec","server":"4260","farm":5,"title":"ARCTIC TERN","ispublic":1,"isfriend":0,"isfamily":0,"ownername":"tony.cox27"},{"id":"9289725765","owner":"65131113@N02","secret":"ec8289e9bc","server":"7299","farm":8,"title":"arctic tern","ispublic":1,"isfriend":0,"isfamily":0,"ownername":"Paul_ McMullen"},{"id":"41011880995","owner":"139753516@N02","secret":"c172088c26","server":"905","farm":1,"title":"Arctic Tern","ispublic":1,"isfriend":0,"isfamily":0,"ownername":"john.freshney"},{"id":"43207352465","owner":"118497711@N02","secret":"5678c3da68","server":"1893","farm":2,"title":"Arctic Tern","ispublic":1,"isfriend":0,"isfamily":0,"ownername":"Mrs.Geordiepix"},{"id":"35605242096","owner":"58149020@N06","secret":"9449964e3d","server":"4035","farm":5,"title":"ARCTIC TERN","ispublic":1,"isfriend":0,"isfamily":0,"ownername":"tony.cox27"},{"id":"11667450743","owner":"84161520@N00","secret":"77e30f3504","server":"7452","farm":8,"title":"arctic-wolf","ispublic":1,"isfriend":0,"isfamily":0,"ownername":"one_man's_life"},{"id":"35276808670","owner":"58149020@N06","secret":"6e35d4f32b","server":"4279","farm":5,"title":"ARCTIC TERN","ispublic":1,"isfriend":0,"isfamily":0,"ownername":"tony.cox27"},{"id":"6408688247","owner":"16152389@N06","secret":"1f2c372c11","server":"7026","farm":8,"title":"Arctic","ispublic":1,"isfriend":0,"isfamily":0,"ownername":"bahketni"},{"id":"35382534260","owner":"58149020@N06","secret":"e5588a17a0","server":"4254","farm":5,"title":"ARCTIC TERN","ispublic":1,"isfriend":0,"isfamily":0,"ownername":"tony.cox27"},{"id":"171596008","owner":"37803223@N00","secret":"adaff07102","server":"47","farm":1,"title":"arctic","ispublic":1,"isfriend":0,"isfamily":0,"ownername":"liminalists"}]},"stat":"ok"}