{"photos":{"page":1,"pages":4387,"perpage":15,"total":"65794","photo":[{"id":"4208535846","owner":"28464293@N03","secret":"d962a32f3f","server":"2767","farm":3,"title":"arm","ispublic":1,"isfriend":0,"isfamily":0,"ownername":"\u25b2 Arturo Mosquera"},{"id":"3678722196","owner":"30493186@N03","secret":"25564508bd","server":"3637","farm":4,"title":"Arm","ispublic":1,"isfriend":0,"isfamily":0,"ownername":"d o l f i"},{"id":"5510376532","owner":"36293470@N05","secret":"05297dc68c","server":"5293","farm":6,"title":"Arm","ispublic":1,"isfriend":0,"isfamily":0,"ownername":"rockofgod2002"},{"id":"5510372440","owner":"36293470@N05","secret":"49905ab152","server":"5135","farm":6,"title":"Arm","ispublic":1,"isfriend":0,"isfamily":0,"ownername":"rockofgod2002"},{"id":"5510379468","owner":"36293470@N05","secret":"93899b1442","server":"5091","farm":6,"title":"Arm","ispublic":1,"isfriend":0,"isfamily":0,"ownername":"rockofgod2002"},{"id":"295791136","owner":"44704755@N00","secret":"3581d7f3f8","server":"107","farm":1,"title":"Arm","ispublic":1,"isfriend":0,"isfamily":0,"ownername":"Apu Kapadia"},{"id":"4649185725","owner":"49230776@N05","secret":"86a503cbb3","server":"4067","farm":5,"title":"Arm","ispublic":1,"isfriend":0,"isfamily":0,"ownername":"emarobinson"},{"id":"3574143927","owner":"30210722@N02","secret":"4bf86269ce","server":"2452","farm":3,"title":"Arm","ispublic":1,"isfriend":0,"isfamily":0,"ownername":"JohnKochmanski"},{"id":"6051146272","owner":"64051468@N03","secret":"99a137c1a6","server":"6198","farm":7,"title":"Arm","ispublic":1,"isfriend":0,"isfamily":0,"ownername":"PicturePerfect-"},{"id":"4697982957","owner":"83817464@N00","secret":"9cfdec4722","server":"4007","farm":5,"title":"arm","ispublic":1,"isfriend":0,"isfamily":0,"ownername":"kendura99"},{"id":"135966281","owner":"18569318@N00","secret":"43e53d927c","server":"49","farm":1,"title":"Arm","ispublic":1,"isfriend":0,"isfamily":0,"ownername":"nickbrazel"},{"id":"4262427981","owner":"79823494@N00","secret":"a96c91e05b","server":"4019","farm":5,"title":"Arm","ispublic":1,"isfriend":0,"isfamily":0,"ownername":"fairlybuoyant"},{"id":"2484012306","owner":"34279272@N00","secret":"c4128748f6","server":"2061","farm":3,"title":"Arm","ispublic":1,"isfriend":0,"isfamily":0,"ownername":"kersy83"},{"id":"6805981303","owner":"77568698@N00","secret":"715e2b237d","server":"7151","farm":8,"title":"disarm","ispublic":1,"isfriend":0,"isfamily":0,"ownername":"marion (milky soldier)"},{"id":"6871642794","owner":"52573197@N05","secret":"10aabd7c4a","server":"7277","farm":8,"title":"arm","ispublic":1,"isfriend":0,"isfamily":0,"ownername":"Cristiana Macau"}]},"stat":"ok"}