{"photos":{"page":1,"pages":5053,"perpage":15,"total":"75792","photo":[{"id":"6610961137","owner":"63892358@N04","secret":"54d8ddd69f","server":"7012","farm":8,"title":"Atlas","ispublic":1,"isfriend":0,"isfamily":0,"ownername":"ItDoesntMeanAnything"},{"id":"25904395677","owner":"137757705@N03","secret":"864217edb5","server":"4782","farm":5,"title":"Atlas","ispublic":1,"isfriend":0,"isfamily":0,"ownername":"Jordi Calaveras"},{"id":"14913923721","owner":"110580241@N02","secret":"1f561a4f8a","server":"5559","farm":6,"title":"Atlas","ispublic":1,"isfriend":0,"isfamily":0,"ownername":"claytonaward"},{"id":"28018444405","owner":"10981478@N04","secret":"dc25168cb6","server":"7494","farm":8,"title":"Atlas","ispublic":1,"isfriend":0,"isfamily":0,"ownername":"Miro78"},{"id":"7391792388","owner":"69794487@N00","secret":"5bb970b6db","server":"5345","farm":6,"title":"atlas","ispublic":1,"isfriend":0,"isfamily":0,"ownername":"trailerafire"},{"id":"16578776892","owner":"71196443@N03","secret":"43a965979a","server":"7374","farm":8,"title":"Atlas","ispublic":1,"isfriend":0,"isfamily":0,"ownername":"Rebecca Doe"},{"id":"2718488247","owner":"27655366@N05","secret":"990a89cdae","server":"3030","farm":4,"title":"Atlas","ispublic":1,"isfriend":0,"isfamily":0,"ownername":"Chiguar"},{"id":"5462911132","owner":"57319717@N06","secret":"e1b8096ed9","server":"5012","farm":6,"title":"atlas","ispublic":1,"isfriend":0,"isfamily":0,"ownername":"Alexorri Photostrema"},{"id":"3264574502","owner":"17896145@N07","secret":"575f340ee5","server":"3132","farm":4,"title":"Atlas","ispublic":1,"isfriend":0,"isfamily":0,"ownername":"ChrisyJewell"},{"id":"13463289715","owner":"30445187@N03","secret":"b752a59cb1","server":"7078","farm":8,"title":"Atlas","ispublic":1,"isfriend":0,"isfamily":0,"ownername":"EwaMK_fotoaurinko.com"},{"id":"32917043838","owner":"32791195@N08","secret":"3270a9cc34","server":"7808","farm":8,"title":"Atlas","ispublic":1,"isfriend":0,"isfamily":0,"ownername":"David Brooker"},{"id":"5160567238","owner":"25923788@N08","secret":"da65bca8c5","server":"1102","farm":2,"title":"Atlas","ispublic":1,"isfriend":0,"isfamily":0,"ownername":"Carlos Inchausti Photography"},{"id":"4693816265","owner":"62791037@N00","secret":"302b83a319","server":"4062","farm":5,"title":"atlas","ispublic":1,"isfriend":0,"isfamily":0,"ownername":"nattydreaddd"},{"id":"5348567456","owner":"55686831@N05","secret":"00b93540c0","server":"5003","farm":6,"title":"Atlas","ispublic":1,"isfriend":0,"isfamily":0,"ownername":"realsesdub"},{"id":"6828443381","owner":"59459151@N06","secret":"abe4f4c9c4","server":"7171","farm":8,"title":"Atlas","ispublic":1,"isfriend":0,"isfamily":0,"ownername":"nacom\u00e8te"}]},"stat":"ok"}