{"photos":{"page":1,"pages":1473,"perpage":15,"total":"22092","photo":[{"id":"4617656783","owner":"50287536@N07","secret":"761b1a3d24","server":"3346","farm":4,"title":"Attic","ispublic":1,"isfriend":0,"isfamily":0,"ownername":"Eric Colter"},{"id":"9252207635","owner":"72161570@N00","secret":"3f89b3c261","server":"5544","farm":6,"title":"Attic","ispublic":1,"isfriend":0,"isfamily":0,"ownername":"real ramona"},{"id":"13635565393","owner":"85278812@N00","secret":"bf16ed2a35","server":"7227","farm":8,"title":"Attic","ispublic":1,"isfriend":0,"isfamily":0,"ownername":"Robbie1"},{"id":"2292740004","owner":"24136973@N04","secret":"c08e9234b1","server":"2015","farm":3,"title":"attic","ispublic":1,"isfriend":0,"isfamily":0,"ownername":"taylorbilz"},{"id":"502367324","owner":"19723489@N00","secret":"51d6611a56","server":"200","farm":1,"title":"attic","ispublic":1,"isfriend":0,"isfamily":0,"ownername":"Pinjacolada"},{"id":"4585758","owner":"37555882@N00","secret":"5af7abc8b8","server":"5","farm":1,"title":"Attic","ispublic":1,"isfriend":0,"isfamily":0,"ownername":"Chocobot"},{"id":"4423665313","owner":"32328707@N05","secret":"77a3d00d01","server":"2725","farm":3,"title":"Attic","ispublic":1,"isfriend":0,"isfamily":0,"ownername":"the meanMRmustard"},{"id":"6123798648","owner":"58728474@N00","secret":"248b524b16","server":"6088","farm":7,"title":"attic","ispublic":1,"isfriend":0,"isfamily":0,"ownername":"Dian Niam"},{"id":"6196297533","owner":"65426280@N03","secret":"8aabdd5a26","server":"6157","farm":7,"title":"Attic","ispublic":1,"isfriend":0,"isfamily":0,"ownername":"maxthedog67"},{"id":"5045926630","owner":"36272496@N00","secret":"70d3cf3c45","server":"4154","farm":5,"title":"Attic","ispublic":1,"isfriend":0,"isfamily":0,"ownername":"St.Stello"},{"id":"41823196282","owner":"141524808@N07","secret":"e58598cdf1","server":"907","farm":1,"title":"Attic","ispublic":1,"isfriend":0,"isfamily":0,"ownername":"uekman"},{"id":"5152558617","owner":"57644500@N00","secret":"b14ed6bc55","server":"1221","farm":2,"title":"Attic","ispublic":1,"isfriend":0,"isfamily":0,"ownername":"Roland W. Veasey"},{"id":"496088626","owner":"8200545@N08","secret":"d405de16aa","server":"190","farm":1,"title":"attic","ispublic":1,"isfriend":0,"isfamily":0,"ownername":"cHemmen photo"},{"id":"3516746858","owner":"30366527@N03","secret":"6095dc872d","server":"3656","farm":4,"title":"Attic","ispublic":1,"isfriend":0,"isfamily":0,"ownername":"vaquey"},{"id":"270182348","owner":"20185370@N00","secret":"55008ded40","server":"94","farm":1,"title":"attic","ispublic":1,"isfriend":0,"isfamily":0,"ownername":"ninnx"}]},"stat":"ok"}