{"photos":{"page":1,"pages":135865,"perpage":15,"total":"2037967","photo":[{"id":"14870897452","owner":"21692577@N02","secret":"288c568fc8","server":"3853","farm":4,"title":"baby","ispublic":1,"isfriend":0,"isfamily":0,"ownername":"Danny VB"},{"id":"15747627928","owner":"55959716@N08","secret":"d9449f0b8a","server":"7528","farm":8,"title":"baby","ispublic":1,"isfriend":0,"isfamily":0,"ownername":"Philocycler"},{"id":"11515052444","owner":"73422502@N08","secret":"161bb5cd2a","server":"7330","farm":8,"title":"baby","ispublic":1,"isfriend":0,"isfamily":0,"ownername":"Zeeyolq Photography"},{"id":"2105018318","owner":"21644167@N04","secret":"74b0d223cf","server":"2299","farm":3,"title":"baby","ispublic":1,"isfriend":0,"isfamily":0,"ownername":"Bahman Farzad"},{"id":"7607825946","owner":"55959716@N08","secret":"f40764ddb4","server":"7249","farm":8,"title":"baby","ispublic":1,"isfriend":0,"isfamily":0,"ownername":"Philocycler"},{"id":"11638748496","owner":"32594277@N04","secret":"111393fd41","server":"5525","farm":6,"title":"baby","ispublic":1,"isfriend":0,"isfamily":0,"ownername":"Kenny Teo (zoompict)"},{"id":"10507017915","owner":"73422502@N08","secret":"12f0f43fb7","server":"2825","farm":3,"title":"Baby","ispublic":1,"isfriend":0,"isfamily":0,"ownername":"Zeeyolq Photography"},{"id":"14908696085","owner":"55959716@N08","secret":"980ce2dd08","server":"5589","farm":6,"title":"baby","ispublic":1,"isfriend":0,"isfamily":0,"ownername":"Philocycler"},{"id":"36292637755","owner":"53645383@N04","secret":"45f1099631","server":"4309","farm":5,"title":"Baby","ispublic":1,"isfriend":0,"isfamily":0,"ownername":"mattheuxphoto"},{"id":"22950928311","owner":"73422502@N08","secret":"c881ed206d","server":"5726","farm":6,"title":"Baby","ispublic":1,"isfriend":0,"isfamily":0,"ownername":"Zeeyolq Photography"},{"id":"14411059809","owner":"73422502@N08","secret":"5a6f3719a5","server":"2923","farm":3,"title":"Baby","ispublic":1,"isfriend":0,"isfamily":0,"ownername":"Zeeyolq Photography"},{"id":"9269306175","owner":"73422502@N08","secret":"3780017eb1","server":"3717","farm":4,"title":"Baby","ispublic":1,"isfriend":0,"isfamily":0,"ownername":"Zeeyolq Photography"},{"id":"8587140226","owner":"21692577@N02","secret":"22ebc60b23","server":"8246","farm":9,"title":"baby","ispublic":1,"isfriend":0,"isfamily":0,"ownername":"Danny VB"},{"id":"9566702123","owner":"71267270@N00","secret":"8ab83eb329","server":"5546","farm":6,"title":"Baby","ispublic":1,"isfriend":0,"isfamily":0,"ownername":"Andy Sidders"},{"id":"10222777263","owner":"73422502@N08","secret":"d553682051","server":"7416","farm":8,"title":"Baby","ispublic":1,"isfriend":0,"isfamily":0,"ownername":"Zeeyolq Photography"}]},"stat":"ok"}