{"photos":{"page":1,"pages":9762,"perpage":15,"total":"146430","photo":[{"id":"4733844239","owner":"51362620@N05","secret":"454125f9dd","server":"1096","farm":2,"title":"Bacon","ispublic":1,"isfriend":0,"isfamily":0,"ownername":"toronto graff"},{"id":"4733844237","owner":"51362620@N05","secret":"45431b882f","server":"1225","farm":2,"title":"Bacon","ispublic":1,"isfriend":0,"isfamily":0,"ownername":"toronto graff"},{"id":"6175755733","owner":"58545726@N02","secret":"b2932d7838","server":"6158","farm":7,"title":"Bacon","ispublic":1,"isfriend":0,"isfamily":0,"ownername":"cookbookman17"},{"id":"5759915084","owner":"45228416@N03","secret":"596b0a0638","server":"3440","farm":4,"title":"Claim your bacon!","ispublic":1,"isfriend":0,"isfamily":0,"ownername":"Mike Orso"},{"id":"6757883175","owner":"35984911@N00","secret":"d0c2b3e88e","server":"7170","farm":8,"title":"Bacon","ispublic":1,"isfriend":0,"isfamily":0,"ownername":"kewguys"},{"id":"5974874958","owner":"49889671@N03","secret":"b95e1e1c65","server":"6141","farm":7,"title":"Bacon!","ispublic":1,"isfriend":0,"isfamily":0,"ownername":"Didriks"},{"id":"758219804","owner":"30931445@N00","secret":"763fa62172","server":"1329","farm":2,"title":"Bacon & Eggs","ispublic":1,"isfriend":0,"isfamily":0,"ownername":"NicnBill"},{"id":"2250948326","owner":"45931502@N00","secret":"a4373fb042","server":"2373","farm":3,"title":"Sleepy Paws! Bacon","ispublic":1,"isfriend":0,"isfamily":0,"ownername":"hesedetang *"},{"id":"5845201659","owner":"41135694@N00","secret":"9449cc7d74","server":"3502","farm":4,"title":"dots diner bacon angels apron","ispublic":1,"isfriend":0,"isfamily":0,"ownername":"vo1234"},{"id":"13611365253","owner":"90979715@N05","secret":"7cdd9a4d08","server":"7076","farm":8,"title":"Bacon Angel","ispublic":1,"isfriend":0,"isfamily":0,"ownername":"Rifir\u00f6fi"},{"id":"3083378477","owner":"7306209@N07","secret":"8724ba86ae","server":"3019","farm":4,"title":"bacon cheeseburger","ispublic":1,"isfriend":0,"isfamily":0,"ownername":"TW5011"},{"id":"2485249502","owner":"96569130@N00","secret":"d14338c58b","server":"2277","farm":3,"title":"Bacon Duet","ispublic":1,"isfriend":0,"isfamily":0,"ownername":"kaszeta"},{"id":"455105400","owner":"30931445@N00","secret":"ce08441213","server":"168","farm":1,"title":"Steak, Egg & Bacon Pie","ispublic":1,"isfriend":0,"isfamily":0,"ownername":"NicnBill"},{"id":"8300254333","owner":"50355823@N08","secret":"f4fd7b794a","server":"8072","farm":9,"title":"Bacon Pancakes","ispublic":1,"isfriend":0,"isfamily":0,"ownername":"RobertDennis"},{"id":"19956241725","owner":"19646481@N06","secret":"e42362c97a","server":"340","farm":1,"title":"Bacon","ispublic":1,"isfriend":0,"isfamily":0,"ownername":"LadyDragonflyCC - >;<"}]},"stat":"ok"}