{"photos":{"page":1,"pages":14368,"perpage":15,"total":"215506","photo":[{"id":"2078392821","owner":"9923030@N02","secret":"c8ed15f7c4","server":"2377","farm":3,"title":"Bag","ispublic":1,"isfriend":0,"isfamily":0,"ownername":"ONE by one"},{"id":"2382009847","owner":"24793676@N05","secret":"8d22e794aa","server":"3011","farm":4,"title":"bag","ispublic":1,"isfriend":0,"isfamily":0,"ownername":"turkeytrax64"},{"id":"5385738597","owner":"41008582@N06","secret":"f99da16044","server":"5218","farm":6,"title":"bag","ispublic":1,"isfriend":0,"isfamily":0,"ownername":"coco stitch"},{"id":"6735817507","owner":"42013240@N05","secret":"afd81753bc","server":"7031","farm":8,"title":"Bag","ispublic":1,"isfriend":0,"isfamily":0,"ownername":"fidesal"},{"id":"4968706571","owner":"45806420@N00","secret":"53a0434b2d","server":"4153","farm":5,"title":"Bags","ispublic":1,"isfriend":0,"isfamily":0,"ownername":"2 little banshees"},{"id":"4629353499","owner":"8595870@N04","secret":"b338537543","server":"3659","farm":4,"title":"bag","ispublic":1,"isfriend":0,"isfamily":0,"ownername":"solgrim"},{"id":"6129730364","owner":"8970838@N06","secret":"fe4cd55bdd","server":"6080","farm":7,"title":"Bag","ispublic":1,"isfriend":0,"isfamily":0,"ownername":"happyfeet-emily"},{"id":"3502225610","owner":"45909472@N00","secret":"f711c33dcc","server":"3646","farm":4,"title":"Bag","ispublic":1,"isfriend":0,"isfamily":0,"ownername":"Natman"},{"id":"2743781957","owner":"28656625@N04","secret":"d953bdd2e1","server":"3104","farm":4,"title":"Bag","ispublic":1,"isfriend":0,"isfamily":0,"ownername":"Babs Bumblebee"},{"id":"3250458717","owner":"28656625@N04","secret":"039b4b8bf5","server":"3346","farm":4,"title":"Bag","ispublic":1,"isfriend":0,"isfamily":0,"ownername":"Babs Bumblebee"},{"id":"5032416723","owner":"53892193@N06","secret":"faaaa65596","server":"4127","farm":5,"title":"bag","ispublic":1,"isfriend":0,"isfamily":0,"ownername":"zanoob!*"},{"id":"4762470119","owner":"51724352@N05","secret":"faff67e7ca","server":"4119","farm":5,"title":"bag","ispublic":1,"isfriend":0,"isfamily":0,"ownername":"cookiesmac"},{"id":"2733925662","owner":"27672151@N03","secret":"ef6e2dcf96","server":"3291","farm":4,"title":"bag","ispublic":1,"isfriend":0,"isfamily":0,"ownername":"Gemini Mum"},{"id":"4871237876","owner":"35146583@N07","secret":"acb4cd0c1a","server":"4115","farm":5,"title":"bag","ispublic":1,"isfriend":0,"isfamily":0,"ownername":"lina's handmade world"},{"id":"5371883507","owner":"48660684@N05","secret":"9ae392bfe1","server":"5049","farm":6,"title":"bag","ispublic":1,"isfriend":0,"isfamily":0,"ownername":"cherrytreehandmades"}]},"stat":"ok"}