{"photos":{"page":1,"pages":48287,"perpage":15,"total":"724304","photo":[{"id":"5107100769","owner":"36451115@N02","secret":"2d8d26898c","server":"1152","farm":2,"title":"balls","ispublic":1,"isfriend":0,"isfamily":0,"ownername":"Prapart Lapet"},{"id":"6846723654","owner":"65841180@N04","secret":"6007b3f105","server":"7042","farm":8,"title":"ball","ispublic":1,"isfriend":0,"isfamily":0,"ownername":"samuele.dangelo"},{"id":"3955262050","owner":"83167832@N00","secret":"34de7fd86e","server":"2552","farm":3,"title":"Ball","ispublic":1,"isfriend":0,"isfamily":0,"ownername":"Paranoid from suffolk"},{"id":"7624924902","owner":"30493186@N03","secret":"eddb7d260e","server":"8145","farm":9,"title":"Ball","ispublic":1,"isfriend":0,"isfamily":0,"ownername":"d o l f i"},{"id":"7788774198","owner":"55929297@N03","secret":"74a6645351","server":"8444","farm":9,"title":"Ball!","ispublic":1,"isfriend":0,"isfamily":0,"ownername":"SFHPhotography"},{"id":"5650706107","owner":"10061820@N04","secret":"68730e3452","server":"5070","farm":6,"title":"Balls!","ispublic":1,"isfriend":0,"isfamily":0,"ownername":"PhotoBlizzard"},{"id":"2253295140","owner":"22026717@N05","secret":"db51e4783f","server":"2049","farm":3,"title":"balls","ispublic":1,"isfriend":0,"isfamily":0,"ownername":"sputnikradzi"},{"id":"15708080032","owner":"56098982@N00","secret":"9783cf7290","server":"7561","farm":8,"title":"ball","ispublic":1,"isfriend":0,"isfamily":0,"ownername":"nayr"},{"id":"2445667478","owner":"82468529@N00","secret":"d9cb97cd92","server":"2388","farm":3,"title":"Balls","ispublic":1,"isfriend":0,"isfamily":0,"ownername":"monkeyiron"},{"id":"2234708950","owner":"23364726@N02","secret":"978ae92b18","server":"2322","farm":3,"title":"balls","ispublic":1,"isfriend":0,"isfamily":0,"ownername":"tiger_lil<'3"},{"id":"4828105753","owner":"31209204@N06","secret":"ccbeda34fe","server":"4136","farm":5,"title":"Ball","ispublic":1,"isfriend":0,"isfamily":0,"ownername":"azmichelle"},{"id":"2149542999","owner":"21320398@N08","secret":"a9fedd2c86","server":"2271","farm":3,"title":"ball.","ispublic":1,"isfriend":0,"isfamily":0,"ownername":"dizkobizcuitz"},{"id":"6494638541","owner":"73104395@N00","secret":"00bd514cd0","server":"7150","farm":8,"title":"Christmas ball","ispublic":1,"isfriend":0,"isfamily":0,"ownername":"StivicH"},{"id":"3104132251","owner":"7555033@N04","secret":"7af433839d","server":"3226","farm":4,"title":"Ball pool","ispublic":1,"isfriend":0,"isfamily":0,"ownername":"aperture value"},{"id":"8682671160","owner":"95071566@N08","secret":"8402cbe6cc","server":"8524","farm":9,"title":"ball","ispublic":1,"isfriend":0,"isfamily":0,"ownername":"triny-weeny"}]},"stat":"ok"}