{"photos":{"page":1,"pages":39663,"perpage":15,"total":"594936","photo":[{"id":"6175597192","owner":"19216472@N00","secret":"94ccd62938","server":"6174","farm":7,"title":"Downtown ballpark","ispublic":1,"isfriend":0,"isfamily":0,"ownername":"Michael Layefsky"},{"id":"95247398","owner":"94502827@N00","secret":"84e62cd453","server":"21","farm":1,"title":"Before the Great American Ballpark, Cincinnati's Riverfront Stadium, 2001","ispublic":1,"isfriend":0,"isfamily":0,"ownername":"SeeMidTN.com (aka Brent)"},{"id":"8746206254","owner":"47224811@N00","secret":"50f16be37c","server":"8397","farm":9,"title":"Rangers Ballpark in Arlington","ispublic":1,"isfriend":0,"isfamily":0,"ownername":"russ david"},{"id":"19604268050","owner":"79752057@N00","secret":"f293f32e15","server":"538","farm":1,"title":"President's Choice Ajax Ballpark","ispublic":1,"isfriend":0,"isfamily":0,"ownername":"A Great Capture"},{"id":"7755971326","owner":"27447665@N00","secret":"78463dbb76","server":"8284","farm":9,"title":"tilt-shift fastball - great american ballpark","ispublic":1,"isfriend":0,"isfamily":0,"ownername":"xthylacine"},{"id":"1526177338","owner":"97091300@N00","secret":"8eb0fee6d3","server":"2259","farm":3,"title":"Rangers Ballpark","ispublic":1,"isfriend":0,"isfamily":0,"ownername":"verndogs"},{"id":"18714169946","owner":"129915483@N03","secret":"f7033d1c2d","server":"281","farm":1,"title":"A Day at the Ballpark","ispublic":1,"isfriend":0,"isfamily":0,"ownername":"bnishimoto"},{"id":"15039748528","owner":"78655047@N07","secret":"db2b766412","server":"3910","farm":4,"title":"Citizens Bank Ballpark","ispublic":1,"isfriend":0,"isfamily":0,"ownername":"Smithfamilyimages"},{"id":"6251559316","owner":"50061827@N00","secret":"b91ed3baf7","server":"6091","farm":7,"title":"The Ballpark at Arlington","ispublic":1,"isfriend":0,"isfamily":0,"ownername":"Rocketlandphoto.com"},{"id":"6984760864","owner":"57896707@N07","secret":"8d738f4617","server":"7116","farm":8,"title":"Rangers Ballpark in Arlington","ispublic":1,"isfriend":0,"isfamily":0,"ownername":"WarEagle8608"},{"id":"15351509746","owner":"42333408@N02","secret":"c25d7b9c33","server":"2943","farm":3,"title":"Ballpark","ispublic":1,"isfriend":0,"isfamily":0,"ownername":"Felipe_Borges"},{"id":"8234539831","owner":"49503068447@N01","secret":"240fc51061","server":"8070","farm":9,"title":"Great American Ballpark","ispublic":1,"isfriend":0,"isfamily":0,"ownername":"Swifty"},{"id":"4775525125","owner":"36068195@N00","secret":"f82dc12440","server":"4079","farm":5,"title":"Ballpark","ispublic":1,"isfriend":0,"isfamily":0,"ownername":"Angela de Mar\u00e7o"},{"id":"26562682","owner":"15779022@N00","secret":"0d15f1242b","server":"21","farm":1,"title":"At the ballpark in Arlington","ispublic":1,"isfriend":0,"isfamily":0,"ownername":"Miss Marie B"},{"id":"1317128362","owner":"97091300@N00","secret":"b2c4961dd9","server":"1208","farm":2,"title":"Great American Ballpark","ispublic":1,"isfriend":0,"isfamily":0,"ownername":"verndogs"}]},"stat":"ok"}