{"photos":{"page":1,"pages":13128,"perpage":15,"total":"196907","photo":[{"id":"13014404925","owner":"41394927@N04","secret":"2ed733f849","server":"7419","farm":8,"title":"Barbie","ispublic":1,"isfriend":0,"isfamily":0,"ownername":"Clube do Turismo"},{"id":"4842111351","owner":"50243660@N04","secret":"730df9bae6","server":"4105","farm":5,"title":"Barbie","ispublic":1,"isfriend":0,"isfamily":0,"ownername":"RinaDasler"},{"id":"13014570163","owner":"41394927@N04","secret":"2f25036ba0","server":"7376","farm":8,"title":"Barbie","ispublic":1,"isfriend":0,"isfamily":0,"ownername":"Clube do Turismo"},{"id":"18048975019","owner":"72857689@N02","secret":"17dfeb163a","server":"8875","farm":9,"title":"Barbie","ispublic":1,"isfriend":0,"isfamily":0,"ownername":"enigma02211"},{"id":"11294223884","owner":"28604446@N03","secret":"1e2c877d64","server":"3687","farm":4,"title":"Barbie","ispublic":1,"isfriend":0,"isfamily":0,"ownername":"Vicki's Sweets"},{"id":"8404659261","owner":"92445999@N05","secret":"65940a7b7f","server":"8236","farm":9,"title":"barbie","ispublic":1,"isfriend":0,"isfamily":0,"ownername":"Cagla13"},{"id":"12015181903","owner":"110204522@N04","secret":"08ccfd1d7b","server":"5499","farm":6,"title":"BARBIE!!","ispublic":1,"isfriend":0,"isfamily":0,"ownername":"barbieyotrasmu\u00f1ecas"},{"id":"9326093297","owner":"99125176@N03","secret":"c3694978d5","server":"7368","farm":8,"title":"Barbie","ispublic":1,"isfriend":0,"isfamily":0,"ownername":"ES-TO"},{"id":"1386206090","owner":"11752741@N03","secret":"c28d6ac5e6","server":"1044","farm":2,"title":"barbie","ispublic":1,"isfriend":0,"isfamily":0,"ownername":"KINGKON-PINGPON-HONGKON-DINGDON"},{"id":"6741298375","owner":"41585195@N03","secret":"8b234cf131","server":"7014","farm":8,"title":"barbie","ispublic":1,"isfriend":0,"isfamily":0,"ownername":"eifel85, eifel doll dress"},{"id":"4080423271","owner":"18722533@N00","secret":"4b59ca3be2","server":"2606","farm":3,"title":"barbie","ispublic":1,"isfriend":0,"isfamily":0,"ownername":"tangledweb76"},{"id":"5210814937","owner":"56335278@N05","secret":"91d972b972","server":"5204","farm":6,"title":"Barbie","ispublic":1,"isfriend":0,"isfamily":0,"ownername":"enerly.92"},{"id":"15728541699","owner":"58061752@N05","secret":"d7d6bf58bc","server":"7565","farm":8,"title":"#Barbie","ispublic":1,"isfriend":0,"isfamily":0,"ownername":"Lisbon_Fashion_Dolls"},{"id":"6348875540","owner":"31248062@N04","secret":"a64e2352b7","server":"6044","farm":7,"title":"Barbie","ispublic":1,"isfriend":0,"isfamily":0,"ownername":"Richard Perron"},{"id":"10329993226","owner":"92560706@N05","secret":"b795f07e24","server":"7415","farm":8,"title":"barbie","ispublic":1,"isfriend":0,"isfamily":0,"ownername":"Lovedolls\u2606"}]},"stat":"ok"}