{"photos":{"page":1,"pages":3974,"perpage":15,"total":"59596","photo":[{"id":"24191132924","owner":"138596845@N05","secret":"6f912ddb6a","server":"1694","farm":2,"title":"Metal barrel 1","ispublic":1,"isfriend":0,"isfamily":0,"ownername":"martin.dubsky11"},{"id":"3470789695","owner":"76236627@N00","secret":"eeeeaca8ed","server":"3579","farm":4,"title":"Barrel","ispublic":1,"isfriend":0,"isfamily":0,"ownername":"The Bees"},{"id":"1449051553","owner":"7626777@N02","secret":"99177d7420","server":"1089","farm":2,"title":"Barrel","ispublic":1,"isfriend":0,"isfamily":0,"ownername":"Anders Adermark"},{"id":"10338097975","owner":"36682523@N00","secret":"4e2ca36485","server":"3814","farm":4,"title":"Beer Barrel","ispublic":1,"isfriend":0,"isfamily":0,"ownername":"sirwiseowl"},{"id":"16615522930","owner":"130867388@N06","secret":"93ee22f636","server":"8749","farm":9,"title":"Barrel","ispublic":1,"isfriend":0,"isfamily":0,"ownername":"dannybrock69"},{"id":"15828017899","owner":"94606728@N05","secret":"b27348f006","server":"7499","farm":8,"title":"Barrel","ispublic":1,"isfriend":0,"isfamily":0,"ownername":"Giancarlo Scola"},{"id":"6825411524","owner":"33831974@N00","secret":"67f7da7033","server":"7187","farm":8,"title":"Barrel","ispublic":1,"isfriend":0,"isfamily":0,"ownername":"Paul Samaras Photography"},{"id":"6384861689","owner":"49071428@N03","secret":"c1e9ae07b5","server":"6105","farm":7,"title":"Barrel","ispublic":1,"isfriend":0,"isfamily":0,"ownername":"Max S. - it's gonna be legen...wait for it!"},{"id":"33576157111","owner":"149260985@N05","secret":"ce80a01c2f","server":"2939","farm":3,"title":"Barrel","ispublic":1,"isfriend":0,"isfamily":0,"ownername":"kisicekpatrik"},{"id":"39855178381","owner":"135839019@N02","secret":"14d1a82129","server":"4630","farm":5,"title":"Barrel","ispublic":1,"isfriend":0,"isfamily":0,"ownername":"foula.tsitipidou"},{"id":"8097753309","owner":"59176627@N02","secret":"84e72c7d47","server":"8476","farm":9,"title":"Glassy barrel","ispublic":1,"isfriend":0,"isfamily":0,"ownername":"Daniel Grebe"},{"id":"6863084702","owner":"64183747@N04","secret":"3e7d26915a","server":"7050","farm":8,"title":"barrel","ispublic":1,"isfriend":0,"isfamily":0,"ownername":"Gr33n\u00b5"},{"id":"5082260322","owner":"26085061@N05","secret":"bab5f627ae","server":"4113","farm":5,"title":"The big barrel","ispublic":1,"isfriend":0,"isfamily":0,"ownername":"ATSICHLAS"},{"id":"2465401435","owner":"52768852@N00","secret":"ea68f68b6d","server":"2253","farm":3,"title":"Barrel","ispublic":1,"isfriend":0,"isfamily":0,"ownername":"thomasgustavsen"},{"id":"43954606302","owner":"53326314@N04","secret":"2261efd9dc","server":"1799","farm":2,"title":"barrel cactus flower","ispublic":1,"isfriend":0,"isfamily":0,"ownername":"Karen McQuilkin"}]},"stat":"ok"}