{"photos":{"page":1,"pages":19950,"perpage":15,"total":"299238","photo":[{"id":"5340530698","owner":"56279275@N05","secret":"c3c9ae31d4","server":"5124","farm":6,"title":"Basket","ispublic":1,"isfriend":0,"isfamily":0,"ownername":"Krista Bradley"},{"id":"2544492871","owner":"72416624@N00","secret":"f7eaa98a5f","server":"2175","farm":3,"title":"Basket","ispublic":1,"isfriend":0,"isfamily":0,"ownername":"stabucky"},{"id":"3122151053","owner":"33471870@N06","secret":"18d9e2a59b","server":"3244","farm":4,"title":"Basket","ispublic":1,"isfriend":0,"isfamily":0,"ownername":"goodbuyannies"},{"id":"5058319652","owner":"27064670@N06","secret":"752577c79d","server":"4083","farm":5,"title":"Basket baby!","ispublic":1,"isfriend":0,"isfamily":0,"ownername":"Sassy.DBS.Photography"},{"id":"1678661246","owner":"9813698@N04","secret":"60c692ba4a","server":"2410","farm":3,"title":"basket","ispublic":1,"isfriend":0,"isfamily":0,"ownername":"Curlysalamander"},{"id":"418794603","owner":"41568472@N00","secret":"b3a95cac07","server":"126","farm":1,"title":"basket weaving","ispublic":1,"isfriend":0,"isfamily":0,"ownername":"cloudberrynine"},{"id":"15772355511","owner":"24645718@N02","secret":"945cb0f014","server":"8664","farm":9,"title":"Basket_0088","ispublic":1,"isfriend":0,"isfamily":0,"ownername":"theresaknits"},{"id":"3582375031","owner":"33664834@N02","secret":"a00f40d063","server":"3347","farm":4,"title":"Baby basket","ispublic":1,"isfriend":0,"isfamily":0,"ownername":"ogonzilla"},{"id":"10757408926","owner":"84334211@N00","secret":"6afc485bd6","server":"7304","farm":8,"title":"pine straw basket by bessie johnson","ispublic":1,"isfriend":0,"isfamily":0,"ownername":"slider5"},{"id":"2657863795","owner":"32909591@N00","secret":"0e87dc5a2e","server":"3277","farm":4,"title":"picnic basket","ispublic":1,"isfriend":0,"isfamily":0,"ownername":"d e b b i e"},{"id":"8167928291","owner":"12978297@N06","secret":"d8442fd9df","server":"8210","farm":9,"title":"Basket Pattern","ispublic":1,"isfriend":0,"isfamily":0,"ownername":"kiribean"},{"id":"3727820000","owner":"27471228@N04","secret":"09956a461c","server":"3426","farm":4,"title":"Peanut in a Basket","ispublic":1,"isfriend":0,"isfamily":0,"ownername":"Tricia Breidenthal"},{"id":"15588404489","owner":"24645718@N02","secret":"c8ae365194","server":"7501","farm":8,"title":"Basket_0070","ispublic":1,"isfriend":0,"isfamily":0,"ownername":"theresaknits"},{"id":"6833703662","owner":"21288426@N05","secret":"b14f62e74d","server":"7190","farm":8,"title":"four fitched baskets","ispublic":1,"isfriend":0,"isfamily":0,"ownername":"Dunbar Gardens"},{"id":"15738595301","owner":"30978773@N04","secret":"b0ee0883f5","server":"7507","farm":8,"title":"Basket","ispublic":1,"isfriend":0,"isfamily":0,"ownername":"Mathers Museum of World Cultures"}]},"stat":"ok"}