{"photos":{"page":1,"pages":7059,"perpage":15,"total":"105881","photo":[{"id":"4681700799","owner":"8893024@N07","secret":"814f5ca8dd","server":"4047","farm":5,"title":"Bat","ispublic":1,"isfriend":0,"isfamily":0,"ownername":"tonyolm"},{"id":"2077049809","owner":"41051260@N00","secret":"9a18debf85","server":"2058","farm":3,"title":"Bat","ispublic":1,"isfriend":0,"isfamily":0,"ownername":"Hilde VH"},{"id":"2601555093","owner":"12805047@N07","secret":"6eaaf43ab8","server":"3170","farm":4,"title":"Bat","ispublic":1,"isfriend":0,"isfamily":0,"ownername":"dragedorn"},{"id":"6865870853","owner":"75415892@N04","secret":"d18b9c9b33","server":"7177","farm":8,"title":"Bat","ispublic":1,"isfriend":0,"isfamily":0,"ownername":"Featherwind Photographics"},{"id":"6088306653","owner":"31855019@N05","secret":"424faaae74","server":"6205","farm":7,"title":"Another bat!","ispublic":1,"isfriend":0,"isfamily":0,"ownername":"fs-phil"},{"id":"4559626831","owner":"25306395@N05","secret":"35cd7350d5","server":"4059","farm":5,"title":"Bat face","ispublic":1,"isfriend":0,"isfamily":0,"ownername":"noskid"},{"id":"1135799659","owner":"72922352@N00","secret":"55afbe9c46","server":"1357","farm":2,"title":"Angry Bat!","ispublic":1,"isfriend":0,"isfamily":0,"ownername":"acodring"},{"id":"5458278006","owner":"37872323@N02","secret":"d8a0972719","server":"5218","farm":6,"title":"Natterers bat","ispublic":1,"isfriend":0,"isfamily":0,"ownername":"batfest"},{"id":"1043651693","owner":"9362092@N03","secret":"7ab9bb7ea2","server":"1150","farm":2,"title":"Bat 4","ispublic":1,"isfriend":0,"isfamily":0,"ownername":"JLCphotos"},{"id":"5962366767","owner":"51608865@N08","secret":"a4b5d90fbb","server":"6150","farm":7,"title":"Little Brown Bat","ispublic":1,"isfriend":0,"isfamily":0,"ownername":"HollyCybelle"},{"id":"8577351615","owner":"43322816@N08","secret":"574b32b26b","server":"8384","farm":9,"title":"Measuring Big Brown Bat","ispublic":1,"isfriend":0,"isfamily":0,"ownername":"U. S. Fish and Wildlife Service - Northeast Region"},{"id":"3772551676","owner":"40922183@N06","secret":"3fe3f2743e","server":"3567","farm":4,"title":"Bat","ispublic":1,"isfriend":0,"isfamily":0,"ownername":"nietsroT"},{"id":"3509177772","owner":"81648904@N00","secret":"9ef842b299","server":"3322","farm":4,"title":"Bat","ispublic":1,"isfriend":0,"isfamily":0,"ownername":"GoldenEel"},{"id":"8242575327","owner":"87744910@N07","secret":"5e740a4a91","server":"8198","farm":9,"title":"Bat!","ispublic":1,"isfriend":0,"isfamily":0,"ownername":"JWFC"},{"id":"6439383087","owner":"49503116049@N01","secret":"f964029fcf","server":"7145","farm":8,"title":"Bat","ispublic":1,"isfriend":0,"isfamily":0,"ownername":"natural gas"}]},"stat":"ok"}