{"photos":{"page":1,"pages":340961,"perpage":15,"total":"5114402","photo":[{"id":"14675453118","owner":"73422502@N08","secret":"c54a7a65d7","server":"3867","farm":4,"title":"Beach","ispublic":1,"isfriend":0,"isfamily":0,"ownername":"Zeeyolq Photography"},{"id":"8705874267","owner":"36587311@N08","secret":"47894234b0","server":"8140","farm":9,"title":"beach","ispublic":1,"isfriend":0,"isfamily":0,"ownername":"\u25baCubaGallery"},{"id":"15533893043","owner":"36587311@N08","secret":"7b9c74815f","server":"7514","farm":8,"title":"beach","ispublic":1,"isfriend":0,"isfamily":0,"ownername":"\u25baCubaGallery"},{"id":"9331726263","owner":"36587311@N08","secret":"0bb69320c1","server":"7433","farm":8,"title":"beach","ispublic":1,"isfriend":0,"isfamily":0,"ownername":"\u25baCubaGallery"},{"id":"7655022536","owner":"36587311@N08","secret":"9d51e82f39","server":"7259","farm":8,"title":"beach","ispublic":1,"isfriend":0,"isfamily":0,"ownername":"\u25baCubaGallery"},{"id":"8104608689","owner":"36587311@N08","secret":"049b7cb5e7","server":"8183","farm":9,"title":"beach","ispublic":1,"isfriend":0,"isfamily":0,"ownername":"\u25baCubaGallery"},{"id":"3241376754","owner":"24500807@N04","secret":"e0a7e72900","server":"3357","farm":4,"title":"Beach","ispublic":1,"isfriend":0,"isfamily":0,"ownername":"-yury-"},{"id":"5865956014","owner":"36587311@N08","secret":"e9387306fb","server":"3063","farm":4,"title":"beach","ispublic":1,"isfriend":0,"isfamily":0,"ownername":"\u25baCubaGallery"},{"id":"8789638603","owner":"36587311@N08","secret":"9d0c63b39f","server":"3672","farm":4,"title":"beach","ispublic":1,"isfriend":0,"isfamily":0,"ownername":"\u25baCubaGallery"},{"id":"12197655306","owner":"36587311@N08","secret":"d1b84d18b5","server":"7382","farm":8,"title":"beach","ispublic":1,"isfriend":0,"isfamily":0,"ownername":"\u25baCubaGallery"},{"id":"14582132560","owner":"73422502@N08","secret":"1efc09d68a","server":"3909","farm":4,"title":"Beach","ispublic":1,"isfriend":0,"isfamily":0,"ownername":"Zeeyolq Photography"},{"id":"8710052788","owner":"36587311@N08","secret":"0c55624f48","server":"8549","farm":9,"title":"beach","ispublic":1,"isfriend":0,"isfamily":0,"ownername":"\u25baCubaGallery"},{"id":"4941077600","owner":"36587311@N08","secret":"acf351d702","server":"4099","farm":5,"title":"beach","ispublic":1,"isfriend":0,"isfamily":0,"ownername":"\u25baCubaGallery"},{"id":"6048487915","owner":"36587311@N08","secret":"51df9938fe","server":"6184","farm":7,"title":"beach","ispublic":1,"isfriend":0,"isfamily":0,"ownername":"\u25baCubaGallery"},{"id":"8746402587","owner":"36587311@N08","secret":"d1fce6faba","server":"8409","farm":9,"title":"beach","ispublic":1,"isfriend":0,"isfamily":0,"ownername":"\u25baCubaGallery"}]},"stat":"ok"}