{"photos":{"page":1,"pages":3241,"perpage":15,"total":"48614","photo":[{"id":"14947596819","owner":"39160147@N03","secret":"3f8e907ef8","server":"3924","farm":4,"title":"Green Beans","ispublic":1,"isfriend":0,"isfamily":0,"ownername":"JeepersMedia"},{"id":"5286671952","owner":"73585767@N00","secret":"9e963c8b90","server":"5163","farm":6,"title":"beans","ispublic":1,"isfriend":0,"isfamily":0,"ownername":"floragirl"},{"id":"40587863","owner":"83461705@N00","secret":"1b0dc26484","server":"33","farm":1,"title":"Beans","ispublic":1,"isfriend":0,"isfamily":0,"ownername":"Alec Saunders"},{"id":"4619494509","owner":"24019848@N03","secret":"070713e1ba","server":"4062","farm":5,"title":"Beans","ispublic":1,"isfriend":0,"isfamily":0,"ownername":"Goamick"},{"id":"15134304555","owner":"39160147@N03","secret":"ec73f5bd82","server":"3921","farm":4,"title":"Green Beans","ispublic":1,"isfriend":0,"isfamily":0,"ownername":"JeepersMedia"},{"id":"8180098606","owner":"36459167@N05","secret":"f13641e0f7","server":"8061","farm":9,"title":"Beans & Rice","ispublic":1,"isfriend":0,"isfamily":0,"ownername":"kengikat40"},{"id":"5819810256","owner":"24663057@N03","secret":"e4aa4734bb","server":"3450","farm":4,"title":"Beans","ispublic":1,"isfriend":0,"isfamily":0,"ownername":"veronicaorbegozodetodd"},{"id":"8180094390","owner":"36459167@N05","secret":"ac98bd7731","server":"8485","farm":9,"title":"Beans & Rice","ispublic":1,"isfriend":0,"isfamily":0,"ownername":"kengikat40"},{"id":"7973426002","owner":"70757891@N00","secret":"77c30cd7d6","server":"8042","farm":9,"title":"Soaked beans","ispublic":1,"isfriend":0,"isfamily":0,"ownername":"grongar"},{"id":"3163966954","owner":"69004980@N00","secret":"287c3fbe62","server":"3084","farm":4,"title":"beans","ispublic":1,"isfriend":0,"isfamily":0,"ownername":"embem30"},{"id":"4669494594","owner":"95142644@N00","secret":"1e5814b5ff","server":"4044","farm":5,"title":"Bean salad","ispublic":1,"isfriend":0,"isfamily":0,"ownername":"Ruth and Dave"},{"id":"7973450954","owner":"70757891@N00","secret":"a4a517f2a9","server":"8298","farm":9,"title":"Cooked beans","ispublic":1,"isfriend":0,"isfamily":0,"ownername":"grongar"},{"id":"1104799451","owner":"73082705@N00","secret":"615c18f628","server":"1311","farm":2,"title":"Green beans","ispublic":1,"isfriend":0,"isfamily":0,"ownername":"zoyachubby"},{"id":"8435859291","owner":"34597907@N03","secret":"25c8460604","server":"8329","farm":9,"title":"Mr Beans","ispublic":1,"isfriend":0,"isfamily":0,"ownername":"WhyKenFotos"},{"id":"6563374387","owner":"94046393@N00","secret":"e37036f0c7","server":"7029","farm":8,"title":"Coffee Beans","ispublic":1,"isfriend":0,"isfamily":0,"ownername":"Eyebee"}]},"stat":"ok"}