{"photos":{"page":1,"pages":4226,"perpage":15,"total":"63381","photo":[{"id":"7587859892","owner":"23324763@N05","secret":"c909df0a4d","server":"8011","farm":9,"title":"BEAST","ispublic":1,"isfriend":0,"isfamily":0,"ownername":"Same $hit Different Day"},{"id":"7244113918","owner":"23324763@N05","secret":"c5d672531a","server":"7229","farm":8,"title":"BEAST","ispublic":1,"isfriend":0,"isfamily":0,"ownername":"Same $hit Different Day"},{"id":"6718721645","owner":"67596168@N06","secret":"34d5328d4b","server":"7035","farm":8,"title":"Beast","ispublic":1,"isfriend":0,"isfamily":0,"ownername":"jodykatin"},{"id":"254810723","owner":"47668256@N00","secret":"79fac843a2","server":"88","farm":1,"title":"beast","ispublic":1,"isfriend":0,"isfamily":0,"ownername":"thewoomachine"},{"id":"6726973601","owner":"46742627@N03","secret":"f442a6ca73","server":"7151","farm":8,"title":"Beast","ispublic":1,"isfriend":0,"isfamily":0,"ownername":"Vergio Graffito"},{"id":"11948718085","owner":"107737223@N05","secret":"e100a4606e","server":"3751","farm":4,"title":"Beast","ispublic":1,"isfriend":0,"isfamily":0,"ownername":"viola_sun"},{"id":"4522333948","owner":"37671439@N06","secret":"bfea3637e8","server":"4047","farm":5,"title":"beast","ispublic":1,"isfriend":0,"isfamily":0,"ownername":"ganjakidd"},{"id":"12225892544","owner":"107737223@N05","secret":"00f71ac85c","server":"5524","farm":6,"title":"Beast","ispublic":1,"isfriend":0,"isfamily":0,"ownername":"viola_sun"},{"id":"268923306","owner":"70418254@N00","secret":"a2f1741b69","server":"80","farm":1,"title":"beast","ispublic":1,"isfriend":0,"isfamily":0,"ownername":"NewsFromYalta"},{"id":"43809574042","owner":"49503096783@N01","secret":"fe57b004a6","server":"850","farm":1,"title":"Beast","ispublic":1,"isfriend":0,"isfamily":0,"ownername":"giveawayboy"},{"id":"11948583965","owner":"107737223@N05","secret":"e1e2770524","server":"3694","farm":4,"title":"Beast","ispublic":1,"isfriend":0,"isfamily":0,"ownername":"viola_sun"},{"id":"4385519956","owner":"47806552@N05","secret":"16793bf6dd","server":"4063","farm":5,"title":"beast","ispublic":1,"isfriend":0,"isfamily":0,"ownername":"Bagus Asik"},{"id":"42426795602","owner":"106321698@N06","secret":"81d7eedcd4","server":"886","farm":1,"title":"Domesticated Beast","ispublic":1,"isfriend":0,"isfamily":0,"ownername":"Svenja Block Photography"},{"id":"7278262386","owner":"99484035@N00","secret":"b222b9473d","server":"7080","farm":8,"title":"BEAST","ispublic":1,"isfriend":0,"isfamily":0,"ownername":"Cooney-Hughes"},{"id":"7986308632","owner":"59840111@N05","secret":"578ba6924b","server":"8300","farm":9,"title":"Beast","ispublic":1,"isfriend":0,"isfamily":0,"ownername":"The Braindead"}]},"stat":"ok"}