{"photos":{"page":1,"pages":169002,"perpage":15,"total":"2535024","photo":[{"id":"10364063793","owner":"80226011@N06","secret":"0dd5c5a269","server":"5479","farm":6,"title":"beauty","ispublic":1,"isfriend":0,"isfamily":0,"ownername":"Blueocean64"},{"id":"15196857515","owner":"80226011@N06","secret":"c84d6f8663","server":"5565","farm":6,"title":"beauty","ispublic":1,"isfriend":0,"isfamily":0,"ownername":"Blueocean64"},{"id":"8399225392","owner":"27376687@N05","secret":"65865a397c","server":"8351","farm":9,"title":"Beauty","ispublic":1,"isfriend":0,"isfamily":0,"ownername":"raffacama"},{"id":"10508262594","owner":"80226011@N06","secret":"b33e69542d","server":"7341","farm":8,"title":"beauty","ispublic":1,"isfriend":0,"isfamily":0,"ownername":"Blueocean64"},{"id":"15102682897","owner":"80226011@N06","secret":"de9c4770d0","server":"2941","farm":3,"title":"beauty","ispublic":1,"isfriend":0,"isfamily":0,"ownername":"Blueocean64"},{"id":"4927265130","owner":"27376687@N05","secret":"a13a4ac3f8","server":"4082","farm":5,"title":"Beauty","ispublic":1,"isfriend":0,"isfamily":0,"ownername":"raffacama"},{"id":"5990648404","owner":"27376687@N05","secret":"afe850e4d4","server":"6028","farm":7,"title":"Beauty","ispublic":1,"isfriend":0,"isfamily":0,"ownername":"raffacama"},{"id":"5990644204","owner":"27376687@N05","secret":"ec006b6b2e","server":"6136","farm":7,"title":"Beauty","ispublic":1,"isfriend":0,"isfamily":0,"ownername":"raffacama"},{"id":"2098799093","owner":"21135206@N05","secret":"d7da793c3e","server":"2174","farm":3,"title":"Beauty","ispublic":1,"isfriend":0,"isfamily":0,"ownername":"sheltercrow"},{"id":"31316084858","owner":"150271354@N02","secret":"9ff4192a2d","server":"1944","farm":2,"title":"#beauty","ispublic":1,"isfriend":0,"isfamily":0,"ownername":"beamaceo"},{"id":"5908935458","owner":"64889369@N03","secret":"982391e7ff","server":"6018","farm":7,"title":"beauty","ispublic":1,"isfriend":0,"isfamily":0,"ownername":"uper123"},{"id":"14876482610","owner":"80226011@N06","secret":"ccab8cb4d1","server":"3885","farm":4,"title":"beauty","ispublic":1,"isfriend":0,"isfamily":0,"ownername":"Blueocean64"},{"id":"5946377243","owner":"27376687@N05","secret":"30ff18bd97","server":"6003","farm":7,"title":"Beauty","ispublic":1,"isfriend":0,"isfamily":0,"ownername":"raffacama"},{"id":"10138698293","owner":"80226011@N06","secret":"c453938959","server":"7378","farm":8,"title":"beauty","ispublic":1,"isfriend":0,"isfamily":0,"ownername":"Blueocean64"},{"id":"10138491833","owner":"80226011@N06","secret":"120541659b","server":"7418","farm":8,"title":"beauty","ispublic":1,"isfriend":0,"isfamily":0,"ownername":"Blueocean64"}]},"stat":"ok"}