{"photos":{"page":1,"pages":12597,"perpage":15,"total":"188951","photo":[{"id":"4113123870","owner":"48488208@N00","secret":"69001ddf4d","server":"2523","farm":3,"title":"bell","ispublic":1,"isfriend":0,"isfamily":0,"ownername":"the-father"},{"id":"10979579625","owner":"109458666@N08","secret":"0c8dce8194","server":"5528","farm":6,"title":"bell","ispublic":1,"isfriend":0,"isfamily":0,"ownername":"Adamov Yaroslav"},{"id":"29958609348","owner":"37355742@N08","secret":"a9a94181c9","server":"1836","farm":2,"title":"bells","ispublic":1,"isfriend":0,"isfamily":0,"ownername":"Rambynas"},{"id":"15356018427","owner":"38469004@N00","secret":"60edb40f9a","server":"5603","farm":6,"title":"Bell","ispublic":1,"isfriend":0,"isfamily":0,"ownername":"Stefano Sala"},{"id":"2105323153","owner":"56828190@N00","secret":"d58ac4cbc5","server":"2324","farm":3,"title":"Bell .....","ispublic":1,"isfriend":0,"isfamily":0,"ownername":"Joseph Michael"},{"id":"15832383451","owner":"127614610@N07","secret":"6c54da121a","server":"7515","farm":8,"title":"#bell","ispublic":1,"isfriend":0,"isfamily":0,"ownername":"ajankurjain"},{"id":"4278078723","owner":"46157107@N02","secret":"8064178748","server":"4068","farm":5,"title":"Bell","ispublic":1,"isfriend":0,"isfamily":0,"ownername":"Daedre"},{"id":"15113034068","owner":"66305391@N05","secret":"dec900b521","server":"5578","farm":6,"title":"Bells","ispublic":1,"isfriend":0,"isfamily":0,"ownername":"skinnestrock79"},{"id":"2881825965","owner":"30216180@N07","secret":"d6709d8b9e","server":"3117","farm":4,"title":"Bell","ispublic":1,"isfriend":0,"isfamily":0,"ownername":"Phil & Sue Pics"},{"id":"4235910073","owner":"36082086@N08","secret":"9bd08dedaa","server":"2653","farm":3,"title":"Bell","ispublic":1,"isfriend":0,"isfamily":0,"ownername":"Sweet.Eventide"},{"id":"6534183879","owner":"21939501@N03","secret":"490d644818","server":"7018","farm":8,"title":"Bell","ispublic":1,"isfriend":0,"isfamily":0,"ownername":"fireflythegreat"},{"id":"9655987855","owner":"57028064@N08","secret":"3f904764d6","server":"3807","farm":4,"title":"Bell","ispublic":1,"isfriend":0,"isfamily":0,"ownername":"BasketInside.com"},{"id":"5070739417","owner":"7955903@N06","secret":"cd4ec96fe4","server":"4133","farm":5,"title":"Bell","ispublic":1,"isfriend":0,"isfamily":0,"ownername":"de-lineation"},{"id":"5343153819","owner":"53991651@N08","secret":"ea4163ab7f","server":"5007","farm":6,"title":"Bell","ispublic":1,"isfriend":0,"isfamily":0,"ownername":"Helga_Af"}]},"stat":"ok"}