{"photos":{"page":1,"pages":8383,"perpage":15,"total":"125734","photo":[{"id":"988666133","owner":"10882243@N07","secret":"a3a936a68c","server":"1091","farm":2,"title":"Belly","ispublic":1,"isfriend":0,"isfamily":0,"ownername":"bellyrubr"},{"id":"3219279370","owner":"53665804@N00","secret":"d427a81651","server":"3094","farm":4,"title":"Belly","ispublic":1,"isfriend":0,"isfamily":0,"ownername":"Katsoulis Photography"},{"id":"2758905865","owner":"99725717@N00","secret":"d3a82be48a","server":"3052","farm":4,"title":"belly","ispublic":1,"isfriend":0,"isfamily":0,"ownername":"Anne A"},{"id":"4101785537","owner":"34959692@N07","secret":"9c5952003e","server":"2752","farm":3,"title":"belly","ispublic":1,"isfriend":0,"isfamily":0,"ownername":"BLND 510"},{"id":"290789008","owner":"83504998@N00","secret":"f98474d1f6","server":"110","farm":1,"title":"belly","ispublic":1,"isfriend":0,"isfamily":0,"ownername":"ku_jo"},{"id":"290789006","owner":"83504998@N00","secret":"eeadd8230a","server":"116","farm":1,"title":"belly","ispublic":1,"isfriend":0,"isfamily":0,"ownername":"ku_jo"},{"id":"1932381626","owner":"19361799@N04","secret":"3b5a883400","server":"2373","farm":3,"title":"Belly","ispublic":1,"isfriend":0,"isfamily":0,"ownername":"sobeltomas"},{"id":"7313969356","owner":"34109516@N02","secret":"240e3a6f26","server":"7076","farm":8,"title":"belly","ispublic":1,"isfriend":0,"isfamily":0,"ownername":"strange little woman on stream"},{"id":"2880498067","owner":"25803128@N07","secret":"99c5fbe954","server":"3018","farm":4,"title":"Belly","ispublic":1,"isfriend":0,"isfamily":0,"ownername":"mamique"},{"id":"14369209","owner":"45537929@N00","secret":"d46ff76dfd","server":"9","farm":1,"title":"Belly","ispublic":1,"isfriend":0,"isfamily":0,"ownername":"giggi_"},{"id":"7970956090","owner":"64089845@N03","secret":"353e208707","server":"8041","farm":9,"title":"Belly","ispublic":1,"isfriend":0,"isfamily":0,"ownername":"Dianarchi"},{"id":"558201551","owner":"8269255@N06","secret":"68c72b45b5","server":"1121","farm":2,"title":"Belly","ispublic":1,"isfriend":0,"isfamily":0,"ownername":"lea_golis"},{"id":"4479947695","owner":"48858433@N03","secret":"d615553b14","server":"4067","farm":5,"title":"Belly","ispublic":1,"isfriend":0,"isfamily":0,"ownername":"Eygl\u00f3 \u00c1"},{"id":"3643591417","owner":"38301852@N07","secret":"aac0530e4d","server":"2475","farm":3,"title":"belly","ispublic":1,"isfriend":0,"isfamily":0,"ownername":"strawberria"}]},"stat":"ok"}