{"photos":{"page":1,"pages":75477,"perpage":15,"total":"1132145","photo":[{"id":"7173493001","owner":"78852248@N02","secret":"c699e2aa12","server":"7101","farm":8,"title":"Bicycles","ispublic":1,"isfriend":0,"isfamily":0,"ownername":"Arts1984"},{"id":"6433200059","owner":"29457297@N00","secret":"471263ab3b","server":"7154","farm":8,"title":"Bicycle","ispublic":1,"isfriend":0,"isfamily":0,"ownername":"hazelbartels"},{"id":"4335567429","owner":"23797229@N06","secret":"2687411703","server":"4009","farm":5,"title":"Bicycle","ispublic":1,"isfriend":0,"isfamily":0,"ownername":"Kelly Malloy"},{"id":"5882488027","owner":"25830962@N06","secret":"f7afeb4ac8","server":"6057","farm":7,"title":"Bicycle","ispublic":1,"isfriend":0,"isfamily":0,"ownername":"moonman82"},{"id":"4782414455","owner":"36464590@N06","secret":"3850b1b08b","server":"4078","farm":5,"title":"Bicycle","ispublic":1,"isfriend":0,"isfamily":0,"ownername":"Sonia_L"},{"id":"16178752768","owner":"89326053@N02","secret":"c55d99d1a5","server":"7386","farm":8,"title":"Bicycle","ispublic":1,"isfriend":0,"isfamily":0,"ownername":"simpics.com"},{"id":"6473089893","owner":"69684343@N08","secret":"504fa08584","server":"7026","farm":8,"title":"Bicycle","ispublic":1,"isfriend":0,"isfamily":0,"ownername":"Bicyman"},{"id":"2396885720","owner":"25357898@N08","secret":"5f1d72414c","server":"3221","farm":4,"title":"Bicycle","ispublic":1,"isfriend":0,"isfamily":0,"ownername":"webwontok"},{"id":"3513418683","owner":"99863389@N00","secret":"910a3fe544","server":"3624","farm":4,"title":"Bicycle","ispublic":1,"isfriend":0,"isfamily":0,"ownername":"Tomas Aleksiejunas"},{"id":"8737082218","owner":"38345358@N04","secret":"e112c42e31","server":"7284","farm":8,"title":"bicycle","ispublic":1,"isfriend":0,"isfamily":0,"ownername":"smallwon"},{"id":"15770807177","owner":"32736561@N00","secret":"ffac29bd44","server":"8633","farm":9,"title":"BICYCLE","ispublic":1,"isfriend":0,"isfamily":0,"ownername":"diamonds_in_the_soles_of_her_shoes"},{"id":"158780905","owner":"44124427152@N01","secret":"449d6e1579","server":"62","farm":1,"title":"Bicycle","ispublic":1,"isfriend":0,"isfamily":0,"ownername":"Salim Virji"},{"id":"13929485086","owner":"75083336@N00","secret":"498d0db58a","server":"3713","farm":4,"title":"Bicycle","ispublic":1,"isfriend":0,"isfamily":0,"ownername":"Conal Gallagher"},{"id":"5912260050","owner":"62021988@N02","secret":"1d7c6294ef","server":"5073","farm":6,"title":"bicycle","ispublic":1,"isfriend":0,"isfamily":0,"ownername":"69fish"},{"id":"3095688735","owner":"22146524@N05","secret":"5ac77b25db","server":"3210","farm":4,"title":"bicycle--","ispublic":1,"isfriend":0,"isfamily":0,"ownername":"Robin'"}]},"stat":"ok"}