{"photos":{"page":1,"pages":55000,"perpage":15,"total":"824987","photo":[{"id":"15978933575","owner":"61766367@N08","secret":"5019edea62","server":"8565","farm":9,"title":"Big!","ispublic":1,"isfriend":0,"isfamily":0,"ownername":"gervanioweb"},{"id":"2722862216","owner":"21692577@N02","secret":"7651886ddf","server":"3023","farm":4,"title":"Big","ispublic":1,"isfriend":0,"isfamily":0,"ownername":"Danny VB"},{"id":"1362907780","owner":"76902924@N00","secret":"8a2d134067","server":"1139","farm":2,"title":"big boi","ispublic":1,"isfriend":0,"isfamily":0,"ownername":"dsrphoto"},{"id":"11359978165","owner":"12836528@N00","secret":"37dd4a24a3","server":"5548","farm":6,"title":"Big Bang","ispublic":1,"isfriend":0,"isfamily":0,"ownername":"kevin dooley"},{"id":"46634487854","owner":"12498183@N03","secret":"aef9ebdaa7","server":"7829","farm":8,"title":"Big","ispublic":1,"isfriend":0,"isfamily":0,"ownername":"Anteriorechiuso Santi Diego"},{"id":"14881731005","owner":"14162112@N02","secret":"59d8e03532","server":"3863","farm":4,"title":"big moon","ispublic":1,"isfriend":0,"isfamily":0,"ownername":"Wils 888"},{"id":"3963068416","owner":"42761431@N07","secret":"8ebf108e18","server":"2540","farm":3,"title":"Big Jugs","ispublic":1,"isfriend":0,"isfamily":0,"ownername":"CruzerMike4"},{"id":"7038167569","owner":"26699340@N02","secret":"2c3beb8e43","server":"7050","farm":8,"title":"big sweater","ispublic":1,"isfriend":0,"isfamily":0,"ownername":"* LbC *"},{"id":"33928470630","owner":"12836528@N00","secret":"c07b3e49c1","server":"4160","farm":5,"title":"Big?","ispublic":1,"isfriend":0,"isfamily":0,"ownername":"kevin dooley"},{"id":"4573214274","owner":"35966811@N06","secret":"0a84c53c62","server":"4041","farm":5,"title":"big","ispublic":1,"isfriend":0,"isfamily":0,"ownername":"\"Gordas\"TrueQuality"},{"id":"7054814353","owner":"26699340@N02","secret":"5889f5f866","server":"5320","farm":6,"title":"big knit","ispublic":1,"isfriend":0,"isfamily":0,"ownername":"* LbC *"},{"id":"5946824073","owner":"63674375@N04","secret":"553d7fc9c4","server":"6003","farm":7,"title":"Big Ben","ispublic":1,"isfriend":0,"isfamily":0,"ownername":"Elisabeth Mynilotzy"},{"id":"6703987097","owner":"26699340@N02","secret":"b127c6861b","server":"7034","farm":8,"title":"big sweater","ispublic":1,"isfriend":0,"isfamily":0,"ownername":"* LbC *"},{"id":"4368263889","owner":"47647708@N03","secret":"cb173b8330","server":"2792","farm":3,"title":"big","ispublic":1,"isfriend":0,"isfamily":0,"ownername":"issaad"},{"id":"2758346373","owner":"28396605@N00","secret":"4a31f56b2f","server":"3038","farm":4,"title":"big buddy","ispublic":1,"isfriend":0,"isfamily":0,"ownername":"paparutzi"}]},"stat":"ok"}