{"photos":{"page":1,"pages":373140,"perpage":15,"total":"5597088","photo":[{"id":"14435672836","owner":"78942874@N06","secret":"f182a912f1","server":"5478","farm":6,"title":"Bird","ispublic":1,"isfriend":0,"isfamily":0,"ownername":"Saffron Blaze"},{"id":"8126997573","owner":"56446000@N04","secret":"1754efd71f","server":"8188","farm":9,"title":"Bird","ispublic":1,"isfriend":0,"isfamily":0,"ownername":"Ger Bosma"},{"id":"15123129376","owner":"78942874@N06","secret":"be96826fdf","server":"3917","farm":4,"title":"Bird","ispublic":1,"isfriend":0,"isfamily":0,"ownername":"Saffron Blaze"},{"id":"7663555568","owner":"78942874@N06","secret":"f4137ee4de","server":"8147","farm":9,"title":"bird","ispublic":1,"isfriend":0,"isfamily":0,"ownername":"Saffron Blaze"},{"id":"7392533840","owner":"56446000@N04","secret":"8ff216f92f","server":"7213","farm":8,"title":"Bird","ispublic":1,"isfriend":0,"isfamily":0,"ownername":"Ger Bosma"},{"id":"10169008313","owner":"98512152@N03","secret":"f0a006f564","server":"7419","farm":8,"title":"Bird","ispublic":1,"isfriend":0,"isfamily":0,"ownername":"Fraser70D"},{"id":"5309100128","owner":"32594277@N04","secret":"b1f26ee9a5","server":"5085","farm":6,"title":"Bird","ispublic":1,"isfriend":0,"isfamily":0,"ownername":"Kenny Teo (zoompict)"},{"id":"7671050584","owner":"78942874@N06","secret":"d1a0bbef6c","server":"8007","farm":9,"title":"bird","ispublic":1,"isfriend":0,"isfamily":0,"ownername":"Saffron Blaze"},{"id":"7657630476","owner":"78942874@N06","secret":"1c6f2069f0","server":"8016","farm":9,"title":"bird","ispublic":1,"isfriend":0,"isfamily":0,"ownername":"Saffron Blaze"},{"id":"8260434328","owner":"33850830@N03","secret":"6288309104","server":"8480","farm":9,"title":"bird","ispublic":1,"isfriend":0,"isfamily":0,"ownername":"cheongwah2002"},{"id":"8608239449","owner":"32594277@N04","secret":"8e662deaa8","server":"8529","farm":9,"title":"bird","ispublic":1,"isfriend":0,"isfamily":0,"ownername":"Kenny Teo (zoompict)"},{"id":"3165594612","owner":"21644167@N04","secret":"d8e8645696","server":"3117","farm":4,"title":"Bird","ispublic":1,"isfriend":0,"isfamily":0,"ownername":"Bahman Farzad"},{"id":"8544277391","owner":"32594277@N04","secret":"c81e78c617","server":"8250","farm":9,"title":"bird","ispublic":1,"isfriend":0,"isfamily":0,"ownername":"Kenny Teo (zoompict)"},{"id":"8215747765","owner":"90175007@N07","secret":"937708eff2","server":"8489","farm":9,"title":"Bird","ispublic":1,"isfriend":0,"isfamily":0,"ownername":"2wiice"},{"id":"154599455","owner":"60269431@N00","secret":"64a46eb90b","server":"49","farm":1,"title":"bird","ispublic":1,"isfriend":0,"isfamily":0,"ownername":"gnumoon2112"}]},"stat":"ok"}