{"photos":{"page":1,"pages":206734,"perpage":15,"total":"3101003","photo":[{"id":"11511003974","owner":"69148745@N02","secret":"242580555e","server":"7302","farm":8,"title":"birds","ispublic":1,"isfriend":0,"isfamily":0,"ownername":"land[e]scape"},{"id":"2592860742","owner":"27754925@N08","secret":"68962a65c3","server":"3151","farm":4,"title":"BIRDS","ispublic":1,"isfriend":0,"isfamily":0,"ownername":"piyushanpara"},{"id":"6295127533","owner":"69148745@N02","secret":"687aff8c1b","server":"6092","farm":7,"title":"Birds","ispublic":1,"isfriend":0,"isfamily":0,"ownername":"land[e]scape"},{"id":"12298116095","owner":"91514286@N03","secret":"031e5a2873","server":"5525","farm":6,"title":"Birds","ispublic":1,"isfriend":0,"isfamily":0,"ownername":"esheyes"},{"id":"2592022699","owner":"27754925@N08","secret":"5ea51d6b06","server":"3071","farm":4,"title":"BIRDS","ispublic":1,"isfriend":0,"isfamily":0,"ownername":"piyushanpara"},{"id":"7135219507","owner":"21692577@N02","secret":"18b9b3c8b0","server":"7105","farm":8,"title":"Birds","ispublic":1,"isfriend":0,"isfamily":0,"ownername":"Danny VB"},{"id":"44257820692","owner":"95639599@N02","secret":"d6fefc466e","server":"1857","farm":2,"title":"birds","ispublic":1,"isfriend":0,"isfamily":0,"ownername":"S.G.J"},{"id":"8661071424","owner":"69148745@N02","secret":"2bbf2e9df7","server":"8118","farm":9,"title":"Birds","ispublic":1,"isfriend":0,"isfamily":0,"ownername":"land[e]scape"},{"id":"6881487452","owner":"33909700@N02","secret":"9a0ba827a5","server":"7036","farm":8,"title":"Birds","ispublic":1,"isfriend":0,"isfamily":0,"ownername":"Dave Stokes"},{"id":"6881489108","owner":"33909700@N02","secret":"4bbc75d849","server":"7197","farm":8,"title":"Birds","ispublic":1,"isfriend":0,"isfamily":0,"ownername":"Dave Stokes"},{"id":"6881490608","owner":"33909700@N02","secret":"88589c1fd4","server":"7263","farm":8,"title":"Birds","ispublic":1,"isfriend":0,"isfamily":0,"ownername":"Dave Stokes"},{"id":"5351796642","owner":"58086801@N04","secret":"12918fb9c9","server":"5281","farm":6,"title":"Birds","ispublic":1,"isfriend":0,"isfamily":0,"ownername":"Faleh Al-ali"},{"id":"2592015961","owner":"27754925@N08","secret":"52bfa7c2a5","server":"3172","farm":4,"title":"BIRDS","ispublic":1,"isfriend":0,"isfamily":0,"ownername":"piyushanpara"},{"id":"9731305700","owner":"101464333@N07","secret":"550d61d36e","server":"5548","farm":6,"title":"Birds","ispublic":1,"isfriend":0,"isfamily":0,"ownername":"Hisham Alqawsi"}]},"stat":"ok"}