{"photos":{"page":1,"pages":226212,"perpage":15,"total":"3393174","photo":[{"id":"15607974550","owner":"27409143@N00","secret":"7ef335c3c9","server":"8255","farm":9,"title":"Black","ispublic":1,"isfriend":0,"isfamily":0,"ownername":"kb_vaidya"},{"id":"15934437673","owner":"80423674@N07","secret":"f5d3dbd8a0","server":"7401","farm":8,"title":"Black","ispublic":1,"isfriend":0,"isfamily":0,"ownername":"SickBen"},{"id":"9108566611","owner":"65024285@N06","secret":"db652134d1","server":"7417","farm":8,"title":"black","ispublic":1,"isfriend":0,"isfamily":0,"ownername":"Tio Sim\u00f3n"},{"id":"6345593234","owner":"64640931@N08","secret":"ecf6a879ab","server":"6040","farm":7,"title":"#BLACK","ispublic":1,"isfriend":0,"isfamily":0,"ownername":"Lieke_"},{"id":"6888368693","owner":"50649856@N07","secret":"bf50f9a43d","server":"7061","farm":8,"title":"Black","ispublic":1,"isfriend":0,"isfamily":0,"ownername":"NewBhoy"},{"id":"16233015439","owner":"35333412@N07","secret":"c01646538f","server":"7343","farm":8,"title":"black","ispublic":1,"isfriend":0,"isfamily":0,"ownername":"angus macgyver (bokeh series)"},{"id":"8411770145","owner":"60943332@N02","secret":"b5ee05f879","server":"8095","farm":9,"title":"black","ispublic":1,"isfriend":0,"isfamily":0,"ownername":"Lara Gilks"},{"id":"8589752543","owner":"78338745@N08","secret":"96f7ca8c97","server":"8105","farm":9,"title":"Black","ispublic":1,"isfriend":0,"isfamily":0,"ownername":"Seaworm1982"},{"id":"2500636669","owner":"11721368@N02","secret":"093922d819","server":"2099","farm":3,"title":"Black","ispublic":1,"isfriend":0,"isfamily":0,"ownername":"~Vijay~"},{"id":"15726917676","owner":"88695228@N03","secret":"f619ca98b2","server":"3948","farm":4,"title":"Blacka","ispublic":1,"isfriend":0,"isfamily":0,"ownername":"MoveMakersNY"},{"id":"33401221435","owner":"140575873@N08","secret":"7ea8a53b3f","server":"3946","farm":4,"title":"black","ispublic":1,"isfriend":0,"isfamily":0,"ownername":"comeclarity42"},{"id":"3349964879","owner":"10065062@N04","secret":"c814dd4553","server":"3554","farm":4,"title":"Black","ispublic":1,"isfriend":0,"isfamily":0,"ownername":"cjah2007"},{"id":"2467043974","owner":"26084157@N07","secret":"5abd14a8b2","server":"2134","farm":3,"title":"Black","ispublic":1,"isfriend":0,"isfamily":0,"ownername":"nicomorphine"},{"id":"37295075970","owner":"73422502@N08","secret":"8a9fcca078","server":"4498","farm":5,"title":"Black","ispublic":1,"isfriend":0,"isfamily":0,"ownername":"Zeeyolq Photography"},{"id":"15630356058","owner":"109488968@N06","secret":"2e6bdeaef2","server":"5616","farm":6,"title":"Black","ispublic":1,"isfriend":0,"isfamily":0,"ownername":"JulianBernalPh"}]},"stat":"ok"}