{"photos":{"page":1,"pages":4446,"perpage":15,"total":"66687","photo":[{"id":"5686687220","owner":"83553274@N00","secret":"83b7596bc9","server":"5293","farm":6,"title":"blanket","ispublic":1,"isfriend":0,"isfamily":0,"ownername":"littlecottonrabbits"},{"id":"6328392919","owner":"45901118@N03","secret":"63b6699c03","server":"6100","farm":7,"title":"blanket","ispublic":1,"isfriend":0,"isfamily":0,"ownername":"worqshop"},{"id":"139703912","owner":"24302895@N00","secret":"6a69f42604","server":"44","farm":1,"title":"blanket","ispublic":1,"isfriend":0,"isfamily":0,"ownername":"maximorgana"},{"id":"6011224357","owner":"58603750@N05","secret":"d96354e461","server":"6002","farm":7,"title":"Blanket","ispublic":1,"isfriend":0,"isfamily":0,"ownername":"Luca Vagnini"},{"id":"3864656851","owner":"7679543@N04","secret":"1d76c6a524","server":"3447","farm":4,"title":"blanket","ispublic":1,"isfriend":0,"isfamily":0,"ownername":"yummymugofchai"},{"id":"6881655013","owner":"8087545@N08","secret":"24d5498885","server":"7070","farm":8,"title":"blankets","ispublic":1,"isfriend":0,"isfamily":0,"ownername":"warpedandwonderful"},{"id":"6896629290","owner":"46985901@N07","secret":"baf6d8d7c3","server":"7259","farm":8,"title":"Blanket","ispublic":1,"isfriend":0,"isfamily":0,"ownername":"yarnroundhook"},{"id":"4281752","owner":"59939697@N00","secret":"905048d17f","server":"4","farm":1,"title":"blanket","ispublic":1,"isfriend":0,"isfamily":0,"ownername":"brilliantcolors"},{"id":"4331581191","owner":"30101153@N02","secret":"abb176a37b","server":"4011","farm":5,"title":"blanket","ispublic":1,"isfriend":0,"isfamily":0,"ownername":"Mark Stetson"},{"id":"17075963018","owner":"12173213@N00","secret":"0053ede4c0","server":"7712","farm":8,"title":"Blanket","ispublic":1,"isfriend":0,"isfamily":0,"ownername":"matsuyuki"},{"id":"14784324","owner":"33156585@N00","secret":"5f1c116edc","server":"12","farm":1,"title":"blanket","ispublic":1,"isfriend":0,"isfamily":0,"ownername":"fracturedacetabulum"},{"id":"21850210331","owner":"33909700@N02","secret":"84189a4b4c","server":"650","farm":1,"title":"Blanket","ispublic":1,"isfriend":0,"isfamily":0,"ownername":"Dave Stokes"},{"id":"16372342312","owner":"17958048@N00","secret":"cc2a82f32f","server":"8664","farm":9,"title":"Blankets","ispublic":1,"isfriend":0,"isfamily":0,"ownername":"moaan"},{"id":"3229340486","owner":"31083509@N03","secret":"189582e626","server":"3344","farm":4,"title":"blanket","ispublic":1,"isfriend":0,"isfamily":0,"ownername":"cousas pequenas"},{"id":"8503447142","owner":"12173213@N00","secret":"8c3a971d5f","server":"8232","farm":9,"title":"Blanket","ispublic":1,"isfriend":0,"isfamily":0,"ownername":"matsuyuki"}]},"stat":"ok"}