{"photos":{"page":1,"pages":13453,"perpage":15,"total":"201793","photo":[{"id":"6956846052","owner":"23548946@N06","secret":"4633a42a29","server":"8165","farm":9,"title":"Blood","ispublic":1,"isfriend":0,"isfamily":0,"ownername":"mariag."},{"id":"3858522383","owner":"38230557@N04","secret":"0c762af65c","server":"3489","farm":4,"title":"blood","ispublic":1,"isfriend":0,"isfamily":0,"ownername":"i am xzin"},{"id":"4997549749","owner":"39166516@N04","secret":"cd90477667","server":"4145","farm":5,"title":"Blood","ispublic":1,"isfriend":0,"isfamily":0,"ownername":"Meshal al issa"},{"id":"95125580","owner":"42801875@N00","secret":"c2da0e5e5c","server":"28","farm":1,"title":"Blood","ispublic":1,"isfriend":0,"isfamily":0,"ownername":"arottenmind"},{"id":"5910672138","owner":"21358578@N04","secret":"69f5e7bc7d","server":"5076","farm":6,"title":"Blood","ispublic":1,"isfriend":0,"isfamily":0,"ownername":"cachos7"},{"id":"1247411779","owner":"12203893@N05","secret":"96f8ae2290","server":"1015","farm":2,"title":"Blood","ispublic":1,"isfriend":0,"isfamily":0,"ownername":"andreamartini"},{"id":"4172515595","owner":"45241006@N05","secret":"d024021885","server":"2712","farm":3,"title":"blood","ispublic":1,"isfriend":0,"isfamily":0,"ownername":"glass coffin"},{"id":"4439664710","owner":"42426146@N08","secret":"478475ba6a","server":"2680","farm":3,"title":"blood.","ispublic":1,"isfriend":0,"isfamily":0,"ownername":"EdgarFuentes"},{"id":"15540138165","owner":"46613044@N06","secret":"2bf937520e","server":"3936","farm":4,"title":"BLOOD NINJA","ispublic":1,"isfriend":0,"isfamily":0,"ownername":"Jondy."},{"id":"237950991","owner":"80473611@N00","secret":"c01b15428e","server":"96","farm":1,"title":"Blood+","ispublic":1,"isfriend":0,"isfamily":0,"ownername":"zepwner"},{"id":"8009898376","owner":"81122678@N02","secret":"7f5bc1f83c","server":"8180","farm":9,"title":"blood","ispublic":1,"isfriend":0,"isfamily":0,"ownername":"almondtartlet"},{"id":"3102306351","owner":"80448645@N00","secret":"926210c776","server":"3183","farm":4,"title":"blood","ispublic":1,"isfriend":0,"isfamily":0,"ownername":"J A X"},{"id":"3103138988","owner":"80448645@N00","secret":"10eae797e7","server":"3106","farm":4,"title":"blood","ispublic":1,"isfriend":0,"isfamily":0,"ownername":"J A X"},{"id":"5196237900","owner":"56178311@N02","secret":"9834bbbd04","server":"4110","farm":5,"title":"Blood","ispublic":1,"isfriend":0,"isfamily":0,"ownername":"whatabeautifulsilence"}]},"stat":"ok"}