{"photos":{"page":1,"pages":274485,"perpage":15,"total":"4117263","photo":[{"id":"5437927802","owner":"21644167@N04","secret":"585360f0be","server":"5173","farm":6,"title":"Blue","ispublic":1,"isfriend":0,"isfamily":0,"ownername":"Bahman Farzad"},{"id":"5150506428","owner":"21644167@N04","secret":"ea270cd83e","server":"4005","farm":5,"title":"Blue","ispublic":1,"isfriend":0,"isfamily":0,"ownername":"Bahman Farzad"},{"id":"3368335563","owner":"36587311@N08","secret":"cdee91877b","server":"3609","farm":4,"title":"blue","ispublic":1,"isfriend":0,"isfamily":0,"ownername":"\u25baCubaGallery"},{"id":"2961078287","owner":"21775664@N07","secret":"7dd13217cc","server":"3162","farm":4,"title":"Blue","ispublic":1,"isfriend":0,"isfamily":0,"ownername":"davidgutierrez.co.uk"},{"id":"5250596293","owner":"21775664@N07","secret":"804c72e051","server":"5203","farm":6,"title":"Blue","ispublic":1,"isfriend":0,"isfamily":0,"ownername":"davidgutierrez.co.uk"},{"id":"13637578563","owner":"55959716@N08","secret":"e3ec2a133d","server":"7045","farm":8,"title":"blue","ispublic":1,"isfriend":0,"isfamily":0,"ownername":"Philocycler"},{"id":"4987202483","owner":"47723556@N07","secret":"56b49e9c3b","server":"4153","farm":5,"title":"Blue","ispublic":1,"isfriend":0,"isfamily":0,"ownername":"sw127350 MF ( very very busy :(...)"},{"id":"7436594232","owner":"22423239@N02","secret":"794bc4f69f","server":"7131","farm":8,"title":"Blue","ispublic":1,"isfriend":0,"isfamily":0,"ownername":"misterperturbed"},{"id":"16115266886","owner":"129308866@N02","secret":"ed3780186d","server":"7557","farm":8,"title":"Blue","ispublic":1,"isfriend":0,"isfamily":0,"ownername":"hosseinjahed"},{"id":"13846053494","owner":"22895884@N07","secret":"41a3b4a485","server":"7406","farm":8,"title":"Blues","ispublic":1,"isfriend":0,"isfamily":0,"ownername":"Al Abbasi"},{"id":"4609571924","owner":"20991620@N04","secret":"901b994e3b","server":"1054","farm":2,"title":"Blue","ispublic":1,"isfriend":0,"isfamily":0,"ownername":"Pete Ivermee"},{"id":"466329384","owner":"7412835@N08","secret":"58b12d07a8","server":"172","farm":1,"title":"blue","ispublic":1,"isfriend":0,"isfamily":0,"ownername":"snowkei"},{"id":"2646559982","owner":"75432514@N00","secret":"26e1aa3347","server":"3057","farm":4,"title":"blue.","ispublic":1,"isfriend":0,"isfamily":0,"ownername":"*Peanut (Lauren)"},{"id":"6878184465","owner":"65290838@N02","secret":"e10e1a02d7","server":"7189","farm":8,"title":"blue","ispublic":1,"isfriend":0,"isfamily":0,"ownername":"dog plus+"},{"id":"6486857581","owner":"43803348@N00","secret":"fa4d377fa0","server":"7034","farm":8,"title":"blue","ispublic":1,"isfriend":0,"isfamily":0,"ownername":"Pesi"}]},"stat":"ok"}