{"photos":{"page":1,"pages":113840,"perpage":15,"total":"1707590","photo":[{"id":"9389282299","owner":"36587311@N08","secret":"3496e1a380","server":"3808","farm":4,"title":"boat","ispublic":1,"isfriend":0,"isfamily":0,"ownername":"\u25baCubaGallery"},{"id":"16386187228","owner":"127721209@N08","secret":"d6498ebf4e","server":"7457","farm":8,"title":"Boat","ispublic":1,"isfriend":0,"isfamily":0,"ownername":"Ana Madeira B."},{"id":"3145211736","owner":"97945361@N00","secret":"6f2f412352","server":"3084","farm":4,"title":"Boats","ispublic":1,"isfriend":0,"isfamily":0,"ownername":"chris league"},{"id":"40731612332","owner":"73422502@N08","secret":"81fdeff43b","server":"4781","farm":5,"title":"Boat","ispublic":1,"isfriend":0,"isfamily":0,"ownername":"Zeeyolq Photography"},{"id":"6862569531","owner":"76477125@N06","secret":"dfebb49303","server":"7194","farm":8,"title":"boat","ispublic":1,"isfriend":0,"isfamily":0,"ownername":"sina_grass"},{"id":"37258821955","owner":"73422502@N08","secret":"09eca271b1","server":"4417","farm":5,"title":"Boat","ispublic":1,"isfriend":0,"isfamily":0,"ownername":"Zeeyolq Photography"},{"id":"24853385003","owner":"130276017@N07","secret":"8c1a60743f","server":"1720","farm":2,"title":"Boat","ispublic":1,"isfriend":0,"isfamily":0,"ownername":"communityboats"},{"id":"24853456903","owner":"130276017@N07","secret":"8985b85106","server":"1480","farm":2,"title":"Boat","ispublic":1,"isfriend":0,"isfamily":0,"ownername":"communityboats"},{"id":"25382390251","owner":"130276017@N07","secret":"fc0b27fe06","server":"1443","farm":2,"title":"Boat","ispublic":1,"isfriend":0,"isfamily":0,"ownername":"communityboats"},{"id":"25359478122","owner":"130276017@N07","secret":"4ea284810f","server":"1705","farm":2,"title":"Boat","ispublic":1,"isfriend":0,"isfamily":0,"ownername":"communityboats"},{"id":"25941344472","owner":"130276017@N07","secret":"6b9367e0ba","server":"1534","farm":2,"title":"Boat","ispublic":1,"isfriend":0,"isfamily":0,"ownername":"communityboats"},{"id":"24848386213","owner":"130276017@N07","secret":"54a2240f1b","server":"1611","farm":2,"title":"Boat","ispublic":1,"isfriend":0,"isfamily":0,"ownername":"communityboats"},{"id":"25445877434","owner":"130276017@N07","secret":"f8064a0c67","server":"1446","farm":2,"title":"Boat","ispublic":1,"isfriend":0,"isfamily":0,"ownername":"communityboats"},{"id":"25778172440","owner":"130276017@N07","secret":"64635b5de9","server":"1454","farm":2,"title":"Boat","ispublic":1,"isfriend":0,"isfamily":0,"ownername":"communityboats"},{"id":"25418508644","owner":"130276017@N07","secret":"c8d6b4e267","server":"1711","farm":2,"title":"Boat","ispublic":1,"isfriend":0,"isfamily":0,"ownername":"communityboats"}]},"stat":"ok"}