{"photos":{"page":1,"pages":4073,"perpage":15,"total":"61089","photo":[{"id":"8017686530","owner":"85817695@N04","secret":"471b3164eb","server":"8042","farm":9,"title":"Bone","ispublic":1,"isfriend":0,"isfamily":0,"ownername":"Smile With Your Eyes"},{"id":"3481703137","owner":"21090098@N04","secret":"eb65fb2604","server":"3643","farm":4,"title":"BONE","ispublic":1,"isfriend":0,"isfamily":0,"ownername":"KRITERION"},{"id":"15447342588","owner":"62689614@N02","secret":"ebc5a96739","server":"3949","farm":4,"title":"Bones","ispublic":1,"isfriend":0,"isfamily":0,"ownername":"pics by ben"},{"id":"34734533553","owner":"78965224@N05","secret":"eb79abc274","server":"4232","farm":5,"title":"Bone","ispublic":1,"isfriend":0,"isfamily":0,"ownername":"4th horseman"},{"id":"5566433754","owner":"7657544@N02","secret":"c493d99d74","server":"5296","farm":6,"title":"Bone","ispublic":1,"isfriend":0,"isfamily":0,"ownername":"athletic_and_sexy"},{"id":"3501679135","owner":"36280314@N07","secret":"2e996244c0","server":"3402","farm":4,"title":"Bone","ispublic":1,"isfriend":0,"isfamily":0,"ownername":"Northcoast Footcare"},{"id":"1203151569","owner":"86953562@N00","secret":"8cac9f56b5","server":"1078","farm":2,"title":"bone","ispublic":1,"isfriend":0,"isfamily":0,"ownername":"withrow"},{"id":"9137647391","owner":"96749960@N08","secret":"bf56ba3714","server":"3676","farm":4,"title":"bone","ispublic":1,"isfriend":0,"isfamily":0,"ownername":"bob100999"},{"id":"3533453395","owner":"68676478@N00","secret":"dabeaae7a7","server":"2211","farm":3,"title":"Bone","ispublic":1,"isfriend":0,"isfamily":0,"ownername":"cisc1970"},{"id":"5143375348","owner":"55464488@N08","secret":"10cb54f69b","server":"1438","farm":2,"title":"Bone","ispublic":1,"isfriend":0,"isfamily":0,"ownername":"sbrydges"},{"id":"5120886961","owner":"49163199@N06","secret":"49c19cbb3b","server":"4106","farm":5,"title":"bone","ispublic":1,"isfriend":0,"isfamily":0,"ownername":".315GRAFF."},{"id":"3534272176","owner":"68676478@N00","secret":"0a70f87b13","server":"2018","farm":3,"title":"Bone","ispublic":1,"isfriend":0,"isfamily":0,"ownername":"cisc1970"},{"id":"8353971157","owner":"68636024@N07","secret":"e215bbd7f0","server":"8372","farm":9,"title":"Bone","ispublic":1,"isfriend":0,"isfamily":0,"ownername":"MilDas"},{"id":"3091081969","owner":"28812814@N05","secret":"09f4efdc7c","server":"3029","farm":4,"title":"Bone","ispublic":1,"isfriend":0,"isfamily":0,"ownername":"Laurence (Shapeshift Creative)"},{"id":"4649223989","owner":"49230776@N05","secret":"d76972598f","server":"3131","farm":4,"title":"Bones","ispublic":1,"isfriend":0,"isfamily":0,"ownername":"emarobinson"}]},"stat":"ok"}