{"photos":{"page":1,"pages":48150,"perpage":15,"total":"722246","photo":[{"id":"5355615248","owner":"47519419@N00","secret":"3947fa16fd","server":"5090","farm":6,"title":"books","ispublic":1,"isfriend":0,"isfamily":0,"ownername":"Michael Casey"},{"id":"11813616584","owner":"113563605@N05","secret":"730d2b3b9d","server":"2839","farm":3,"title":"books","ispublic":1,"isfriend":0,"isfamily":0,"ownername":"christyanequan"},{"id":"5355622456","owner":"47519419@N00","secret":"9ffaacf772","server":"5005","farm":6,"title":"books","ispublic":1,"isfriend":0,"isfamily":0,"ownername":"Michael Casey"},{"id":"41314320684","owner":"8127690@N03","secret":"313a640fac","server":"960","farm":1,"title":"Books","ispublic":1,"isfriend":0,"isfamily":0,"ownername":"John Kannenberg"},{"id":"28161345318","owner":"8127690@N03","secret":"055f016f64","server":"824","farm":1,"title":"Books","ispublic":1,"isfriend":0,"isfamily":0,"ownername":"John Kannenberg"},{"id":"41314316504","owner":"8127690@N03","secret":"5364dfb63a","server":"952","farm":1,"title":"Books","ispublic":1,"isfriend":0,"isfamily":0,"ownername":"John Kannenberg"},{"id":"39664194771","owner":"134877924@N05","secret":"c279ebcf5e","server":"4763","farm":5,"title":"the aged book","ispublic":1,"isfriend":0,"isfamily":0,"ownername":"Matthias_M."},{"id":"27583179989","owner":"131523756@N07","secret":"2dbccbcc25","server":"4737","farm":5,"title":"Books","ispublic":1,"isfriend":0,"isfamily":0,"ownername":"MeghanMMurphy"},{"id":"33310222468","owner":"156596756@N08","secret":"8461952462","server":"7801","farm":8,"title":"14","ispublic":1,"isfriend":0,"isfamily":0,"ownername":"multisultion"},{"id":"26403265618","owner":"78747203@N08","secret":"2bc0d7c1c8","server":"4749","farm":5,"title":"Books!","ispublic":1,"isfriend":0,"isfamily":0,"ownername":"Daniela 59"},{"id":"7844360618","owner":"65004052@N00","secret":"b4e9e270fb","server":"8293","farm":9,"title":"Escape Velocity cyberculture at the end of the century - Mark Dery","ispublic":1,"isfriend":0,"isfamily":0,"ownername":"scorzonera"},{"id":"37322416524","owner":"135007482@N07","secret":"0ea67c2b34","server":"4492","farm":5,"title":"Books wallpapers by Telasm","ispublic":1,"isfriend":0,"isfamily":0,"ownername":"intervodoi"},{"id":"27323811677","owner":"81245056@N05","secret":"5acc0cdfc2","server":"965","farm":1,"title":"Book...","ispublic":1,"isfriend":0,"isfamily":0,"ownername":"K.BERK\u0130N"},{"id":"8509681725","owner":"31134010@N02","secret":"6116dde0d3","server":"8227","farm":9,"title":"book for cook","ispublic":1,"isfriend":0,"isfamily":0,"ownername":"Elisakitty's Kitchen"},{"id":"7996936934","owner":"78961500@N06","secret":"075ed36318","server":"8440","farm":9,"title":"\"Good for a Laugh\" by Bennett Cerf","ispublic":1,"isfriend":0,"isfamily":0,"ownername":"worldofmateo"}]},"stat":"ok"}