{"photos":{"page":1,"pages":4145,"perpage":15,"total":"62164","photo":[{"id":"11478552736","owner":"85946424@N05","secret":"f11e8726e2","server":"2814","farm":3,"title":"Boulevard","ispublic":1,"isfriend":0,"isfamily":0,"ownername":"m0nt2"},{"id":"25318725881","owner":"58771048@N06","secret":"2e21851e3e","server":"1597","farm":2,"title":"Boulevard","ispublic":1,"isfriend":0,"isfamily":0,"ownername":"Javier Rodrigo Junyent"},{"id":"27358626723","owner":"58771048@N06","secret":"9406353fef","server":"7354","farm":8,"title":"Boulevard","ispublic":1,"isfriend":0,"isfamily":0,"ownername":"Javier Rodrigo Junyent"},{"id":"28460254138","owner":"90365553@N08","secret":"aa765a608d","server":"881","farm":1,"title":"Boulevard","ispublic":1,"isfriend":0,"isfamily":0,"ownername":"Jean S.."},{"id":"3531528295","owner":"53057579@N00","secret":"c8fdd678da","server":"2290","farm":3,"title":"Boulevard","ispublic":1,"isfriend":0,"isfamily":0,"ownername":"MEDOKS 127"},{"id":"16203718640","owner":"92851928@N00","secret":"2252d24d51","server":"7294","farm":8,"title":"Boulevard","ispublic":1,"isfriend":0,"isfamily":0,"ownername":"Assaf Shtilman"},{"id":"24232574522","owner":"58771048@N06","secret":"e45723b4e1","server":"1529","farm":2,"title":"Boulevard","ispublic":1,"isfriend":0,"isfamily":0,"ownername":"Javier Rodrigo Junyent"},{"id":"4806345764","owner":"44298964@N02","secret":"787de068cd","server":"4121","farm":5,"title":"boulevard","ispublic":1,"isfriend":0,"isfamily":0,"ownername":"misone2000"},{"id":"6863039115","owner":"49564394@N07","secret":"56111fb6a3","server":"7051","farm":8,"title":"Boulevard","ispublic":1,"isfriend":0,"isfamily":0,"ownername":"Mathijs Bakker"},{"id":"6863040057","owner":"49564394@N07","secret":"64ff7b1c6e","server":"7037","farm":8,"title":"Boulevard","ispublic":1,"isfriend":0,"isfamily":0,"ownername":"Mathijs Bakker"},{"id":"6863040779","owner":"49564394@N07","secret":"011c37f36b","server":"7200","farm":8,"title":"Boulevard","ispublic":1,"isfriend":0,"isfamily":0,"ownername":"Mathijs Bakker"},{"id":"7103491273","owner":"57911199@N07","secret":"35867e1dab","server":"7192","farm":8,"title":"Berlin Boulevard","ispublic":1,"isfriend":0,"isfamily":0,"ownername":"daniel pintaric"},{"id":"40218361402","owner":"63018044@N02","secret":"2bdebea284","server":"4696","farm":5,"title":"Boulevard","ispublic":1,"isfriend":0,"isfamily":0,"ownername":"Omroep Zeeland"},{"id":"6863037605","owner":"49564394@N07","secret":"a5418013f9","server":"7182","farm":8,"title":"Boulevard","ispublic":1,"isfriend":0,"isfamily":0,"ownername":"Mathijs Bakker"},{"id":"4510660928","owner":"49094937@N06","secret":"39f4ed134c","server":"4046","farm":5,"title":"Boulevard","ispublic":1,"isfriend":0,"isfamily":0,"ownername":"baerbel.n"}]},"stat":"ok"}