{"photos":{"page":1,"pages":16180,"perpage":15,"total":"242693","photo":[{"id":"15639214521","owner":"125148179@N02","secret":"8b1f25cd55","server":"3935","farm":4,"title":"Baro, the flying Boxer :-)))","ispublic":1,"isfriend":0,"isfamily":0,"ownername":"Holger Losekann"},{"id":"14267662460","owner":"125148179@N02","secret":"41b70f8bed","server":"5117","farm":6,"title":"Baro, unser Boxer","ispublic":1,"isfriend":0,"isfamily":0,"ownername":"Holger Losekann"},{"id":"13559769664","owner":"34288348@N07","secret":"b1f15d201a","server":"3776","farm":4,"title":"The Boxer","ispublic":1,"isfriend":0,"isfamily":0,"ownername":"DameBoudicca"},{"id":"2921086177","owner":"17913004@N06","secret":"dff8e9bc2b","server":"2266","farm":3,"title":"Bruno - Boxer gigante","ispublic":1,"isfriend":0,"isfamily":0,"ownername":"G.hostbuster (Gigi)"},{"id":"6320385345","owner":"40869150@N04","secret":"0866e0ea68","server":"6215","farm":7,"title":"The Boxer","ispublic":1,"isfriend":0,"isfamily":0,"ownername":"elyse&dogs"},{"id":"7927374442","owner":"27415256@N00","secret":"c3f3050e00","server":"8461","farm":9,"title":"the boxer","ispublic":1,"isfriend":0,"isfamily":0,"ownername":"bluechameleon"},{"id":"3352319393","owner":"30441963@N00","secret":"d8e6c79d09","server":"3582","farm":4,"title":"Boxer At the Park","ispublic":1,"isfriend":0,"isfamily":0,"ownername":"frosty lime"},{"id":"15418564416","owner":"67730028@N05","secret":"04ba0f9184","server":"3936","farm":4,"title":"Boxer","ispublic":1,"isfriend":0,"isfamily":0,"ownername":"Vanderli S. Ribeiro"},{"id":"1825989948","owner":"16895732@N06","secret":"e7d1fe6cb6","server":"2268","farm":3,"title":"boxer_em_tulipas","ispublic":1,"isfriend":0,"isfamily":0,"ownername":"guilherme lepca"},{"id":"6413760701","owner":"30660497@N02","secret":"a1124aab95","server":"6234","farm":7,"title":"BOXER","ispublic":1,"isfriend":0,"isfamily":0,"ownername":"Lace1952"},{"id":"4032104058","owner":"10877284@N00","secret":"8a74a5e973","server":"2735","farm":3,"title":"Boxer","ispublic":1,"isfriend":0,"isfamily":0,"ownername":"Alfredo11"},{"id":"3414707948","owner":"12345580@N07","secret":"45dcc5e9e5","server":"3646","farm":4,"title":"Boxers","ispublic":1,"isfriend":0,"isfamily":0,"ownername":"Dave F Barker"},{"id":"2552759027","owner":"7457595@N05","secret":"5bfe287aae","server":"3083","farm":4,"title":"Boxer","ispublic":1,"isfriend":0,"isfamily":0,"ownername":"Time Grabber"},{"id":"15789981905","owner":"128926061@N07","secret":"136aee9ec4","server":"7580","farm":8,"title":"Boxer","ispublic":1,"isfriend":0,"isfamily":0,"ownername":"Dennis Teepunkt"},{"id":"6084651285","owner":"25420866@N05","secret":"a36cb9b912","server":"6184","farm":7,"title":"The Boxer","ispublic":1,"isfriend":0,"isfamily":0,"ownername":"shastadaisy~"}]},"stat":"ok"}