{"photos":{"page":1,"pages":56165,"perpage":15,"total":"842462","photo":[{"id":"6481888433","owner":"10230114@N06","secret":"5f40b623ca","server":"7021","farm":8,"title":"Boys","ispublic":1,"isfriend":0,"isfamily":0,"ownername":"AdjaFong"},{"id":"3397098382","owner":"35560608@N07","secret":"c1ed53702a","server":"3461","farm":4,"title":"boys","ispublic":1,"isfriend":0,"isfamily":0,"ownername":"Mathias Sondermann"},{"id":"35458797734","owner":"154929156@N05","secret":"f2f9b94bbf","server":"4314","farm":5,"title":"Boys","ispublic":1,"isfriend":0,"isfamily":0,"ownername":"petrimarga"},{"id":"127012891","owner":"93016203@N00","secret":"f24e8eba52","server":"25","farm":1,"title":"boy!","ispublic":1,"isfriend":0,"isfamily":0,"ownername":"Bernard Ang EK"},{"id":"11669822424","owner":"82806152@N06","secret":"c5acf4fd37","server":"7295","farm":8,"title":"Boy","ispublic":1,"isfriend":0,"isfamily":0,"ownername":"Iredell County Public Library"},{"id":"6914159156","owner":"66072955@N06","secret":"ab446288f9","server":"7259","farm":8,"title":"boys","ispublic":1,"isfriend":0,"isfamily":0,"ownername":"ptasuku"},{"id":"2997749343","owner":"81098784@N00","secret":"4bc1890374","server":"3177","farm":4,"title":"boys","ispublic":1,"isfriend":0,"isfamily":0,"ownername":"torontofotobug"},{"id":"3910030711","owner":"42228363@N07","secret":"f5c81a39ea","server":"2672","farm":3,"title":"boys","ispublic":1,"isfriend":0,"isfamily":0,"ownername":"psarianos"},{"id":"4623713074","owner":"9651214@N07","secret":"1f6c7204aa","server":"3317","farm":4,"title":"boys","ispublic":1,"isfriend":0,"isfamily":0,"ownername":"unicornbeauty"},{"id":"1907775771","owner":"15302932@N06","secret":"25ac20c416","server":"2203","farm":3,"title":"Boys","ispublic":1,"isfriend":0,"isfamily":0,"ownername":"anferneedan"},{"id":"23767942585","owner":"128277679@N08","secret":"0b94c7a624","server":"5797","farm":6,"title":"Boys","ispublic":1,"isfriend":0,"isfamily":0,"ownername":"Dizzy Dance Venray"},{"id":"6234028039","owner":"52538477@N05","secret":"54b4334043","server":"6221","farm":7,"title":"boys","ispublic":1,"isfriend":0,"isfamily":0,"ownername":"mari malinina"},{"id":"5417733021","owner":"59136726@N06","secret":"cfc48a0131","server":"5253","farm":6,"title":"Boys","ispublic":1,"isfriend":0,"isfamily":0,"ownername":"Lex Volkov"},{"id":"23680537248","owner":"149020698@N08","secret":"c4f51fdbca","server":"4497","farm":5,"title":"boys","ispublic":1,"isfriend":0,"isfamily":0,"ownername":"sandrorotonaria"}]},"stat":"ok"}