{"photos":{"page":1,"pages":41744,"perpage":15,"total":"626151","photo":[{"id":"12101654636","owner":"72602196@N08","secret":"88f5efc467","server":"3678","farm":4,"title":"Fr\u00fchst\u00fcck :-)-breakfast :-)","ispublic":1,"isfriend":0,"isfamily":0,"ownername":"Anke knipst"},{"id":"8269591139","owner":"42695297@N05","secret":"1d0288dab7","server":"8361","farm":9,"title":"yellow breakfast","ispublic":1,"isfriend":0,"isfamily":0,"ownername":"don't-panic"},{"id":"7852026050","owner":"19396658@N00","secret":"3fd72271f8","server":"8301","farm":9,"title":"Breakfast","ispublic":1,"isfriend":0,"isfamily":0,"ownername":"\u2654 Georgie R"},{"id":"8632934236","owner":"59437997@N05","secret":"6cbaae3d24","server":"8398","farm":9,"title":"Breakfast in Sri Lanka","ispublic":1,"isfriend":0,"isfamily":0,"ownername":"departing(YYZ)"},{"id":"5353405421","owner":"36794136@N04","secret":"7f71c648e9","server":"5281","farm":6,"title":"At breakfast one morning","ispublic":1,"isfriend":0,"isfamily":0,"ownername":"Pink Scarf"},{"id":"10606424964","owner":"32059995@N00","secret":"3f506aa194","server":"5531","farm":6,"title":"Legend Breakfast","ispublic":1,"isfriend":0,"isfamily":0,"ownername":"pickled_newt"},{"id":"20341226454","owner":"57364504@N08","secret":"f3493f91c4","server":"730","farm":1,"title":"breakfast","ispublic":1,"isfriend":0,"isfamily":0,"ownername":"milky-an"},{"id":"80004731","owner":"49488259@N00","secret":"8cf4280add","server":"39","farm":1,"title":"Breakfast of Kings","ispublic":1,"isfriend":0,"isfamily":0,"ownername":"Pieter Pieterse"},{"id":"13186325525","owner":"92999708@N04","secret":"38e2d9332d","server":"3757","farm":4,"title":"Breakfast","ispublic":1,"isfriend":0,"isfamily":0,"ownername":"TDYLN"},{"id":"15718978279","owner":"29069717@N02","secret":"c041853d1b","server":"7465","farm":8,"title":"Breakfast at Big House Cafe, Casa Grande, AZ","ispublic":1,"isfriend":0,"isfamily":0,"ownername":"classic_film"},{"id":"4064115852","owner":"31929913@N04","secret":"4983ac595a","server":"2777","farm":3,"title":"breakfast","ispublic":1,"isfriend":0,"isfamily":0,"ownername":"hokipoki"},{"id":"6877219158","owner":"40962351@N00","secret":"77cee01cbf","server":"7245","farm":8,"title":"breakfast at squires guest house","ispublic":1,"isfriend":0,"isfamily":0,"ownername":"lomokev"},{"id":"8380004305","owner":"68896303@N05","secret":"3b6a158c3a","server":"8329","farm":9,"title":"breakfast","ispublic":1,"isfriend":0,"isfamily":0,"ownername":"AlivaPam"},{"id":"5401391062","owner":"47071017@N03","secret":"083df5192b","server":"5255","farm":6,"title":"breakfast?","ispublic":1,"isfriend":0,"isfamily":0,"ownername":"sasapy_snoopy"},{"id":"9501123496","owner":"97317690@N06","secret":"4b416a3da0","server":"7347","farm":8,"title":"breakfast_bacon_eggs","ispublic":1,"isfriend":0,"isfamily":0,"ownername":"daughtersofcambodia"}]},"stat":"ok"}