{"photos":{"page":1,"pages":4283,"perpage":15,"total":"64237","photo":[{"id":"20330970360","owner":"126579913@N03","secret":"80c9dcc8cb","server":"5677","farm":6,"title":"Morning Breeze","ispublic":1,"isfriend":0,"isfamily":0,"ownername":"Ben_Rea"},{"id":"16750875138","owner":"28145073@N08","secret":"0bbbd111b5","server":"7620","farm":8,"title":"Breeze","ispublic":1,"isfriend":0,"isfamily":0,"ownername":"Moyan_Brenn"},{"id":"3840869112","owner":"39545579@N00","secret":"0e5e11d41c","server":"3442","farm":4,"title":"Breeze","ispublic":1,"isfriend":0,"isfamily":0,"ownername":"losy"},{"id":"2630320938","owner":"46973832@N00","secret":"c6982e2bb7","server":"3160","farm":4,"title":"Breeze !!","ispublic":1,"isfriend":0,"isfamily":0,"ownername":"Twiggy Tu"},{"id":"5093028421","owner":"15211606@N06","secret":"e9ed179cdc","server":"4085","farm":5,"title":"breeze friendly","ispublic":1,"isfriend":0,"isfamily":0,"ownername":"Ev@ ;-)"},{"id":"19741592232","owner":"112216946@N05","secret":"f21a306e98","server":"358","farm":1,"title":"Breeze 2015 - SOOC","ispublic":1,"isfriend":0,"isfamily":0,"ownername":"R.S. photos"},{"id":"3367330319","owner":"31343451@N00","secret":"74ce21d10a","server":"3427","farm":4,"title":"Sea breeze ...","ispublic":1,"isfriend":0,"isfamily":0,"ownername":"juntos ( MOSTLY OFF)"},{"id":"480825019","owner":"40792736@N00","secret":"dcd0ec0bd8","server":"216","farm":1,"title":"silent breeze","ispublic":1,"isfriend":0,"isfamily":0,"ownername":"~EvidencE~"},{"id":"4520350584","owner":"8367092@N02","secret":"c793fabc00","server":"2774","farm":3,"title":"Breeze","ispublic":1,"isfriend":0,"isfamily":0,"ownername":"SeXeS"},{"id":"3295463344","owner":"15292464@N04","secret":"2558538213","server":"3645","farm":4,"title":"Shooten The Breeze","ispublic":1,"isfriend":0,"isfamily":0,"ownername":"Jon in Thailand"},{"id":"1347514636","owner":"9718219@N08","secret":"2ae6fa174b","server":"1231","farm":2,"title":"Breeze","ispublic":1,"isfriend":0,"isfamily":0,"ownername":"freestylegirlzz"},{"id":"3620255891","owner":"97376099@N00","secret":"77d6102fc8","server":"3373","farm":4,"title":"Breeze","ispublic":1,"isfriend":0,"isfamily":0,"ownername":"Imapix"},{"id":"15657134860","owner":"68572309@N04","secret":"cc7ac2207c","server":"7499","farm":8,"title":"#Breeze and Boundaries","ispublic":1,"isfriend":0,"isfamily":0,"ownername":"graceindirain"},{"id":"18353144532","owner":"45540741@N06","secret":"d0c22b685f","server":"7749","farm":8,"title":"Light Breeze","ispublic":1,"isfriend":0,"isfamily":0,"ownername":"Opiesse"},{"id":"3949917525","owner":"7530009@N06","secret":"49115af08b","server":"2531","farm":3,"title":"breeze","ispublic":1,"isfriend":0,"isfamily":0,"ownername":"hardyc"}]},"stat":"ok"}