{"photos":{"page":1,"pages":30246,"perpage":15,"total":"453676","photo":[{"id":"9918816275","owner":"103104105@N04","secret":"cd037516f3","server":"5544","farm":6,"title":"Brick Wall","ispublic":1,"isfriend":0,"isfamily":0,"ownername":"gibson girl photography"},{"id":"8190604059","owner":"66472246@N03","secret":"2443b863c0","server":"8485","farm":9,"title":"Brick","ispublic":1,"isfriend":0,"isfamily":0,"ownername":"Charlie_Bordon"},{"id":"5605957351","owner":"38077176@N03","secret":"625e06c1de","server":"5229","farm":6,"title":"brick","ispublic":1,"isfriend":0,"isfamily":0,"ownername":"pattyloof"},{"id":"827528543","owner":"84949728@N00","secret":"2ab1589e60","server":"1282","farm":2,"title":"Brick","ispublic":1,"isfriend":0,"isfamily":0,"ownername":"Derek Bridges"},{"id":"4651651071","owner":"43891260@N06","secret":"d5a7c91a53","server":"4007","farm":5,"title":"Bricks","ispublic":1,"isfriend":0,"isfamily":0,"ownername":"Jon Linnell"},{"id":"5252319871","owner":"57134288@N00","secret":"0c9e29cf0f","server":"5042","farm":6,"title":"Bricks","ispublic":1,"isfriend":0,"isfamily":0,"ownername":"atxryan"},{"id":"153381142","owner":"80909249@N00","secret":"4aa1ee6f1e","server":"73","farm":1,"title":"brick","ispublic":1,"isfriend":0,"isfamily":0,"ownername":"F33"},{"id":"37986650","owner":"14773033@N00","secret":"2ffa3c93a9","server":"25","farm":1,"title":"Bricks","ispublic":1,"isfriend":0,"isfamily":0,"ownername":"rstovall"},{"id":"10730547786","owner":"88364173@N00","secret":"8328e77e15","server":"5544","farm":6,"title":"Brick","ispublic":1,"isfriend":0,"isfamily":0,"ownername":"Beach650"},{"id":"2509317731","owner":"34653019@N00","secret":"cb321b6bc7","server":"3278","farm":4,"title":"Bricks","ispublic":1,"isfriend":0,"isfamily":0,"ownername":"Heather Leah Kennedy"},{"id":"5371171735","owner":"41089364@N08","secret":"3b65a8cdae","server":"5082","farm":6,"title":"Bricks","ispublic":1,"isfriend":0,"isfamily":0,"ownername":"davegardner0"},{"id":"4819621094","owner":"14436541@N02","secret":"ca9c05cb44","server":"4134","farm":5,"title":"bricks","ispublic":1,"isfriend":0,"isfamily":0,"ownername":"nyya"},{"id":"8245958052","owner":"64095527@N00","secret":"4057c1393b","server":"8483","farm":9,"title":"Bricks","ispublic":1,"isfriend":0,"isfamily":0,"ownername":"corean scribe"},{"id":"50057381","owner":"21278447@N00","secret":"a67b3a2405","server":"29","farm":1,"title":"Brick","ispublic":1,"isfriend":0,"isfamily":0,"ownername":"qwertyuiop"},{"id":"4909286292","owner":"34469012@N06","secret":"5fb4a35252","server":"4138","farm":5,"title":"bricks","ispublic":1,"isfriend":0,"isfamily":0,"ownername":"mattzimmer"}]},"stat":"ok"}