{"photos":{"page":1,"pages":50471,"perpage":15,"total":"757065","photo":[{"id":"7455007636","owner":"58893185@N02","secret":"1e04fa24b0","server":"7253","farm":8,"title":"Bride","ispublic":1,"isfriend":0,"isfamily":0,"ownername":"dabertphotography.com"},{"id":"10953811743","owner":"62847025@N07","secret":"0310bc0d99","server":"3827","farm":4,"title":"Bride","ispublic":1,"isfriend":0,"isfamily":0,"ownername":"Rackelh"},{"id":"6140646038","owner":"36671408@N05","secret":"53b1cdb182","server":"6190","farm":7,"title":"Bride","ispublic":1,"isfriend":0,"isfamily":0,"ownername":"Old One Eye"},{"id":"6950887185","owner":"41043659@N06","secret":"7018b35f3f","server":"7052","farm":8,"title":"Bride","ispublic":1,"isfriend":0,"isfamily":0,"ownername":"Perl Photography"},{"id":"8055772118","owner":"65638888@N02","secret":"17ec562618","server":"8179","farm":9,"title":"BRIDE","ispublic":1,"isfriend":0,"isfamily":0,"ownername":"Stanley Clifford Rustila"},{"id":"6748419017","owner":"57404679@N07","secret":"e1dc76bb95","server":"7153","farm":8,"title":"Bride","ispublic":1,"isfriend":0,"isfamily":0,"ownername":"yasel0"},{"id":"5919329509","owner":"52029452@N08","secret":"c8cab7df1f","server":"6131","farm":7,"title":"Bride","ispublic":1,"isfriend":0,"isfamily":0,"ownername":"anigvillalobos"},{"id":"919165326","owner":"68141025@N00","secret":"2d979850a5","server":"1341","farm":2,"title":"Bride","ispublic":1,"isfriend":0,"isfamily":0,"ownername":"goodri51"},{"id":"7772458676","owner":"42126008@N08","secret":"ea51b1da72","server":"8281","farm":9,"title":"bride","ispublic":1,"isfriend":0,"isfamily":0,"ownername":"Fochka"},{"id":"3056183181","owner":"26785566@N04","secret":"3a434d88bc","server":"3218","farm":4,"title":"bride","ispublic":1,"isfriend":0,"isfamily":0,"ownername":"amandolin photography"},{"id":"5528965870","owner":"60587996@N03","secret":"7db6922461","server":"5255","farm":6,"title":"bride","ispublic":1,"isfriend":0,"isfamily":0,"ownername":"Geoff_J_Coates"},{"id":"36485285515","owner":"124904608@N03","secret":"76068861b7","server":"4373","farm":5,"title":"Bride","ispublic":1,"isfriend":0,"isfamily":0,"ownername":"Natali Wendt"},{"id":"34717322580","owner":"142364430@N05","secret":"c0979b906d","server":"4246","farm":5,"title":"Bride","ispublic":1,"isfriend":0,"isfamily":0,"ownername":"katiecate"},{"id":"39070872555","owner":"104185028@N06","secret":"9fc8b8bda0","server":"4740","farm":5,"title":"Bride","ispublic":1,"isfriend":0,"isfamily":0,"ownername":"eileen.mccallum"},{"id":"3933570893","owner":"36596954@N04","secret":"dd02c786ff","server":"2428","farm":3,"title":"bride","ispublic":1,"isfriend":0,"isfamily":0,"ownername":"debra kaye"}]},"stat":"ok"}