{"photos":{"page":1,"pages":140412,"perpage":15,"total":"2106173","photo":[{"id":"14594196511","owner":"73422502@N08","secret":"698765be13","server":"3855","farm":4,"title":"Bridge","ispublic":1,"isfriend":0,"isfamily":0,"ownername":"Zeeyolq Photography"},{"id":"11987485463","owner":"44912907@N05","secret":"75933515c5","server":"2872","farm":3,"title":"Bridge","ispublic":1,"isfriend":0,"isfamily":0,"ownername":"Sunsword & Moonsabre"},{"id":"11771860714","owner":"80226011@N06","secret":"e4c1411568","server":"3709","farm":4,"title":"bridge","ispublic":1,"isfriend":0,"isfamily":0,"ownername":"Blueocean64"},{"id":"1394707920","owner":"8391065@N03","secret":"558ee5f0de","server":"1107","farm":2,"title":"Bridge","ispublic":1,"isfriend":0,"isfamily":0,"ownername":"Brian_Roebuck"},{"id":"12010562175","owner":"75487768@N04","secret":"c858cee69c","server":"7324","farm":8,"title":"bridge","ispublic":1,"isfriend":0,"isfamily":0,"ownername":"barnyz"},{"id":"7739421300","owner":"49253686@N04","secret":"2c255502c4","server":"8433","farm":9,"title":"bridge","ispublic":1,"isfriend":0,"isfamily":0,"ownername":"Kuster & Wildhaber Photography"},{"id":"14452930791","owner":"27558040@N00","secret":"beb24c216c","server":"3849","farm":4,"title":"Bridge","ispublic":1,"isfriend":0,"isfamily":0,"ownername":"AstridWestvang"},{"id":"41645368901","owner":"75487768@N04","secret":"4697d6223f","server":"936","farm":1,"title":"bridge","ispublic":1,"isfriend":0,"isfamily":0,"ownername":"barnyz"},{"id":"2347529792","owner":"24860926@N04","secret":"29e2f81f62","server":"2343","farm":3,"title":"Bridge","ispublic":1,"isfriend":0,"isfamily":0,"ownername":"Mentality0"},{"id":"15079924469","owner":"87547772@N00","secret":"0151120449","server":"5568","farm":6,"title":"Bridge","ispublic":1,"isfriend":0,"isfamily":0,"ownername":"Arenamontanus"},{"id":"7387147688","owner":"75083336@N00","secret":"535b2cac9f","server":"5072","farm":6,"title":"Bridge","ispublic":1,"isfriend":0,"isfamily":0,"ownername":"Conal Gallagher"},{"id":"7016570831","owner":"72297647@N00","secret":"c358065504","server":"6111","farm":7,"title":"Bridge","ispublic":1,"isfriend":0,"isfamily":0,"ownername":"beaveggie"},{"id":"9608953247","owner":"99289313@N04","secret":"bbec314f1e","server":"7305","farm":8,"title":"bridge","ispublic":1,"isfriend":0,"isfamily":0,"ownername":"abigalburton"},{"id":"10723009093","owner":"39870654@N04","secret":"d5d9ab75ec","server":"5518","farm":6,"title":"bridge","ispublic":1,"isfriend":0,"isfamily":0,"ownername":"Ant\u00f3nio Alfarroba"},{"id":"4784901301","owner":"7259468@N07","secret":"9f0a945da1","server":"4122","farm":5,"title":"Bridge","ispublic":1,"isfriend":0,"isfamily":0,"ownername":"tulla_girl"}]},"stat":"ok"}