{"photos":{"page":1,"pages":125839,"perpage":15,"total":"1887579","photo":[{"id":"7840251388","owner":"65109745@N08","secret":"ed42a623f7","server":"8424","farm":9,"title":"Brooklyn","ispublic":1,"isfriend":0,"isfamily":0,"ownername":"AMTER"},{"id":"8014131965","owner":"65109745@N08","secret":"a567b454ea","server":"8040","farm":9,"title":"Brooklyn","ispublic":1,"isfriend":0,"isfamily":0,"ownername":"AMTER"},{"id":"8426885891","owner":"65109745@N08","secret":"608bc223ca","server":"8044","farm":9,"title":"Brooklyn","ispublic":1,"isfriend":0,"isfamily":0,"ownername":"AMTER"},{"id":"24138347349","owner":"118296938@N03","secret":"dee6c46c4f","server":"1667","farm":2,"title":"Brooklyn","ispublic":1,"isfriend":0,"isfamily":0,"ownername":"\u263adannicamra\u263a"},{"id":"7516576970","owner":"65109745@N08","secret":"41486a3484","server":"7263","farm":8,"title":"Brooklyn","ispublic":1,"isfriend":0,"isfamily":0,"ownername":"AMTER"},{"id":"27077313606","owner":"28596055@N02","secret":"83a73e8083","server":"7799","farm":8,"title":"brooklyn","ispublic":1,"isfriend":0,"isfamily":0,"ownername":"dorinser"},{"id":"14715420967","owner":"24672027@N06","secret":"bb329db756","server":"3925","farm":4,"title":"Brooklyn","ispublic":1,"isfriend":0,"isfamily":0,"ownername":"Patrick Santucci Photography"},{"id":"28267181485","owner":"58545702@N04","secret":"2dca5e0b57","server":"7756","farm":8,"title":"Brooklyn","ispublic":1,"isfriend":0,"isfamily":0,"ownername":"SinoLaZZeR"},{"id":"5293098837","owner":"64129598@N00","secret":"05d116398a","server":"5007","farm":6,"title":"Brooklyn","ispublic":1,"isfriend":0,"isfamily":0,"ownername":"kaneda99"},{"id":"29993176884","owner":"28596055@N02","secret":"c28ef58fb9","server":"5728","farm":6,"title":"Brooklyn","ispublic":1,"isfriend":0,"isfamily":0,"ownername":"dorinser"},{"id":"8266494048","owner":"35034348860@N01","secret":"74d2f4cafd","server":"8084","farm":9,"title":"Brooklyn","ispublic":1,"isfriend":0,"isfamily":0,"ownername":"Witold Riedel"},{"id":"24460440339","owner":"130405532@N06","secret":"9735dafe6a","server":"1616","farm":2,"title":"Brooklyn","ispublic":1,"isfriend":0,"isfamily":0,"ownername":"Leticia Roncero"},{"id":"36741084985","owner":"50133770@N06","secret":"20518d1ced","server":"4429","farm":5,"title":"Brooklyn","ispublic":1,"isfriend":0,"isfamily":0,"ownername":"UrbanphotoZ"},{"id":"8308482737","owner":"35034348860@N01","secret":"57fe5d9c56","server":"8078","farm":9,"title":"Brooklyn","ispublic":1,"isfriend":0,"isfamily":0,"ownername":"Witold Riedel"},{"id":"14555962574","owner":"26003429@N00","secret":"788d8dbfc6","server":"3878","farm":4,"title":"Brooklyn","ispublic":1,"isfriend":0,"isfamily":0,"ownername":"Mark Liddell"}]},"stat":"ok"}