{"photos":{"page":1,"pages":53857,"perpage":15,"total":"807842","photo":[{"id":"3023845886","owner":"11985211@N02","secret":"02a6dac9c4","server":"3291","farm":4,"title":"Browns","ispublic":1,"isfriend":0,"isfamily":0,"ownername":"KeelHauled Mike"},{"id":"22542754207","owner":"91619997@N04","secret":"47d67cbe95","server":"567","farm":1,"title":"Brown","ispublic":1,"isfriend":0,"isfamily":0,"ownername":"De Rode Olifant"},{"id":"6109114229","owner":"26169502@N02","secret":"9d6e521893","server":"6061","farm":7,"title":"Brown~","ispublic":1,"isfriend":0,"isfamily":0,"ownername":"Dressy Doll"},{"id":"7695485278","owner":"75960517@N07","secret":"444a96cd7f","server":"7124","farm":8,"title":"brown","ispublic":1,"isfriend":0,"isfamily":0,"ownername":"adelina.wu"},{"id":"45896690261","owner":"148093908@N08","secret":"895404ffee","server":"4916","farm":5,"title":"Brown","ispublic":1,"isfriend":0,"isfamily":0,"ownername":"RoxMontana"},{"id":"8133495247","owner":"67692352@N03","secret":"54afb9e9f9","server":"8326","farm":9,"title":"brown","ispublic":1,"isfriend":0,"isfamily":0,"ownername":"CrackerBrush"},{"id":"2280125315","owner":"7446862@N05","secret":"0d7d2705c3","server":"2075","farm":3,"title":"Brown","ispublic":1,"isfriend":0,"isfamily":0,"ownername":"Foto-Work"},{"id":"8487418952","owner":"43668115@N02","secret":"05aaf9309f","server":"8530","farm":9,"title":"Brown","ispublic":1,"isfriend":0,"isfamily":0,"ownername":"Priscila Costa!"},{"id":"32942740238","owner":"143529937@N08","secret":"3586f4754d","server":"4865","farm":5,"title":"browns","ispublic":1,"isfriend":0,"isfamily":0,"ownername":"lavetasegura"},{"id":"2909993907","owner":"9776474@N05","secret":"feb87298ff","server":"3004","farm":4,"title":"Brown","ispublic":1,"isfriend":0,"isfamily":0,"ownername":"Gary Oldmeadow"},{"id":"4961738162","owner":"51487118@N04","secret":"770f5fabb6","server":"4130","farm":5,"title":"brown","ispublic":1,"isfriend":0,"isfamily":0,"ownername":"andzy_inside"},{"id":"18637525355","owner":"124706007@N05","secret":"d8be97e658","server":"388","farm":1,"title":"Brown","ispublic":1,"isfriend":0,"isfamily":0,"ownername":"Sa Mu"},{"id":"15237116849","owner":"83293410@N00","secret":"f14f50d4e2","server":"5597","farm":6,"title":"Brown","ispublic":1,"isfriend":0,"isfamily":0,"ownername":"Pedro Valadares"},{"id":"7858506750","owner":"78929560@N08","secret":"1a29c74f0d","server":"8296","farm":9,"title":"BROWN","ispublic":1,"isfriend":0,"isfamily":0,"ownername":"Eva Carollo Photography"},{"id":"3398471777","owner":"23488426@N02","secret":"f72a2391d3","server":"3442","farm":4,"title":"brown","ispublic":1,"isfriend":0,"isfamily":0,"ownername":"nataliecreates"}]},"stat":"ok"}