{"photos":{"page":1,"pages":5788,"perpage":15,"total":"86820","photo":[{"id":"4474177140","owner":"30031029@N08","secret":"3f72e0f447","server":"4057","farm":5,"title":"Bubbles","ispublic":1,"isfriend":0,"isfamily":0,"ownername":"Cynthia I. Rogers"},{"id":"14867433441","owner":"99715062@N06","secret":"0abcece8b9","server":"3874","farm":4,"title":"Bubbles","ispublic":1,"isfriend":0,"isfamily":0,"ownername":"SkylarkUK"},{"id":"6072092691","owner":"21940155@N03","secret":"1b40ba757c","server":"6066","farm":7,"title":"bubble","ispublic":1,"isfriend":0,"isfamily":0,"ownername":"judju75"},{"id":"5053809218","owner":"11900735@N08","secret":"c36eb10d83","server":"4088","farm":5,"title":"bubble","ispublic":1,"isfriend":0,"isfamily":0,"ownername":"wifeeg too busy"},{"id":"5523408156","owner":"38753393@N04","secret":"d6fc919878","server":"5220","farm":6,"title":"Bubble","ispublic":1,"isfriend":0,"isfamily":0,"ownername":"AngieGonza"},{"id":"7818006770","owner":"43919107@N02","secret":"126258def7","server":"8295","farm":9,"title":"Bubble","ispublic":1,"isfriend":0,"isfamily":0,"ownername":"Tony Beyga"},{"id":"10495082295","owner":"106698167@N03","secret":"535fafaba1","server":"7289","farm":8,"title":"Bubble","ispublic":1,"isfriend":0,"isfamily":0,"ownername":"Megs \u2730"},{"id":"5786983409","owner":"49300845@N03","secret":"55fed72d71","server":"3541","farm":4,"title":"Bubble","ispublic":1,"isfriend":0,"isfamily":0,"ownername":"pierre.photo77"},{"id":"9942464526","owner":"103275035@N04","secret":"cde692e71a","server":"3801","farm":4,"title":"Bubble","ispublic":1,"isfriend":0,"isfamily":0,"ownername":"BY DIMWORKS"},{"id":"15998584144","owner":"50604111@N07","secret":"d0f66f0e62","server":"8614","farm":9,"title":"bubble","ispublic":1,"isfriend":0,"isfamily":0,"ownername":"diones76"},{"id":"6410525105","owner":"34814018@N00","secret":"2d48b80017","server":"7154","farm":8,"title":"Bubble","ispublic":1,"isfriend":0,"isfamily":0,"ownername":"Juha Riissanen"},{"id":"7168677869","owner":"80216932@N03","secret":"2f2bdd8e59","server":"8155","farm":9,"title":"bubble","ispublic":1,"isfriend":0,"isfamily":0,"ownername":"Necozalenky"},{"id":"6076119661","owner":"54376839@N07","secret":"77eefbba2b","server":"6078","farm":7,"title":"Bubble","ispublic":1,"isfriend":0,"isfamily":0,"ownername":"TEEMIDPIX"},{"id":"3690054656","owner":"33199469@N03","secret":"345ce4c7f9","server":"2427","farm":3,"title":"Bubble","ispublic":1,"isfriend":0,"isfamily":0,"ownername":"CintaItuPinkDanPurple"},{"id":"4446300149","owner":"48170000@N06","secret":"c93c53d1a5","server":"4042","farm":5,"title":"bubble","ispublic":1,"isfriend":0,"isfamily":0,"ownername":"KwickWit"}]},"stat":"ok"}