{"photos":{"page":1,"pages":15580,"perpage":15,"total":"233700","photo":[{"id":"3270956633","owner":"69081255@N00","secret":"e328de8f89","server":"3462","farm":4,"title":"Bull","ispublic":1,"isfriend":0,"isfamily":0,"ownername":"eyespi20"},{"id":"3654882667","owner":"37787706@N08","secret":"d0a57e913c","server":"3365","farm":4,"title":"Bull","ispublic":1,"isfriend":0,"isfamily":0,"ownername":"stenroos"},{"id":"2650770318","owner":"21519910@N00","secret":"6f0680d151","server":"3089","farm":4,"title":"Bull","ispublic":1,"isfriend":0,"isfamily":0,"ownername":"Luiz Adriano"},{"id":"311181377","owner":"21809977@N00","secret":"2486b95b92","server":"99","farm":1,"title":"Bull","ispublic":1,"isfriend":0,"isfamily":0,"ownername":"gebodogs"},{"id":"2649941687","owner":"21519910@N00","secret":"fd3c71fba3","server":"3086","farm":4,"title":"Bull","ispublic":1,"isfriend":0,"isfamily":0,"ownername":"Luiz Adriano"},{"id":"4594041155","owner":"19361731@N00","secret":"a6fb8cda4c","server":"3392","farm":4,"title":"BULL","ispublic":1,"isfriend":0,"isfamily":0,"ownername":"Girish Ramesh"},{"id":"3410651668","owner":"37022056@N07","secret":"5ae48c8a49","server":"3555","farm":4,"title":"Bull","ispublic":1,"isfriend":0,"isfamily":0,"ownername":"Josh Fowler"},{"id":"3580334969","owner":"11513040@N02","secret":"307e367c00","server":"2425","farm":3,"title":"BULL!","ispublic":1,"isfriend":0,"isfamily":0,"ownername":"Dale Edmondson"},{"id":"8458681569","owner":"26223114@N02","secret":"ae61b8a9b3","server":"8532","farm":9,"title":"Bull (2)","ispublic":1,"isfriend":0,"isfamily":0,"ownername":"4nitsirk"},{"id":"10110805096","owner":"59333792@N05","secret":"a2932009e0","server":"2861","farm":3,"title":"Bull Elk","ispublic":1,"isfriend":0,"isfamily":0,"ownername":"Larry Gridley"},{"id":"2601484035","owner":"26408442@N05","secret":"90d84f62a7","server":"3119","farm":4,"title":"stomping romping bull","ispublic":1,"isfriend":0,"isfamily":0,"ownername":"nodamspam"},{"id":"29870100527","owner":"159940644@N08","secret":"c95dd1123a","server":"1871","farm":2,"title":"Bull","ispublic":1,"isfriend":0,"isfamily":0,"ownername":"StoresundPhoto"},{"id":"39471543330","owner":"16593704@N04","secret":"65b2496b68","server":"810","farm":1,"title":"Friendly (?) bull","ispublic":1,"isfriend":0,"isfamily":0,"ownername":"Rachel EMF"},{"id":"4703697280","owner":"22812389@N06","secret":"d7bf6d3aa0","server":"4045","farm":5,"title":"Bull","ispublic":1,"isfriend":0,"isfamily":0,"ownername":"jurlacher"},{"id":"3000948317","owner":"8173440@N02","secret":"3a61efa64d","server":"3201","farm":4,"title":"Bull Moose","ispublic":1,"isfriend":0,"isfamily":0,"ownername":"Shooting Squared"}]},"stat":"ok"}