{"photos":{"page":1,"pages":7050,"perpage":15,"total":"105746","photo":[{"id":"167647859","owner":"18212252@N00","secret":"616f771a98","server":"64","farm":1,"title":"burning","ispublic":1,"isfriend":0,"isfamily":0,"ownername":"vanni opv"},{"id":"7006475244","owner":"35606379@N07","secret":"21e58c6cbc","server":"8148","farm":9,"title":"Burn","ispublic":1,"isfriend":0,"isfamily":0,"ownername":"koeb"},{"id":"8626572787","owner":"71952913@N00","secret":"b9cfa93081","server":"8244","farm":9,"title":"Burning","ispublic":1,"isfriend":0,"isfamily":0,"ownername":"ricko"},{"id":"4581129518","owner":"31687069@N04","secret":"d4f55ed6e7","server":"4052","farm":5,"title":"Burn","ispublic":1,"isfriend":0,"isfamily":0,"ownername":"Eibography"},{"id":"15424512357","owner":"63785972@N03","secret":"ac251c4528","server":"5613","farm":6,"title":"Burn!","ispublic":1,"isfriend":0,"isfamily":0,"ownername":"Andr\u00e9 Ferreira Andrade"},{"id":"4998331609","owner":"8656084@N05","secret":"2b55cfd124","server":"4147","farm":5,"title":"Burn","ispublic":1,"isfriend":0,"isfamily":0,"ownername":"Mi... Po Mi."},{"id":"302342363","owner":"53632249@N00","secret":"3351109a6a","server":"119","farm":1,"title":"Burn","ispublic":1,"isfriend":0,"isfamily":0,"ownername":"I | am | Bernardo"},{"id":"6261489079","owner":"58258207@N02","secret":"16fb2e4e0a","server":"6231","farm":7,"title":"Burn!","ispublic":1,"isfriend":0,"isfamily":0,"ownername":"pannatan"},{"id":"14996608165","owner":"35277092@N07","secret":"88d4c3ab8e","server":"3835","farm":4,"title":"Burn !","ispublic":1,"isfriend":0,"isfamily":0,"ownername":"tyanantes"},{"id":"4138059634","owner":"32642784@N07","secret":"fe83ff14bc","server":"2716","farm":3,"title":"burn","ispublic":1,"isfriend":0,"isfamily":0,"ownername":"jann_soulrock"},{"id":"4889679853","owner":"52981886@N07","secret":"1426f1f226","server":"4093","farm":5,"title":"Burnt","ispublic":1,"isfriend":0,"isfamily":0,"ownername":"Mkylstv"},{"id":"7673552150","owner":"40875081@N06","secret":"36092305b5","server":"7113","farm":8,"title":"Burn!","ispublic":1,"isfriend":0,"isfamily":0,"ownername":"Mike_BW"},{"id":"5232037482","owner":"54717628@N02","secret":"49c3397149","server":"5007","farm":6,"title":"Burn","ispublic":1,"isfriend":0,"isfamily":0,"ownername":"dry3210"},{"id":"14241417040","owner":"56467344@N07","secret":"f2b4514f01","server":"3922","farm":4,"title":"Burning","ispublic":1,"isfriend":0,"isfamily":0,"ownername":"JD Photographie."},{"id":"103068198","owner":"43379187@N00","secret":"dcb6c65da5","server":"35","farm":1,"title":"burn","ispublic":1,"isfriend":0,"isfamily":0,"ownername":"27B\u20146"}]},"stat":"ok"}