{"photos":{"page":1,"pages":9411,"perpage":15,"total":"141154","photo":[{"id":"7470603036","owner":"33685921@N06","secret":"9f5c076d96","server":"7247","farm":8,"title":"burning","ispublic":1,"isfriend":0,"isfamily":0,"ownername":"sundaescoop 8)"},{"id":"3816694413","owner":"25996810@N07","secret":"ab7dc2752c","server":"3560","farm":4,"title":".Burning.","ispublic":1,"isfriend":0,"isfamily":0,"ownername":"pinkk_flame (pinkflame photography)"},{"id":"16247569416","owner":"56218409@N03","secret":"1b89302718","server":"8643","farm":9,"title":"Burning","ispublic":1,"isfriend":0,"isfamily":0,"ownername":"mripp"},{"id":"8595617210","owner":"77135725@N08","secret":"eac8511eeb","server":"8529","farm":9,"title":"Burning","ispublic":1,"isfriend":0,"isfamily":0,"ownername":"CM-PA"},{"id":"16639364248","owner":"128842765@N04","secret":"2e135e38c7","server":"8579","farm":9,"title":"Burn","ispublic":1,"isfriend":0,"isfamily":0,"ownername":"juliambaccent"},{"id":"8626572787","owner":"71952913@N00","secret":"b9cfa93081","server":"8244","farm":9,"title":"Burning","ispublic":1,"isfriend":0,"isfamily":0,"ownername":"ricko"},{"id":"6234469651","owner":"66163043@N06","secret":"3bfb645cdb","server":"6095","farm":7,"title":"burning","ispublic":1,"isfriend":0,"isfamily":0,"ownername":"Mia Minor"},{"id":"5196965276","owner":"27814119@N05","secret":"d7599638db","server":"5201","farm":6,"title":"Burning","ispublic":1,"isfriend":0,"isfamily":0,"ownername":"renaisasweetie"},{"id":"14203092140","owner":"70868155@N03","secret":"9eee57a1ca","server":"3863","farm":4,"title":"Burning wheels","ispublic":1,"isfriend":0,"isfamily":0,"ownername":"I\u00f1igo Echenique \u2714\u2714"},{"id":"3570256573","owner":"8398171@N08","secret":"f212e7a004","server":"2446","farm":3,"title":"burning","ispublic":1,"isfriend":0,"isfamily":0,"ownername":"chris_speuz"},{"id":"4954129905","owner":"27298457@N03","secret":"0199de093a","server":"4149","farm":5,"title":"Burning clouds...(Explored)","ispublic":1,"isfriend":0,"isfamily":0,"ownername":"Pan.101"},{"id":"9279824264","owner":"80522175@N00","secret":"0dc361eeed","server":"5472","farm":6,"title":"burning","ispublic":1,"isfriend":0,"isfamily":0,"ownername":"lowooley."},{"id":"8048494806","owner":"87400308@N08","secret":"ff3c024ff5","server":"8313","farm":9,"title":"Burning","ispublic":1,"isfriend":0,"isfamily":0,"ownername":"National University Polytechnic Institute"},{"id":"2185623138","owner":"8392128@N08","secret":"14a7fa4e44","server":"2384","farm":3,"title":"Burning","ispublic":1,"isfriend":0,"isfamily":0,"ownername":"vinx80x"},{"id":"29627056524","owner":"53332318@N05","secret":"b9835ddd0e","server":"5523","farm":6,"title":"Burning","ispublic":1,"isfriend":0,"isfamily":0,"ownername":"AkomoXoon"}]},"stat":"ok"}