{"photos":{"page":1,"pages":4781,"perpage":15,"total":"71715","photo":[{"id":"7030501257","owner":"23261649@N04","secret":"8b6ae1bf94","server":"6098","farm":7,"title":"Mr. Burns loves Bronica","ispublic":1,"isfriend":0,"isfamily":0,"ownername":"photobsen"},{"id":"15508606349","owner":"55032983@N07","secret":"07cf6333fe","server":"3945","farm":4,"title":"Robert Burns at the Birks of Aberfeldy ~ Explored","ispublic":1,"isfriend":0,"isfamily":0,"ownername":"Margaret S.S"},{"id":"300371513","owner":"90693836@N00","secret":"dc3ec3e73a","server":"109","farm":1,"title":"Albert \"Shrimp\" Burns -- Motorcyclist","ispublic":1,"isfriend":0,"isfamily":0,"ownername":"RV Bob"},{"id":"2395845001","owner":"7705025@N08","secret":"8d8ddf577a","server":"2221","farm":3,"title":"Desire Burns Within","ispublic":1,"isfriend":0,"isfamily":0,"ownername":"smkybear"},{"id":"5609981854","owner":"16569666@N07","secret":"47c46813f0","server":"5023","farm":6,"title":"Jake Luhrs \/\/ August Burns Red","ispublic":1,"isfriend":0,"isfamily":0,"ownername":"jordanvoth.com"},{"id":"475392084","owner":"11292446@N00","secret":"2f838a0cfb","server":"205","farm":1,"title":"Mr Burns","ispublic":1,"isfriend":0,"isfamily":0,"ownername":"fabbriciuse"},{"id":"4843120275","owner":"8623220@N02","secret":"3cc87fae99","server":"4109","farm":5,"title":"[Portrait of Ralph Burns, Edwin A. Finckel, George Handy, Neal Hefti, Johnny Richards, and Eddie Sauter, Museum of Modern Art, New York, N.Y., ca. Mar. 1947] (LOC)","ispublic":1,"isfriend":0,"isfamily":0,"ownername":"The Library of Congress"},{"id":"17219986108","owner":"7156765@N05","secret":"f579371922","server":"7793","farm":8,"title":"Sarasota Florida ~ Karl Bickel Mansion  ~ Burns Reality Co ~ Historic ~ Demolished  ~ Lost","ispublic":1,"isfriend":0,"isfamily":0,"ownername":"Onasill ~ Bill Badzo"},{"id":"5760233357","owner":"48960999@N04","secret":"07fbf9530e","server":"5108","farm":6,"title":"Burn.","ispublic":1,"isfriend":0,"isfamily":0,"ownername":"alesha joy."},{"id":"6685187793","owner":"97716211@N00","secret":"89cb2f4be9","server":"7032","farm":8,"title":"Nina Burns","ispublic":1,"isfriend":0,"isfamily":0,"ownername":"BRANDON TAELOR AVIRAM."},{"id":"12148648965","owner":"65990237@N03","secret":"79e010296d","server":"7342","farm":8,"title":"Robert Burns Monument, Calton Hill, Edinburgh","ispublic":1,"isfriend":0,"isfamily":0,"ownername":"Belhaven2011"},{"id":"5612415824","owner":"16569666@N07","secret":"e036e2e535","server":"5268","farm":6,"title":"JB Brubaker \/\/ August Burns Red","ispublic":1,"isfriend":0,"isfamily":0,"ownername":"jordanvoth.com"},{"id":"1324264634","owner":"9923348@N08","secret":"612af95245","server":"1098","farm":2,"title":"Burning Man 071","ispublic":1,"isfriend":0,"isfamily":0,"ownername":"Jeff_56"},{"id":"2079264830","owner":"21208857@N07","secret":"1790794884","server":"2230","farm":3,"title":"Brooke-Burns-","ispublic":1,"isfriend":0,"isfamily":0,"ownername":"maximiliano1971"},{"id":"9540482800","owner":"97716211@N00","secret":"9450660004","server":"2870","farm":3,"title":"Nina Burns","ispublic":1,"isfriend":0,"isfamily":0,"ownername":"BRANDON TAELOR AVIRAM."}]},"stat":"ok"}