{"photos":{"page":1,"pages":2046,"perpage":15,"total":"30687","photo":[{"id":"4839760415","owner":"42552696@N05","secret":"344944964c","server":"4088","farm":5,"title":"Burst!","ispublic":1,"isfriend":0,"isfamily":0,"ownername":"art\u00a9ore"},{"id":"6946091473","owner":"47290259@N06","secret":"64908490eb","server":"7197","farm":8,"title":"Sonnensterne \u2013 Sun Burst","ispublic":1,"isfriend":0,"isfamily":0,"ownername":"Ostseetroll"},{"id":"6466604681","owner":"46096859@N07","secret":"0de5044697","server":"7162","farm":8,"title":"burst","ispublic":1,"isfriend":0,"isfamily":0,"ownername":"1crzqbn"},{"id":"15283220994","owner":"90585164@N04","secret":"6731669e54","server":"7466","farm":8,"title":"Burst","ispublic":1,"isfriend":0,"isfamily":0,"ownername":"Klaus O'Hearn"},{"id":"9617717236","owner":"34956346@N02","secret":"f873177a83","server":"3730","farm":4,"title":"burst ....!","ispublic":1,"isfriend":0,"isfamily":0,"ownername":"Rnoltenius"},{"id":"44594439924","owner":"159923970@N02","secret":"5d9f1727f0","server":"1935","farm":2,"title":"burst","ispublic":1,"isfriend":0,"isfamily":0,"ownername":"steve.goodies"},{"id":"16399790646","owner":"21960538@N04","secret":"51b5c383a8","server":"8654","farm":9,"title":"Burst","ispublic":1,"isfriend":0,"isfamily":0,"ownername":"Kevin.Wang.Photography"},{"id":"3040660801","owner":"70748714@N00","secret":"f86765068f","server":"3044","farm":4,"title":"Burst","ispublic":1,"isfriend":0,"isfamily":0,"ownername":"Mailman17013"},{"id":"3807047308","owner":"28597989@N06","secret":"aacf7b57af","server":"3424","farm":4,"title":"burst","ispublic":1,"isfriend":0,"isfamily":0,"ownername":"xgoclimbarockx"},{"id":"7619020552","owner":"9412989@N04","secret":"3cc00f71a6","server":"8142","farm":9,"title":"Burst","ispublic":1,"isfriend":0,"isfamily":0,"ownername":"elijah northen"},{"id":"3807047934","owner":"28597989@N06","secret":"43ec29a1dc","server":"3461","farm":4,"title":"burst","ispublic":1,"isfriend":0,"isfamily":0,"ownername":"xgoclimbarockx"},{"id":"3807049230","owner":"28597989@N06","secret":"10696accd2","server":"2547","farm":3,"title":"burst","ispublic":1,"isfriend":0,"isfamily":0,"ownername":"xgoclimbarockx"},{"id":"306321770","owner":"47367664@N00","secret":"430a9f665b","server":"112","farm":1,"title":"Burst","ispublic":1,"isfriend":0,"isfamily":0,"ownername":"spader"},{"id":"3826987587","owner":"39435259@N08","secret":"cf9e52cf2d","server":"2462","farm":3,"title":"Burst","ispublic":1,"isfriend":0,"isfamily":0,"ownername":"graffstillmakesyougay"},{"id":"8371445177","owner":"68123753@N07","secret":"3739c5670c","server":"8095","farm":9,"title":"Burst","ispublic":1,"isfriend":0,"isfamily":0,"ownername":"Revise_D"}]},"stat":"ok"}