{"photos":{"page":1,"pages":93370,"perpage":15,"total":"1400542","photo":[{"id":"14498596789","owner":"48889052497@N01","secret":"dff1bf7705","server":"5587","farm":6,"title":"Bus","ispublic":1,"isfriend":0,"isfamily":0,"ownername":"Jeffrey"},{"id":"3603296666","owner":"96306416@N00","secret":"d5328c077b","server":"3407","farm":4,"title":"ifa bus","ispublic":1,"isfriend":0,"isfamily":0,"ownername":"zenprowler"},{"id":"4613421484","owner":"7888746@N08","secret":"213ef25638","server":"4042","farm":5,"title":"Bus","ispublic":1,"isfriend":0,"isfamily":0,"ownername":"James F Clay"},{"id":"4613426350","owner":"7888746@N08","secret":"9fe3243e40","server":"4051","farm":5,"title":"Bus","ispublic":1,"isfriend":0,"isfamily":0,"ownername":"James F Clay"},{"id":"14142509824","owner":"53989438@N06","secret":"6e93b63d2f","server":"2926","farm":3,"title":"Buses","ispublic":1,"isfriend":0,"isfamily":0,"ownername":"South L.A."},{"id":"4619975871","owner":"21692577@N02","secret":"3a9cb6b4c4","server":"3388","farm":4,"title":"Bus","ispublic":1,"isfriend":0,"isfamily":0,"ownername":"Danny VB"},{"id":"5189859896","owner":"39271475@N06","secret":"b5eb1f9ef4","server":"1306","farm":2,"title":"Bus","ispublic":1,"isfriend":0,"isfamily":0,"ownername":"Electric Spinach"},{"id":"3691094388","owner":"78496066@N00","secret":"c77d408f7a","server":"2510","farm":3,"title":"buses","ispublic":1,"isfriend":0,"isfamily":0,"ownername":"lergik"},{"id":"15757540834","owner":"124078680@N04","secret":"860e7931f1","server":"7347","farm":8,"title":"BUS","ispublic":1,"isfriend":0,"isfamily":0,"ownername":"joseacsaraiva"},{"id":"8740307543","owner":"48369262@N04","secret":"63ec29e96b","server":"7292","farm":8,"title":"Buses","ispublic":1,"isfriend":0,"isfamily":0,"ownername":"Jay Costello"},{"id":"14359024134","owner":"79589568@N02","secret":"8d568f293f","server":"3926","farm":4,"title":"Bus","ispublic":1,"isfriend":0,"isfamily":0,"ownername":"fredophoto"},{"id":"9251033544","owner":"63829447@N04","secret":"6786478651","server":"7410","farm":8,"title":"bus","ispublic":1,"isfriend":0,"isfamily":0,"ownername":"ClaudeVoyage"},{"id":"3808912504","owner":"29990180@N05","secret":"e796105400","server":"2634","farm":3,"title":"Bus","ispublic":1,"isfriend":0,"isfamily":0,"ownername":"Coralie Desneux"},{"id":"5327374375","owner":"29520195@N08","secret":"d70e837985","server":"5121","farm":6,"title":"Bus","ispublic":1,"isfriend":0,"isfamily":0,"ownername":"messy_beast"},{"id":"1484526483","owner":"43112109@N00","secret":"4e966a0ef8","server":"1248","farm":2,"title":"Bus","ispublic":1,"isfriend":0,"isfamily":0,"ownername":"shedlord"}]},"stat":"ok"}