{"photos":{"page":1,"pages":60509,"perpage":15,"total":"907621","photo":[{"id":"5213166214","owner":"36587311@N08","secret":"d6b136586c","server":"4103","farm":5,"title":"butterfly","ispublic":1,"isfriend":0,"isfamily":0,"ownername":"\u25baCubaGallery"},{"id":"8363473193","owner":"91766248@N05","secret":"c294b81654","server":"8372","farm":9,"title":"Butterfly","ispublic":1,"isfriend":0,"isfamily":0,"ownername":"EcoTraVolS"},{"id":"8364531564","owner":"91766248@N05","secret":"4d2deefea1","server":"8357","farm":9,"title":"Butterfly","ispublic":1,"isfriend":0,"isfamily":0,"ownername":"EcoTraVolS"},{"id":"8363465761","owner":"91766248@N05","secret":"4b7322828a","server":"8054","farm":9,"title":"Butterfly","ispublic":1,"isfriend":0,"isfamily":0,"ownername":"EcoTraVolS"},{"id":"6925779376","owner":"77151940@N03","secret":"0ae065ef82","server":"7263","farm":8,"title":"butterfly","ispublic":1,"isfriend":0,"isfamily":0,"ownername":"WayneTags1981"},{"id":"4989919457","owner":"34654941@N02","secret":"1e141e38ef","server":"4132","farm":5,"title":"Butterfly","ispublic":1,"isfriend":0,"isfamily":0,"ownername":"\u0639\u0644\u064a \u0627\u0644\u062d\u0633\u064a\u0646"},{"id":"5480025867","owner":"27915312@N02","secret":"2b563afc8f","server":"5059","farm":6,"title":"butterfly","ispublic":1,"isfriend":0,"isfamily":0,"ownername":"the fOtOhOlic !!!"},{"id":"6317929678","owner":"69307914@N08","secret":"84e6ec871d","server":"6104","farm":7,"title":"Butterfly","ispublic":1,"isfriend":0,"isfamily":0,"ownername":"Pranad"},{"id":"5489052794","owner":"22661486@N06","secret":"602e767d62","server":"5217","farm":6,"title":"Butterfly","ispublic":1,"isfriend":0,"isfamily":0,"ownername":"chrisw1288"},{"id":"2458130467","owner":"21692577@N02","secret":"214711d16d","server":"3113","farm":4,"title":"Butterfly","ispublic":1,"isfriend":0,"isfamily":0,"ownername":"Danny VB"},{"id":"13934881573","owner":"30558021@N08","secret":"ff816ec2a1","server":"7163","farm":8,"title":"Butterfly","ispublic":1,"isfriend":0,"isfamily":0,"ownername":"bae22"},{"id":"4779398145","owner":"51100343@N03","secret":"859b61975d","server":"4080","farm":5,"title":"butterfly","ispublic":1,"isfriend":0,"isfamily":0,"ownername":"Karen Chiswell-Williams"},{"id":"2613035922","owner":"27942266@N08","secret":"e96b2e78bb","server":"3060","farm":4,"title":"Butterfly","ispublic":1,"isfriend":0,"isfamily":0,"ownername":"scoobyskub"},{"id":"8364537178","owner":"91766248@N05","secret":"94ebe82c34","server":"8055","farm":9,"title":"Butterfly","ispublic":1,"isfriend":0,"isfamily":0,"ownername":"EcoTraVolS"},{"id":"5294820434","owner":"35635444@N04","secret":"8d006884a7","server":"5286","farm":6,"title":"Butterfly","ispublic":1,"isfriend":0,"isfamily":0,"ownername":"Pouncer 2"}]},"stat":"ok"}