{"photos":{"page":1,"pages":17689,"perpage":15,"total":"265327","photo":[{"id":"15161256889","owner":"128113054@N08","secret":"a292866381","server":"2943","farm":3,"title":"Butterfly...","ispublic":1,"isfriend":0,"isfamily":0,"ownername":"Zbyszek Walkiewicz"},{"id":"13624146025","owner":"103428168@N08","secret":"4519e1bc54","server":"3758","farm":4,"title":"Butterfly","ispublic":1,"isfriend":0,"isfamily":0,"ownername":"Jo-phine"},{"id":"16199789440","owner":"48227962@N04","secret":"60bf21a579","server":"8587","farm":9,"title":"Butterflies","ispublic":1,"isfriend":0,"isfamily":0,"ownername":"PMillera4"},{"id":"15253157758","owner":"65089906@N00","secret":"93cf4e0ba6","server":"5599","farm":6,"title":"Butterflies","ispublic":1,"isfriend":0,"isfamily":0,"ownername":"PHOTOPHANATIC1"},{"id":"4970343829","owner":"12479530@N03","secret":"1c33449232","server":"4131","farm":5,"title":"Butterflies","ispublic":1,"isfriend":0,"isfamily":0,"ownername":"William_H"},{"id":"15439413532","owner":"65089906@N00","secret":"f6e17934cd","server":"2941","farm":3,"title":"Butterflies","ispublic":1,"isfriend":0,"isfamily":0,"ownername":"PHOTOPHANATIC1"},{"id":"5663917192","owner":"23821420@N08","secret":"238705619c","server":"5063","farm":6,"title":"Butterfly","ispublic":1,"isfriend":0,"isfamily":0,"ownername":"shuttrbuddy"},{"id":"5663891886","owner":"23821420@N08","secret":"2cb8607b4c","server":"5104","farm":6,"title":"Butterfly","ispublic":1,"isfriend":0,"isfamily":0,"ownername":"shuttrbuddy"},{"id":"5663928274","owner":"23821420@N08","secret":"6b1d3c363a","server":"5106","farm":6,"title":"Butterfly","ispublic":1,"isfriend":0,"isfamily":0,"ownername":"shuttrbuddy"},{"id":"418016423","owner":"34795062@N00","secret":"f2e08178d1","server":"127","farm":1,"title":"Butterflies","ispublic":1,"isfriend":0,"isfamily":0,"ownername":"basden_clark"},{"id":"1042842651","owner":"9805237@N02","secret":"166db85daf","server":"1293","farm":2,"title":"Butterfly","ispublic":1,"isfriend":0,"isfamily":0,"ownername":"deby alm"},{"id":"8352683157","owner":"67057607@N00","secret":"c60133f464","server":"8048","farm":9,"title":"Butterflies","ispublic":1,"isfriend":0,"isfamily":0,"ownername":"uwoon"},{"id":"312756768","owner":"36193486@N00","secret":"c29712ad4a","server":"114","farm":1,"title":"Butterfly","ispublic":1,"isfriend":0,"isfamily":0,"ownername":"Travel Logger"},{"id":"3755963594","owner":"39981415@N02","secret":"7dee5cb6eb","server":"2461","farm":3,"title":"butterfly","ispublic":1,"isfriend":0,"isfamily":0,"ownername":"Blind Man Shooting"},{"id":"4311974199","owner":"34415080@N05","secret":"ef5157ee97","server":"4042","farm":5,"title":"Butterfly","ispublic":1,"isfriend":0,"isfamily":0,"ownername":"ripi681"}]},"stat":"ok"}