{"photos":{"page":1,"pages":42753,"perpage":15,"total":"641289","photo":[{"id":"7026751453","owner":"50154521@N08","secret":"d920ccb790","server":"7133","farm":8,"title":"Cake","ispublic":1,"isfriend":0,"isfamily":0,"ownername":"iweatherman"},{"id":"6787314810","owner":"60652642@N00","secret":"029b10243d","server":"7062","farm":8,"title":"Cake!","ispublic":1,"isfriend":0,"isfamily":0,"ownername":"photoverulam"},{"id":"6295286233","owner":"67040390@N04","secret":"bc51cbbb8f","server":"6053","farm":7,"title":"CAKE","ispublic":1,"isfriend":0,"isfamily":0,"ownername":"Joe Desiderio"},{"id":"9329834058","owner":"21347508@N07","secret":"76a792c630","server":"7410","farm":8,"title":"Cake!","ispublic":1,"isfriend":0,"isfamily":0,"ownername":"TCR4x4"},{"id":"5846481618","owner":"69366980@N00","secret":"c2f29cd2dd","server":"3552","farm":4,"title":"Cake","ispublic":1,"isfriend":0,"isfamily":0,"ownername":"The Lamb Family"},{"id":"23518192383","owner":"130442219@N04","secret":"62a0fb7d86","server":"1674","farm":2,"title":"cake","ispublic":1,"isfriend":0,"isfamily":0,"ownername":"7ka6ra"},{"id":"5296624712","owner":"53884973@N06","secret":"f9237fbde8","server":"5009","farm":6,"title":"cake","ispublic":1,"isfriend":0,"isfamily":0,"ownername":"smFOTOGRAPHY"},{"id":"6775086873","owner":"75322589@N02","secret":"8c15f42d5a","server":"7025","farm":8,"title":"Cake!","ispublic":1,"isfriend":0,"isfamily":0,"ownername":"Zerothreeten"},{"id":"7477471268","owner":"60101400@N04","secret":"7e5e47011a","server":"8007","farm":9,"title":"Cake","ispublic":1,"isfriend":0,"isfamily":0,"ownername":"Food You Love"},{"id":"7936234956","owner":"8411761@N03","secret":"e13cd22707","server":"8038","farm":9,"title":"cake","ispublic":1,"isfriend":0,"isfamily":0,"ownername":"bour3"},{"id":"5845931349","owner":"69366980@N00","secret":"e40e4922a7","server":"5268","farm":6,"title":"Cake","ispublic":1,"isfriend":0,"isfamily":0,"ownername":"The Lamb Family"},{"id":"7310469602","owner":"21694932@N00","secret":"375c96f6c7","server":"7224","farm":8,"title":"Cake","ispublic":1,"isfriend":0,"isfamily":0,"ownername":"ag_nela"},{"id":"2748815961","owner":"27637700@N08","secret":"57e71dcdf3","server":"3189","farm":4,"title":"cake","ispublic":1,"isfriend":0,"isfamily":0,"ownername":"mpoley"},{"id":"7052651749","owner":"77528760@N08","secret":"795c3b28c5","server":"7278","farm":8,"title":"Cake","ispublic":1,"isfriend":0,"isfamily":0,"ownername":"J .WEERASEKARA"},{"id":"8342832549","owner":"21694932@N00","secret":"36003f6f9e","server":"8496","farm":9,"title":"Cake","ispublic":1,"isfriend":0,"isfamily":0,"ownername":"ag_nela"}]},"stat":"ok"}