{"photos":{"page":1,"pages":292911,"perpage":15,"total":"4393658","photo":[{"id":"3760779962","owner":"16112906@N02","secret":"425d169aa9","server":"2426","farm":3,"title":"california","ispublic":1,"isfriend":0,"isfamily":0,"ownername":"ShanLuPhoto"},{"id":"13549379003","owner":"76098459@N04","secret":"ecd3237c4c","server":"7159","farm":8,"title":"California","ispublic":1,"isfriend":0,"isfamily":0,"ownername":"rschnaible"},{"id":"7310905616","owner":"36623496@N03","secret":"66e141869c","server":"7097","farm":8,"title":"California","ispublic":1,"isfriend":0,"isfamily":0,"ownername":"Bernardo Macouzet Photography"},{"id":"9415090105","owner":"32889236@N02","secret":"29e392aff4","server":"7282","farm":8,"title":"California","ispublic":1,"isfriend":0,"isfamily":0,"ownername":"FlavioSarescia"},{"id":"5252238868","owner":"74486811@N00","secret":"1eed9aa192","server":"5085","farm":6,"title":"california","ispublic":1,"isfriend":0,"isfamily":0,"ownername":"eb78"},{"id":"20165449516","owner":"43757114@N04","secret":"4cd03eb57a","server":"353","farm":1,"title":"California","ispublic":1,"isfriend":0,"isfamily":0,"ownername":"kinojam"},{"id":"7585363754","owner":"52162945@N02","secret":"af3f8b03bc","server":"8434","farm":9,"title":"California","ispublic":1,"isfriend":0,"isfamily":0,"ownername":"chinasky1975"},{"id":"32360802432","owner":"39499834@N06","secret":"3751e1cb05","server":"740","farm":1,"title":"California","ispublic":1,"isfriend":0,"isfamily":0,"ownername":"Carrie McGann"},{"id":"27599757595","owner":"7662015@N05","secret":"4bc198cc99","server":"7017","farm":8,"title":"California","ispublic":1,"isfriend":0,"isfamily":0,"ownername":"oriana.italy"},{"id":"6835260854","owner":"26034672@N03","secret":"86f59a233b","server":"7206","farm":8,"title":"California","ispublic":1,"isfriend":0,"isfamily":0,"ownername":"beam-of-moon"},{"id":"6582407861","owner":"84834136@N00","secret":"6fb05b1a07","server":"7153","farm":8,"title":"California","ispublic":1,"isfriend":0,"isfamily":0,"ownername":"Danny."},{"id":"7804002766","owner":"39644958@N02","secret":"2f0d40982b","server":"8287","farm":9,"title":"california","ispublic":1,"isfriend":0,"isfamily":0,"ownername":"ryuu loves rina"},{"id":"7427777964","owner":"39272983@N04","secret":"145eb54c84","server":"7116","farm":8,"title":"California","ispublic":1,"isfriend":0,"isfamily":0,"ownername":"Benjamin D. Photography"},{"id":"4362572576","owner":"51035555243@N01","secret":"6bbd28e454","server":"2728","farm":3,"title":"California","ispublic":1,"isfriend":0,"isfamily":0,"ownername":"Thomas Hawk"},{"id":"7356188234","owner":"36623496@N03","secret":"4d001a5900","server":"7222","farm":8,"title":"California","ispublic":1,"isfriend":0,"isfamily":0,"ownername":"Bernardo Macouzet Photography"}]},"stat":"ok"}