{"photos":{"page":1,"pages":4332,"perpage":15,"total":"64979","photo":[{"id":"5431381131","owner":"41648399@N06","secret":"fab6169651","server":"5136","farm":6,"title":"...call me...","ispublic":1,"isfriend":0,"isfamily":0,"ownername":"it is elisa"},{"id":"33836427245","owner":"148354254@N08","secret":"a5bbd93654","server":"2864","farm":3,"title":"Calling","ispublic":1,"isfriend":0,"isfamily":0,"ownername":"Arminius'_photos"},{"id":"5463486176","owner":"26244978@N03","secret":"4483cfe650","server":"5300","farm":6,"title":"The call","ispublic":1,"isfriend":0,"isfamily":0,"ownername":"sbstnch\u00efng"},{"id":"39025923070","owner":"129804286@N06","secret":"09853107b5","server":"796","farm":1,"title":"hidden call","ispublic":1,"isfriend":0,"isfamily":0,"ownername":"alexhaeusler"},{"id":"1628528759","owner":"14643406@N03","secret":"5a2c1a9384","server":"2336","farm":3,"title":"call","ispublic":1,"isfriend":0,"isfamily":0,"ownername":"Suhov"},{"id":"9469983713","owner":"59260633@N07","secret":"28e5370404","server":"3828","farm":4,"title":"Calling..","ispublic":1,"isfriend":0,"isfamily":0,"ownername":"sevenths3nse"},{"id":"9585508542","owner":"22026003@N04","secret":"45ac9fcbd7","server":"7370","farm":8,"title":"calling","ispublic":1,"isfriend":0,"isfamily":0,"ownername":"Joris_Louwes"},{"id":"28172103228","owner":"157270154@N05","secret":"0450f06dab","server":"905","farm":1,"title":"call","ispublic":1,"isfriend":0,"isfamily":0,"ownername":"CreditDebitPro"},{"id":"5187711761","owner":"56039322@N05","secret":"cfef18c1b2","server":"1022","farm":2,"title":"Call","ispublic":1,"isfriend":0,"isfamily":0,"ownername":"carloscarmor"},{"id":"11433543113","owner":"110787298@N06","secret":"f3b0ccb47a","server":"7316","farm":8,"title":"CALL","ispublic":1,"isfriend":0,"isfamily":0,"ownername":"sandymaxwell663"},{"id":"6278268027","owner":"59933507@N08","secret":"98d8735cbb","server":"6117","farm":7,"title":"call","ispublic":1,"isfriend":0,"isfamily":0,"ownername":"pbnanda"},{"id":"2389723130","owner":"17568033@N00","secret":"647f4a8733","server":"2184","farm":3,"title":"Call","ispublic":1,"isfriend":0,"isfamily":0,"ownername":"Devan."},{"id":"3245639768","owner":"17325015@N00","secret":"7212931c3b","server":"3262","farm":4,"title":"call","ispublic":1,"isfriend":0,"isfamily":0,"ownername":"Jim Grady"},{"id":"13064329033","owner":"91044419@N08","secret":"981b0a9dc0","server":"3288","farm":4,"title":"CALL","ispublic":1,"isfriend":0,"isfamily":0,"ownername":"Yeagov_Cat"},{"id":"7337105652","owner":"32965682@N03","secret":"8d16b677be","server":"8161","farm":9,"title":"Call Vivo S\u00e3o Paulo","ispublic":1,"isfriend":0,"isfamily":0,"ownername":"Gabriele Lima"}]},"stat":"ok"}