{"photos":{"page":1,"pages":28865,"perpage":15,"total":"432974","photo":[{"id":"4647720947","owner":"55663163@N00","secret":"84085da8eb","server":"4040","farm":5,"title":"coke can","ispublic":1,"isfriend":0,"isfamily":0,"ownername":"eric marchal"},{"id":"5963457203","owner":"65499420@N03","secret":"2e02fbe05f","server":"6006","farm":7,"title":"Beer Can","ispublic":1,"isfriend":0,"isfamily":0,"ownername":"tavisgeer"},{"id":"5595921359","owner":"52643545@N02","secret":"96e60e331a","server":"5182","farm":6,"title":"Can...","ispublic":1,"isfriend":0,"isfamily":0,"ownername":"Gem Rees"},{"id":"8555379774","owner":"58318215@N08","secret":"bdc2525273","server":"8388","farm":9,"title":"Empty Can","ispublic":1,"isfriend":0,"isfamily":0,"ownername":"BenG94"},{"id":"7442106794","owner":"72203909@N00","secret":"bcefeef129","server":"7270","farm":8,"title":"Cans...","ispublic":1,"isfriend":0,"isfamily":0,"ownername":"LukeDaDuke"},{"id":"2905915347","owner":"78552401@N00","secret":"dee3303992","server":"3246","farm":4,"title":"Newcastle in a can","ispublic":1,"isfriend":0,"isfamily":0,"ownername":"zieak"},{"id":"2278621360","owner":"23475878@N07","secret":"2a734534b7","server":"2272","farm":3,"title":"Beer Can Side #1","ispublic":1,"isfriend":0,"isfamily":0,"ownername":"The Upstairs Room"},{"id":"6031598127","owner":"52379714@N08","secret":"989f36289c","server":"6150","farm":7,"title":"Bru can","ispublic":1,"isfriend":0,"isfamily":0,"ownername":"pedro1050"},{"id":"3509355095","owner":"37062811@N05","secret":"1ff83064f8","server":"3570","farm":4,"title":"cans","ispublic":1,"isfriend":0,"isfamily":0,"ownername":"nicolmouton"},{"id":"6984069990","owner":"27389313@N05","secret":"386a1beb94","server":"7086","farm":8,"title":"Beerlao cans","ispublic":1,"isfriend":0,"isfamily":0,"ownername":"Philip Roeland"},{"id":"12227624645","owner":"79136280@N03","secret":"cb6c8254ac","server":"2874","farm":3,"title":"Paint Can","ispublic":1,"isfriend":0,"isfamily":0,"ownername":"norakathryn96"},{"id":"4860858058","owner":"45488630@N02","secret":"b44d608ecb","server":"4134","farm":5,"title":"Discarded can","ispublic":1,"isfriend":0,"isfamily":0,"ownername":"Sarah Ruck"},{"id":"5870196674","owner":"21759198@N02","secret":"e081c6cdbd","server":"3258","farm":4,"title":"Can of Sprite","ispublic":1,"isfriend":0,"isfamily":0,"ownername":"sozzielou"},{"id":"2794682987","owner":"15716291@N00","secret":"493933c2a1","server":"3177","farm":4,"title":"DSC_0006","ispublic":1,"isfriend":0,"isfamily":0,"ownername":"markomni"},{"id":"5391074779","owner":"52428965@N03","secret":"a722639f95","server":"5139","farm":6,"title":"pronto vibrating can 2","ispublic":1,"isfriend":0,"isfamily":0,"ownername":"LTi worldwide"}]},"stat":"ok"}