{"photos":{"page":1,"pages":10227,"perpage":15,"total":"153396","photo":[{"id":"39252675492","owner":"78241921@N08","secret":"3b1178ddea","server":"4686","farm":5,"title":"Candle","ispublic":1,"isfriend":0,"isfamily":0,"ownername":"Julie Greg"},{"id":"3181401176","owner":"33944755@N06","secret":"ff47e14229","server":"3316","farm":4,"title":"< candle >","ispublic":1,"isfriend":0,"isfamily":0,"ownername":"Mister.Marken"},{"id":"4744175365","owner":"14347196@N00","secret":"a7cd02f34c","server":"4076","farm":5,"title":"Candle","ispublic":1,"isfriend":0,"isfamily":0,"ownername":"spcbrass"},{"id":"3354552487","owner":"36358933@N08","secret":"b7bb3fb88c","server":"3436","farm":4,"title":"candle","ispublic":1,"isfriend":0,"isfamily":0,"ownername":"SULA-CH"},{"id":"7143521569","owner":"77992931@N08","secret":"2a153d02ae","server":"7183","farm":8,"title":"Candle","ispublic":1,"isfriend":0,"isfamily":0,"ownername":"kmciuchta"},{"id":"5790034957","owner":"63413795@N08","secret":"2c6a3dd4b1","server":"5223","farm":6,"title":"Candle","ispublic":1,"isfriend":0,"isfamily":0,"ownername":"\u2020Hana\u2020"},{"id":"4527844309","owner":"46853776@N07","secret":"0815e16206","server":"4025","farm":5,"title":"candle","ispublic":1,"isfriend":0,"isfamily":0,"ownername":"Vedamurthy J"},{"id":"2382532955","owner":"25128112@N02","secret":"6dce395d5a","server":"3025","farm":4,"title":"Candle","ispublic":1,"isfriend":0,"isfamily":0,"ownername":"canale666"},{"id":"70815232","owner":"90791595@N00","secret":"b799e1ad83","server":"20","farm":1,"title":"Candle","ispublic":1,"isfriend":0,"isfamily":0,"ownername":"Ani_pics"},{"id":"5664435519","owner":"51769586@N07","secret":"33f479d140","server":"5184","farm":6,"title":"candle","ispublic":1,"isfriend":0,"isfamily":0,"ownername":"brumg"},{"id":"35037319540","owner":"147837169@N04","secret":"153afc2b3a","server":"4238","farm":5,"title":"Candle","ispublic":1,"isfriend":0,"isfamily":0,"ownername":"judydyson"},{"id":"3224643177","owner":"8276960@N06","secret":"268de2cd72","server":"3437","farm":4,"title":"Candle","ispublic":1,"isfriend":0,"isfamily":0,"ownername":"mingfoto34"},{"id":"2875235866","owner":"30658179@N02","secret":"3affc6a67c","server":"3130","farm":4,"title":"candle","ispublic":1,"isfriend":0,"isfamily":0,"ownername":"'nzaccio"},{"id":"6157141478","owner":"53139756@N08","secret":"4b6b75e10e","server":"6089","farm":7,"title":"candle","ispublic":1,"isfriend":0,"isfamily":0,"ownername":"kathryn Wilkins"},{"id":"2911880992","owner":"27621488@N06","secret":"9b7c601041","server":"3043","farm":4,"title":"Candle","ispublic":1,"isfriend":0,"isfamily":0,"ownername":"{ Bint ElnuzHa~"}]},"stat":"ok"}