{"photos":{"page":1,"pages":15819,"perpage":15,"total":"237275","photo":[{"id":"5524508580","owner":"15241170@N04","secret":"4af5f3eb99","server":"5173","farm":6,"title":"Candy","ispublic":1,"isfriend":0,"isfamily":0,"ownername":"Barbara Coughlin"},{"id":"6681733169","owner":"33277067@N07","secret":"80936fd6ce","server":"7154","farm":8,"title":"candy","ispublic":1,"isfriend":0,"isfamily":0,"ownername":"MASTERDEGREE"},{"id":"8633476090","owner":"35736481@N00","secret":"1651f0eb94","server":"8108","farm":9,"title":"Candy!","ispublic":1,"isfriend":0,"isfamily":0,"ownername":"Waterloo Fords"},{"id":"15802911236","owner":"31213513@N08","secret":"48aa05c7bc","server":"7552","farm":8,"title":"Candy","ispublic":1,"isfriend":0,"isfamily":0,"ownername":"jonas_silver925"},{"id":"3072352165","owner":"74288833@N00","secret":"767a1d1e2d","server":"3009","farm":4,"title":"Candy","ispublic":1,"isfriend":0,"isfamily":0,"ownername":"merfam"},{"id":"5204706811","owner":"47458601@N06","secret":"e10beec54a","server":"5010","farm":6,"title":"candy","ispublic":1,"isfriend":0,"isfamily":0,"ownername":"marina de mattos"},{"id":"3213777073","owner":"23792222@N07","secret":"f6241fd5eb","server":"3523","farm":4,"title":"Candy","ispublic":1,"isfriend":0,"isfamily":0,"ownername":"Vin W"},{"id":"3221052255","owner":"34290133@N02","secret":"16594e08ec","server":"3458","farm":4,"title":"candy","ispublic":1,"isfriend":0,"isfamily":0,"ownername":"Michele.Duer"},{"id":"6985981347","owner":"40386040@N05","secret":"cf32e7e20e","server":"7042","farm":8,"title":"Candy","ispublic":1,"isfriend":0,"isfamily":0,"ownername":"UhOhItsJewels"},{"id":"2302281353","owner":"24227313@N07","secret":"17e5ec1173","server":"2184","farm":3,"title":"Candy","ispublic":1,"isfriend":0,"isfamily":0,"ownername":"toroimages"},{"id":"5257187880","owner":"56871191@N04","secret":"c4d19f9fa5","server":"5086","farm":6,"title":"Candy.","ispublic":1,"isfriend":0,"isfamily":0,"ownername":"alexmlamberty"},{"id":"11950665514","owner":"60718179@N07","secret":"71a0f9ac17","server":"2829","farm":3,"title":"Candy!","ispublic":1,"isfriend":0,"isfamily":0,"ownername":"Ana J\u00falia H."},{"id":"5257185432","owner":"56871191@N04","secret":"1c58df740c","server":"5124","farm":6,"title":"Candy.","ispublic":1,"isfriend":0,"isfamily":0,"ownername":"alexmlamberty"},{"id":"6563402359","owner":"72245343@N05","secret":"964771c7a5","server":"7026","farm":8,"title":"Candy","ispublic":1,"isfriend":0,"isfamily":0,"ownername":"katrinaahenry"},{"id":"3053743010","owner":"81677556@N00","secret":"9b8481660e","server":"3004","farm":4,"title":"Candy","ispublic":1,"isfriend":0,"isfamily":0,"ownername":"sebilden"}]},"stat":"ok"}