{"photos":{"page":1,"pages":4829,"perpage":15,"total":"72425","photo":[{"id":"46487989935","owner":"132604827@N08","secret":"fd3e2111a2","server":"4898","farm":5,"title":"Captain Marvel","ispublic":1,"isfriend":0,"isfamily":0,"ownername":"iamJerryPerry"},{"id":"4987668811","owner":"21692577@N02","secret":"5e1d4da8f2","server":"4090","farm":5,"title":"Captain","ispublic":1,"isfriend":0,"isfamily":0,"ownername":"Danny VB"},{"id":"36170928275","owner":"35674933@N03","secret":"41c37cb181","server":"4293","farm":5,"title":"captain","ispublic":1,"isfriend":0,"isfamily":0,"ownername":"primemundo"},{"id":"9801446763","owner":"67797806@N00","secret":"6f95a3c069","server":"2845","farm":3,"title":"Captain","ispublic":1,"isfriend":0,"isfamily":0,"ownername":"Risto Kuulasmaa"},{"id":"2898986353","owner":"36621091@N00","secret":"994406b0fa","server":"3224","farm":4,"title":"CAPTAIN","ispublic":1,"isfriend":0,"isfamily":0,"ownername":"Roy Del Vecchio"},{"id":"2944632617","owner":"31517052@N08","secret":"15b9d6b849","server":"3042","farm":4,"title":"Captain Colin","ispublic":1,"isfriend":0,"isfamily":0,"ownername":"Captain Tea"},{"id":"30105522768","owner":"137620031@N05","secret":"8e5fbf9221","server":"849","farm":1,"title":"Captain","ispublic":1,"isfriend":0,"isfamily":0,"ownername":"michel David photography"},{"id":"8262639100","owner":"69134486@N05","secret":"43b495eeb3","server":"8068","farm":9,"title":"captain","ispublic":1,"isfriend":0,"isfamily":0,"ownername":"Matt Jones (Krasang)"},{"id":"47193628482","owner":"160581171@N07","secret":"1eecb38a5d","server":"7914","farm":8,"title":"Captain","ispublic":1,"isfriend":0,"isfamily":0,"ownername":"laura-steuber"},{"id":"825342097","owner":"10123581@N03","secret":"b4907cf083","server":"1253","farm":2,"title":"The Captain","ispublic":1,"isfriend":0,"isfamily":0,"ownername":"johnclark.etsy"},{"id":"5365537072","owner":"40372999@N00","secret":"1cc8f77da7","server":"5123","farm":6,"title":"captain","ispublic":1,"isfriend":0,"isfamily":0,"ownername":"rosie crabbe photography"},{"id":"3508833718","owner":"40372999@N00","secret":"f548962c7b","server":"3651","farm":4,"title":"captain","ispublic":1,"isfriend":0,"isfamily":0,"ownername":"rosie crabbe photography"},{"id":"6549914385","owner":"54400802@N08","secret":"e6961553fb","server":"7142","farm":8,"title":"My Captain","ispublic":1,"isfriend":0,"isfamily":0,"ownername":"wishwish\u2661Offline"},{"id":"16442113458","owner":"103104156@N07","secret":"3ee08c6d9f","server":"8660","farm":9,"title":"Captain Sev","ispublic":1,"isfriend":0,"isfamily":0,"ownername":"Get Busy Living Photo"},{"id":"1582100414","owner":"25132667@N00","secret":"f711754571","server":"2083","farm":3,"title":"Captain","ispublic":1,"isfriend":0,"isfamily":0,"ownername":"PinkyTurtles"}]},"stat":"ok"}