{"photos":{"page":1,"pages":11069,"perpage":15,"total":"166024","photo":[{"id":"27769426384","owner":"63541243@N04","secret":"475364c474","server":"7789","farm":8,"title":"Cards","ispublic":1,"isfriend":0,"isfamily":0,"ownername":"Ali Llop"},{"id":"16499606795","owner":"40832502@N06","secret":"caa572097a","server":"7450","farm":8,"title":"cards","ispublic":1,"isfriend":0,"isfamily":0,"ownername":"galletto marco"},{"id":"3272382295","owner":"22869502@N04","secret":"dca1926cf1","server":"3505","farm":4,"title":"Cards","ispublic":1,"isfriend":0,"isfamily":0,"ownername":"JSmith Photo"},{"id":"5263608685","owner":"26445715@N00","secret":"ce5dd01761","server":"5165","farm":6,"title":"Card","ispublic":1,"isfriend":0,"isfamily":0,"ownername":"muffinn"},{"id":"6188131793","owner":"53650654@N07","secret":"763a0b4217","server":"6157","farm":7,"title":"Cards","ispublic":1,"isfriend":0,"isfamily":0,"ownername":"Harshika Tantia"},{"id":"4964297643","owner":"31727855@N04","secret":"4fc68b0bb5","server":"4144","farm":5,"title":"cards","ispublic":1,"isfriend":0,"isfamily":0,"ownername":"inbaleg"},{"id":"4964924934","owner":"31727855@N04","secret":"ae70efc440","server":"4105","farm":5,"title":"cards","ispublic":1,"isfriend":0,"isfamily":0,"ownername":"inbaleg"},{"id":"7749907732","owner":"51175430@N02","secret":"6de8a57de4","server":"8298","farm":9,"title":"Cards","ispublic":1,"isfriend":0,"isfamily":0,"ownername":"Dr.Maghanem"},{"id":"4281595103","owner":"46625842@N03","secret":"cd897a91b4","server":"4015","farm":5,"title":"Cards","ispublic":1,"isfriend":0,"isfamily":0,"ownername":"yukkka"},{"id":"5018455332","owner":"31727855@N04","secret":"09fe0932f9","server":"4107","farm":5,"title":"cards","ispublic":1,"isfriend":0,"isfamily":0,"ownername":"inbaleg"},{"id":"5018454472","owner":"31727855@N04","secret":"f41c644b84","server":"4130","farm":5,"title":"cards","ispublic":1,"isfriend":0,"isfamily":0,"ownername":"inbaleg"},{"id":"2625607706","owner":"21126512@N03","secret":"bd8dd6a83d","server":"3020","farm":4,"title":"cards","ispublic":1,"isfriend":0,"isfamily":0,"ownername":"ATLITW"},{"id":"5017851607","owner":"31727855@N04","secret":"ac05751c01","server":"4085","farm":5,"title":"cards","ispublic":1,"isfriend":0,"isfamily":0,"ownername":"inbaleg"},{"id":"4964275785","owner":"31727855@N04","secret":"c400dbc0f2","server":"4091","farm":5,"title":"cards","ispublic":1,"isfriend":0,"isfamily":0,"ownername":"inbaleg"},{"id":"5976204818","owner":"34498818@N05","secret":"583b0b7806","server":"6149","farm":7,"title":"Cards","ispublic":1,"isfriend":0,"isfamily":0,"ownername":"MP81"}]},"stat":"ok"}