{"photos":{"page":1,"pages":38708,"perpage":15,"total":"580620","photo":[{"id":"6594696807","owner":"76104674@N00","secret":"646bc45d57","server":"7019","farm":8,"title":"Caribbean","ispublic":1,"isfriend":0,"isfamily":0,"ownername":"Miruso"},{"id":"43185597535","owner":"74013251@N02","secret":"d9bab867c4","server":"1773","farm":2,"title":"caribbean","ispublic":1,"isfriend":0,"isfamily":0,"ownername":"stockman2012"},{"id":"6820244612","owner":"76050984@N08","secret":"d184eb477c","server":"7064","farm":8,"title":"caribbean","ispublic":1,"isfriend":0,"isfamily":0,"ownername":"worldtraveller5"},{"id":"6929600161","owner":"32476080@N02","secret":"9531fb0e57","server":"7200","farm":8,"title":"Caribbean","ispublic":1,"isfriend":0,"isfamily":0,"ownername":"barry dominick"},{"id":"42283193960","owner":"74013251@N02","secret":"de195f425c","server":"1773","farm":2,"title":"caribbean","ispublic":1,"isfriend":0,"isfamily":0,"ownername":"stockman2012"},{"id":"40222176863","owner":"149253598@N06","secret":"78e7895fc0","server":"7811","farm":8,"title":"Caribbean","ispublic":1,"isfriend":0,"isfamily":0,"ownername":"andrewgasson2"},{"id":"10512478026","owner":"7661548@N06","secret":"8fdda7e3b8","server":"2864","farm":3,"title":"Caribbean","ispublic":1,"isfriend":0,"isfamily":0,"ownername":"bogdanovskaya"},{"id":"40693453991","owner":"101053609@N05","secret":"2d3c9fee97","server":"4783","farm":5,"title":"Caribbean","ispublic":1,"isfriend":0,"isfamily":0,"ownername":"pietkagab"},{"id":"8032753264","owner":"7661548@N06","secret":"f49d305132","server":"8458","farm":9,"title":"Caribbean","ispublic":1,"isfriend":0,"isfamily":0,"ownername":"bogdanovskaya"},{"id":"6929576523","owner":"32476080@N02","secret":"b97bc0a3f5","server":"7037","farm":8,"title":"Caribbean","ispublic":1,"isfriend":0,"isfamily":0,"ownername":"barry dominick"},{"id":"4794129834","owner":"8173358@N05","secret":"e954a4bb44","server":"4073","farm":5,"title":"Caribbean","ispublic":1,"isfriend":0,"isfamily":0,"ownername":"Orribs"},{"id":"47135179302","owner":"149253598@N06","secret":"b317f39de7","server":"7886","farm":8,"title":"Caribbean","ispublic":1,"isfriend":0,"isfamily":0,"ownername":"andrewgasson2"},{"id":"26648262343","owner":"77032480@N00","secret":"18840f6ba9","server":"7119","farm":8,"title":"Caribbean","ispublic":1,"isfriend":0,"isfamily":0,"ownername":"Juan Ignacio Rela Photography"},{"id":"26978335300","owner":"77032480@N00","secret":"7e31ce0eda","server":"7781","farm":8,"title":"Caribbean","ispublic":1,"isfriend":0,"isfamily":0,"ownername":"Juan Ignacio Rela Photography"},{"id":"26978318710","owner":"77032480@N00","secret":"4e371f8801","server":"7575","farm":8,"title":"Caribbean","ispublic":1,"isfriend":0,"isfamily":0,"ownername":"Juan Ignacio Rela Photography"}]},"stat":"ok"}