{"photos":{"page":1,"pages":2865,"perpage":15,"total":"42968","photo":[{"id":"6122441358","owner":"65353530@N03","secret":"b82a54fa24","server":"6073","farm":7,"title":"cash","ispublic":1,"isfriend":0,"isfamily":0,"ownername":"Rumplesteeldick"},{"id":"8982192490","owner":"8850696@N04","secret":"43b14ae450","server":"5456","farm":6,"title":"CASH","ispublic":1,"isfriend":0,"isfamily":0,"ownername":"Piciej"},{"id":"4149529614","owner":"45150779@N04","secret":"ba06fa56ef","server":"2593","farm":3,"title":"Cash","ispublic":1,"isfriend":0,"isfamily":0,"ownername":"BlatantWorld.com"},{"id":"5505424662","owner":"55646849@N04","secret":"5fcbaab8f9","server":"5019","farm":6,"title":"cash","ispublic":1,"isfriend":0,"isfamily":0,"ownername":"Im Cuban bee!!!"},{"id":"526715094","owner":"14978166@N00","secret":"918b1bc35f","server":"1087","farm":2,"title":"Cash","ispublic":1,"isfriend":0,"isfamily":0,"ownername":"space-oddity"},{"id":"526715122","owner":"14978166@N00","secret":"99ed110d50","server":"1140","farm":2,"title":"cash","ispublic":1,"isfriend":0,"isfamily":0,"ownername":"space-oddity"},{"id":"34433003056","owner":"47932447@N06","secret":"eb20fa453b","server":"4155","farm":5,"title":"cash","ispublic":1,"isfriend":0,"isfamily":0,"ownername":"Jacqueline Herranz"},{"id":"6934833270","owner":"34947307@N07","secret":"bf3fe8b978","server":"7066","farm":8,"title":"Cash","ispublic":1,"isfriend":0,"isfamily":0,"ownername":"Cash Vasser"},{"id":"8055305826","owner":"84887860@N07","secret":"37a13da856","server":"8180","farm":9,"title":"Cash","ispublic":1,"isfriend":0,"isfamily":0,"ownername":"cowoverboard"},{"id":"6990481660","owner":"99324771@N00","secret":"6e87d84963","server":"7268","farm":8,"title":"cash","ispublic":1,"isfriend":0,"isfamily":0,"ownername":"ritchielee"},{"id":"6035309828","owner":"63380081@N08","secret":"dfdd404a21","server":"6079","farm":7,"title":"cash","ispublic":1,"isfriend":0,"isfamily":0,"ownername":"zitiano"},{"id":"5174554728","owner":"55878118@N07","secret":"ba14df432e","server":"4085","farm":5,"title":"cash","ispublic":1,"isfriend":0,"isfamily":0,"ownername":"sembz"},{"id":"1477131389","owner":"59967126@N00","secret":"39624ce258","server":"1120","farm":2,"title":"Cash","ispublic":1,"isfriend":0,"isfamily":0,"ownername":"mps_on"},{"id":"36930439034","owner":"124478180@N02","secret":"395b2804c5","server":"4492","farm":5,"title":"Cash","ispublic":1,"isfriend":0,"isfamily":0,"ownername":"Juceten"},{"id":"2520955105","owner":"59973195@N00","secret":"6fbf6a6ce9","server":"3047","farm":4,"title":"Cash","ispublic":1,"isfriend":0,"isfamily":0,"ownername":"otama"}]},"stat":"ok"}