{"photos":{"page":1,"pages":168938,"perpage":15,"total":"2534065","photo":[{"id":"5508784414","owner":"36587311@N08","secret":"d2d84f9c92","server":"5213","farm":6,"title":"cat","ispublic":1,"isfriend":0,"isfamily":0,"ownername":"\u25baCubaGallery"},{"id":"15867520885","owner":"119678691@N02","secret":"69d04f6ecc","server":"7560","farm":8,"title":"Cat","ispublic":1,"isfriend":0,"isfamily":0,"ownername":"be creator"},{"id":"13545844805","owner":"28596055@N02","secret":"170ec3746b","server":"3677","farm":4,"title":"cat","ispublic":1,"isfriend":0,"isfamily":0,"ownername":"dorinser"},{"id":"5881933297","owner":"28596055@N02","secret":"7974eaff82","server":"5036","farm":6,"title":"cat","ispublic":1,"isfriend":0,"isfamily":0,"ownername":"dorinser"},{"id":"15171599148","owner":"103599376@N07","secret":"6ef1d09dab","server":"3914","farm":4,"title":"cat","ispublic":1,"isfriend":0,"isfamily":0,"ownername":"s-sergey"},{"id":"6828049582","owner":"28596055@N02","secret":"499de13cfb","server":"7183","farm":8,"title":"cat","ispublic":1,"isfriend":0,"isfamily":0,"ownername":"dorinser"},{"id":"3977203168","owner":"21692577@N02","secret":"b9d02a0233","server":"2602","farm":3,"title":"cat","ispublic":1,"isfriend":0,"isfamily":0,"ownername":"Danny VB"},{"id":"8168159947","owner":"21692577@N02","secret":"94b3a89a2a","server":"8065","farm":9,"title":"cat","ispublic":1,"isfriend":0,"isfamily":0,"ownername":"Danny VB"},{"id":"8594699278","owner":"32594277@N04","secret":"dd256c10fd","server":"8110","farm":9,"title":"cat","ispublic":1,"isfriend":0,"isfamily":0,"ownername":"Kenny Teo (zoompict)"},{"id":"14934292534","owner":"27409143@N00","secret":"32b0302f2d","server":"3946","farm":4,"title":"Cat","ispublic":1,"isfriend":0,"isfamily":0,"ownername":"kb_vaidya"},{"id":"6330704947","owner":"36587311@N08","secret":"dd7e1b453c","server":"6092","farm":7,"title":"cat","ispublic":1,"isfriend":0,"isfamily":0,"ownername":"\u25baCubaGallery"},{"id":"9775005856","owner":"51107398@N06","secret":"9b5e0ebe16","server":"7313","farm":8,"title":"Cat","ispublic":1,"isfriend":0,"isfamily":0,"ownername":"\u00a9 Agnes PERROT"},{"id":"14410052054","owner":"32594277@N04","secret":"6296fd600f","server":"5512","farm":6,"title":"cat","ispublic":1,"isfriend":0,"isfamily":0,"ownername":"Kenny Teo (zoompict)"},{"id":"5513402618","owner":"55323395@N05","secret":"3ce232e01a","server":"5211","farm":6,"title":"Cat","ispublic":1,"isfriend":0,"isfamily":0,"ownername":"clive777"},{"id":"7190755946","owner":"42882723@N03","secret":"ea97e85765","server":"7073","farm":8,"title":"cat","ispublic":1,"isfriend":0,"isfamily":0,"ownername":"anwar hu"}]},"stat":"ok"}