{"photos":{"page":1,"pages":1534,"perpage":15,"total":"23007","photo":[{"id":"34976079980","owner":"34234134@N05","secret":"12b2505af8","server":"4199","farm":5,"title":"Catcher","ispublic":1,"isfriend":0,"isfamily":0,"ownername":"relishmoutarde"},{"id":"32532080868","owner":"135027495@N03","secret":"a39ede9cd5","server":"4865","farm":5,"title":"Oyster catcher","ispublic":1,"isfriend":0,"isfamily":0,"ownername":"Bob Silver \u263a"},{"id":"4530175474","owner":"49243144@N08","secret":"70396a93ed","server":"4031","farm":5,"title":"catcher. . .","ispublic":1,"isfriend":0,"isfamily":0,"ownername":"baseball.mom"},{"id":"5481307990","owner":"59337302@N08","secret":"78b43dc80d","server":"5018","farm":6,"title":"Dream catcher","ispublic":1,"isfriend":0,"isfamily":0,"ownername":"Analyy Bravo(:"},{"id":"8308280394","owner":"90932863@N05","secret":"2969b8467b","server":"8492","farm":9,"title":"Catcher","ispublic":1,"isfriend":0,"isfamily":0,"ownername":"radiohugo"},{"id":"8308277938","owner":"90932863@N05","secret":"a247148a5e","server":"8082","farm":9,"title":"Catcher","ispublic":1,"isfriend":0,"isfamily":0,"ownername":"radiohugo"},{"id":"8614118867","owner":"38890273@N08","secret":"7781df623b","server":"8391","farm":9,"title":"catcher","ispublic":1,"isfriend":0,"isfamily":0,"ownername":"6ftmama"},{"id":"4347169208","owner":"46125303@N05","secret":"3a5a8f6482","server":"2727","farm":3,"title":".eye\u273fcatcher.","ispublic":1,"isfriend":0,"isfamily":0,"ownername":"www.francescaalviani.com"},{"id":"2079432077","owner":"28643192@N00","secret":"6d55267b85","server":"2309","farm":3,"title":"Catcher","ispublic":1,"isfriend":0,"isfamily":0,"ownername":"ontic steve"},{"id":"2446254188","owner":"12841040@N00","secret":"8c3eefac37","server":"2089","farm":3,"title":"catcher","ispublic":1,"isfriend":0,"isfamily":0,"ownername":"3togetready"},{"id":"2241733724","owner":"23414150@N02","secret":"1c2a258978","server":"2108","farm":3,"title":"catcher","ispublic":1,"isfriend":0,"isfamily":0,"ownername":"Twilight Jones"},{"id":"4236413412","owner":"36433805@N02","secret":"85ec658c46","server":"2774","farm":3,"title":"Catcher","ispublic":1,"isfriend":0,"isfamily":0,"ownername":"kendall s."},{"id":"8360084398","owner":"38430992@N04","secret":"d9bdf73546","server":"8043","farm":9,"title":"catcher","ispublic":1,"isfriend":0,"isfamily":0,"ownername":"diamond oinam"},{"id":"7206787856","owner":"38430992@N04","secret":"8e5f0774cc","server":"7239","farm":8,"title":"catcher","ispublic":1,"isfriend":0,"isfamily":0,"ownername":"diamond oinam"},{"id":"5043151735","owner":"42552696@N05","secret":"861b435cf5","server":"4154","farm":5,"title":"Bokeh catcher...","ispublic":1,"isfriend":0,"isfamily":0,"ownername":"art\u00a9ore"}]},"stat":"ok"}