{"photos":{"page":1,"pages":67789,"perpage":15,"total":"1016830","photo":[{"id":"9775005856","owner":"51107398@N06","secret":"9b5e0ebe16","server":"7313","farm":8,"title":"Cat","ispublic":1,"isfriend":0,"isfamily":0,"ownername":"\u00a9 Agnes PERROT"},{"id":"10137167724","owner":"98519622@N08","secret":"9248ce9010","server":"3795","farm":4,"title":"Cats,","ispublic":1,"isfriend":0,"isfamily":0,"ownername":"Murtazi"},{"id":"34738948615","owner":"153399780@N03","secret":"9ba2eba156","server":"4177","farm":5,"title":"cat","ispublic":1,"isfriend":0,"isfamily":0,"ownername":"Aleksi Mattsson"},{"id":"44057597295","owner":"12178454@N07","secret":"cfe6578f92","server":"1944","farm":2,"title":"Cat","ispublic":1,"isfriend":0,"isfamily":0,"ownername":"\u963f\u5446\u2122"},{"id":"3030522458","owner":"53929580@N00","secret":"d8e63a1195","server":"3144","farm":4,"title":"Cats","ispublic":1,"isfriend":0,"isfamily":0,"ownername":"Matt1138"},{"id":"34582888851","owner":"20674281@N03","secret":"40ba188ff8","server":"4171","farm":5,"title":"cats","ispublic":1,"isfriend":0,"isfamily":0,"ownername":"T Rassloff"},{"id":"8724522760","owner":"78453207@N00","secret":"3f140baab2","server":"7315","farm":8,"title":"cats","ispublic":1,"isfriend":0,"isfamily":0,"ownername":"Adventuress Heart"},{"id":"9676662229","owner":"97698383@N07","secret":"1aeda4e70f","server":"5485","farm":6,"title":"Cats","ispublic":1,"isfriend":0,"isfamily":0,"ownername":"pasta frolla"},{"id":"169329862","owner":"19951543@N00","secret":"b3b297c7a9","server":"51","farm":1,"title":"Cat","ispublic":1,"isfriend":0,"isfamily":0,"ownername":"cheesechoker"},{"id":"9676663217","owner":"97698383@N07","secret":"37db384d58","server":"3782","farm":4,"title":"Cats","ispublic":1,"isfriend":0,"isfamily":0,"ownername":"pasta frolla"},{"id":"37430946550","owner":"151916520@N05","secret":"f495b9e62f","server":"4471","farm":5,"title":"Cats","ispublic":1,"isfriend":0,"isfamily":0,"ownername":"Sacha Aleksander"},{"id":"44057578065","owner":"12178454@N07","secret":"03dbbfbe52","server":"1969","farm":2,"title":"Cat","ispublic":1,"isfriend":0,"isfamily":0,"ownername":"\u963f\u5446\u2122"},{"id":"47247772241","owner":"42247442@N03","secret":"c4fb07b5fc","server":"7864","farm":8,"title":"Cat","ispublic":1,"isfriend":0,"isfamily":0,"ownername":"Tweeling17"},{"id":"41477057100","owner":"157532666@N07","secret":"98b1d933c0","server":"1768","farm":2,"title":"#cats","ispublic":1,"isfriend":0,"isfamily":0,"ownername":"ahmedhassanrabbit98"},{"id":"8329280464","owner":"47645389@N04","secret":"779439bd5a","server":"8078","farm":9,"title":"Cats","ispublic":1,"isfriend":0,"isfamily":0,"ownername":"finalgega"}]},"stat":"ok"}