{"photos":{"page":1,"pages":11291,"perpage":15,"total":"169357","photo":[{"id":"6365313657","owner":"92518741@N00","secret":"45c3cc35e2","server":"6237","farm":7,"title":"Charlie!","ispublic":1,"isfriend":0,"isfamily":0,"ownername":"Kevin Steele"},{"id":"44314912175","owner":"26653183@N03","secret":"92671d8613","server":"1940","farm":2,"title":"Charlie","ispublic":1,"isfriend":0,"isfamily":0,"ownername":"maj-lis"},{"id":"9057392152","owner":"94393454@N08","secret":"67e6bb933d","server":"5487","farm":6,"title":"Charlie","ispublic":1,"isfriend":0,"isfamily":0,"ownername":"Freya's Dolly world"},{"id":"8455923408","owner":"84442276@N02","secret":"4dd77e8cfa","server":"8375","farm":9,"title":"charlie","ispublic":1,"isfriend":0,"isfamily":0,"ownername":"Eta KK"},{"id":"13252947764","owner":"26792746@N07","secret":"16d7b09595","server":"3780","farm":4,"title":"Charlie","ispublic":1,"isfriend":0,"isfamily":0,"ownername":"Pennant"},{"id":"8091694748","owner":"28456832@N03","secret":"b4b558fe4d","server":"8469","farm":9,"title":"Charlie","ispublic":1,"isfriend":0,"isfamily":0,"ownername":"robina wheeler"},{"id":"15647343524","owner":"74347106@N04","secret":"f3437d048b","server":"7477","farm":8,"title":"charlie","ispublic":1,"isfriend":0,"isfamily":0,"ownername":"Adrien_Millot"},{"id":"11590931315","owner":"8105097@N04","secret":"205a97f187","server":"7366","farm":8,"title":"Charlie","ispublic":1,"isfriend":0,"isfamily":0,"ownername":"kellyfemboy"},{"id":"3383882900","owner":"30169423@N08","secret":"594b907a2c","server":"3567","farm":4,"title":"Charlie","ispublic":1,"isfriend":0,"isfamily":0,"ownername":"contentedk9"},{"id":"6353602907","owner":"38997960@N06","secret":"aa35fd06d9","server":"6213","farm":7,"title":"Charlie","ispublic":1,"isfriend":0,"isfamily":0,"ownername":"Blog Gallery"},{"id":"47298812592","owner":"62167514@N00","secret":"2fd2394be4","server":"7850","farm":8,"title":"Charlie","ispublic":1,"isfriend":0,"isfamily":0,"ownername":"Helen Higgs"},{"id":"2463653636","owner":"13746124@N07","secret":"ae1392c84c","server":"2236","farm":3,"title":"Charlie","ispublic":1,"isfriend":0,"isfamily":0,"ownername":"Brian Dingley"},{"id":"3554937352","owner":"34265231@N04","secret":"55ab55e036","server":"3344","farm":4,"title":"Charlie","ispublic":1,"isfriend":0,"isfamily":0,"ownername":"Erin Lafferty"},{"id":"7703967334","owner":"53212133@N04","secret":"7c3a83b7bd","server":"8282","farm":9,"title":"Charlie...","ispublic":1,"isfriend":0,"isfamily":0,"ownername":"Katherine Pagett =)"},{"id":"443058736","owner":"98381393@N00","secret":"b417e7fcdd","server":"204","farm":1,"title":"Charlie","ispublic":1,"isfriend":0,"isfamily":0,"ownername":"Organic-Momma"}]},"stat":"ok"}