{"photos":{"page":1,"pages":185363,"perpage":15,"total":"2780444","photo":[{"id":"4160155066","owner":"32594277@N04","secret":"075268bfde","server":"2560","farm":3,"title":"china","ispublic":1,"isfriend":0,"isfamily":0,"ownername":"Kenny Teo (zoompict)"},{"id":"4180461033","owner":"32594277@N04","secret":"31baa8315b","server":"2669","farm":3,"title":"China","ispublic":1,"isfriend":0,"isfamily":0,"ownername":"Kenny Teo (zoompict)"},{"id":"5495885645","owner":"32594277@N04","secret":"88db107215","server":"5211","farm":6,"title":"China","ispublic":1,"isfriend":0,"isfamily":0,"ownername":"Kenny Teo (zoompict)"},{"id":"4156335897","owner":"32594277@N04","secret":"c07d6a1501","server":"2562","farm":3,"title":"china","ispublic":1,"isfriend":0,"isfamily":0,"ownername":"Kenny Teo (zoompict)"},{"id":"5642757784","owner":"32594277@N04","secret":"a89cd51591","server":"5025","farm":6,"title":"china","ispublic":1,"isfriend":0,"isfamily":0,"ownername":"Kenny Teo (zoompict)"},{"id":"6332892443","owner":"17904502@N00","secret":"8f1b066bd7","server":"6219","farm":7,"title":"CHINA","ispublic":1,"isfriend":0,"isfamily":0,"ownername":"BoazImages"},{"id":"8509980622","owner":"17904502@N00","secret":"dc49a00607","server":"8510","farm":9,"title":"CHINA","ispublic":1,"isfriend":0,"isfamily":0,"ownername":"BoazImages"},{"id":"7837694062","owner":"17904502@N00","secret":"d3bd49c9f0","server":"7120","farm":8,"title":"CHINA","ispublic":1,"isfriend":0,"isfamily":0,"ownername":"BoazImages"},{"id":"8443690945","owner":"17904502@N00","secret":"b9df5ef340","server":"8096","farm":9,"title":"CHINA","ispublic":1,"isfriend":0,"isfamily":0,"ownername":"BoazImages"},{"id":"6325122356","owner":"17904502@N00","secret":"f096754699","server":"6052","farm":7,"title":"CHINA","ispublic":1,"isfriend":0,"isfamily":0,"ownername":"BoazImages"},{"id":"7235200376","owner":"47223993@N03","secret":"c98387e5cb","server":"8152","farm":9,"title":"China","ispublic":1,"isfriend":0,"isfamily":0,"ownername":"Jonathan Kos-Read"},{"id":"6610090973","owner":"21855730@N05","secret":"6aa91e083e","server":"7148","farm":8,"title":"~ China ~","ispublic":1,"isfriend":0,"isfamily":0,"ownername":"iTail ~ 5.1 Million Views ~ Thanks to all."},{"id":"6125564197","owner":"17904502@N00","secret":"326b996343","server":"6086","farm":7,"title":"CHINA","ispublic":1,"isfriend":0,"isfamily":0,"ownername":"BoazImages"},{"id":"4355914170","owner":"17904502@N00","secret":"3622335729","server":"2751","farm":3,"title":"CHINA","ispublic":1,"isfriend":0,"isfamily":0,"ownername":"BoazImages"},{"id":"5718275796","owner":"17904502@N00","secret":"472ede3680","server":"3193","farm":4,"title":"CHINA","ispublic":1,"isfriend":0,"isfamily":0,"ownername":"BoazImages"}]},"stat":"ok"}