{"photos":{"page":1,"pages":26349,"perpage":15,"total":"395222","photo":[{"id":"12581270664","owner":"22950176@N06","secret":"e808e52eb1","server":"5490","farm":6,"title":"chocolate!","ispublic":1,"isfriend":0,"isfamily":0,"ownername":"LongitudeLatitude"},{"id":"2867527920","owner":"48543472@N00","secret":"27eb9548d4","server":"3260","farm":4,"title":"chocolate","ispublic":1,"isfriend":0,"isfamily":0,"ownername":"David Lebovitz"},{"id":"7024828887","owner":"31811219@N08","secret":"645b938c06","server":"7183","farm":8,"title":"Chocolate","ispublic":1,"isfriend":0,"isfamily":0,"ownername":"Marvin  R"},{"id":"63094060","owner":"51035735481@N01","secret":"d5d2546b40","server":"24","farm":1,"title":"chocolates","ispublic":1,"isfriend":0,"isfamily":0,"ownername":"roboppy"},{"id":"8980481546","owner":"96291884@N08","secret":"674af6da6c","server":"5453","farm":6,"title":"Chocolate","ispublic":1,"isfriend":0,"isfamily":0,"ownername":"Sierra Nevada Chocolate Company"},{"id":"9817580285","owner":"51322730@N06","secret":"1fe94f220d","server":"7303","farm":8,"title":"chocolate","ispublic":1,"isfriend":0,"isfamily":0,"ownername":"Petiscos e Miminhos"},{"id":"63094052","owner":"51035735481@N01","secret":"a205d9b423","server":"28","farm":1,"title":"chocolates","ispublic":1,"isfriend":0,"isfamily":0,"ownername":"roboppy"},{"id":"6001963636","owner":"31029865@N06","secret":"a843d7ea47","server":"6130","farm":7,"title":"Chocolate","ispublic":1,"isfriend":0,"isfamily":0,"ownername":"Dick Thomas Johnson"},{"id":"2228436407","owner":"22598380@N07","secret":"dfc6242b53","server":"2240","farm":3,"title":"Chocolates","ispublic":1,"isfriend":0,"isfamily":0,"ownername":"Kirti Poddar"},{"id":"6894883363","owner":"63500343@N04","secret":"c72f3c90d7","server":"7204","farm":8,"title":"Chocolates","ispublic":1,"isfriend":0,"isfamily":0,"ownername":"setagayamama"},{"id":"5863180171","owner":"64385554@N07","secret":"760bc73856","server":"5070","farm":6,"title":"Chocolate","ispublic":1,"isfriend":0,"isfamily":0,"ownername":"pennylane1996"},{"id":"4935935283","owner":"8883630@N05","secret":"9fcaa8e94f","server":"4077","farm":5,"title":"Chocolates","ispublic":1,"isfriend":0,"isfamily":0,"ownername":"Rik B"},{"id":"5747431138","owner":"48200125@N06","secret":"4ba37d0357","server":"2374","farm":3,"title":"Chocolate","ispublic":1,"isfriend":0,"isfamily":0,"ownername":"theqatrick"},{"id":"4488943744","owner":"7765825@N03","secret":"71fa4a2575","server":"4014","farm":5,"title":"Chocolate","ispublic":1,"isfriend":0,"isfamily":0,"ownername":"bigbirdz"},{"id":"8224908149","owner":"47893257@N02","secret":"73c380ccfb","server":"8489","farm":9,"title":"chocolates","ispublic":1,"isfriend":0,"isfamily":0,"ownername":"Blacktail Ridge"}]},"stat":"ok"}