{"photos":{"page":1,"pages":100699,"perpage":15,"total":"1510483","photo":[{"id":"44601203050","owner":"21775664@N07","secret":"80188277d5","server":"7804","farm":8,"title":"Merry Christmas And Happy Holidays - Covent Garden, London, UK","ispublic":1,"isfriend":0,"isfamily":0,"ownername":"davidgutierrez.co.uk"},{"id":"46328822341","owner":"94635768@N04","secret":"b22ee19cc6","server":"4877","farm":5,"title":"One Hundred Smiles","ispublic":1,"isfriend":0,"isfamily":0,"ownername":"Silke Klimesch"},{"id":"45589039614","owner":"21775664@N07","secret":"84cc6219f7","server":"4874","farm":5,"title":"London Transport Museum - London, UK","ispublic":1,"isfriend":0,"isfamily":0,"ownername":"davidgutierrez.co.uk"},{"id":"32387323338","owner":"21775664@N07","secret":"507d02700d","server":"4825","farm":5,"title":"Starry (II) - Strand, London, UK","ispublic":1,"isfriend":0,"isfamily":0,"ownername":"davidgutierrez.co.uk"},{"id":"46160112281","owner":"21775664@N07","secret":"672a3775c3","server":"4828","farm":5,"title":"Deer Santa - Covent Garden, London, UK","ispublic":1,"isfriend":0,"isfamily":0,"ownername":"davidgutierrez.co.uk"},{"id":"46096738622","owner":"50946938@N03","secret":"90d515db20","server":"4887","farm":5,"title":"Natale si avvicina..","ispublic":1,"isfriend":0,"isfamily":0,"ownername":"anton\u00e8"},{"id":"46116029431","owner":"21775664@N07","secret":"db4180e96b","server":"4916","farm":5,"title":"Merry & Happy - Covent Garden, London, UK","ispublic":1,"isfriend":0,"isfamily":0,"ownername":"davidgutierrez.co.uk"},{"id":"31119984627","owner":"21775664@N07","secret":"a7e97c825e","server":"4902","farm":5,"title":"Starry - Strand, London, UK","ispublic":1,"isfriend":0,"isfamily":0,"ownername":"davidgutierrez.co.uk"},{"id":"45231004564","owner":"21775664@N07","secret":"b12809cffa","server":"4835","farm":5,"title":"Christmas is calling - Oxford Street, London, UK","ispublic":1,"isfriend":0,"isfamily":0,"ownername":"davidgutierrez.co.uk"},{"id":"27205798399","owner":"21775664@N07","secret":"e56b61119d","server":"4542","farm":5,"title":"Christmas Carnival - Carnaby Street, London, UK","ispublic":1,"isfriend":0,"isfamily":0,"ownername":"davidgutierrez.co.uk"},{"id":"38733905742","owner":"21775664@N07","secret":"43923345d9","server":"4565","farm":5,"title":"Christmas Ready - Oxford Street, London, UK","ispublic":1,"isfriend":0,"isfamily":0,"ownername":"davidgutierrez.co.uk"},{"id":"31693830423","owner":"81035653@N00","secret":"988e30599d","server":"465","farm":1,"title":"A happy get-together at the Pierebaan in Monnickendam","ispublic":1,"isfriend":0,"isfamily":0,"ownername":"B\u212en"},{"id":"31846698516","owner":"111498703@N07","secret":"e63a097f26","server":"376","farm":1,"title":"Last Christmas - Tribute to George Michael","ispublic":1,"isfriend":0,"isfamily":0,"ownername":"Karsten Gieselmann"},{"id":"31706372176","owner":"111498703@N07","secret":"da26fdbdf0","server":"536","farm":1,"title":"Holidays bokeh","ispublic":1,"isfriend":0,"isfamily":0,"ownername":"Karsten Gieselmann"},{"id":"31704525886","owner":"21775664@N07","secret":"c2b2e57f58","server":"5592","farm":6,"title":"\"Merry Christmas Everyone\" Oxford Street, London, UK","ispublic":1,"isfriend":0,"isfamily":0,"ownername":"davidgutierrez.co.uk"}]},"stat":"ok"}