{"photos":{"page":1,"pages":2678,"perpage":15,"total":"40162","photo":[{"id":"9243234018","owner":"30936393@N06","secret":"b84bb0b48a","server":"2829","farm":3,"title":"Cigar","ispublic":1,"isfriend":0,"isfamily":0,"ownername":"nina.polareuth"},{"id":"8483038882","owner":"91587614@N05","secret":"e1c315d92c","server":"8091","farm":9,"title":"Cigar","ispublic":1,"isfriend":0,"isfamily":0,"ownername":"Alex Clark88"},{"id":"2779860543","owner":"24170603@N07","secret":"e816d43f21","server":"3212","farm":4,"title":"Cigar","ispublic":1,"isfriend":0,"isfamily":0,"ownername":"jennifer lynn..."},{"id":"5225836808","owner":"44169799@N06","secret":"90fc6e7895","server":"5047","farm":6,"title":"cigar","ispublic":1,"isfriend":0,"isfamily":0,"ownername":"henriwithani"},{"id":"8118874510","owner":"87740577@N03","secret":"a716bfdc44","server":"8195","farm":9,"title":"Cigar","ispublic":1,"isfriend":0,"isfamily":0,"ownername":"Milady_Olivier"},{"id":"11181916666","owner":"89759853@N03","secret":"1fe1309814","server":"2880","farm":3,"title":"Cigar","ispublic":1,"isfriend":0,"isfamily":0,"ownername":"Dean Miah"},{"id":"6351415215","owner":"21200741@N07","secret":"d6bd056f3e","server":"6043","farm":7,"title":"Cigar","ispublic":1,"isfriend":0,"isfamily":0,"ownername":"5chw4r7z"},{"id":"6215006609","owner":"56375624@N05","secret":"b595f1a3cb","server":"6115","farm":7,"title":"Cigar","ispublic":1,"isfriend":0,"isfamily":0,"ownername":"keithnsmith"},{"id":"2777509741","owner":"24170603@N07","secret":"20fd08bdd7","server":"3097","farm":4,"title":"Cigar","ispublic":1,"isfriend":0,"isfamily":0,"ownername":"jennifer lynn..."},{"id":"8483036300","owner":"91587614@N05","secret":"c0a974dfc2","server":"8108","farm":9,"title":"Cigar","ispublic":1,"isfriend":0,"isfamily":0,"ownername":"Alex Clark88"},{"id":"2227427847","owner":"15638139@N06","secret":"35643174ce","server":"2089","farm":3,"title":"Cigar","ispublic":1,"isfriend":0,"isfamily":0,"ownername":"o-lena"},{"id":"6422746225","owner":"36784205@N03","secret":"b8acd75edb","server":"7173","farm":8,"title":"Cigar","ispublic":1,"isfriend":0,"isfamily":0,"ownername":"lcpleel"},{"id":"6197161126","owner":"42706488@N04","secret":"83dc51a522","server":"6180","farm":7,"title":"Cigar","ispublic":1,"isfriend":0,"isfamily":0,"ownername":"AndresLeza"},{"id":"5824131","owner":"83374639@N00","secret":"d1a2a15b42","server":"6","farm":1,"title":"Cigar","ispublic":1,"isfriend":0,"isfamily":0,"ownername":"madamepsychosis"},{"id":"4591423572","owner":"38334256@N08","secret":"1ff3ceb337","server":"4068","farm":5,"title":"Cigar","ispublic":1,"isfriend":0,"isfamily":0,"ownername":"Bananahead_diddly_dum"}]},"stat":"ok"}