{"photos":{"page":1,"pages":380068,"perpage":15,"total":"5701013","photo":[{"id":"6509684407","owner":"36587311@N08","secret":"79c08e535c","server":"7019","farm":8,"title":"city","ispublic":1,"isfriend":0,"isfamily":0,"ownername":"\u25baCubaGallery"},{"id":"11745170046","owner":"36587311@N08","secret":"191fcb12af","server":"7460","farm":8,"title":"city","ispublic":1,"isfriend":0,"isfamily":0,"ownername":"\u25baCubaGallery"},{"id":"8686001144","owner":"36587311@N08","secret":"4ae5268a38","server":"8121","farm":9,"title":"city","ispublic":1,"isfriend":0,"isfamily":0,"ownername":"\u25baCubaGallery"},{"id":"14038501666","owner":"36587311@N08","secret":"53daab8dc6","server":"2897","farm":3,"title":"city","ispublic":1,"isfriend":0,"isfamily":0,"ownername":"\u25baCubaGallery"},{"id":"14017380707","owner":"36587311@N08","secret":"5d73fc0cb3","server":"5272","farm":6,"title":"city","ispublic":1,"isfriend":0,"isfamily":0,"ownername":"\u25baCubaGallery"},{"id":"14859293454","owner":"73422502@N08","secret":"0b5a2faebc","server":"5551","farm":6,"title":"City","ispublic":1,"isfriend":0,"isfamily":0,"ownername":"Zeeyolq Photography"},{"id":"4042272533","owner":"21692577@N02","secret":"a0d639f85d","server":"2762","farm":3,"title":"city","ispublic":1,"isfriend":0,"isfamily":0,"ownername":"Danny VB"},{"id":"11722796866","owner":"36587311@N08","secret":"996d470d54","server":"3740","farm":4,"title":"city","ispublic":1,"isfriend":0,"isfamily":0,"ownername":"\u25baCubaGallery"},{"id":"22099130633","owner":"73422502@N08","secret":"6e1cc2782c","server":"572","farm":1,"title":"City","ispublic":1,"isfriend":0,"isfamily":0,"ownername":"Zeeyolq Photography"},{"id":"6085359450","owner":"36587311@N08","secret":"9f71900636","server":"6079","farm":7,"title":"city","ispublic":1,"isfriend":0,"isfamily":0,"ownername":"\u25baCubaGallery"},{"id":"10264879614","owner":"80226011@N06","secret":"569628dede","server":"5326","farm":6,"title":"city","ispublic":1,"isfriend":0,"isfamily":0,"ownername":"Blueocean64"},{"id":"16809412226","owner":"73422502@N08","secret":"2e2722d00f","server":"7596","farm":8,"title":"City","ispublic":1,"isfriend":0,"isfamily":0,"ownername":"Zeeyolq Photography"},{"id":"11967133745","owner":"73422502@N08","secret":"fd176e9f27","server":"5479","farm":6,"title":"City","ispublic":1,"isfriend":0,"isfamily":0,"ownername":"Zeeyolq Photography"},{"id":"13779602215","owner":"73422502@N08","secret":"4bc6ac0ece","server":"7444","farm":8,"title":"City","ispublic":1,"isfriend":0,"isfamily":0,"ownername":"Zeeyolq Photography"},{"id":"7677782252","owner":"75487768@N04","secret":"57fa206485","server":"7273","farm":8,"title":"city","ispublic":1,"isfriend":0,"isfamily":0,"ownername":"barnyz"}]},"stat":"ok"}