{"photos":{"page":1,"pages":800,"perpage":15,"total":"11990","photo":[{"id":"2266241354","owner":"21975603@N00","secret":"d11cf1d5c3","server":"2384","farm":3,"title":"clockwork","ispublic":1,"isfriend":0,"isfamily":0,"ownername":"marcia.furman"},{"id":"14582370381","owner":"16137863@N00","secret":"6d27759266","server":"2916","farm":3,"title":"Clockwork Cufflinks","ispublic":1,"isfriend":0,"isfamily":0,"ownername":"orbed"},{"id":"3554469886","owner":"23242285@N05","secret":"dbb74f1a37","server":"3381","farm":4,"title":"clockwork","ispublic":1,"isfriend":0,"isfamily":0,"ownername":"susanrudat"},{"id":"2912185793","owner":"27893117@N06","secret":"a6a5032c51","server":"3284","farm":4,"title":"Clockwork","ispublic":1,"isfriend":0,"isfamily":0,"ownername":"Sunapics"},{"id":"2135446316","owner":"30767682@N00","secret":"0f9dd4337e","server":"2314","farm":3,"title":"Clockwork","ispublic":1,"isfriend":0,"isfamily":0,"ownername":"Thomas Roessler"},{"id":"229839406","owner":"10018502@N00","secret":"50639df199","server":"67","farm":1,"title":"ClockWork","ispublic":1,"isfriend":0,"isfamily":0,"ownername":"SoK995"},{"id":"14338383659","owner":"26133439@N03","secret":"90c48592c1","server":"2896","farm":3,"title":"Clockwork","ispublic":1,"isfriend":0,"isfamily":0,"ownername":"unefunge"},{"id":"5334123564","owner":"58061855@N08","secret":"b7d1cfb28f","server":"5289","farm":6,"title":"Clockwork","ispublic":1,"isfriend":0,"isfamily":0,"ownername":"RenegadeManiac"},{"id":"3271651726","owner":"64589577@N00","secret":"2a37e263a9","server":"3534","farm":4,"title":"clockwork orange","ispublic":1,"isfriend":0,"isfamily":0,"ownername":"John Berd"},{"id":"11489236953","owner":"112169103@N04","secret":"92db4e9a2b","server":"3711","farm":4,"title":"Clockwork","ispublic":1,"isfriend":0,"isfamily":0,"ownername":"Snoopy_1352"},{"id":"4525882469","owner":"34467950@N08","secret":"9cdbd8f69a","server":"4026","farm":5,"title":"Clockwork Orange","ispublic":1,"isfriend":0,"isfamily":0,"ownername":"Jiro Ban"},{"id":"4876047851","owner":"37582956@N07","secret":"12cb6bdbf1","server":"4095","farm":5,"title":"Clockwork","ispublic":1,"isfriend":0,"isfamily":0,"ownername":"Michael Ashley Photography"},{"id":"5015134266","owner":"83952633@N00","secret":"13c0404e85","server":"4111","farm":5,"title":"Clockwork","ispublic":1,"isfriend":0,"isfamily":0,"ownername":"terhimon"},{"id":"5598354053","owner":"81546299@N00","secret":"7497c8b354","server":"5227","farm":6,"title":"Clockwork","ispublic":1,"isfriend":0,"isfamily":0,"ownername":"yarbex"},{"id":"5349499336","owner":"58229830@N04","secret":"18c0e9be7c","server":"5247","farm":6,"title":"Clockwork","ispublic":1,"isfriend":0,"isfamily":0,"ownername":"1stClockwork"}]},"stat":"ok"}