{"photos":{"page":1,"pages":15863,"perpage":15,"total":"237940","photo":[{"id":"508901167","owner":"50318388@N00","secret":"fe381d23f5","server":"214","farm":1,"title":"Clock","ispublic":1,"isfriend":0,"isfamily":0,"ownername":"mag3737"},{"id":"13184669313","owner":"31611680@N08","secret":"f8bd57fceb","server":"3682","farm":4,"title":"clock","ispublic":1,"isfriend":0,"isfamily":0,"ownername":"Ken Unger"},{"id":"3658873911","owner":"37031529@N00","secret":"681bd5f0f6","server":"3546","farm":4,"title":"clock","ispublic":1,"isfriend":0,"isfamily":0,"ownername":"fsse8info"},{"id":"46920425501","owner":"68089229@N06","secret":"8eee0b252c","server":"7907","farm":8,"title":"Clock","ispublic":1,"isfriend":0,"isfamily":0,"ownername":"oatsy40"},{"id":"616792006","owner":"48600103384@N01","secret":"a025fc969f","server":"1322","farm":2,"title":"Clock","ispublic":1,"isfriend":0,"isfamily":0,"ownername":"stevegarfield"},{"id":"5331269646","owner":"56734083@N02","secret":"076bde0c4a","server":"5282","farm":6,"title":"clock","ispublic":1,"isfriend":0,"isfamily":0,"ownername":"hempeln"},{"id":"8678870893","owner":"26430805@N07","secret":"4e74c40a3c","server":"8123","farm":9,"title":"Clock","ispublic":1,"isfriend":0,"isfamily":0,"ownername":"jillyjally"},{"id":"3069376656","owner":"24059293@N03","secret":"de28eb68ea","server":"3240","farm":4,"title":"Clock","ispublic":1,"isfriend":0,"isfamily":0,"ownername":"kjelle392"},{"id":"3482496629","owner":"30966683@N08","secret":"0124992156","server":"3406","farm":4,"title":"clock","ispublic":1,"isfriend":0,"isfamily":0,"ownername":"apple.red"},{"id":"5070516448","owner":"54759225@N06","secret":"0332bdf53a","server":"4124","farm":5,"title":"Clock","ispublic":1,"isfriend":0,"isfamily":0,"ownername":"Justin Cafiero"},{"id":"7422697270","owner":"66154107@N02","secret":"6e5b9cdc77","server":"5034","farm":6,"title":"Clock","ispublic":1,"isfriend":0,"isfamily":0,"ownername":"Kat Jodoin \u2665\u2665\u2665"},{"id":"2725194729","owner":"29099968@N04","secret":"6ea7bf4042","server":"3213","farm":4,"title":"clock","ispublic":1,"isfriend":0,"isfamily":0,"ownername":"Peter Eriksson Stockholm"},{"id":"5960790446","owner":"46161965@N02","secret":"4ef3036c3c","server":"6126","farm":7,"title":"clocks","ispublic":1,"isfriend":0,"isfamily":0,"ownername":"kerrie bowles"},{"id":"28015883489","owner":"148031671@N05","secret":"8e894693ed","server":"4767","farm":5,"title":"Clock#","ispublic":1,"isfriend":0,"isfamily":0,"ownername":"R. Henne"},{"id":"3987601721","owner":"14786378@N00","secret":"b94a2097ba","server":"2501","farm":3,"title":"clock","ispublic":1,"isfriend":0,"isfamily":0,"ownername":"Sandy's Photos"}]},"stat":"ok"}