{"photos":{"page":1,"pages":1358,"perpage":15,"total":"20358","photo":[{"id":"6334619144","owner":"69593795@N06","secret":"0fee129e42","server":"6224","farm":7,"title":"Closet","ispublic":1,"isfriend":0,"isfamily":0,"ownername":"Sofy Marquez"},{"id":"199221558","owner":"88438917@N00","secret":"d2628f4df4","server":"57","farm":1,"title":"Closet","ispublic":1,"isfriend":0,"isfamily":0,"ownername":"Sorcyress"},{"id":"4401977852","owner":"62215712@N00","secret":"ae9c0f4c86","server":"4070","farm":5,"title":"Closet","ispublic":1,"isfriend":0,"isfamily":0,"ownername":"fauvevanmaanen"},{"id":"5414318703","owner":"68842883@N00","secret":"0c09525a5c","server":"4134","farm":5,"title":"closet","ispublic":1,"isfriend":0,"isfamily":0,"ownername":"katrino"},{"id":"6411928645","owner":"37875012@N08","secret":"751d2da518","server":"6101","farm":7,"title":"closet","ispublic":1,"isfriend":0,"isfamily":0,"ownername":"daniellleee"},{"id":"3762735435","owner":"26381241@N04","secret":"a78c899298","server":"2468","farm":3,"title":"Closet","ispublic":1,"isfriend":0,"isfamily":0,"ownername":"aarondfrancis"},{"id":"2374684549","owner":"7724291@N02","secret":"6d0e62979c","server":"2101","farm":3,"title":"closet","ispublic":1,"isfriend":0,"isfamily":0,"ownername":"autywon"},{"id":"3848379632","owner":"18191941@N02","secret":"2b5a540cc1","server":"2578","farm":3,"title":"Closet","ispublic":1,"isfriend":0,"isfamily":0,"ownername":"saveenah"},{"id":"1129562460","owner":"78665967@N00","secret":"59e45b4fd7","server":"1069","farm":2,"title":"closet","ispublic":1,"isfriend":0,"isfamily":0,"ownername":"pink-peony"},{"id":"2687509390","owner":"7361220@N08","secret":"ef1f20ec15","server":"2274","farm":3,"title":"Closet","ispublic":1,"isfriend":0,"isfamily":0,"ownername":"thechubbybunny"},{"id":"6825713625","owner":"36422513@N06","secret":"3ea4f88e45","server":"7026","farm":8,"title":"Closet","ispublic":1,"isfriend":0,"isfamily":0,"ownername":"CouldBeKim"},{"id":"2186613801","owner":"12699467@N00","secret":"786bb68284","server":"2289","farm":3,"title":"Closet","ispublic":1,"isfriend":0,"isfamily":0,"ownername":"liormania"},{"id":"4762714754","owner":"7280447@N06","secret":"d8d46b89fb","server":"4117","farm":5,"title":"Closet...","ispublic":1,"isfriend":0,"isfamily":0,"ownername":"sar2698"},{"id":"1895936332","owner":"88699554@N00","secret":"e5b089d31d","server":"2092","farm":3,"title":"closet","ispublic":1,"isfriend":0,"isfamily":0,"ownername":"raggapants"},{"id":"6711271557","owner":"71072596@N08","secret":"5709065b14","server":"7026","farm":8,"title":"closet","ispublic":1,"isfriend":0,"isfamily":0,"ownername":"ramshackle heads"}]},"stat":"ok"}