{"photos":{"page":1,"pages":41328,"perpage":15,"total":"619914","photo":[{"id":"12146251243","owner":"55747198@N00","secret":"341f3a47bf","server":"7308","farm":8,"title":"Clothing","ispublic":1,"isfriend":0,"isfamily":0,"ownername":"Romair"},{"id":"12163250605","owner":"40116219@N08","secret":"c3eb2e650c","server":"5493","farm":6,"title":"Clothing [explore]","ispublic":1,"isfriend":0,"isfamily":0,"ownername":"Lo8i"},{"id":"12170141073","owner":"44319079@N06","secret":"b8b9a3ae52","server":"5487","farm":6,"title":"Clothing \u5e74\u4f86\u7336\u81ea\u63db\u65b0\u8863","ispublic":1,"isfriend":0,"isfamily":0,"ownername":"Sharleen Chao"},{"id":"420241189","owner":"85682930@N00","secret":"d1490ce6fc","server":"123","farm":1,"title":"baby clothing design","ispublic":1,"isfriend":0,"isfamily":0,"ownername":"*silviaStella"},{"id":"5895345040","owner":"9609814@N04","secret":"1836070152","server":"5111","farm":6,"title":"DOLL CLOTHES","ispublic":1,"isfriend":0,"isfamily":0,"ownername":"thelittleandroid"},{"id":"12171774293","owner":"62554838@N00","secret":"0d8ece2505","server":"7309","farm":8,"title":"Clothing abstract","ispublic":1,"isfriend":0,"isfamily":0,"ownername":"1ManWAC"},{"id":"421252804","owner":"85682930@N00","secret":"233460f05b","server":"157","farm":1,"title":"baby clothing design","ispublic":1,"isfriend":0,"isfamily":0,"ownername":"*silviaStella"},{"id":"12168726945","owner":"83346641@N00","secret":"3e7f6d978c","server":"5474","farm":6,"title":"Light Clothing","ispublic":1,"isfriend":0,"isfamily":0,"ownername":"JD Hancock"},{"id":"7453704590","owner":"64411615@N07","secret":"94f5837ebd","server":"8009","farm":9,"title":"Francie Show & Tell: Handmade Clothing","ispublic":1,"isfriend":0,"isfamily":0,"ownername":"Foxy Belle"},{"id":"6398318949","owner":"70315385@N07","secret":"4b80d0bffc","server":"7035","farm":8,"title":"Clothing","ispublic":1,"isfriend":0,"isfamily":0,"ownername":"ezio43"},{"id":"4192227609","owner":"8007896@N05","secret":"f54c45de6c","server":"2566","farm":3,"title":"Ronni for Royal Family Clothing","ispublic":1,"isfriend":0,"isfamily":0,"ownername":"Grizzlee Martin"},{"id":"24278255082","owner":"88245539@N05","secret":"bf347e066e","server":"1536","farm":2,"title":"Mercado Juarez Clothing","ispublic":1,"isfriend":0,"isfamily":0,"ownername":"miss_betty2012 (not available much)"},{"id":"6367168129","owner":"26118152@N04","secret":"8c04838785","server":"6111","farm":7,"title":"Afghan traditional clothes","ispublic":1,"isfriend":0,"isfamily":0,"ownername":"Zohalii"},{"id":"3327164269","owner":"24485381@N00","secret":"655c73b18d","server":"3408","farm":4,"title":"NATASHA LILLIPORE - KONFORMITY CLOTHING 08","ispublic":1,"isfriend":0,"isfamily":0,"ownername":"PUNKassPHOTOS.com"},{"id":"4089936391","owner":"41095430@N04","secret":"20e7bdc637","server":"2503","farm":3,"title":"Rhedoric Clothing","ispublic":1,"isfriend":0,"isfamily":0,"ownername":"Zim Killgore"}]},"stat":"ok"}