{"photos":{"page":1,"pages":67562,"perpage":15,"total":"1013430","photo":[{"id":"6236665025","owner":"36587311@N08","secret":"d14709a7bf","server":"6165","farm":7,"title":"cloud","ispublic":1,"isfriend":0,"isfamily":0,"ownername":"\u25baCubaGallery"},{"id":"15737865564","owner":"95794224@N08","secret":"ec4601b6b3","server":"8630","farm":9,"title":"Cloud","ispublic":1,"isfriend":0,"isfamily":0,"ownername":"bassak1"},{"id":"8453495838","owner":"69148745@N02","secret":"5f7848f8d7","server":"8093","farm":9,"title":"cloud","ispublic":1,"isfriend":0,"isfamily":0,"ownername":"land[e]scape"},{"id":"14626103944","owner":"80226011@N06","secret":"1bdd2d1408","server":"3847","farm":4,"title":"cloud","ispublic":1,"isfriend":0,"isfamily":0,"ownername":"Blueocean64"},{"id":"2201187981","owner":"21692577@N02","secret":"575ff6b1c5","server":"2316","farm":3,"title":"cloud","ispublic":1,"isfriend":0,"isfamily":0,"ownername":"Danny VB"},{"id":"52621490","owner":"70121902@N00","secret":"90f5660b77","server":"31","farm":1,"title":"clouds","ispublic":1,"isfriend":0,"isfamily":0,"ownername":"Extra Medium"},{"id":"14721081975","owner":"23551509@N05","secret":"ea3c6054b0","server":"2903","farm":3,"title":"Clouds","ispublic":1,"isfriend":0,"isfamily":0,"ownername":"_tsos"},{"id":"10121204054","owner":"80226011@N06","secret":"3f4afdd146","server":"2855","farm":3,"title":"cloud","ispublic":1,"isfriend":0,"isfamily":0,"ownername":"Blueocean64"},{"id":"15175523531","owner":"31277359@N04","secret":"f055897777","server":"3893","farm":4,"title":"Clouds","ispublic":1,"isfriend":0,"isfamily":0,"ownername":"Division72"},{"id":"2675118457","owner":"30991069@N00","secret":"9d5361a8a2","server":"3247","farm":4,"title":"Cloud","ispublic":1,"isfriend":0,"isfamily":0,"ownername":"Flora Doehler"},{"id":"3748233827","owner":"24043230@N02","secret":"0f948dd6d0","server":"2427","farm":3,"title":"Cloud","ispublic":1,"isfriend":0,"isfamily":0,"ownername":"Xiaohuz"},{"id":"5047500870","owner":"48841672@N03","secret":"4cd9ee61a2","server":"4130","farm":5,"title":"Cloud","ispublic":1,"isfriend":0,"isfamily":0,"ownername":"maku_zin"},{"id":"5880941387","owner":"22849742@N07","secret":"5a16c0fa96","server":"6033","farm":7,"title":"Cloud","ispublic":1,"isfriend":0,"isfamily":0,"ownername":"Clarence.Lee"},{"id":"4059014860","owner":"27772638@N04","secret":"76a5eeb777","server":"2437","farm":3,"title":"cloud","ispublic":1,"isfriend":0,"isfamily":0,"ownername":"Tang's Father"},{"id":"6297245041","owner":"69281037@N06","secret":"ae1a5f23c6","server":"6229","farm":7,"title":"cloud","ispublic":1,"isfriend":0,"isfamily":0,"ownername":"\u706b\u70e7\u963f\u62c9\u857e"}]},"stat":"ok"}