{"photos":{"page":1,"pages":65499,"perpage":15,"total":"982481","photo":[{"id":"40387224403","owner":"169743969@N03","secret":"7a6244c181","server":"7868","farm":8,"title":"cold","ispublic":1,"isfriend":0,"isfamily":0,"ownername":"medyamajd"},{"id":"28161618749","owner":"160098165@N04","secret":"4999726696","server":"4632","farm":5,"title":"Cold!","ispublic":1,"isfriend":0,"isfamily":0,"ownername":"Toini O Halvorsen"},{"id":"4288233040","owner":"46766893@N08","secret":"d1b8fd439f","server":"4016","farm":5,"title":"Cold","ispublic":1,"isfriend":0,"isfamily":0,"ownername":"LUCINDAZZZ"},{"id":"45733428294","owner":"39056545@N06","secret":"bd9d769921","server":"4864","farm":5,"title":"Cold","ispublic":1,"isfriend":0,"isfamily":0,"ownername":"ermannobraghiroli"},{"id":"32678154893","owner":"35475666@N03","secret":"996c6afe95","server":"3843","farm":4,"title":"COLD","ispublic":1,"isfriend":0,"isfamily":0,"ownername":"jordidp"},{"id":"40596511472","owner":"32791195@N08","secret":"90bef904ee","server":"4795","farm":5,"title":"Cold Feet","ispublic":1,"isfriend":0,"isfamily":0,"ownername":"David Brooker"},{"id":"370796563","owner":"80992738@N00","secret":"59286b8ab5","server":"141","farm":1,"title":"Cold","ispublic":1,"isfriend":0,"isfamily":0,"ownername":"Mr. Ducke"},{"id":"8373753005","owner":"38454047@N05","secret":"d21ec2a859","server":"8355","farm":9,"title":"Cold","ispublic":1,"isfriend":0,"isfamily":0,"ownername":"susivinh"},{"id":"16056458030","owner":"27755351@N05","secret":"858fd4b286","server":"7516","farm":8,"title":"cold...","ispublic":1,"isfriend":0,"isfamily":0,"ownername":"WANGHUY"},{"id":"16244349411","owner":"48817379@N03","secret":"9f8a6652f0","server":"7508","farm":8,"title":"Cold","ispublic":1,"isfriend":0,"isfamily":0,"ownername":"Rupert Procter @blackcygnusphotography"},{"id":"8277177606","owner":"36081284@N07","secret":"ca036786dd","server":"8074","farm":9,"title":"cold","ispublic":1,"isfriend":0,"isfamily":0,"ownername":"gulgulas"},{"id":"40437856440","owner":"137133018@N06","secret":"5b490dbdeb","server":"969","farm":1,"title":"#cold","ispublic":1,"isfriend":0,"isfamily":0,"ownername":"anay7785"},{"id":"2607261577","owner":"27962315@N07","secret":"477946f66f","server":"3164","farm":4,"title":"Cold","ispublic":1,"isfriend":0,"isfamily":0,"ownername":"unamike"},{"id":"14416868915","owner":"65729135@N02","secret":"01ed1c1d4d","server":"5080","farm":6,"title":"cold","ispublic":1,"isfriend":0,"isfamily":0,"ownername":"dandreadante"}]},"stat":"ok"}