{"photos":{"page":1,"pages":1415,"perpage":15,"total":"21217","photo":[{"id":"3327679254","owner":"57765464@N00","secret":"a695056dde","server":"3396","farm":4,"title":"Compass","ispublic":1,"isfriend":0,"isfamily":0,"ownername":"Kapten Hanna"},{"id":"6863826873","owner":"59030480@N06","secret":"302ccf4fcb","server":"7210","farm":8,"title":"compass","ispublic":1,"isfriend":0,"isfamily":0,"ownername":"Ermuggo"},{"id":"6668776897","owner":"59463867@N08","secret":"1228bb9338","server":"7012","farm":8,"title":"Compass","ispublic":1,"isfriend":0,"isfamily":0,"ownername":"Ada Lindam"},{"id":"9469772409","owner":"98437679@N03","secret":"e9224d4644","server":"2877","farm":3,"title":"compass","ispublic":1,"isfriend":0,"isfamily":0,"ownername":"whitenowhere"},{"id":"7918388288","owner":"62373929@N05","secret":"d18385407f","server":"8320","farm":9,"title":"Compass","ispublic":1,"isfriend":0,"isfamily":0,"ownername":"SupahEileen"},{"id":"6036576663","owner":"66314253@N04","secret":"79b4dfaf08","server":"6205","farm":7,"title":"compass","ispublic":1,"isfriend":0,"isfamily":0,"ownername":"NathanHertzbergPhotography"},{"id":"41765288802","owner":"152642405@N06","secret":"89df88a04a","server":"864","farm":1,"title":"Compass","ispublic":1,"isfriend":0,"isfamily":0,"ownername":"M4x G4x"},{"id":"8250650744","owner":"50678203@N03","secret":"5303cc90c7","server":"8337","farm":9,"title":"Compass","ispublic":1,"isfriend":0,"isfamily":0,"ownername":"Georgina Pioneer Village"},{"id":"4882785789","owner":"52005683@N03","secret":"342b525376","server":"4101","farm":5,"title":"Compass","ispublic":1,"isfriend":0,"isfamily":0,"ownername":"thornxbird"},{"id":"1164366277","owner":"11683613@N05","secret":"f8ce8295fb","server":"1265","farm":2,"title":"Compass","ispublic":1,"isfriend":0,"isfamily":0,"ownername":"SirBloody"},{"id":"6400346633","owner":"23585397@N00","secret":"5150556cda","server":"6232","farm":7,"title":"Compass","ispublic":1,"isfriend":0,"isfamily":0,"ownername":"erikrasmussen"},{"id":"417676223","owner":"65818150@N00","secret":"25fd601975","server":"125","farm":1,"title":"Compass","ispublic":1,"isfriend":0,"isfamily":0,"ownername":"J. Weissmahr"},{"id":"4847880947","owner":"49888650@N02","secret":"b60ac6ed99","server":"4145","farm":5,"title":"compass","ispublic":1,"isfriend":0,"isfamily":0,"ownername":"Jmitch159"},{"id":"5789911862","owner":"9370055@N04","secret":"0fac679d79","server":"5221","farm":6,"title":"Compass","ispublic":1,"isfriend":0,"isfamily":0,"ownername":"baiwuhen"},{"id":"5456039932","owner":"30401054@N02","secret":"f899f0efe7","server":"5096","farm":6,"title":"compass","ispublic":1,"isfriend":0,"isfamily":0,"ownername":"thingshandmade"}]},"stat":"ok"}