{"photos":{"page":1,"pages":736,"perpage":15,"total":"11034","photo":[{"id":"2121454701","owner":"77944213@N00","secret":"18d6f76b7f","server":"2044","farm":3,"title":"Cooks","ispublic":1,"isfriend":0,"isfamily":0,"ownername":"avezink"},{"id":"2250592","owner":"73207483@N00","secret":"fbcc5d7582","server":"1","farm":1,"title":"Cooks eating","ispublic":1,"isfriend":0,"isfamily":0,"ownername":"jeremyfoo"},{"id":"39362778692","owner":"96028592@N06","secret":"a3b9ebebcf","server":"4636","farm":5,"title":"cooks","ispublic":1,"isfriend":0,"isfamily":0,"ownername":"Nigel_G"},{"id":"72310876","owner":"35303508@N00","secret":"59eefd5cf3","server":"20","farm":1,"title":"Cooks","ispublic":1,"isfriend":0,"isfamily":0,"ownername":"muffysomethingfm"},{"id":"4152012093","owner":"24739413@N05","secret":"661f407c2f","server":"2762","farm":3,"title":"Cooking","ispublic":1,"isfriend":0,"isfamily":0,"ownername":"stefan aigner"},{"id":"425215079","owner":"61347625@N00","secret":"55207dbf63","server":"173","farm":1,"title":"Cook","ispublic":1,"isfriend":0,"isfamily":0,"ownername":"Drella"},{"id":"36366726","owner":"13274353@N00","secret":"a7aa9a0795","server":"25","farm":1,"title":"cooks","ispublic":1,"isfriend":0,"isfamily":0,"ownername":"sarahemurray"},{"id":"467006871","owner":"62213874@N00","secret":"1f508f4ced","server":"205","farm":1,"title":"early morning over cooks river1","ispublic":1,"isfriend":0,"isfamily":0,"ownername":"ravish malhotra"},{"id":"2082881895","owner":"91219471@N00","secret":"ca0de0d1e8","server":"2243","farm":3,"title":"cooking","ispublic":1,"isfriend":0,"isfamily":0,"ownername":"hallgrimur"},{"id":"68085499","owner":"15254810@N00","secret":"ed584626b6","server":"26","farm":1,"title":"another holiday shot","ispublic":1,"isfriend":0,"isfamily":0,"ownername":"someCarrs"},{"id":"14123535198","owner":"12746769@N05","secret":"92960247b2","server":"5534","farm":6,"title":"Cooks","ispublic":1,"isfriend":0,"isfamily":0,"ownername":"Tom Levold (www.levold.de\/photosphere)"},{"id":"27740031904","owner":"138131469@N04","secret":"209f0939f8","server":"8849","farm":9,"title":"cooks","ispublic":1,"isfriend":0,"isfamily":0,"ownername":"catherinecollins2414"},{"id":"5103296054","owner":"52529054@N06","secret":"6d5b0a7cff","server":"1058","farm":2,"title":"Goshen College cooks","ispublic":1,"isfriend":0,"isfamily":0,"ownername":"Mennonite Church USA Archives"}]},"stat":"ok"}