{"photos":{"page":1,"pages":7015,"perpage":15,"total":"105225","photo":[{"id":"16181429764","owner":"54706567@N00","secret":"8a28be43ce","server":"8611","farm":9,"title":"a corner","ispublic":1,"isfriend":0,"isfamily":0,"ownername":"ro_buk [I'm not there]"},{"id":"7589361236","owner":"36081284@N07","secret":"19755d82b2","server":"8152","farm":9,"title":"corner","ispublic":1,"isfriend":0,"isfamily":0,"ownername":"gulgulas"},{"id":"4960097911","owner":"53659215@N02","secret":"078bd01a68","server":"4128","farm":5,"title":"Corner","ispublic":1,"isfriend":0,"isfamily":0,"ownername":"Klo_ro_fyll"},{"id":"33202699904","owner":"59852454@N03","secret":"23fc1c7419","server":"2936","farm":3,"title":"Corner","ispublic":1,"isfriend":0,"isfamily":0,"ownername":"Pavel P."},{"id":"2337252947","owner":"8476886@N06","secret":"48a52d2ca1","server":"2302","farm":3,"title":"corner","ispublic":1,"isfriend":0,"isfamily":0,"ownername":"bonamynorman"},{"id":"13833716355","owner":"44912907@N05","secret":"ff73339986","server":"3790","farm":4,"title":"Corner","ispublic":1,"isfriend":0,"isfamily":0,"ownername":"Sunsword & Moonsabre"},{"id":"45169218864","owner":"52755911@N03","secret":"288f0dac74","server":"4828","farm":5,"title":"Corner","ispublic":1,"isfriend":0,"isfamily":0,"ownername":"SammCox"},{"id":"5272122652","owner":"97177054@N00","secret":"257c53069e","server":"5167","farm":6,"title":"cornered","ispublic":1,"isfriend":0,"isfamily":0,"ownername":"azrasta"},{"id":"15012552347","owner":"124705871@N06","secret":"ceea8230cc","server":"3866","farm":4,"title":"corner","ispublic":1,"isfriend":0,"isfamily":0,"ownername":"Homo Coffeens"},{"id":"16646347848","owner":"37611396@N00","secret":"bae79cca9b","server":"8730","farm":9,"title":"Corner","ispublic":1,"isfriend":0,"isfamily":0,"ownername":"Lugarplaceplek"},{"id":"5582800166","owner":"11321491@N03","secret":"c84f21ed2a","server":"5029","farm":6,"title":"Cornered","ispublic":1,"isfriend":0,"isfamily":0,"ownername":"the12thdude"},{"id":"31816458392","owner":"66951076@N03","secret":"eb553ffd12","server":"765","farm":1,"title":"Corner","ispublic":1,"isfriend":0,"isfamily":0,"ownername":"luis lainez photography"},{"id":"32055590015","owner":"130659121@N02","secret":"61afaac6d6","server":"588","farm":1,"title":"Corner","ispublic":1,"isfriend":0,"isfamily":0,"ownername":"Pztryk"},{"id":"7186391947","owner":"76129990@N05","secret":"cb6cfb2dfe","server":"5234","farm":6,"title":"cornered","ispublic":1,"isfriend":0,"isfamily":0,"ownername":"smokingape"},{"id":"6501010803","owner":"38090093@N06","secret":"a8cbf3ddfb","server":"7175","farm":8,"title":"Corner..","ispublic":1,"isfriend":0,"isfamily":0,"ownername":"Aye Bee"}]},"stat":"ok"}