{"photos":{"page":1,"pages":10496,"perpage":15,"total":"157436","photo":[{"id":"17030976034","owner":"30493186@N03","secret":"a46f82b5ec","server":"7719","farm":8,"title":"Couch","ispublic":1,"isfriend":0,"isfamily":0,"ownername":"d o l f i"},{"id":"14871146939","owner":"66517237@N04","secret":"46e5f7c14d","server":"3926","farm":4,"title":"Uses for a couch #1","ispublic":1,"isfriend":0,"isfamily":0,"ownername":"55randomclicks"},{"id":"5194961654","owner":"21910223@N06","secret":"9db3ce8c62","server":"4153","farm":5,"title":"couch","ispublic":1,"isfriend":0,"isfamily":0,"ownername":"kaylovesvintage"},{"id":"2387769893","owner":"61491718@N00","secret":"0aa09f18c1","server":"3203","farm":4,"title":"Old flowery couch","ispublic":1,"isfriend":0,"isfamily":0,"ownername":"Cecy Young"},{"id":"6711852","owner":"35237093637@N01","secret":"9ab12df32d","server":"4","farm":1,"title":"couch","ispublic":1,"isfriend":0,"isfamily":0,"ownername":"emdot"},{"id":"2711753868","owner":"10359714@N03","secret":"afcb05188e","server":"3145","farm":4,"title":"Couch","ispublic":1,"isfriend":0,"isfamily":0,"ownername":"Noel Kerns"},{"id":"13823975043","owner":"98255199@N08","secret":"84c20e53d6","server":"5306","farm":6,"title":"couch potato","ispublic":1,"isfriend":0,"isfamily":0,"ownername":"derhalbling"},{"id":"14091509394","owner":"30493186@N03","secret":"9a5278a264","server":"5484","farm":6,"title":"Couch \/ Sofa","ispublic":1,"isfriend":0,"isfamily":0,"ownername":"d o l f i"},{"id":"4793222459","owner":"35324700@N00","secret":"cdff1ec88a","server":"4080","farm":5,"title":"new couch","ispublic":1,"isfriend":0,"isfamily":0,"ownername":"Super*Junk"},{"id":"20703120933","owner":"29487672@N07","secret":"e8b59b05b9","server":"5674","farm":6,"title":"Couch Potato","ispublic":1,"isfriend":0,"isfamily":0,"ownername":"swong95765"},{"id":"16485744796","owner":"59066617@N06","secret":"2a1543a616","server":"7366","farm":8,"title":"MNF Couch","ispublic":1,"isfriend":0,"isfamily":0,"ownername":"RikkiStar"},{"id":"7937093028","owner":"40658364@N00","secret":"6dc090aed2","server":"8295","farm":9,"title":"#850D7753 - The couch","ispublic":1,"isfriend":0,"isfamily":0,"ownername":"Zoemies..."},{"id":"5023702628","owner":"38451115@N04","secret":"ddba594efd","server":"4087","farm":5,"title":"[25\/365] On the couch (Explored)","ispublic":1,"isfriend":0,"isfamily":0,"ownername":"pasukaru76"},{"id":"4119857517","owner":"8007896@N05","secret":"f04f270023","server":"2635","farm":3,"title":"Couch Fire","ispublic":1,"isfriend":0,"isfamily":0,"ownername":"Grizzlee Martin"},{"id":"16442834916","owner":"40645248@N07","secret":"4d88ebe81a","server":"7342","farm":8,"title":"couch art # 1","ispublic":1,"isfriend":0,"isfamily":0,"ownername":"sedge808"}]},"stat":"ok"}