{"photos":{"page":1,"pages":16659,"perpage":15,"total":"249877","photo":[{"id":"3050754008","owner":"96006596@N00","secret":"29ee381b76","server":"3162","farm":4,"title":"the court","ispublic":1,"isfriend":0,"isfamily":0,"ownername":"jelens"},{"id":"5778889470","owner":"20108521@N07","secret":"16d37aef29","server":"5310","farm":6,"title":"court","ispublic":1,"isfriend":0,"isfamily":0,"ownername":"scotterbil"},{"id":"2225894487","owner":"67706190@N00","secret":"4a6b732e08","server":"2297","farm":3,"title":"Court","ispublic":1,"isfriend":0,"isfamily":0,"ownername":"Dave_Davies"},{"id":"1174423684","owner":"7269585@N08","secret":"003f1a3bd5","server":"1200","farm":2,"title":"Phoenix Court","ispublic":1,"isfriend":0,"isfamily":0,"ownername":"ianmurray"},{"id":"9224913758","owner":"54545941@N03","secret":"6a6dc37aff","server":"5448","farm":6,"title":"court","ispublic":1,"isfriend":0,"isfamily":0,"ownername":"SALLYKAY187"},{"id":"6098237811","owner":"21692577@N02","secret":"603a43be6b","server":"6189","farm":7,"title":"Court","ispublic":1,"isfriend":0,"isfamily":0,"ownername":"Danny VB"},{"id":"4301793750","owner":"26018798@N06","secret":"d3919df566","server":"2729","farm":3,"title":"squash courts","ispublic":1,"isfriend":0,"isfamily":0,"ownername":"R23W"},{"id":"388520724","owner":"65931226@N00","secret":"9b3b0cb3c8","server":"152","farm":1,"title":"courting","ispublic":1,"isfriend":0,"isfamily":0,"ownername":"JPaul23"},{"id":"11306081204","owner":"109645334@N02","secret":"84d22b8472","server":"7308","farm":8,"title":"Court","ispublic":1,"isfriend":0,"isfamily":0,"ownername":"John Minchin"},{"id":"8391440964","owner":"72892197@N03","secret":"189590cc91","server":"8375","farm":9,"title":"Court","ispublic":1,"isfriend":0,"isfamily":0,"ownername":"FoFRCphoto"},{"id":"780517986","owner":"18991265@N00","secret":"0bd72800cf","server":"1183","farm":2,"title":"Court","ispublic":1,"isfriend":0,"isfamily":0,"ownername":"ShawnP"},{"id":"385183200","owner":"92449525@N00","secret":"d586fe8bc1","server":"176","farm":1,"title":"court","ispublic":1,"isfriend":0,"isfamily":0,"ownername":"thekellyj"},{"id":"515584313","owner":"51035602827@N01","secret":"8a238b377f","server":"242","farm":1,"title":"court","ispublic":1,"isfriend":0,"isfamily":0,"ownername":"smugcity"},{"id":"7050984219","owner":"10268294@N00","secret":"fd145b0038","server":"7073","farm":8,"title":"Court","ispublic":1,"isfriend":0,"isfamily":0,"ownername":"Bold Willie"},{"id":"3253719805","owner":"8987016@N03","secret":"ceb317740f","server":"3404","farm":4,"title":"Court","ispublic":1,"isfriend":0,"isfamily":0,"ownername":"SBos"}]},"stat":"ok"}