{"photos":{"page":1,"pages":16562,"perpage":15,"total":"248429","photo":[{"id":"3123170162","owner":"32224133@N07","secret":"d98aa215fc","server":"3249","farm":4,"title":"Cow","ispublic":1,"isfriend":0,"isfamily":0,"ownername":"sickmouthy"},{"id":"4000109142","owner":"32067800@N06","secret":"b3ddb811a2","server":"2503","farm":3,"title":"Cow","ispublic":1,"isfriend":0,"isfamily":0,"ownername":"yuriyworld"},{"id":"8102610926","owner":"76109775@N02","secret":"7c2fdb16c5","server":"8469","farm":9,"title":"Cow","ispublic":1,"isfriend":0,"isfamily":0,"ownername":"Mr. Morten Bak"},{"id":"15023630476","owner":"48126186@N00","secret":"77bdc24c56","server":"5585","farm":6,"title":"Cow","ispublic":1,"isfriend":0,"isfamily":0,"ownername":"MightySnail"},{"id":"5752819834","owner":"37723938@N05","secret":"e84698cdf2","server":"2673","farm":3,"title":"Cow","ispublic":1,"isfriend":0,"isfamily":0,"ownername":"Teagan The Dog"},{"id":"6263662093","owner":"67536021@N07","secret":"d3d19d75ec","server":"6036","farm":7,"title":"Cow","ispublic":1,"isfriend":0,"isfamily":0,"ownername":"Heathcliffe2"},{"id":"7576936264","owner":"77347305@N03","secret":"e3e541b10c","server":"7249","farm":8,"title":"Cow","ispublic":1,"isfriend":0,"isfamily":0,"ownername":"Rudi350"},{"id":"8072015101","owner":"53522899@N03","secret":"6fbda75ddb","server":"8178","farm":9,"title":"Cow","ispublic":1,"isfriend":0,"isfamily":0,"ownername":"ratboy2008"},{"id":"6329401407","owner":"49539583@N06","secret":"3efeb4fd5a","server":"6237","farm":7,"title":"cow","ispublic":1,"isfriend":0,"isfamily":0,"ownername":"paddycorrigan1"},{"id":"15934298019","owner":"10026699@N07","secret":"af874ecac0","server":"7492","farm":8,"title":"Cows","ispublic":1,"isfriend":0,"isfamily":0,"ownername":"Nik Stanbridge"},{"id":"9016246641","owner":"62209680@N07","secret":"c2a7997cbf","server":"5461","farm":6,"title":"Cow","ispublic":1,"isfriend":0,"isfamily":0,"ownername":"Nicholls of the Yard"},{"id":"3563353060","owner":"32558319@N03","secret":"abbdb26b0f","server":"3638","farm":4,"title":"cow","ispublic":1,"isfriend":0,"isfamily":0,"ownername":"steve p2008"},{"id":"4608866837","owner":"69585212@N00","secret":"4c0ef0664e","server":"3333","farm":4,"title":"Cow","ispublic":1,"isfriend":0,"isfamily":0,"ownername":"brianblackden"},{"id":"8311562716","owner":"91344158@N06","secret":"b7f16f4861","server":"8363","farm":9,"title":"Cow","ispublic":1,"isfriend":0,"isfamily":0,"ownername":"jeanettphotoholic"},{"id":"7103690651","owner":"74097368@N04","secret":"1ccf063e5d","server":"5332","farm":6,"title":"Cow","ispublic":1,"isfriend":0,"isfamily":0,"ownername":"collybrennan"}]},"stat":"ok"}