{"photos":{"page":1,"pages":788,"perpage":15,"total":"11813","photo":[{"id":"6696316723","owner":"78554167@N00","secret":"f7f3394263","server":"7143","farm":8,"title":"Newtons Cradle","ispublic":1,"isfriend":0,"isfamily":0,"ownername":"MattX27"},{"id":"2928931472","owner":"40954626@N00","secret":"6d0821c250","server":"3245","farm":4,"title":"Cradle","ispublic":1,"isfriend":0,"isfamily":0,"ownername":"Ravikiran Rao"},{"id":"4853459166","owner":"9212250@N06","secret":"479d869b8b","server":"4081","farm":5,"title":"Cradle","ispublic":1,"isfriend":0,"isfamily":0,"ownername":"JayneLM, Flickr fickle"},{"id":"14905462513","owner":"28633756@N07","secret":"65da6a604a","server":"3873","farm":4,"title":"cradle","ispublic":1,"isfriend":0,"isfamily":0,"ownername":"siwiaszczyk"},{"id":"3922057429","owner":"14541447@N06","secret":"71291ff89e","server":"2492","farm":3,"title":"cradles","ispublic":1,"isfriend":0,"isfamily":0,"ownername":"The Western Sydney Foodies"},{"id":"3498169339","owner":"9162738@N07","secret":"6c8bc43956","server":"3311","farm":4,"title":"cradle","ispublic":1,"isfriend":0,"isfamily":0,"ownername":"stella_dolce"},{"id":"3674722343","owner":"37899735@N00","secret":"5e63ec5964","server":"2493","farm":3,"title":"Cradle","ispublic":1,"isfriend":0,"isfamily":0,"ownername":"laurentziu"},{"id":"25234554984","owner":"133879686@N02","secret":"c9645e1f22","server":"1484","farm":2,"title":"Cradle","ispublic":1,"isfriend":0,"isfamily":0,"ownername":"IPG Xapek"},{"id":"6696458097","owner":"78554167@N00","secret":"e09f215b8d","server":"7153","farm":8,"title":"Newtons Cradle","ispublic":1,"isfriend":0,"isfamily":0,"ownername":"MattX27"},{"id":"2021735564","owner":"47246995@N00","secret":"bf30fad02e","server":"2113","farm":3,"title":"cradle","ispublic":1,"isfriend":0,"isfamily":0,"ownername":"ed ed"},{"id":"3460598937","owner":"22049213@N05","secret":"180676a0d3","server":"3537","farm":4,"title":"cradle","ispublic":1,"isfriend":0,"isfamily":0,"ownername":"dianesm"},{"id":"503024078","owner":"12329700@N00","secret":"6dfaa2a8b3","server":"219","farm":1,"title":"cradle","ispublic":1,"isfriend":0,"isfamily":0,"ownername":"aiz_zoe_deen"},{"id":"7756231130","owner":"15964587@N07","secret":"1933c8cab8","server":"8433","farm":9,"title":"cradles","ispublic":1,"isfriend":0,"isfamily":0,"ownername":"skdejong"},{"id":"2255182467","owner":"78588324@N00","secret":"385752d3c6","server":"2298","farm":3,"title":"cradle","ispublic":1,"isfriend":0,"isfamily":0,"ownername":"ariellemac42"},{"id":"7233393984","owner":"21831161@N04","secret":"de9d82e09c","server":"7078","farm":8,"title":"cradle","ispublic":1,"isfriend":0,"isfamily":0,"ownername":"Harriet Damave"}]},"stat":"ok"}