{"photos":{"page":1,"pages":4656,"perpage":15,"total":"69827","photo":[{"id":"4436235554","owner":"41210410@N04","secret":"bf4154119e","server":"2785","farm":3,"title":"Crocodile","ispublic":1,"isfriend":0,"isfamily":0,"ownername":"SFarnsworth"},{"id":"2738471037","owner":"28252000@N06","secret":"9b0d2352f8","server":"3111","farm":4,"title":"Crocodile","ispublic":1,"isfriend":0,"isfamily":0,"ownername":"Farah Al Sarraf"},{"id":"3116349266","owner":"33383789@N06","secret":"71eb0bf09a","server":"3215","farm":4,"title":"Crocodile","ispublic":1,"isfriend":0,"isfamily":0,"ownername":"Herbies dad"},{"id":"3470264346","owner":"43615194@N00","secret":"8ab86f9ddf","server":"3580","farm":4,"title":"Crocodile","ispublic":1,"isfriend":0,"isfamily":0,"ownername":"moseschoi"},{"id":"2412587027","owner":"24250316@N04","secret":"5f530a1368","server":"2212","farm":3,"title":"crocodile","ispublic":1,"isfriend":0,"isfamily":0,"ownername":"austhome7"},{"id":"6179377254","owner":"48196100@N05","secret":"68206a9804","server":"6161","farm":7,"title":"Crocodile","ispublic":1,"isfriend":0,"isfamily":0,"ownername":"MRSHD"},{"id":"4691269949","owner":"48991109@N04","secret":"52fa20c9ea","server":"4001","farm":5,"title":"Crocodile","ispublic":1,"isfriend":0,"isfamily":0,"ownername":"out in the sticks"},{"id":"14232923018","owner":"98462470@N06","secret":"3615494581","server":"2919","farm":3,"title":"Crocodile","ispublic":1,"isfriend":0,"isfamily":0,"ownername":"Moo\u00b0"},{"id":"2523037208","owner":"13442569@N00","secret":"d3cb42214e","server":"2235","farm":3,"title":"crocodile","ispublic":1,"isfriend":0,"isfamily":0,"ownername":"undomestic"},{"id":"3489165589","owner":"35811834@N00","secret":"8a4589d39c","server":"3360","farm":4,"title":"crocodile","ispublic":1,"isfriend":0,"isfamily":0,"ownername":"troy_oxford"},{"id":"5875302335","owner":"46782129@N05","secret":"0049213527","server":"3122","farm":4,"title":"Crocodile","ispublic":1,"isfriend":0,"isfamily":0,"ownername":"dtiet"},{"id":"6017349055","owner":"66111465@N06","secret":"8a2ecf5895","server":"6144","farm":7,"title":"Crocodile","ispublic":1,"isfriend":0,"isfamily":0,"ownername":"Becklarx"},{"id":"2241138852","owner":"97203406@N00","secret":"13199198ae","server":"2215","farm":3,"title":"crocodile","ispublic":1,"isfriend":0,"isfamily":0,"ownername":"meng joe"},{"id":"5587570102","owner":"47661726@N00","secret":"a94bd70150","server":"5184","farm":6,"title":"Crocodile","ispublic":1,"isfriend":0,"isfamily":0,"ownername":"AndreaTX"},{"id":"8554541781","owner":"44958430@N05","secret":"10197b2740","server":"8085","farm":9,"title":"Crocodile","ispublic":1,"isfriend":0,"isfamily":0,"ownername":"tomeldridget"}]},"stat":"ok"}