{"photos":{"page":1,"pages":5275,"perpage":15,"total":"79114","photo":[{"id":"16122467944","owner":"84744710@N06","secret":"a8c8b4f790","server":"7638","farm":8,"title":"crow","ispublic":1,"isfriend":0,"isfamily":0,"ownername":"Jon Bunting"},{"id":"40752047032","owner":"135027495@N03","secret":"96416c652a","server":"4785","farm":5,"title":"Crow","ispublic":1,"isfriend":0,"isfamily":0,"ownername":"Bob Silver \u263a"},{"id":"45574335115","owner":"68166820@N08","secret":"820d6b828b","server":"4818","farm":5,"title":"Crow","ispublic":1,"isfriend":0,"isfamily":0,"ownername":"cattan2011"},{"id":"2522627199","owner":"10196004@N08","secret":"40d1a87735","server":"2005","farm":3,"title":"Crow","ispublic":1,"isfriend":0,"isfamily":0,"ownername":"ETSUKO SUZUKI"},{"id":"5102246699","owner":"46790208@N08","secret":"c9eb46dcfc","server":"1119","farm":2,"title":"crow","ispublic":1,"isfriend":0,"isfamily":0,"ownername":"t3v4d"},{"id":"44318008470","owner":"144717527@N06","secret":"94038c8d54","server":"4881","farm":5,"title":"Crow","ispublic":1,"isfriend":0,"isfamily":0,"ownername":"PhotoLoonie"},{"id":"2090994316","owner":"9667981@N04","secret":"b2780ff9f5","server":"2186","farm":3,"title":"Crow","ispublic":1,"isfriend":0,"isfamily":0,"ownername":"Hornbeam Arts"},{"id":"34756936031","owner":"109402616@N07","secret":"b43d0f13d2","server":"4276","farm":5,"title":"crow","ispublic":1,"isfriend":0,"isfamily":0,"ownername":"marski95"},{"id":"14258836844","owner":"8256456@N08","secret":"c8ce649a4a","server":"3773","farm":4,"title":"crow","ispublic":1,"isfriend":0,"isfamily":0,"ownername":"rustumlongpig"},{"id":"8108385672","owner":"36035482@N08","secret":"0ba058ebae","server":"8324","farm":9,"title":"Crow","ispublic":1,"isfriend":0,"isfamily":0,"ownername":"Electra_star"},{"id":"4848914487","owner":"7612735@N04","secret":"e29a671d36","server":"4096","farm":5,"title":"crows","ispublic":1,"isfriend":0,"isfamily":0,"ownername":"Harizma_Art"},{"id":"3107708726","owner":"33346273@N06","secret":"6c972c2ea1","server":"3059","farm":4,"title":"Crow","ispublic":1,"isfriend":0,"isfamily":0,"ownername":"fredemily"},{"id":"5169876919","owner":"55664496@N08","secret":"758ba5f8f8","server":"1245","farm":2,"title":"crow","ispublic":1,"isfriend":0,"isfamily":0,"ownername":"evrencakinn"},{"id":"5062009208","owner":"54537166@N07","secret":"b5fe4093de","server":"4083","farm":5,"title":"Crow","ispublic":1,"isfriend":0,"isfamily":0,"ownername":"AVS13"},{"id":"32319591147","owner":"122825362@N04","secret":"b7d1c4f396","server":"7907","farm":8,"title":"Crow","ispublic":1,"isfriend":0,"isfamily":0,"ownername":"kearneyjoe"}]},"stat":"ok"}