{"photos":{"page":1,"pages":1847,"perpage":15,"total":"27692","photo":[{"id":"17009886698","owner":"91859173@N07","secret":"479eb44ee3","server":"8783","farm":9,"title":"Cry","ispublic":1,"isfriend":0,"isfamily":0,"ownername":"ivan_ko"},{"id":"6020317472","owner":"33643603@N05","secret":"7d1a61d992","server":"6027","farm":7,"title":"Cry","ispublic":1,"isfriend":0,"isfamily":0,"ownername":"HappyManPhotoGraphy"},{"id":"8391829408","owner":"92089261@N07","secret":"0357cd0b7b","server":"8094","farm":9,"title":"Crying...","ispublic":1,"isfriend":0,"isfamily":0,"ownername":"Viknesh Vijayakumar - PixProPhotos"},{"id":"3517607201","owner":"34996016@N06","secret":"5e8d077b45","server":"3362","farm":4,"title":"cry","ispublic":1,"isfriend":0,"isfamily":0,"ownername":"hAkOy.s2.!*"},{"id":"35369215496","owner":"144247950@N04","secret":"58812e806b","server":"4271","farm":5,"title":"#cry","ispublic":1,"isfriend":0,"isfamily":0,"ownername":"santiagosganga"},{"id":"4647319201","owner":"47918941@N07","secret":"c75a0459dc","server":"4064","farm":5,"title":"Crying","ispublic":1,"isfriend":0,"isfamily":0,"ownername":"JeezyDeezy"},{"id":"322018784","owner":"17328900@N00","secret":"849ecd06bd","server":"143","farm":1,"title":"cry","ispublic":1,"isfriend":0,"isfamily":0,"ownername":"cariephoto"},{"id":"3503200583","owner":"25215836@N07","secret":"9f812ff428","server":"3623","farm":4,"title":"cry","ispublic":1,"isfriend":0,"isfamily":0,"ownername":"chrissie_un"},{"id":"4325293178","owner":"45327597@N05","secret":"70ae12579e","server":"4020","farm":5,"title":"cry","ispublic":1,"isfriend":0,"isfamily":0,"ownername":"RoB Ru\u1ed3i"},{"id":"7665574546","owner":"83721410@N07","secret":"e030c2b5d7","server":"8288","farm":9,"title":"cry","ispublic":1,"isfriend":0,"isfamily":0,"ownername":"yas'm'ine love"},{"id":"543440589","owner":"8689945@N03","secret":"52a9c3e554","server":"1271","farm":2,"title":"cry","ispublic":1,"isfriend":0,"isfamily":0,"ownername":"datruc"},{"id":"3164648176","owner":"32289129@N06","secret":"08125a44f1","server":"3081","farm":4,"title":"Cry","ispublic":1,"isfriend":0,"isfamily":0,"ownername":"Jules-Vision"},{"id":"5779583110","owner":"54883270@N05","secret":"86ec653ca8","server":"3603","farm":4,"title":"Cry","ispublic":1,"isfriend":0,"isfamily":0,"ownername":"Disis_Na"},{"id":"4880519774","owner":"82823298@N00","secret":"4f38475f88","server":"4141","farm":5,"title":"Cry","ispublic":1,"isfriend":0,"isfamily":0,"ownername":"Stella di Carta"},{"id":"4170126184","owner":"40262221@N04","secret":"697ccbe7ae","server":"2750","farm":3,"title":"Cry","ispublic":1,"isfriend":0,"isfamily":0,"ownername":"nfsc"}]},"stat":"ok"}