{"photos":{"page":1,"pages":48092,"perpage":15,"total":"721370","photo":[{"id":"6517595437","owner":"90968510@N00","secret":"8be4a6810c","server":"7146","farm":8,"title":"Cup'o'bokeh (349\/365)","ispublic":1,"isfriend":0,"isfamily":0,"ownername":"~Kyla~"},{"id":"14639454281","owner":"32863108@N07","secret":"d878c9df5a","server":"3911","farm":4,"title":"CUP","ispublic":1,"isfriend":0,"isfamily":0,"ownername":"otchipotchi"},{"id":"3457376055","owner":"55997860@N00","secret":"9581b34015","server":"3494","farm":4,"title":"cup","ispublic":1,"isfriend":0,"isfamily":0,"ownername":"seektan"},{"id":"15574789","owner":"20348143@N00","secret":"6b1a263d5b","server":"9","farm":1,"title":"cup","ispublic":1,"isfriend":0,"isfamily":0,"ownername":"Big Kohuna"},{"id":"6943331986","owner":"93846402@N00","secret":"7d80eb7f4f","server":"7095","farm":8,"title":"Cup of coffee","ispublic":1,"isfriend":0,"isfamily":0,"ownername":"Pablo Ch"},{"id":"806949422","owner":"7640968@N02","secret":"610130f152","server":"1087","farm":2,"title":"Cup Of The Day","ispublic":1,"isfriend":0,"isfamily":0,"ownername":"hyena-in-petticoats"},{"id":"5301916392","owner":"38676502@N08","secret":"bf6a15fae3","server":"5287","farm":6,"title":"cup","ispublic":1,"isfriend":0,"isfamily":0,"ownername":"genuinamente"},{"id":"5155049628","owner":"54791943@N05","secret":"c44778b831","server":"1232","farm":2,"title":"\u2640 + \u2642  Cup","ispublic":1,"isfriend":0,"isfamily":0,"ownername":"BeeRa M."},{"id":"5397218183","owner":"58978835@N00","secret":"287b2cc2b7","server":"5139","farm":6,"title":"coffee cup","ispublic":1,"isfriend":0,"isfamily":0,"ownername":"Pivari.com"},{"id":"1319124854","owner":"89121748@N00","secret":"73df572328","server":"1416","farm":2,"title":"Cup","ispublic":1,"isfriend":0,"isfamily":0,"ownername":"savirr"},{"id":"5572471476","owner":"54700065@N07","secret":"bdefdec2bc","server":"5227","farm":6,"title":"Cup","ispublic":1,"isfriend":0,"isfamily":0,"ownername":"twistyshrimp"},{"id":"1319126742","owner":"89121748@N00","secret":"e8412c12ab","server":"1367","farm":2,"title":"Cup","ispublic":1,"isfriend":0,"isfamily":0,"ownername":"savirr"},{"id":"5202819581","owner":"97477873@N00","secret":"564afce15a","server":"5088","farm":6,"title":"cup","ispublic":1,"isfriend":0,"isfamily":0,"ownername":"marcia-oc"},{"id":"2188210855","owner":"34345942@N00","secret":"ddbd3cae0a","server":"2341","farm":3,"title":"cup","ispublic":1,"isfriend":0,"isfamily":0,"ownername":".nate"},{"id":"2169330677","owner":"10735675@N07","secret":"9fe5728022","server":"2363","farm":3,"title":"cup","ispublic":1,"isfriend":0,"isfamily":0,"ownername":"lizzieleese"}]},"stat":"ok"}