{"photos":{"page":1,"pages":56899,"perpage":15,"total":"853472","photo":[{"id":"14365605619","owner":"119678691@N02","secret":"b642eac215","server":"2909","farm":3,"title":"Dancing","ispublic":1,"isfriend":0,"isfamily":0,"ownername":"be creator"},{"id":"14058746288","owner":"119012864@N05","secret":"64e703bb9f","server":"2922","farm":3,"title":"Dancing Jelly","ispublic":1,"isfriend":0,"isfamily":0,"ownername":"BONX2014"},{"id":"7999183911","owner":"39870654@N04","secret":"1f56019467","server":"8299","farm":9,"title":"dance","ispublic":1,"isfriend":0,"isfamily":0,"ownername":"Ant\u00f3nio Alfarroba"},{"id":"14495681435","owner":"119678691@N02","secret":"8c21d13ede","server":"5588","farm":6,"title":"Dancing","ispublic":1,"isfriend":0,"isfamily":0,"ownername":"be creator"},{"id":"31029454518","owner":"150834248@N08","secret":"bb88df28b0","server":"1917","farm":2,"title":"Dancing","ispublic":1,"isfriend":0,"isfamily":0,"ownername":"Nicola G\u00f6tz"},{"id":"738041050","owner":"51058018@N00","secret":"53e199da83","server":"1179","farm":2,"title":"Dancing","ispublic":1,"isfriend":0,"isfamily":0,"ownername":"HicoooL"},{"id":"5439580154","owner":"34566470@N03","secret":"b765830df0","server":"4073","farm":5,"title":"dancing","ispublic":1,"isfriend":0,"isfamily":0,"ownername":"yeuse1"},{"id":"6140889596","owner":"7618350@N07","secret":"bc607988d0","server":"6077","farm":7,"title":"dancing","ispublic":1,"isfriend":0,"isfamily":0,"ownername":"javier balseiro"},{"id":"5187892288","owner":"52621532@N07","secret":"98efb08c71","server":"4083","farm":5,"title":"Dancing","ispublic":1,"isfriend":0,"isfamily":0,"ownername":"kANJAheiterwerden"},{"id":"5212068372","owner":"35866439@N00","secret":"53e8abc91e","server":"5127","farm":6,"title":"Dance","ispublic":1,"isfriend":0,"isfamily":0,"ownername":"guzru"},{"id":"8168892804","owner":"38299011@N05","secret":"dde5bcff82","server":"8488","farm":9,"title":"Dancing","ispublic":1,"isfriend":0,"isfamily":0,"ownername":"Lidia Gutierrez"},{"id":"2051701280","owner":"7781153@N04","secret":"70f7df37f4","server":"2031","farm":3,"title":"Dancing","ispublic":1,"isfriend":0,"isfamily":0,"ownername":"Miss Kristie Wilde"},{"id":"8168869783","owner":"38299011@N05","secret":"8d2526835a","server":"8207","farm":9,"title":"Dancing","ispublic":1,"isfriend":0,"isfamily":0,"ownername":"Lidia Gutierrez"},{"id":"32340280630","owner":"91619997@N04","secret":"1367b7dec1","server":"292","farm":1,"title":"Dancing","ispublic":1,"isfriend":0,"isfamily":0,"ownername":"De Rode Olifant"},{"id":"24055420766","owner":"38762191@N04","secret":"86db4d30d2","server":"5747","farm":6,"title":"Dancing","ispublic":1,"isfriend":0,"isfamily":0,"ownername":"lerockinam"}]},"stat":"ok"}