{"photos":{"page":1,"pages":153243,"perpage":15,"total":"2298635","photo":[{"id":"8251839283","owner":"55959716@N08","secret":"55e820b9b9","server":"8063","farm":9,"title":"dance","ispublic":1,"isfriend":0,"isfamily":0,"ownername":"Philocycler"},{"id":"4413321503","owner":"47933555@N02","secret":"9685a29dc1","server":"4028","farm":5,"title":"Dance","ispublic":1,"isfriend":0,"isfamily":0,"ownername":"cyberimaging"},{"id":"6718688005","owner":"21644167@N04","secret":"5940c647b0","server":"7173","farm":8,"title":"dance","ispublic":1,"isfriend":0,"isfamily":0,"ownername":"Bahman Farzad"},{"id":"7928579666","owner":"86543994@N03","secret":"638a0fb95b","server":"8448","farm":9,"title":"dance","ispublic":1,"isfriend":0,"isfamily":0,"ownername":"Sergey.Akhankin"},{"id":"7928518586","owner":"86539370@N07","secret":"cb58fd9dd6","server":"8306","farm":9,"title":"dance","ispublic":1,"isfriend":0,"isfamily":0,"ownername":"SAkhankin"},{"id":"6819184367","owner":"21644167@N04","secret":"d74a09d691","server":"7163","farm":8,"title":"Dance","ispublic":1,"isfriend":0,"isfamily":0,"ownername":"Bahman Farzad"},{"id":"7423436052","owner":"70494547@N00","secret":"3e1afe8db2","server":"8145","farm":9,"title":"Dance","ispublic":1,"isfriend":0,"isfamily":0,"ownername":"leo_lam_2000"},{"id":"7928585604","owner":"86543994@N03","secret":"2fd59f12b0","server":"8311","farm":9,"title":"dance","ispublic":1,"isfriend":0,"isfamily":0,"ownername":"Sergey.Akhankin"},{"id":"5612209640","owner":"61651077@N06","secret":"cbc7bc1b10","server":"5188","farm":6,"title":"Dance (4)","ispublic":1,"isfriend":0,"isfamily":0,"ownername":"mani10mn"},{"id":"6012686233","owner":"58122281@N06","secret":"c7294682eb","server":"6009","farm":7,"title":"Dance","ispublic":1,"isfriend":0,"isfamily":0,"ownername":"creativeHungerphotography"},{"id":"8399224032","owner":"27376687@N05","secret":"1cba8837c6","server":"8196","farm":9,"title":"dance","ispublic":1,"isfriend":0,"isfamily":0,"ownername":"raffacama"},{"id":"7928580124","owner":"86543994@N03","secret":"942f0a289d","server":"8438","farm":9,"title":"dance","ispublic":1,"isfriend":0,"isfamily":0,"ownername":"Sergey.Akhankin"},{"id":"4413319891","owner":"47933555@N02","secret":"83954a43e0","server":"2731","farm":3,"title":"Dance","ispublic":1,"isfriend":0,"isfamily":0,"ownername":"cyberimaging"},{"id":"7928621400","owner":"86543994@N03","secret":"c76e47f801","server":"8435","farm":9,"title":"dance","ispublic":1,"isfriend":0,"isfamily":0,"ownername":"Sergey.Akhankin"},{"id":"7928582314","owner":"86543994@N03","secret":"99049464e1","server":"8448","farm":9,"title":"dance","ispublic":1,"isfriend":0,"isfamily":0,"ownername":"Sergey.Akhankin"}]},"stat":"ok"}