{"photos":{"page":1,"pages":77136,"perpage":15,"total":"1157033","photo":[{"id":"4444920483","owner":"48538729@N03","secret":"e4934d9c05","server":"4020","farm":5,"title":"Dark","ispublic":1,"isfriend":0,"isfamily":0,"ownername":"hathuyanna"},{"id":"8213954120","owner":"69148745@N02","secret":"047ac996d9","server":"8341","farm":9,"title":"dark","ispublic":1,"isfriend":0,"isfamily":0,"ownername":"land[e]scape"},{"id":"8214023172","owner":"69148745@N02","secret":"3db05f6f7b","server":"8203","farm":9,"title":"dark","ispublic":1,"isfriend":0,"isfamily":0,"ownername":"land[e]scape"},{"id":"15911004082","owner":"87182509@N05","secret":"5206c1727f","server":"7536","farm":8,"title":"Dark","ispublic":1,"isfriend":0,"isfamily":0,"ownername":"Flachir ( Flavio Ricci )"},{"id":"2056444036","owner":"21166910@N06","secret":"fc51afa82b","server":"2355","farm":3,"title":"dark","ispublic":1,"isfriend":0,"isfamily":0,"ownername":"thien.black"},{"id":"10316428796","owner":"88253033@N08","secret":"f37abdf66c","server":"3813","farm":4,"title":"dark","ispublic":1,"isfriend":0,"isfamily":0,"ownername":"emeline a"},{"id":"5646415531","owner":"59086411@N05","secret":"1b379f4fb7","server":"5265","farm":6,"title":"DARK","ispublic":1,"isfriend":0,"isfamily":0,"ownername":"EhSan MONISHA"},{"id":"11829867424","owner":"29158521@N02","secret":"a6f97c86dc","server":"7366","farm":8,"title":"Dark","ispublic":1,"isfriend":0,"isfamily":0,"ownername":"Zyad M. El-Kadiki"},{"id":"7671788162","owner":"83149088@N05","secret":"a5723982f6","server":"8163","farm":9,"title":"Dark.","ispublic":1,"isfriend":0,"isfamily":0,"ownername":"Savanna Frances"},{"id":"42477177510","owner":"155453739@N08","secret":"bd433f515f","server":"1877","farm":2,"title":"Dark","ispublic":1,"isfriend":0,"isfamily":0,"ownername":"Syl-la"},{"id":"5432563412","owner":"58818553@N03","secret":"aaab01fec4","server":"5219","farm":6,"title":"Dark","ispublic":1,"isfriend":0,"isfamily":0,"ownername":"Kami_Wolf"},{"id":"8641841296","owner":"91248320@N04","secret":"43f3c535dc","server":"8259","farm":9,"title":"Dark","ispublic":1,"isfriend":0,"isfamily":0,"ownername":"Jekurantodistaja"},{"id":"5326651228","owner":"57555706@N07","secret":"c0e579cc63","server":"5041","farm":6,"title":"dark","ispublic":1,"isfriend":0,"isfamily":0,"ownername":"heroxiaoyao"},{"id":"2015996771","owner":"20398669@N04","secret":"df297a6d56","server":"2090","farm":3,"title":"Dark","ispublic":1,"isfriend":0,"isfamily":0,"ownername":"dofdaf"}]},"stat":"ok"}