{"photos":{"page":1,"pages":8580,"perpage":15,"total":"128696","photo":[{"id":"41136469611","owner":"153780492@N02","secret":"f72d47c27b","server":"864","farm":1,"title":"Darkness","ispublic":1,"isfriend":0,"isfamily":0,"ownername":"pastadimama"},{"id":"35339167266","owner":"121147613@N05","secret":"be70815c3a","server":"4231","farm":5,"title":"Darkness","ispublic":1,"isfriend":0,"isfamily":0,"ownername":"Andis Svare"},{"id":"4033292123","owner":"43891517@N08","secret":"57d1282941","server":"2446","farm":3,"title":"Darkness","ispublic":1,"isfriend":0,"isfamily":0,"ownername":"crissi1320"},{"id":"5713152842","owner":"61864932@N08","secret":"d873a488e8","server":"2349","farm":3,"title":"darkness","ispublic":1,"isfriend":0,"isfamily":0,"ownername":"Maria_Francesca"},{"id":"47109442371","owner":"164182745@N05","secret":"d007fee508","server":"7880","farm":8,"title":"darkness","ispublic":1,"isfriend":0,"isfamily":0,"ownername":"svnhllmnn"},{"id":"16258609237","owner":"130335187@N05","secret":"ce74c998e8","server":"7358","farm":8,"title":"darkness","ispublic":1,"isfriend":0,"isfamily":0,"ownername":"mariagiovannaloiacono"},{"id":"4947705547","owner":"52494435@N02","secret":"dfa2bb2959","server":"4144","farm":5,"title":"Darkness","ispublic":1,"isfriend":0,"isfamily":0,"ownername":"Signe Peluffo"},{"id":"8445907330","owner":"70787055@N05","secret":"fc77fae138","server":"8216","farm":9,"title":"Darkness","ispublic":1,"isfriend":0,"isfamily":0,"ownername":"Birdmanjag"},{"id":"4008699916","owner":"39902562@N08","secret":"2505d6a16b","server":"2541","farm":3,"title":"Darkness...","ispublic":1,"isfriend":0,"isfamily":0,"ownername":"Kazi Arefin"},{"id":"874633253","owner":"10354021@N05","secret":"7e2f474d93","server":"1295","farm":2,"title":"darkness.","ispublic":1,"isfriend":0,"isfamily":0,"ownername":"vaniliniai pir\u0161tai."},{"id":"5272479053","owner":"39022485@N02","secret":"7175ffd5aa","server":"5244","farm":6,"title":"darkness","ispublic":1,"isfriend":0,"isfamily":0,"ownername":"cinek002"},{"id":"35428677423","owner":"151157226@N05","secret":"134338e060","server":"4306","farm":5,"title":"darkness","ispublic":1,"isfriend":0,"isfamily":0,"ownername":"Gskrll"},{"id":"15721672115","owner":"38573694@N05","secret":"acf41ae22a","server":"7493","farm":8,"title":"Astral Darkness","ispublic":1,"isfriend":0,"isfamily":0,"ownername":"CheloXs"},{"id":"32874859664","owner":"57792541@N08","secret":"61d344ca9b","server":"2823","farm":3,"title":"From darkness","ispublic":1,"isfriend":0,"isfamily":0,"ownername":"ZenonasM"},{"id":"8282278684","owner":"49672239@N03","secret":"3d086f8127","server":"8078","farm":9,"title":"In darkness","ispublic":1,"isfriend":0,"isfamily":0,"ownername":"Cristiana Damiano"}]},"stat":"ok"}