{"photos":{"page":1,"pages":183320,"perpage":15,"total":"2749800","photo":[{"id":"18058703352","owner":"34757743@N08","secret":"547c3ef3b3","server":"5462","farm":6,"title":"Blusterous Day.","ispublic":1,"isfriend":0,"isfamily":0,"ownername":"Steve.D.Hammond."},{"id":"45695345734","owner":"135166400@N05","secret":"f29ff60e95","server":"4813","farm":5,"title":"Day","ispublic":1,"isfriend":0,"isfamily":0,"ownername":"Phancurio"},{"id":"8709930392","owner":"80226011@N06","secret":"7bce179e8a","server":"8537","farm":9,"title":"day","ispublic":1,"isfriend":0,"isfamily":0,"ownername":"Blueocean64"},{"id":"4251307025","owner":"43197911@N02","secret":"b28f1ae0b0","server":"4025","farm":5,"title":"Day","ispublic":1,"isfriend":0,"isfamily":0,"ownername":"zoebusing"},{"id":"25916645504","owner":"21692577@N02","secret":"e2a978926d","server":"1508","farm":2,"title":"day","ispublic":1,"isfriend":0,"isfamily":0,"ownername":"Danny VB"},{"id":"39271061635","owner":"126908789@N03","secret":"d3abf3cb5e","server":"4770","farm":5,"title":"#day","ispublic":1,"isfriend":0,"isfamily":0,"ownername":"Jampawong Somkiat"},{"id":"33619114563","owner":"35037363@N00","secret":"116b13f524","server":"4166","farm":5,"title":"Day 12 029","ispublic":1,"isfriend":0,"isfamily":0,"ownername":"jenalfstad"},{"id":"8527575218","owner":"36406753@N08","secret":"b30e348843","server":"8519","farm":9,"title":"A new day.","ispublic":1,"isfriend":0,"isfamily":0,"ownername":"Mento ITA."},{"id":"13289790755","owner":"120917545@N07","secret":"bff51b1b09","server":"7083","farm":8,"title":"#day# $","ispublic":1,"isfriend":0,"isfamily":0,"ownername":"tomika434"},{"id":"17191313570","owner":"24465909@N08","secret":"b1a35d8a28","server":"8762","farm":9,"title":"Bad day?","ispublic":1,"isfriend":0,"isfamily":0,"ownername":"Northern Pike"},{"id":"5292324663","owner":"50320521@N05","secret":"f89b23fb80","server":"5005","farm":6,"title":"rainny day","ispublic":1,"isfriend":0,"isfamily":0,"ownername":"cjyang97"},{"id":"34369605766","owner":"35037363@N00","secret":"f3309e5a09","server":"4165","farm":5,"title":"Day 11 154","ispublic":1,"isfriend":0,"isfamily":0,"ownername":"jenalfstad"},{"id":"39995087715","owner":"138196205@N02","secret":"91aec38650","server":"4779","farm":5,"title":"DAY","ispublic":1,"isfriend":0,"isfamily":0,"ownername":"Cervant Lo"},{"id":"3325015943","owner":"9889077@N08","secret":"e8e52ac058","server":"3607","farm":4,"title":"Day","ispublic":1,"isfriend":0,"isfamily":0,"ownername":"Maxine 2"}]},"stat":"ok"}