{"photos":{"page":1,"pages":27881,"perpage":15,"total":"418206","photo":[{"id":"2704908296","owner":"21164613@N08","secret":"59205745cb","server":"3123","farm":4,"title":"Deer","ispublic":1,"isfriend":0,"isfamily":0,"ownername":"Niklas_N"},{"id":"2970077739","owner":"57402879@N00","secret":"6431e9d46a","server":"3049","farm":4,"title":"Deer","ispublic":1,"isfriend":0,"isfamily":0,"ownername":"BugMan50"},{"id":"5952240265","owner":"27629279@N08","secret":"d60a52d0c1","server":"6142","farm":7,"title":"Deer","ispublic":1,"isfriend":0,"isfamily":0,"ownername":"ChicagoPhotoShop"},{"id":"8106359142","owner":"66619283@N00","secret":"d31b78d188","server":"8467","farm":9,"title":"Deer","ispublic":1,"isfriend":0,"isfamily":0,"ownername":"sulkyblue"},{"id":"16579555083","owner":"101110439@N06","secret":"8f5378aef7","server":"5327","farm":6,"title":"deer","ispublic":1,"isfriend":0,"isfamily":0,"ownername":"minik83"},{"id":"8106365200","owner":"66619283@N00","secret":"08db561d64","server":"8328","farm":9,"title":"Deer","ispublic":1,"isfriend":0,"isfamily":0,"ownername":"sulkyblue"},{"id":"8106347891","owner":"66619283@N00","secret":"252dc5759e","server":"8476","farm":9,"title":"Deer","ispublic":1,"isfriend":0,"isfamily":0,"ownername":"sulkyblue"},{"id":"8099737411","owner":"66619283@N00","secret":"60c4171a8c","server":"8045","farm":9,"title":"Deer","ispublic":1,"isfriend":0,"isfamily":0,"ownername":"sulkyblue"},{"id":"4948672789","owner":"53222531@N02","secret":"5f68c2e4d3","server":"4078","farm":5,"title":"Deer","ispublic":1,"isfriend":0,"isfamily":0,"ownername":"Mark Davies2009 Wildlife&Landscapes"},{"id":"5078750388","owner":"43158397@N02","secret":"0e7acef75f","server":"4107","farm":5,"title":"Deer","ispublic":1,"isfriend":0,"isfamily":0,"ownername":"jans canon"},{"id":"8106347856","owner":"66619283@N00","secret":"2f23b86ba5","server":"8333","farm":9,"title":"Deer","ispublic":1,"isfriend":0,"isfamily":0,"ownername":"sulkyblue"},{"id":"14226109195","owner":"109018776@N06","secret":"f8f9f5c313","server":"2919","farm":3,"title":"Deer","ispublic":1,"isfriend":0,"isfamily":0,"ownername":"BDL Media"},{"id":"8690292970","owner":"20832301@N03","secret":"caca16a7aa","server":"8536","farm":9,"title":"deer","ispublic":1,"isfriend":0,"isfamily":0,"ownername":"vmax4coco"},{"id":"4948733765","owner":"53222531@N02","secret":"f16a015168","server":"4151","farm":5,"title":"Deer","ispublic":1,"isfriend":0,"isfamily":0,"ownername":"Mark Davies2009 Wildlife&Landscapes"},{"id":"145014265","owner":"33155498@N00","secret":"fb6353562c","server":"48","farm":1,"title":"Deer","ispublic":1,"isfriend":0,"isfamily":0,"ownername":"Noah's Ark Zoo Farm"}]},"stat":"ok"}