{"photos":{"page":1,"pages":3788,"perpage":15,"total":"56808","photo":[{"id":"17090831709","owner":"90967517@N08","secret":"bd219c12b3","server":"8770","farm":9,"title":"demons","ispublic":1,"isfriend":0,"isfamily":0,"ownername":"Albin Thelander"},{"id":"7887204934","owner":"31170926@N06","secret":"e5192307c9","server":"8459","farm":9,"title":"Demons.","ispublic":1,"isfriend":0,"isfamily":0,"ownername":"Melania Brescia"},{"id":"6501524717","owner":"8505310@N04","secret":"e3413cee68","server":"7157","farm":8,"title":"Demons","ispublic":1,"isfriend":0,"isfamily":0,"ownername":"Craig Newsom"},{"id":"5644810288","owner":"91086021@N00","secret":"536551953b","server":"5021","farm":6,"title":"Demons","ispublic":1,"isfriend":0,"isfamily":0,"ownername":"happy_flounder"},{"id":"6163025404","owner":"11083249@N04","secret":"e568850966","server":"6157","farm":7,"title":"Demons","ispublic":1,"isfriend":0,"isfamily":0,"ownername":"ogsstu"},{"id":"5528858819","owner":"59217617@N05","secret":"ac2fcd4ae2","server":"5099","farm":6,"title":"Demon","ispublic":1,"isfriend":0,"isfamily":0,"ownername":"TylerBreton"},{"id":"40410158300","owner":"141791848@N07","secret":"096664cd7a","server":"978","farm":1,"title":"Demons","ispublic":1,"isfriend":0,"isfamily":0,"ownername":"Dakota Bb"},{"id":"5122730547","owner":"24550706@N03","secret":"8b8e53dd95","server":"1074","farm":2,"title":"Demons","ispublic":1,"isfriend":0,"isfamily":0,"ownername":"ciscai"},{"id":"8295260367","owner":"77454168@N02","secret":"2e735038e2","server":"8222","farm":9,"title":"Demons","ispublic":1,"isfriend":0,"isfamily":0,"ownername":"SeriLeigh"},{"id":"37915590572","owner":"96580076@N07","secret":"7d65dfdda4","server":"4485","farm":5,"title":"Demon","ispublic":1,"isfriend":0,"isfamily":0,"ownername":"sorrellbruce"},{"id":"3639240698","owner":"25857288@N03","secret":"e492df5ecb","server":"2471","farm":3,"title":"demons","ispublic":1,"isfriend":0,"isfamily":0,"ownername":"DIXCEY"},{"id":"5569719170","owner":"38927774@N04","secret":"82b1650df4","server":"5095","farm":6,"title":"demons","ispublic":1,"isfriend":0,"isfamily":0,"ownername":"sorin bogdan"},{"id":"14696078720","owner":"39184737@N07","secret":"a2d6bd026f","server":"3901","farm":4,"title":"Demons","ispublic":1,"isfriend":0,"isfamily":0,"ownername":"Luan Felipe"},{"id":"14301154458","owner":"92713453@N02","secret":"6d1deeec75","server":"5157","farm":6,"title":"Demons...","ispublic":1,"isfriend":0,"isfamily":0,"ownername":"Ky Bouge"},{"id":"12919686023","owner":"119305244@N05","secret":"0abb449388","server":"3747","farm":4,"title":"Demons","ispublic":1,"isfriend":0,"isfamily":0,"ownername":"Haan Bui"}]},"stat":"ok"}