{"photos":{"page":1,"pages":5179,"perpage":15,"total":"77677","photo":[{"id":"44485560214","owner":"150884505@N03","secret":"94a68f628d","server":"1917","farm":2,"title":"Devil","ispublic":1,"isfriend":0,"isfamily":0,"ownername":"eronmia"},{"id":"44485599854","owner":"150884505@N03","secret":"7a50d000cb","server":"1945","farm":2,"title":"Devil","ispublic":1,"isfriend":0,"isfamily":0,"ownername":"eronmia"},{"id":"10953658516","owner":"22163926@N05","secret":"b8d67bb1a2","server":"7441","farm":8,"title":"devil","ispublic":1,"isfriend":0,"isfamily":0,"ownername":"WalrusTexas"},{"id":"5451244817","owner":"44912907@N05","secret":"951664246a","server":"5091","farm":6,"title":"Devil","ispublic":1,"isfriend":0,"isfamily":0,"ownername":"Sunsword & Moonsabre"},{"id":"13175449024","owner":"27973231@N02","secret":"1749c06be8","server":"2159","farm":3,"title":"Devil","ispublic":1,"isfriend":0,"isfamily":0,"ownername":"Kunstlerphoto"},{"id":"5799916138","owner":"99175982@N00","secret":"b0a1f52a2e","server":"5226","farm":6,"title":"Devil","ispublic":1,"isfriend":0,"isfamily":0,"ownername":"elycefeliz"},{"id":"9845647844","owner":"8628757@N03","secret":"2e02803dea","server":"7319","farm":8,"title":"Devil","ispublic":1,"isfriend":0,"isfamily":0,"ownername":"justinaerni"},{"id":"5213723649","owner":"48349847@N08","secret":"5074a5696a","server":"4111","farm":5,"title":"DEVIL","ispublic":1,"isfriend":0,"isfamily":0,"ownername":"Devil\u25cf3\u25cf \/ Hong Knog"},{"id":"289827250","owner":"17134521@N00","secret":"72b2d47651","server":"121","farm":1,"title":"Devil","ispublic":1,"isfriend":0,"isfamily":0,"ownername":"deep ayni"},{"id":"1750310506","owner":"16211785@N06","secret":"d8252be3ce","server":"2046","farm":3,"title":"Devil","ispublic":1,"isfriend":0,"isfamily":0,"ownername":"finelinevideos"},{"id":"5090009564","owner":"48349847@N08","secret":"948247a3e0","server":"4087","farm":5,"title":"DEVIL","ispublic":1,"isfriend":0,"isfamily":0,"ownername":"Devil\u25cf3\u25cf \/ Hong Knog"},{"id":"1455152908","owner":"55428606@N00","secret":"3d79c5ea9a","server":"1047","farm":2,"title":"devil","ispublic":1,"isfriend":0,"isfamily":0,"ownername":"c505"},{"id":"2394992861","owner":"65296648@N00","secret":"a3fbc6aacc","server":"2182","farm":3,"title":"Devil","ispublic":1,"isfriend":0,"isfamily":0,"ownername":"dandireyes"},{"id":"5585347938","owner":"48349847@N08","secret":"92541f0e24","server":"5096","farm":6,"title":"DEVIL","ispublic":1,"isfriend":0,"isfamily":0,"ownername":"Devil\u25cf3\u25cf \/ Hong Knog"},{"id":"5836271181","owner":"51426203@N04","secret":"c62ece33a2","server":"5199","farm":6,"title":"DEVIL","ispublic":1,"isfriend":0,"isfamily":0,"ownername":"Nights Alone"}]},"stat":"ok"}