{"photos":{"page":1,"pages":189268,"perpage":15,"total":"2839016","photo":[{"id":"5340131446","owner":"58130019@N08","secret":"3b7c380bea","server":"5244","farm":6,"title":"dog","ispublic":1,"isfriend":0,"isfamily":0,"ownername":"Giant_Schnauzer"},{"id":"5338762379","owner":"58130019@N08","secret":"59f7435b93","server":"5284","farm":6,"title":"Dog","ispublic":1,"isfriend":0,"isfamily":0,"ownername":"Giant_Schnauzer"},{"id":"8299709853","owner":"62956786@N03","secret":"fc69615369","server":"8083","farm":9,"title":"DOG","ispublic":1,"isfriend":0,"isfamily":0,"ownername":"O24'7"},{"id":"7012277475","owner":"58130019@N08","secret":"7e126fd8b6","server":"7127","farm":8,"title":"Dog","ispublic":1,"isfriend":0,"isfamily":0,"ownername":"Giant_Schnauzer"},{"id":"11142920583","owner":"21692577@N02","secret":"ed24465d2b","server":"3833","farm":4,"title":"dog","ispublic":1,"isfriend":0,"isfamily":0,"ownername":"Danny VB"},{"id":"10418196934","owner":"58130019@N08","secret":"8bd1da85ba","server":"7361","farm":8,"title":"Dog","ispublic":1,"isfriend":0,"isfamily":0,"ownername":"Giant_Schnauzer"},{"id":"31964411303","owner":"21680391@N04","secret":"4b42b64d18","server":"614","farm":1,"title":"dog","ispublic":1,"isfriend":0,"isfamily":0,"ownername":"justinclayton99"},{"id":"32598752764","owner":"58130019@N08","secret":"b62a07cf43","server":"3667","farm":4,"title":"Dog","ispublic":1,"isfriend":0,"isfamily":0,"ownername":"Giant_Schnauzer"},{"id":"7346366102","owner":"40605575@N06","secret":"d3205c5e29","server":"8141","farm":9,"title":"Dog","ispublic":1,"isfriend":0,"isfamily":0,"ownername":"Georgia Gallas"},{"id":"15131237412","owner":"58130019@N08","secret":"268a1e41a3","server":"3910","farm":4,"title":"Dog","ispublic":1,"isfriend":0,"isfamily":0,"ownername":"Giant_Schnauzer"},{"id":"5395681878","owner":"58130019@N08","secret":"35ebbbcbe8","server":"5016","farm":6,"title":"Dog","ispublic":1,"isfriend":0,"isfamily":0,"ownername":"Giant_Schnauzer"},{"id":"6872928870","owner":"58130019@N08","secret":"69a00123b5","server":"6212","farm":7,"title":"Dog","ispublic":1,"isfriend":0,"isfamily":0,"ownername":"Giant_Schnauzer"},{"id":"5395084891","owner":"58130019@N08","secret":"07c9272b37","server":"4085","farm":5,"title":"Dog","ispublic":1,"isfriend":0,"isfamily":0,"ownername":"Giant_Schnauzer"},{"id":"10527416296","owner":"21644167@N04","secret":"b469373fcc","server":"5514","farm":6,"title":"Dog","ispublic":1,"isfriend":0,"isfamily":0,"ownername":"Bahman Farzad"},{"id":"9791205146","owner":"58130019@N08","secret":"1064e82aa0","server":"7307","farm":8,"title":"Dog","ispublic":1,"isfriend":0,"isfamily":0,"ownername":"Giant_Schnauzer"}]},"stat":"ok"}