{"photos":{"page":1,"pages":638,"perpage":15,"total":"9566","photo":[{"id":"5877187733","owner":"40934244@N03","secret":"768d214954","server":"5143","farm":6,"title":"The Doghouse","ispublic":1,"isfriend":0,"isfamily":0,"ownername":"Kirstyxo"},{"id":"8618057821","owner":"76721037@N04","secret":"a3775f13d8","server":"8124","farm":9,"title":". . . who's in the doghouse ??  George the Border Terrier","ispublic":1,"isfriend":0,"isfamily":0,"ownername":"orangecapri"},{"id":"19145049925","owner":"93077615@N00","secret":"27864a6d96","server":"3739","farm":4,"title":"The Ball & The Doghouse","ispublic":1,"isfriend":0,"isfamily":0,"ownername":"AlessandroDM"},{"id":"6654900867","owner":"41540626@N07","secret":"5eeef7f47d","server":"7011","farm":8,"title":"Mastiff stares out of its doghouse","ispublic":1,"isfriend":0,"isfamily":0,"ownername":"richard.alton"},{"id":"328531098","owner":"50614028@N00","secret":"694cb58b41","server":"126","farm":1,"title":"In the doghouse...again","ispublic":1,"isfriend":0,"isfamily":0,"ownername":"maxymedia"},{"id":"324601583","owner":"67506747@N00","secret":"f5dcf987d9","server":"137","farm":1,"title":"Sunrise Coigney - Doghouse Studio","ispublic":1,"isfriend":0,"isfamily":0,"ownername":"Peter-Duke"},{"id":"20272730168","owner":"131356290@N07","secret":"de03c40f25","server":"534","farm":1,"title":"Doghouse","ispublic":1,"isfriend":0,"isfamily":0,"ownername":"mgestewitz"},{"id":"10506935793","owner":"35528040@N04","secret":"e349eebaf9","server":"7291","farm":8,"title":"In The Doghouse","ispublic":1,"isfriend":0,"isfamily":0,"ownername":"pam's pics-"},{"id":"15786708824","owner":"86350261@N08","secret":"dbf898beeb","server":"7413","farm":8,"title":"Snoopy, Sitting On His Doghouse","ispublic":1,"isfriend":0,"isfamily":0,"ownername":"Martin Koegl \/ www.waterdrop-photography.com"},{"id":"16194850146","owner":"36840038@N03","secret":"30182edcc3","server":"8628","farm":9,"title":"Hen in doghouse","ispublic":1,"isfriend":0,"isfamily":0,"ownername":"Harmakdon"},{"id":"6582108829","owner":"48165069@N00","secret":"9ac032d099","server":"7030","farm":8,"title":"Back in the Doghouse","ispublic":1,"isfriend":0,"isfamily":0,"ownername":"lanier67"},{"id":"2647277934","owner":"24930902@N06","secret":"0c98b8396a","server":"3112","farm":4,"title":"[In the Doghouse]","ispublic":1,"isfriend":0,"isfamily":0,"ownername":"starfishy-chan"},{"id":"16416318185","owner":"122073608@N08","secret":"7d28ba7342","server":"7402","farm":8,"title":"doghouse fun","ispublic":1,"isfriend":0,"isfamily":0,"ownername":"pajus79"},{"id":"15944065887","owner":"122073608@N08","secret":"a5a76fd6e1","server":"7535","farm":8,"title":"decorating doghouse","ispublic":1,"isfriend":0,"isfamily":0,"ownername":"pajus79"},{"id":"12617022604","owner":"28295548@N05","secret":"9812cd5b13","server":"3822","farm":4,"title":"Doghouse - Minnesota Style","ispublic":1,"isfriend":0,"isfamily":0,"ownername":"Peas And Papillons"}]},"stat":"ok"}