{"photos":{"page":1,"pages":82992,"perpage":15,"total":"1244873","photo":[{"id":"38548544882","owner":"21692577@N02","secret":"40c8ec0e7f","server":"4572","farm":5,"title":"dogs","ispublic":1,"isfriend":0,"isfamily":0,"ownername":"Danny VB"},{"id":"8467785350","owner":"54169606@N05","secret":"0bd49da413","server":"8238","farm":9,"title":"Dog","ispublic":1,"isfriend":0,"isfamily":0,"ownername":"Shalva1948"},{"id":"3266551852","owner":"35209345@N02","secret":"44a551fcec","server":"3367","farm":4,"title":"dogs","ispublic":1,"isfriend":0,"isfamily":0,"ownername":"hottkodak7"},{"id":"15438241036","owner":"62931691@N00","secret":"29266ae377","server":"3930","farm":4,"title":"DOGS","ispublic":1,"isfriend":0,"isfamily":0,"ownername":"Aunt Teena"},{"id":"6212861696","owner":"32010972@N03","secret":"309f98048f","server":"6042","farm":7,"title":"dogs :)","ispublic":1,"isfriend":0,"isfamily":0,"ownername":"Nina =^^="},{"id":"24115617625","owner":"128214337@N03","secret":"95ae86948f","server":"1533","farm":2,"title":"dog","ispublic":1,"isfriend":0,"isfamily":0,"ownername":"dmunro100"},{"id":"6007220587","owner":"65787068@N06","secret":"9db492ede8","server":"6135","farm":7,"title":"dog","ispublic":1,"isfriend":0,"isfamily":0,"ownername":"Pheasant Bonanza"},{"id":"116694391","owner":"52184765@N00","secret":"a75d0d598f","server":"36","farm":1,"title":"dogs","ispublic":1,"isfriend":0,"isfamily":0,"ownername":"Adam Tollinger"},{"id":"12330509754","owner":"103926904@N05","secret":"1565403589","server":"5506","farm":6,"title":"dog","ispublic":1,"isfriend":0,"isfamily":0,"ownername":"Kais Saady"},{"id":"16654823540","owner":"40832502@N06","secret":"6286b1f3aa","server":"8678","farm":9,"title":"Dogs","ispublic":1,"isfriend":0,"isfamily":0,"ownername":"galletto marco"},{"id":"33099318088","owner":"161688131@N04","secret":"2145a097d5","server":"7927","farm":8,"title":"Dogs","ispublic":1,"isfriend":0,"isfamily":0,"ownername":"michelcorvello"},{"id":"8800257111","owner":"54169606@N05","secret":"d1061f3c73","server":"3739","farm":4,"title":"Dog","ispublic":1,"isfriend":0,"isfamily":0,"ownername":"Shalva1948"},{"id":"3045059786","owner":"15066255@N08","secret":"b1cf842e0c","server":"3017","farm":4,"title":"Dog","ispublic":1,"isfriend":0,"isfamily":0,"ownername":"lemming552"},{"id":"46877042001","owner":"142791213@N03","secret":"1a402d83cd","server":"7927","farm":8,"title":"#dogs","ispublic":1,"isfriend":0,"isfamily":0,"ownername":"PascuMartinez"},{"id":"3266552268","owner":"35209345@N02","secret":"2d99270dd7","server":"3343","farm":4,"title":"dogs","ispublic":1,"isfriend":0,"isfamily":0,"ownername":"hottkodak7"}]},"stat":"ok"}