{"photos":{"page":1,"pages":23294,"perpage":15,"total":"349403","photo":[{"id":"5335835529","owner":"42882723@N03","secret":"df34abfee7","server":"5127","farm":6,"title":"Dolls","ispublic":1,"isfriend":0,"isfamily":0,"ownername":"anwar hu"},{"id":"6919323381","owner":"9246195@N05","secret":"9d236bac0a","server":"7188","farm":8,"title":"doll","ispublic":1,"isfriend":0,"isfamily":0,"ownername":"CRA!G (Craig Montague)"},{"id":"8048295869","owner":"78117655@N08","secret":"150e9c8ba7","server":"8456","farm":9,"title":"dolls","ispublic":1,"isfriend":0,"isfamily":0,"ownername":"ArrianeAvenge"},{"id":"1874094394","owner":"14901262@N02","secret":"141b75f5b0","server":"2349","farm":3,"title":"Dolls","ispublic":1,"isfriend":0,"isfamily":0,"ownername":"gopalakrishna_matmary"},{"id":"6846530816","owner":"66935941@N08","secret":"b3650ee8e7","server":"7056","farm":8,"title":"Dolls","ispublic":1,"isfriend":0,"isfamily":0,"ownername":"Rassh"},{"id":"15460874256","owner":"58635591@N00","secret":"bc0af8e356","server":"3930","farm":4,"title":"Dolls","ispublic":1,"isfriend":0,"isfamily":0,"ownername":"tetedefromage"},{"id":"3502224794","owner":"38027666@N02","secret":"c03ecbc7c3","server":"3385","farm":4,"title":"dolls","ispublic":1,"isfriend":0,"isfamily":0,"ownername":"cinnamon C"},{"id":"6254941755","owner":"53386007@N05","secret":"b8fa519c8a","server":"6233","farm":7,"title":"Dolls","ispublic":1,"isfriend":0,"isfamily":0,"ownername":"mvalerio01"},{"id":"1346683791","owner":"29026850@N00","secret":"42bfde22d4","server":"1273","farm":2,"title":"Doll","ispublic":1,"isfriend":0,"isfamily":0,"ownername":"jmnkrt"},{"id":"4519690764","owner":"31862895@N07","secret":"1f538f502f","server":"4067","farm":5,"title":"dolls","ispublic":1,"isfriend":0,"isfamily":0,"ownername":"Patty Gutierrez"},{"id":"8280240863","owner":"7873251@N08","secret":"1696324054","server":"8488","farm":9,"title":"dolls","ispublic":1,"isfriend":0,"isfamily":0,"ownername":"crochet3love"},{"id":"16293728","owner":"95899084@N00","secret":"e152dfe2dd","server":"13","farm":1,"title":"dolls","ispublic":1,"isfriend":0,"isfamily":0,"ownername":"rockyradio"},{"id":"117779619","owner":"45451323@N00","secret":"8dedb5f9b6","server":"37","farm":1,"title":"Dolls","ispublic":1,"isfriend":0,"isfamily":0,"ownername":"Christina Matheson"},{"id":"83144467","owner":"81455548@N00","secret":"cb91f726f9","server":"41","farm":1,"title":"Dolls","ispublic":1,"isfriend":0,"isfamily":0,"ownername":"Nightsoil"},{"id":"3531042304","owner":"37982769@N07","secret":"74ef5c315b","server":"2171","farm":3,"title":"Doll...","ispublic":1,"isfriend":0,"isfamily":0,"ownername":"(\u00af*\u00a4_D\u00eb\u00a7\u00edr\u00eb_\u00a4*\u00af)\u2014\u2665\u2014_\u00df\u00eb\u00a3\u00ed\u00eb\u0192_\u2014"}]},"stat":"ok"}