{"photos":{"page":1,"pages":39940,"perpage":15,"total":"599086","photo":[{"id":"15460762694","owner":"44912907@N05","secret":"78bdc9e985","server":"7512","farm":8,"title":"Door","ispublic":1,"isfriend":0,"isfamily":0,"ownername":"Sunsword & Moonsabre"},{"id":"13604776595","owner":"27376687@N05","secret":"47ef562e18","server":"3743","farm":4,"title":"Door","ispublic":1,"isfriend":0,"isfamily":0,"ownername":"raffacama"},{"id":"9556891359","owner":"44912907@N05","secret":"a8288a5fca","server":"7452","farm":8,"title":"Door","ispublic":1,"isfriend":0,"isfamily":0,"ownername":"Sunsword & Moonsabre"},{"id":"214196431","owner":"69785329@N00","secret":"6189568dbf","server":"80","farm":1,"title":"Door","ispublic":1,"isfriend":0,"isfamily":0,"ownername":"CGoulao"},{"id":"15747321719","owner":"44912907@N05","secret":"f1bcf7ae9b","server":"8654","farm":9,"title":"Door","ispublic":1,"isfriend":0,"isfamily":0,"ownername":"Sunsword & Moonsabre"},{"id":"6176252419","owner":"67921380@N08","secret":"14f8b1e821","server":"6162","farm":7,"title":"door","ispublic":1,"isfriend":0,"isfamily":0,"ownername":"angren21"},{"id":"6375782055","owner":"16946939@N06","secret":"0c00cb798c","server":"6056","farm":7,"title":"Door","ispublic":1,"isfriend":0,"isfamily":0,"ownername":"jmbillings"},{"id":"6298225410","owner":"69204827@N08","secret":"b2a261a90b","server":"6215","farm":7,"title":"door","ispublic":1,"isfriend":0,"isfamily":0,"ownername":"deabuck"},{"id":"14000571971","owner":"85314460@N02","secret":"4e63400e32","server":"2923","farm":3,"title":"Door","ispublic":1,"isfriend":0,"isfamily":0,"ownername":"Kari Siren"},{"id":"12196212885","owner":"44912907@N05","secret":"86ab67912b","server":"5476","farm":6,"title":"Door","ispublic":1,"isfriend":0,"isfamily":0,"ownername":"Sunsword & Moonsabre"},{"id":"5827246153","owner":"26170836@N05","secret":"54f6c3caed","server":"5237","farm":6,"title":"Door","ispublic":1,"isfriend":0,"isfamily":0,"ownername":"sk8geek"},{"id":"16359422439","owner":"94675067@N04","secret":"971f3dd3fe","server":"8564","farm":9,"title":"Door","ispublic":1,"isfriend":0,"isfamily":0,"ownername":"photoobsessed1"},{"id":"6052435183","owner":"88198131@N00","secret":"48873817d9","server":"6189","farm":7,"title":"Door","ispublic":1,"isfriend":0,"isfamily":0,"ownername":"john white photos"},{"id":"6433445143","owner":"30058482@N04","secret":"70cd3fd322","server":"7164","farm":8,"title":"Door","ispublic":1,"isfriend":0,"isfamily":0,"ownername":"bruce_the_shark"},{"id":"2775826984","owner":"28493595@N03","secret":"3ae584b763","server":"3048","farm":4,"title":"Door","ispublic":1,"isfriend":0,"isfamily":0,"ownername":"mattjcuk_photography"}]},"stat":"ok"}