{"photos":{"page":1,"pages":1085,"perpage":15,"total":"16275","photo":[{"id":"43459581734","owner":"78128495@N00","secret":"2a4bccb865","server":"1845","farm":2,"title":"Our Doves","ispublic":1,"isfriend":0,"isfamily":0,"ownername":"Tjflex2"},{"id":"42369684960","owner":"78128495@N00","secret":"9b14b67532","server":"1842","farm":2,"title":"Our Doves.","ispublic":1,"isfriend":0,"isfamily":0,"ownername":"Tjflex2"},{"id":"42765760374","owner":"134278129@N02","secret":"eb3667432d","server":"1827","farm":2,"title":"Collared Doves","ispublic":1,"isfriend":0,"isfamily":0,"ownername":"suekelly52"},{"id":"42369686020","owner":"78128495@N00","secret":"a0ba57f192","server":"1884","farm":2,"title":"Our Doves.","ispublic":1,"isfriend":0,"isfamily":0,"ownername":"Tjflex2"},{"id":"35036280343","owner":"56937331@N07","secret":"76d6e8e0f3","server":"4208","farm":5,"title":"Lovey Dovey","ispublic":1,"isfriend":0,"isfamily":0,"ownername":"done by deb"},{"id":"4985351453","owner":"49654128@N07","secret":"8b3362400b","server":"4112","farm":5,"title":"Doves","ispublic":1,"isfriend":0,"isfamily":0,"ownername":"hakuseki"},{"id":"9658269048","owner":"47058354@N02","secret":"d7e6611f79","server":"3766","farm":4,"title":"doves","ispublic":1,"isfriend":0,"isfamily":0,"ownername":"g\u00e4nsebl\u00f6dchen"},{"id":"3787010343","owner":"7525109@N07","secret":"323db0061d","server":"3522","farm":4,"title":"doves","ispublic":1,"isfriend":0,"isfamily":0,"ownername":"they_reminisce"},{"id":"14107326479","owner":"66652931@N07","secret":"b8db54c6de","server":"3761","farm":4,"title":"Rock Pigeon \/ Speckled Pigeon Chick \/ Kransduif Kuiken","ispublic":1,"isfriend":0,"isfamily":0,"ownername":"Pixi2011"},{"id":"17123817","owner":"34536906@N00","secret":"4f53eb2d07","server":"13","farm":1,"title":"Doves","ispublic":1,"isfriend":0,"isfamily":0,"ownername":"Dave Drych"},{"id":"27369200438","owner":"56937331@N07","secret":"c487b74441","server":"891","farm":1,"title":"Mourning Doves","ispublic":1,"isfriend":0,"isfamily":0,"ownername":"done by deb"},{"id":"141049925","owner":"74287054@N00","secret":"16be2c46c7","server":"49","farm":1,"title":"Doves","ispublic":1,"isfriend":0,"isfamily":0,"ownername":"infernarium_666"},{"id":"421004038","owner":"7290430@N07","secret":"00b3b4887c","server":"175","farm":1,"title":"Doves","ispublic":1,"isfriend":0,"isfamily":0,"ownername":"roxana_air"},{"id":"4637074690","owner":"27463945@N04","secret":"df8336fd33","server":"3371","farm":4,"title":"Doves","ispublic":1,"isfriend":0,"isfamily":0,"ownername":"Jordi Touza Bonnin"},{"id":"3423972325","owner":"25382083@N02","secret":"a2113b7aac","server":"3592","farm":4,"title":"Doves","ispublic":1,"isfriend":0,"isfamily":0,"ownername":"a7racer"}]},"stat":"ok"}