{"photos":{"page":1,"pages":7427,"perpage":15,"total":"111400","photo":[{"id":"4904267962","owner":"91906012@N00","secret":"4acdd470cf","server":"4098","farm":5,"title":"Dragons","ispublic":1,"isfriend":0,"isfamily":0,"ownername":":jovian:"},{"id":"458313768","owner":"30254819@N00","secret":"dd8431e9aa","server":"249","farm":1,"title":"Dragons","ispublic":1,"isfriend":0,"isfamily":0,"ownername":"niteflytes"},{"id":"39321528502","owner":"33720119@N02","secret":"83cf250e21","server":"4646","farm":5,"title":"Dragon tails","ispublic":1,"isfriend":0,"isfamily":0,"ownername":"MontanaRoots (aka Craig)"},{"id":"2341677786","owner":"23410014@N02","secret":"b5c79725b9","server":"2235","farm":3,"title":"Dragon","ispublic":1,"isfriend":0,"isfamily":0,"ownername":"FantasyClay"},{"id":"5851959249","owner":"64336644@N08","secret":"4b72b4b1e4","server":"3139","farm":4,"title":"dragons","ispublic":1,"isfriend":0,"isfamily":0,"ownername":"DimaTunes"},{"id":"68621009","owner":"78431253@N00","secret":"9e38c78ae9","server":"15","farm":1,"title":"dragon","ispublic":1,"isfriend":0,"isfamily":0,"ownername":"And O Gangrel"},{"id":"8735685330","owner":"13031100@N03","secret":"712bf12d68","server":"7305","farm":8,"title":"dragons","ispublic":1,"isfriend":0,"isfamily":0,"ownername":"dragonlady from Texas"},{"id":"8734567481","owner":"13031100@N03","secret":"cb1cf711f6","server":"7316","farm":8,"title":"dragons","ispublic":1,"isfriend":0,"isfamily":0,"ownername":"dragonlady from Texas"},{"id":"5468067926","owner":"59789104@N05","secret":"d4ce18a55e","server":"5294","farm":6,"title":"Dragon","ispublic":1,"isfriend":0,"isfamily":0,"ownername":"malvinita"},{"id":"2248105946","owner":"66317483@N00","secret":"2eb7b0697d","server":"2045","farm":3,"title":"Dragon","ispublic":1,"isfriend":0,"isfamily":0,"ownername":"luigiorozco"},{"id":"1397998647","owner":"13792598@N08","secret":"f906de7a0f","server":"1200","farm":2,"title":"dragons","ispublic":1,"isfriend":0,"isfamily":0,"ownername":"princess_joy_oneil"},{"id":"2536844184","owner":"8767316@N08","secret":"edb06a5db7","server":"2031","farm":3,"title":"Dragons","ispublic":1,"isfriend":0,"isfamily":0,"ownername":"TheRevSteve"},{"id":"8735685196","owner":"13031100@N03","secret":"ed3f064419","server":"7303","farm":8,"title":"dragons","ispublic":1,"isfriend":0,"isfamily":0,"ownername":"dragonlady from Texas"},{"id":"4301538588","owner":"24594349@N07","secret":"b9aec46218","server":"4070","farm":5,"title":"dragon","ispublic":1,"isfriend":0,"isfamily":0,"ownername":"pierreandrejullien"},{"id":"1849438925","owner":"17680858@N03","secret":"c76cc23f83","server":"2103","farm":3,"title":"dragon","ispublic":1,"isfriend":0,"isfamily":0,"ownername":"Zyye"}]},"stat":"ok"}