{"photos":{"page":1,"pages":26726,"perpage":15,"total":"400880","photo":[{"id":"41864618711","owner":"93613635@N06","secret":"222752ace2","server":"948","farm":1,"title":"Dragon","ispublic":1,"isfriend":0,"isfamily":0,"ownername":"Judge 007"},{"id":"5952762986","owner":"28063525@N04","secret":"f6c56e3c00","server":"6130","farm":7,"title":"Dragon","ispublic":1,"isfriend":0,"isfamily":0,"ownername":"TerryWillard"},{"id":"8045060127","owner":"83693764@N05","secret":"2f02e87157","server":"8455","farm":9,"title":"Dragon","ispublic":1,"isfriend":0,"isfamily":0,"ownername":"Rai's Photos"},{"id":"32651003256","owner":"151149654@N02","secret":"4544bd72a8","server":"281","farm":1,"title":"Dragon","ispublic":1,"isfriend":0,"isfamily":0,"ownername":"howtodestroythefatboy"},{"id":"68648148","owner":"16697847@N00","secret":"830664138d","server":"6","farm":1,"title":"Dragon","ispublic":1,"isfriend":0,"isfamily":0,"ownername":"origamiwolf"},{"id":"4894548166","owner":"50700544@N04","secret":"4722c2985a","server":"4098","farm":5,"title":"Dragon","ispublic":1,"isfriend":0,"isfamily":0,"ownername":"moh.juju"},{"id":"2394241125","owner":"24831417@N06","secret":"b75df81053","server":"2103","farm":3,"title":"dragon","ispublic":1,"isfriend":0,"isfamily":0,"ownername":"carc77"},{"id":"6019031417","owner":"24475735@N06","secret":"0e9f36edef","server":"6137","farm":7,"title":"Dragon","ispublic":1,"isfriend":0,"isfamily":0,"ownername":"when_night_falls"},{"id":"5997583605","owner":"10141102@N08","secret":"a722a62036","server":"6007","farm":7,"title":"\" DRAGON \"","ispublic":1,"isfriend":0,"isfamily":0,"ownername":"Wiffsmiff23"},{"id":"7568201456","owner":"80210230@N04","secret":"c7ec7c17aa","server":"7254","farm":8,"title":"Dragon","ispublic":1,"isfriend":0,"isfamily":0,"ownername":"Kevin Burdon"},{"id":"200959320","owner":"12603966@N00","secret":"e05572377f","server":"76","farm":1,"title":"dragon","ispublic":1,"isfriend":0,"isfamily":0,"ownername":"starkertremens"},{"id":"11114345345","owner":"92133184@N03","secret":"da4661599e","server":"5504","farm":6,"title":"Dragon","ispublic":1,"isfriend":0,"isfamily":0,"ownername":"Fgem"},{"id":"5326544611","owner":"30054343@N07","secret":"6de8490f6f","server":"5247","farm":6,"title":"Dragon","ispublic":1,"isfriend":0,"isfamily":0,"ownername":"Simply Viola ( Busy +off-on )"},{"id":"14703738680","owner":"119200904@N07","secret":"4423564c64","server":"3860","farm":4,"title":"Dragon","ispublic":1,"isfriend":0,"isfamily":0,"ownername":"Artur Rydzewski"},{"id":"3403778548","owner":"56757303@N00","secret":"15f48ab99e","server":"3437","farm":4,"title":"Dragon","ispublic":1,"isfriend":0,"isfamily":0,"ownername":"geo462rge"}]},"stat":"ok"}