{"photos":{"page":1,"pages":6457,"perpage":15,"total":"96849","photo":[{"id":"6080869678","owner":"45486697@N07","secret":"8c6cb2ac93","server":"6198","farm":7,"title":"Driver","ispublic":1,"isfriend":0,"isfamily":0,"ownername":"Fax0r"},{"id":"5446956703","owner":"40518160@N08","secret":"17253e9edf","server":"5214","farm":6,"title":"Driver","ispublic":1,"isfriend":0,"isfamily":0,"ownername":"Ernesto M."},{"id":"3958911639","owner":"41798338@N04","secret":"4e7b0565d3","server":"3536","farm":4,"title":"Driver","ispublic":1,"isfriend":0,"isfamily":0,"ownername":"70023venus2009"},{"id":"15253143068","owner":"107540175@N06","secret":"1dc62d261d","server":"3931","farm":4,"title":"Driver","ispublic":1,"isfriend":0,"isfamily":0,"ownername":"montillon.a"},{"id":"16673917711","owner":"13016380@N07","secret":"6b9301425d","server":"8572","farm":9,"title":"driver...","ispublic":1,"isfriend":0,"isfamily":0,"ownername":"maggie224 -"},{"id":"5266155102","owner":"27140841@N03","secret":"901a9a82e0","server":"5241","farm":6,"title":"Driver","ispublic":1,"isfriend":0,"isfamily":0,"ownername":"alina matyash"},{"id":"36292300293","owner":"148131311@N05","secret":"8c28cd7800","server":"4437","farm":5,"title":"Driver","ispublic":1,"isfriend":0,"isfamily":0,"ownername":"matteo00''"},{"id":"6924985856","owner":"76895849@N08","secret":"0bd5a31797","server":"5075","farm":6,"title":"driver","ispublic":1,"isfriend":0,"isfamily":0,"ownername":"wesleysouzas"},{"id":"4336414411","owner":"8070429@N06","secret":"6a27e01cc7","server":"4003","farm":5,"title":"driver","ispublic":1,"isfriend":0,"isfamily":0,"ownername":"ollesvensson"},{"id":"11389629235","owner":"62066451@N00","secret":"4b1dabb8d9","server":"5474","farm":6,"title":"Driver","ispublic":1,"isfriend":0,"isfamily":0,"ownername":"aaronbrethorst"},{"id":"8723303178","owner":"66302700@N08","secret":"577f511048","server":"7301","farm":8,"title":"Driver","ispublic":1,"isfriend":0,"isfamily":0,"ownername":"Ariadne_Ary"},{"id":"2128965193","owner":"8322872@N02","secret":"08b1366539","server":"2316","farm":3,"title":"Driver","ispublic":1,"isfriend":0,"isfamily":0,"ownername":"rick.alarcon"},{"id":"6074771646","owner":"56514775@N00","secret":"e6a9408542","server":"6202","farm":7,"title":"Driver","ispublic":1,"isfriend":0,"isfamily":0,"ownername":"reesedixon"},{"id":"3701765950","owner":"34687254@N05","secret":"f1ae49335f","server":"2519","farm":3,"title":"Driver","ispublic":1,"isfriend":0,"isfamily":0,"ownername":"TurboFoto"},{"id":"3169513961","owner":"30402046@N07","secret":"fc3d207490","server":"1137","farm":2,"title":"Driver","ispublic":1,"isfriend":0,"isfamily":0,"ownername":"raezer"}]},"stat":"ok"}