{"photos":{"page":1,"pages":8335,"perpage":15,"total":"125015","photo":[{"id":"27960124228","owner":"28542392@N05","secret":"23b0d085ce","server":"904","farm":1,"title":"dry...","ispublic":1,"isfriend":0,"isfamily":0,"ownername":"Ayeshadows"},{"id":"14949109362","owner":"68404761@N05","secret":"aabac47e26","server":"3866","farm":4,"title":"Dry.","ispublic":1,"isfriend":0,"isfamily":0,"ownername":"Juan J Martinez."},{"id":"40662273050","owner":"8009375@N03","secret":"aa82b7e0f0","server":"1751","farm":2,"title":"Dry","ispublic":1,"isfriend":0,"isfamily":0,"ownername":"Atila Yumusakkaya"},{"id":"46114006515","owner":"116424075@N06","secret":"489cb63dd0","server":"7908","farm":8,"title":"dry","ispublic":1,"isfriend":0,"isfamily":0,"ownername":"drstar."},{"id":"11605544386","owner":"58055534@N07","secret":"4e6c8c9a24","server":"5506","farm":6,"title":"Dry","ispublic":1,"isfriend":0,"isfamily":0,"ownername":"BlaizeG"},{"id":"7730198376","owner":"72909571@N07","secret":"27d222e380","server":"8281","farm":9,"title":"Dry","ispublic":1,"isfriend":0,"isfamily":0,"ownername":"ed-ingle"},{"id":"2254730427","owner":"7374528@N03","secret":"263cf2a10d","server":"2154","farm":3,"title":"Dry","ispublic":1,"isfriend":0,"isfamily":0,"ownername":"gripspix"},{"id":"36240245572","owner":"8114397@N03","secret":"1924d9a097","server":"4361","farm":5,"title":"Dry","ispublic":1,"isfriend":0,"isfamily":0,"ownername":"davekpcv"},{"id":"44389167821","owner":"141250500@N08","secret":"bb92c294c7","server":"1871","farm":2,"title":"Dry","ispublic":1,"isfriend":0,"isfamily":0,"ownername":"peregrinacr"},{"id":"15771890774","owner":"63690052@N06","secret":"2d91f7d435","server":"7407","farm":8,"title":"dry","ispublic":1,"isfriend":0,"isfamily":0,"ownername":"Kai Rennert"},{"id":"33937347746","owner":"57949897@N00","secret":"2c049a39ca","server":"2889","farm":3,"title":"Dry","ispublic":1,"isfriend":0,"isfamily":0,"ownername":"Jerzy Durczak"},{"id":"2254729793","owner":"7374528@N03","secret":"3b4b0bba70","server":"2149","farm":3,"title":"Dry","ispublic":1,"isfriend":0,"isfamily":0,"ownername":"gripspix"},{"id":"11218208493","owner":"41864442@N06","secret":"c935811ae2","server":"5495","farm":6,"title":"dry","ispublic":1,"isfriend":0,"isfamily":0,"ownername":"palinta"},{"id":"16262925052","owner":"120856564@N04","secret":"257276847c","server":"7469","farm":8,"title":"Dry","ispublic":1,"isfriend":0,"isfamily":0,"ownername":"sachinsawhney"},{"id":"348765501","owner":"38998768@N00","secret":"a2a645ab70","server":"147","farm":1,"title":"Dry","ispublic":1,"isfriend":0,"isfamily":0,"ownername":"Clark Gable Is My Friend"}]},"stat":"ok"}