{"photos":{"page":1,"pages":33483,"perpage":15,"total":"502240","photo":[{"id":"8446750937","owner":"69148745@N02","secret":"bd821ab062","server":"8323","farm":9,"title":"duck","ispublic":1,"isfriend":0,"isfamily":0,"ownername":"land[e]scape"},{"id":"5593367956","owner":"20995310@N07","secret":"8a89d5cb31","server":"5149","farm":6,"title":"duck","ispublic":1,"isfriend":0,"isfamily":0,"ownername":"dr4gbot"},{"id":"7995783335","owner":"69148745@N02","secret":"e51708418e","server":"8172","farm":9,"title":"duck","ispublic":1,"isfriend":0,"isfamily":0,"ownername":"land[e]scape"},{"id":"7995566940","owner":"69148745@N02","secret":"185a59305a","server":"8300","farm":9,"title":"duck","ispublic":1,"isfriend":0,"isfamily":0,"ownername":"land[e]scape"},{"id":"262399516","owner":"41259082@N00","secret":"db4df7b45d","server":"92","farm":1,"title":"ducks","ispublic":1,"isfriend":0,"isfamily":0,"ownername":"Alefifer"},{"id":"13072115874","owner":"117102579@N03","secret":"ee3b36749a","server":"2005","farm":3,"title":"Duck","ispublic":1,"isfriend":0,"isfamily":0,"ownername":"landon.blankemeyer.photography"},{"id":"2989707839","owner":"22754052@N05","secret":"c319c35c68","server":"3180","farm":4,"title":"Duck","ispublic":1,"isfriend":0,"isfamily":0,"ownername":"DKivlin"},{"id":"7061341707","owner":"76884842@N02","secret":"6fed8c5731","server":"7065","farm":8,"title":"Duck","ispublic":1,"isfriend":0,"isfamily":0,"ownername":"Wavebe"},{"id":"8445379586","owner":"69148745@N02","secret":"17ab2a01e1","server":"8226","farm":9,"title":"duck","ispublic":1,"isfriend":0,"isfamily":0,"ownername":"land[e]scape"},{"id":"42300423772","owner":"73422502@N08","secret":"44e7602bc4","server":"878","farm":1,"title":"Duck","ispublic":1,"isfriend":0,"isfamily":0,"ownername":"Zeeyolq Photography"},{"id":"7995856750","owner":"69148745@N02","secret":"60e0346c07","server":"8451","farm":9,"title":"duck","ispublic":1,"isfriend":0,"isfamily":0,"ownername":"land[e]scape"},{"id":"16450316229","owner":"80740476@N07","secret":"e5c41feac3","server":"8680","farm":9,"title":"Duck","ispublic":1,"isfriend":0,"isfamily":0,"ownername":"Le Guit"},{"id":"36346287796","owner":"136969692@N02","secret":"fa2c99c318","server":"4334","farm":5,"title":"Ducks","ispublic":1,"isfriend":0,"isfamily":0,"ownername":"sonyalpha7II"},{"id":"7995481455","owner":"69148745@N02","secret":"18108bae3b","server":"8302","farm":9,"title":"duck","ispublic":1,"isfriend":0,"isfamily":0,"ownername":"land[e]scape"},{"id":"33546655624","owner":"25091732@N02","secret":"cdec0a3495","server":"4185","farm":5,"title":"Duck","ispublic":1,"isfriend":0,"isfamily":0,"ownername":"TOMFLASH91"}]},"stat":"ok"}