{"photos":{"page":1,"pages":3169,"perpage":15,"total":"47534","photo":[{"id":"5772503789","owner":"55646157@N08","secret":"e0cbd32a89","server":"5109","farm":6,"title":"Ears","ispublic":1,"isfriend":0,"isfamily":0,"ownername":"Daniel Wildi Photography"},{"id":"28110793851","owner":"92338927@N00","secret":"b0bc0b5af3","server":"7320","farm":8,"title":"Barley Ear","ispublic":1,"isfriend":0,"isfamily":0,"ownername":"Trevor Bowling"},{"id":"4463714052","owner":"20338931@N00","secret":"a1889b5065","server":"4051","farm":5,"title":"Ear","ispublic":1,"isfriend":0,"isfamily":0,"ownername":"Andrea Francesco Berni"},{"id":"843381","owner":"79498298@N00","secret":"6240f6ff10","server":"1","farm":1,"title":"ear","ispublic":1,"isfriend":0,"isfamily":0,"ownername":"Nad"},{"id":"6190097416","owner":"57519914@N00","secret":"2b3f6fb7b4","server":"6124","farm":7,"title":"Ear","ispublic":1,"isfriend":0,"isfamily":0,"ownername":"jepoirrier"},{"id":"6770382621","owner":"49672239@N03","secret":"f992a97d1d","server":"7157","farm":8,"title":"Ear","ispublic":1,"isfriend":0,"isfamily":0,"ownername":"Cristiana Damiano"},{"id":"14733508987","owner":"44674424@N07","secret":"72cc2fe274","server":"5561","farm":6,"title":"EAR","ispublic":1,"isfriend":0,"isfamily":0,"ownername":"Rococo Quyn"},{"id":"8528794579","owner":"69685154@N03","secret":"92bd10597e","server":"8507","farm":9,"title":"ear","ispublic":1,"isfriend":0,"isfamily":0,"ownername":"Jason Glyn"},{"id":"9846843693","owner":"28273044@N08","secret":"a3e44843f0","server":"2883","farm":3,"title":"#ears","ispublic":1,"isfriend":0,"isfamily":0,"ownername":"c3knight"},{"id":"2465295829","owner":"14925464@N02","secret":"d667906c9a","server":"2242","farm":3,"title":"ear","ispublic":1,"isfriend":0,"isfamily":0,"ownername":"dainelei"},{"id":"46878646092","owner":"77035248@N07","secret":"abfb9c50a2","server":"4813","farm":5,"title":"Ear","ispublic":1,"isfriend":0,"isfamily":0,"ownername":"Mark Tooke"},{"id":"15103195896","owner":"34871897@N08","secret":"392b1e49e7","server":"3911","farm":4,"title":"Ear!","ispublic":1,"isfriend":0,"isfamily":0,"ownername":"irishishka"},{"id":"248504061","owner":"78798706@N00","secret":"f91f419b0a","server":"80","farm":1,"title":"ear","ispublic":1,"isfriend":0,"isfamily":0,"ownername":"marcogiordano"},{"id":"1449016773","owner":"20405667@N00","secret":"9b4920fdb1","server":"1097","farm":2,"title":"Ear","ispublic":1,"isfriend":0,"isfamily":0,"ownername":"mihoda"},{"id":"16548064578","owner":"100741850@N02","secret":"fec01b24ce","server":"8616","farm":9,"title":"Trees have ears","ispublic":1,"isfriend":0,"isfamily":0,"ownername":"Gtarman1401"}]},"stat":"ok"}