{"photos":{"page":1,"pages":15856,"perpage":15,"total":"237835","photo":[{"id":"15933996996","owner":"12836528@N00","secret":"95d2d73e8d","server":"7533","farm":8,"title":"Early morning bokeh","ispublic":1,"isfriend":0,"isfamily":0,"ownername":"kevin dooley"},{"id":"3116026788","owner":"28843516@N04","secret":"fb5ae67903","server":"3096","farm":4,"title":"Early peach flower","ispublic":1,"isfriend":0,"isfamily":0,"ownername":"Jason Dinh Ba Thanh"},{"id":"4817452232","owner":"21644167@N04","secret":"409e29d5f7","server":"4135","farm":5,"title":"Flower \/ White flower \/ sun \/ nature \/ White \"Lotus Flower in the Early Morning Sun\"  \/ green \/ - IMG_2956","ispublic":1,"isfriend":0,"isfamily":0,"ownername":"Bahman Farzad"},{"id":"8232098968","owner":"44731289@N00","secret":"63e739c32c","server":"8344","farm":9,"title":"Early Morning in Missoula","ispublic":1,"isfriend":0,"isfamily":0,"ownername":"Mark Payton Photography"},{"id":"4862591139","owner":"70297719@N00","secret":"fec23f23ed","server":"4073","farm":5,"title":"Early Morning - Cameron Lake.","ispublic":1,"isfriend":0,"isfamily":0,"ownername":"westrock-bob"},{"id":"5451506777","owner":"48764202@N04","secret":"671bf1ca8e","server":"5019","farm":6,"title":"Early Start","ispublic":1,"isfriend":0,"isfamily":0,"ownername":"RattyBoots"},{"id":"11641946684","owner":"42062795@N03","secret":"4f428de53b","server":"5506","farm":6,"title":"early morn","ispublic":1,"isfriend":0,"isfamily":0,"ownername":"unexpectedtales"},{"id":"13027170854","owner":"28145073@N08","secret":"0e40bbac33","server":"3684","farm":4,"title":"Early morning","ispublic":1,"isfriend":0,"isfamily":0,"ownername":"Moyan_Brenn"},{"id":"3085951464","owner":"21775664@N07","secret":"9c068b7392","server":"3086","farm":4,"title":"One early morning in the London City...","ispublic":1,"isfriend":0,"isfamily":0,"ownername":"davidgutierrez.co.uk"},{"id":"4136586127","owner":"13285824@N07","secret":"3948940d8e","server":"2733","farm":3,"title":"Early snack","ispublic":1,"isfriend":0,"isfamily":0,"ownername":"www.digitaldirect.ca"},{"id":"15378038918","owner":"24963685@N07","secret":"f5dda7c7e4","server":"3938","farm":4,"title":"early","ispublic":1,"isfriend":0,"isfamily":0,"ownername":"Dimitri_Stucolov"},{"id":"5731004358","owner":"26641488@N07","secret":"30cc9658cf","server":"5222","farm":6,"title":"Early rose","ispublic":1,"isfriend":0,"isfamily":0,"ownername":"Katie-Rose"},{"id":"7480505228","owner":"47881312@N04","secret":"4186df812e","server":"7248","farm":8,"title":"'FLARE' AIRBORNE EARLY WARNING","ispublic":1,"isfriend":0,"isfamily":0,"ownername":"Pierre E Fieschi"},{"id":"9696961073","owner":"52607599@N03","secret":"d088391a87","server":"5342","farm":6,"title":"Early Morning","ispublic":1,"isfriend":0,"isfamily":0,"ownername":".vermilion"},{"id":"13962932926","owner":"88642461@N05","secret":"47fbaed0f2","server":"7022","farm":8,"title":"EARLY WORMS","ispublic":1,"isfriend":0,"isfamily":0,"ownername":"Friend Kemosabe"}]},"stat":"ok"}