{"photos":{"page":1,"pages":4141,"perpage":15,"total":"62102","photo":[{"id":"44088165650","owner":"91619997@N04","secret":"4881a2403b","server":"4831","farm":5,"title":"Ears","ispublic":1,"isfriend":0,"isfamily":0,"ownername":"De Rode Olifant"},{"id":"42078499345","owner":"94958489@N06","secret":"29c764ab6f","server":"1784","farm":2,"title":"Barley ears.","ispublic":1,"isfriend":0,"isfamily":0,"ownername":"Les Fisher"},{"id":"6322254942","owner":"99922889@N00","secret":"54970e78da","server":"6225","farm":7,"title":"doppnik604","ispublic":1,"isfriend":0,"isfamily":0,"ownername":"Lu?"},{"id":"5772503789","owner":"55646157@N08","secret":"e0cbd32a89","server":"5109","farm":6,"title":"Ears","ispublic":1,"isfriend":0,"isfamily":0,"ownername":"Daniel Wildi Photography"},{"id":"553308554","owner":"19083241@N00","secret":"73b1cec26f","server":"1046","farm":2,"title":"Sunny ears","ispublic":1,"isfriend":0,"isfamily":0,"ownername":"SmartMarmot"},{"id":"4435941091","owner":"22888902@N04","secret":"0b71388773","server":"2696","farm":3,"title":"Ears","ispublic":1,"isfriend":0,"isfamily":0,"ownername":"sara.lauderdale"},{"id":"5434626361","owner":"59377911@N03","secret":"e2eb610f58","server":"5059","farm":6,"title":"EARS","ispublic":1,"isfriend":0,"isfamily":0,"ownername":"mayonaise the bastard"},{"id":"35614181995","owner":"70757891@N00","secret":"fdc2f8e911","server":"4284","farm":5,"title":"Ears","ispublic":1,"isfriend":0,"isfamily":0,"ownername":"grongar"},{"id":"4864522212","owner":"33508838@N04","secret":"1aa808a9d7","server":"4095","farm":5,"title":"Ears","ispublic":1,"isfriend":0,"isfamily":0,"ownername":"kbro15"},{"id":"15332133183","owner":"101069437@N04","secret":"d137e21ba8","server":"7568","farm":8,"title":"Ears","ispublic":1,"isfriend":0,"isfamily":0,"ownername":"jakeskegg"},{"id":"7510531012","owner":"64490064@N07","secret":"1995e6701a","server":"8027","farm":9,"title":"ears","ispublic":1,"isfriend":0,"isfamily":0,"ownername":"pix click"},{"id":"5801328967","owner":"53301031@N02","secret":"fb82eb9e56","server":"3074","farm":4,"title":"Ears.","ispublic":1,"isfriend":0,"isfamily":0,"ownername":"altaraxacon"},{"id":"9262441838","owner":"79553916@N05","secret":"a576e8e660","server":"5518","farm":6,"title":"Ears","ispublic":1,"isfriend":0,"isfamily":0,"ownername":"Patience and Grace"},{"id":"16446998685","owner":"51548705@N03","secret":"28a60186f9","server":"7392","farm":8,"title":"ears","ispublic":1,"isfriend":0,"isfamily":0,"ownername":"75kombi"},{"id":"4137556360","owner":"41056298@N03","secret":"5583928ae1","server":"2494","farm":3,"title":"Ears","ispublic":1,"isfriend":0,"isfamily":0,"ownername":"Zyphonx"}]},"stat":"ok"}