{"photos":{"page":1,"pages":11162,"perpage":15,"total":"167422","photo":[{"id":"16659031337","owner":"73422502@N08","secret":"1bf01ff368","server":"7611","farm":8,"title":"Eclipse","ispublic":1,"isfriend":0,"isfamily":0,"ownername":"Zeeyolq Photography"},{"id":"2280925344","owner":"8666017@N03","secret":"1726b8e944","server":"3128","farm":4,"title":"eclipse","ispublic":1,"isfriend":0,"isfamily":0,"ownername":"kpauli"},{"id":"7244342440","owner":"77764293@N00","secret":"5c333fe177","server":"7092","farm":8,"title":"eclipse","ispublic":1,"isfriend":0,"isfamily":0,"ownername":"harusoma"},{"id":"14999889243","owner":"57253465@N03","secret":"bc4e104e24","server":"5603","farm":6,"title":"Eclipse","ispublic":1,"isfriend":0,"isfamily":0,"ownername":"brian.perkes"},{"id":"5474636922","owner":"59922071@N03","secret":"736d758665","server":"5299","farm":6,"title":"Eclipse","ispublic":1,"isfriend":0,"isfamily":0,"ownername":"URD1nl"},{"id":"7620533666","owner":"81077504@N03","secret":"61a71e443e","server":"8143","farm":9,"title":"Eclipse","ispublic":1,"isfriend":0,"isfamily":0,"ownername":"bsmethers"},{"id":"25138077537","owner":"27674401@N02","secret":"64b21ea8a4","server":"4767","farm":5,"title":"eclipse","ispublic":1,"isfriend":0,"isfamily":0,"ownername":"GEOLEO"},{"id":"7239271982","owner":"37996631812@N01","secret":"ec29d666ff","server":"7212","farm":8,"title":"Eclipse","ispublic":1,"isfriend":0,"isfamily":0,"ownername":"mebooyou"},{"id":"2281430356","owner":"65746045@N00","secret":"762aca8394","server":"2269","farm":3,"title":"ECLIPSE","ispublic":1,"isfriend":0,"isfamily":0,"ownername":"jesus_alfredo_g"},{"id":"13944035886","owner":"101594417@N04","secret":"8476617cbd","server":"7124","farm":8,"title":"eclipse","ispublic":1,"isfriend":0,"isfamily":0,"ownername":"jasonmclatchie"},{"id":"7245503860","owner":"54274886@N06","secret":"0b8725f67d","server":"7092","farm":8,"title":"Eclipse","ispublic":1,"isfriend":0,"isfamily":0,"ownername":"Scott Williams - Kernville, California"},{"id":"8205392462","owner":"88411698@N05","secret":"5bc34cb8a9","server":"8478","farm":9,"title":"Eclipse","ispublic":1,"isfriend":0,"isfamily":0,"ownername":"guywpt"},{"id":"6498563371","owner":"64168401@N03","secret":"7f38e0c5eb","server":"7143","farm":8,"title":"Eclipse","ispublic":1,"isfriend":0,"isfamily":0,"ownername":"Santy (Chankii)"},{"id":"415524002","owner":"41685157@N00","secret":"8cbcc7709e","server":"174","farm":1,"title":"Eclipse","ispublic":1,"isfriend":0,"isfamily":0,"ownername":"Romain Carton"},{"id":"12889736094","owner":"96552023@N00","secret":"c36d2a9287","server":"7314","farm":8,"title":"Eclipse","ispublic":1,"isfriend":0,"isfamily":0,"ownername":"fluffydragon"}]},"stat":"ok"}