{"photos":{"page":1,"pages":9468,"perpage":15,"total":"142014","photo":[{"id":"3215821971","owner":"30804187@N06","secret":"4a15b30fb5","server":"3266","farm":4,"title":"Egg","ispublic":1,"isfriend":0,"isfamily":0,"ownername":"lauritapurple"},{"id":"2250894216","owner":"60107315@N00","secret":"26bc43d0cc","server":"2120","farm":3,"title":"Eggs","ispublic":1,"isfriend":0,"isfamily":0,"ownername":"freefotouk"},{"id":"3311628423","owner":"33230357@N03","secret":"318fe3833e","server":"3446","farm":4,"title":"Eggs","ispublic":1,"isfriend":0,"isfamily":0,"ownername":"-Ane-"},{"id":"5782902112","owner":"40340487@N06","secret":"d08e040f3b","server":"2219","farm":3,"title":"Eggs","ispublic":1,"isfriend":0,"isfamily":0,"ownername":"follow my new account xxxxxxxxxxxxxxxxxxx"},{"id":"16744740973","owner":"91265702@N07","secret":"395f24c482","server":"7796","farm":8,"title":"Egg","ispublic":1,"isfriend":0,"isfamily":0,"ownername":"Dr_Eckskerl"},{"id":"194917836","owner":"22523426@N00","secret":"7d64cc6693","server":"71","farm":1,"title":"Eggs","ispublic":1,"isfriend":0,"isfamily":0,"ownername":"extraspecial"},{"id":"3083459599","owner":"25197381@N02","secret":"55d24a48f8","server":"3241","farm":4,"title":"Egg","ispublic":1,"isfriend":0,"isfamily":0,"ownername":"Mac\u2606Lee"},{"id":"3048872990","owner":"76924374@N00","secret":"3973f7a77b","server":"3181","farm":4,"title":"Egg","ispublic":1,"isfriend":0,"isfamily":0,"ownername":"fhansenphoto"},{"id":"579137134","owner":"9133775@N02","secret":"1537d67232","server":"1047","farm":2,"title":"Eggs","ispublic":1,"isfriend":0,"isfamily":0,"ownername":"newbiephoto"},{"id":"6529820389","owner":"69045797@N07","secret":"668bd1dd68","server":"7173","farm":8,"title":"Eggs","ispublic":1,"isfriend":0,"isfamily":0,"ownername":"JieLeung"},{"id":"3655788205","owner":"79457539@N00","secret":"cb25f73e5d","server":"3581","farm":4,"title":"Egg","ispublic":1,"isfriend":0,"isfamily":0,"ownername":"Hjorthefoto"},{"id":"6763779673","owner":"10175246@N08","secret":"b380c3e522","server":"7161","farm":8,"title":"egg","ispublic":1,"isfriend":0,"isfamily":0,"ownername":"psyberartist"},{"id":"4727453931","owner":"62344799@N00","secret":"7d6226ccd5","server":"1260","farm":2,"title":"Eggs","ispublic":1,"isfriend":0,"isfamily":0,"ownername":"Kekka"},{"id":"3511896401","owner":"38051125@N05","secret":"efbb9d8e31","server":"3647","farm":4,"title":"egg","ispublic":1,"isfriend":0,"isfamily":0,"ownername":"elinekarlsdatterfladseth"},{"id":"3624281704","owner":"51682283@N00","secret":"f2a4126ee8","server":"3661","farm":4,"title":"egg","ispublic":1,"isfriend":0,"isfamily":0,"ownername":"chattycha"}]},"stat":"ok"}