{"photos":{"page":1,"pages":8665,"perpage":15,"total":"129969","photo":[{"id":"6676768795","owner":"48847785@N05","secret":"861c1d46da","server":"7031","farm":8,"title":"eggs","ispublic":1,"isfriend":0,"isfamily":0,"ownername":"jules1836"},{"id":"8501854880","owner":"53133240@N00","secret":"4e92f936f3","server":"8524","farm":9,"title":"eggs","ispublic":1,"isfriend":0,"isfamily":0,"ownername":"Muffet"},{"id":"3514192452","owner":"22443621@N00","secret":"2981b6e008","server":"3348","farm":4,"title":"Eggs","ispublic":1,"isfriend":0,"isfamily":0,"ownername":"pietroizzo"},{"id":"15765265510","owner":"27733879@N05","secret":"a5892d2c0d","server":"7550","farm":8,"title":"Eggs","ispublic":1,"isfriend":0,"isfamily":0,"ownername":"\u73a5\u8996\u754c"},{"id":"6083986703","owner":"55289437@N00","secret":"0ceca60bc6","server":"6185","farm":7,"title":"Eggs","ispublic":1,"isfriend":0,"isfamily":0,"ownername":"Chez US"},{"id":"6196854103","owner":"30493186@N03","secret":"2fb80a3b11","server":"6004","farm":7,"title":"Eggs","ispublic":1,"isfriend":0,"isfamily":0,"ownername":"d o l f i"},{"id":"4606928165","owner":"50163768@N05","secret":"6e73df26d9","server":"3539","farm":4,"title":"Eggs","ispublic":1,"isfriend":0,"isfamily":0,"ownername":"Karen Vorraa"},{"id":"5288187571","owner":"40536868@N04","secret":"64365b61fa","server":"5085","farm":6,"title":"Eggs","ispublic":1,"isfriend":0,"isfamily":0,"ownername":"David Brulatour"},{"id":"4705463081","owner":"47886383@N00","secret":"80a212c1a6","server":"4006","farm":5,"title":"Eggs","ispublic":1,"isfriend":0,"isfamily":0,"ownername":"Apryl Wiese"},{"id":"6133940890","owner":"53101386@N02","secret":"6115821f46","server":"6157","farm":7,"title":"Eggs","ispublic":1,"isfriend":0,"isfamily":0,"ownername":"Nesmary Espina"},{"id":"6029024154","owner":"56786559@N05","secret":"b49995304b","server":"6190","farm":7,"title":"eggs","ispublic":1,"isfriend":0,"isfamily":0,"ownername":"bron66"},{"id":"14872666289","owner":"78637244@N00","secret":"5d7afa32de","server":"5594","farm":6,"title":"Eggs","ispublic":1,"isfriend":0,"isfamily":0,"ownername":"BWJones"},{"id":"6259056270","owner":"83626291@N00","secret":"73dd5f12b6","server":"6232","farm":7,"title":"Eggs","ispublic":1,"isfriend":0,"isfamily":0,"ownername":"nowafers"},{"id":"2730979563","owner":"8990022@N07","secret":"ed07d5ae96","server":"3003","farm":4,"title":"eggs","ispublic":1,"isfriend":0,"isfamily":0,"ownername":"stephanie.hamer"},{"id":"2250894216","owner":"60107315@N00","secret":"26bc43d0cc","server":"2120","farm":3,"title":"Eggs","ispublic":1,"isfriend":0,"isfamily":0,"ownername":"freefotouk"}]},"stat":"ok"}