{"photos":{"page":1,"pages":8381,"perpage":15,"total":"125711","photo":[{"id":"7232917012","owner":"97235261@N00","secret":"52dbb71507","server":"5329","farm":6,"title":"Egyptian Vulture Juvenile","ispublic":1,"isfriend":0,"isfamily":0,"ownername":"Koshyk"},{"id":"16275444870","owner":"72849520@N00","secret":"b2a0bf9aed","server":"8588","farm":9,"title":"Egyptian Vulture","ispublic":1,"isfriend":0,"isfamily":0,"ownername":"Wasif Yaqeen"},{"id":"6640288731","owner":"40832502@N06","secret":"800afd32f6","server":"7170","farm":8,"title":"Egyptian Museum of Turin","ispublic":1,"isfriend":0,"isfamily":0,"ownername":"Margall photography"},{"id":"2233440702","owner":"23351554@N06","secret":"13af8e23b9","server":"2238","farm":3,"title":"egyptian coffins","ispublic":1,"isfriend":0,"isfamily":0,"ownername":"sergiothirteen"},{"id":"14424661482","owner":"79956697@N06","secret":"51f3d11521","server":"5583","farm":6,"title":"Egyptian evening","ispublic":1,"isfriend":0,"isfamily":0,"ownername":"B.B.H.70"},{"id":"3754680274","owner":"77484743@N00","secret":"b408de44e6","server":"3418","farm":4,"title":"Egyptian Vulture - portrait     Explore:Jul 25, 2009 #265","ispublic":1,"isfriend":0,"isfamily":0,"ownername":"Angad Achappa"},{"id":"17933686752","owner":"75089180@N08","secret":"790a661c41","server":"5323","farm":6,"title":"Egyptian Building 383","ispublic":1,"isfriend":0,"isfamily":0,"ownername":"Nathan_Arrington"},{"id":"3709938240","owner":"33557016@N02","secret":"ac3f4ab047","server":"2540","farm":3,"title":"Egyptian Column | University of Pennsylvania","ispublic":1,"isfriend":0,"isfamily":0,"ownername":"*Arielle*"},{"id":"17522927878","owner":"75089180@N08","secret":"f87245b338","server":"5460","farm":6,"title":"Egyptian Building 545","ispublic":1,"isfriend":0,"isfamily":0,"ownername":"Nathan_Arrington"},{"id":"22092979432","owner":"91004484@N07","secret":"45fc5c8852","server":"760","farm":1,"title":"Egyptian Double","ispublic":1,"isfriend":0,"isfamily":0,"ownername":"Duncan Blackburn"},{"id":"21563358443","owner":"117560929@N03","secret":"5148729510","server":"5835","farm":6,"title":"Egyptian Mirror Image","ispublic":1,"isfriend":0,"isfamily":0,"ownername":"msdaphnethos"},{"id":"17127889413","owner":"75089180@N08","secret":"fa06b5129b","server":"5326","farm":6,"title":"Egyptian Building 441","ispublic":1,"isfriend":0,"isfamily":0,"ownername":"Nathan_Arrington"},{"id":"17754550039","owner":"75089180@N08","secret":"96b4e06764","server":"5470","farm":6,"title":"Egyptian Building 343","ispublic":1,"isfriend":0,"isfamily":0,"ownername":"Nathan_Arrington"},{"id":"11234660315","owner":"76512404@N00","secret":"8b8bb9f314","server":"2862","farm":3,"title":"Egyptian","ispublic":1,"isfriend":0,"isfamily":0,"ownername":"murphyz"},{"id":"2163705932","owner":"21692577@N02","secret":"cc32db9acc","server":"2027","farm":3,"title":"Egyptian","ispublic":1,"isfriend":0,"isfamily":0,"ownername":"Danny VB"}]},"stat":"ok"}