{"photos":{"page":1,"pages":6278,"perpage":15,"total":"94161","photo":[{"id":"9161677127","owner":"82532559@N00","secret":"50046c3dd1","server":"7304","farm":8,"title":"Elephants","ispublic":1,"isfriend":0,"isfamily":0,"ownername":"Gabriel Robledo"},{"id":"3883081036","owner":"40373979@N04","secret":"825035d4ac","server":"2557","farm":3,"title":"elephants","ispublic":1,"isfriend":0,"isfamily":0,"ownername":"cjarefk"},{"id":"6219430627","owner":"68113729@N06","secret":"6d7355c6f4","server":"6054","farm":7,"title":"Elephants","ispublic":1,"isfriend":0,"isfamily":0,"ownername":"Ella-Carson"},{"id":"4672258075","owner":"37369531@N05","secret":"5fbeca24fe","server":"4041","farm":5,"title":"Elephants","ispublic":1,"isfriend":0,"isfamily":0,"ownername":"ordinary_human"},{"id":"4973989792","owner":"27833494@N07","secret":"96475a7867","server":"4106","farm":5,"title":"Elephant","ispublic":1,"isfriend":0,"isfamily":0,"ownername":"mrscherry2000"},{"id":"12319712483","owner":"66365854@N03","secret":"18d8e1f008","server":"7310","farm":8,"title":"Elephants","ispublic":1,"isfriend":0,"isfamily":0,"ownername":"pedroeric"},{"id":"3883081546","owner":"40373979@N04","secret":"18a954cee3","server":"2657","farm":3,"title":"elephants","ispublic":1,"isfriend":0,"isfamily":0,"ownername":"cjarefk"},{"id":"11404291943","owner":"95781642@N03","secret":"a3c1e789c8","server":"5502","farm":6,"title":"Elephants","ispublic":1,"isfriend":0,"isfamily":0,"ownername":"Bino Caina"},{"id":"293331421","owner":"85122872@N00","secret":"27e44ff5be","server":"103","farm":1,"title":"elephant","ispublic":1,"isfriend":0,"isfamily":0,"ownername":"harrymoon"},{"id":"17565570","owner":"94997851@N00","secret":"93404551ee","server":"11","farm":1,"title":"Elephants","ispublic":1,"isfriend":0,"isfamily":0,"ownername":"Sam 1.1"},{"id":"4865094574","owner":"7858130@N08","secret":"392794c9ba","server":"4140","farm":5,"title":"Elephants","ispublic":1,"isfriend":0,"isfamily":0,"ownername":"jsnowy2768"},{"id":"5129456059","owner":"55218235@N07","secret":"797cdc5095","server":"4045","farm":5,"title":"Elephants","ispublic":1,"isfriend":0,"isfamily":0,"ownername":"Charlie the Cheetah"},{"id":"16212247763","owner":"129919340@N06","secret":"a3cfdcf78e","server":"8640","farm":9,"title":"elephants","ispublic":1,"isfriend":0,"isfamily":0,"ownername":"paul.ralphs"},{"id":"6846676359","owner":"49571852@N03","secret":"3c1cd0108e","server":"7154","farm":8,"title":"Elephants","ispublic":1,"isfriend":0,"isfamily":0,"ownername":"Zyanya Mafalda"},{"id":"3359527360","owner":"13947344@N02","secret":"b799327c7d","server":"3591","farm":4,"title":"Elephants","ispublic":1,"isfriend":0,"isfamily":0,"ownername":"Marti Wills"}]},"stat":"ok"}