{"photos":{"page":1,"pages":21475,"perpage":15,"total":"322119","photo":[{"id":"4838416433","owner":"52336505@N07","secret":"ffc564eb4b","server":"4088","farm":5,"title":"Elephant","ispublic":1,"isfriend":0,"isfamily":0,"ownername":"safari-partners"},{"id":"5791594521","owner":"21692577@N02","secret":"5416aebd64","server":"5181","farm":6,"title":"elephant","ispublic":1,"isfriend":0,"isfamily":0,"ownername":"Danny VB"},{"id":"11330864553","owner":"41098896@N00","secret":"dfc560ae6a","server":"7391","farm":8,"title":"Elephants","ispublic":1,"isfriend":0,"isfamily":0,"ownername":"mcoughlin"},{"id":"9327944805","owner":"79565553@N03","secret":"d42137e05d","server":"5448","farm":6,"title":"Elephant","ispublic":1,"isfriend":0,"isfamily":0,"ownername":"Lynsnowsun"},{"id":"2936274652","owner":"49935971@N00","secret":"7d2d97a825","server":"3182","farm":4,"title":"Elephant","ispublic":1,"isfriend":0,"isfamily":0,"ownername":"1773\u2605"},{"id":"34951183596","owner":"149524176@N03","secret":"3a46fdb9c4","server":"4275","farm":5,"title":"Elephants","ispublic":1,"isfriend":0,"isfamily":0,"ownername":"RiPa-Photo.com"},{"id":"34951189596","owner":"149524176@N03","secret":"c693832944","server":"4251","farm":5,"title":"Elephants","ispublic":1,"isfriend":0,"isfamily":0,"ownername":"RiPa-Photo.com"},{"id":"4839028946","owner":"52336505@N07","secret":"8c1dd0e832","server":"4151","farm":5,"title":"Elephant","ispublic":1,"isfriend":0,"isfamily":0,"ownername":"safari-partners"},{"id":"3868199037","owner":"13016380@N07","secret":"5477897416","server":"2516","farm":3,"title":"elephant","ispublic":1,"isfriend":0,"isfamily":0,"ownername":"maggie224 -"},{"id":"3122595290","owner":"33535065@N03","secret":"212c055721","server":"3105","farm":4,"title":"Elephant","ispublic":1,"isfriend":0,"isfamily":0,"ownername":"Jeroen van Deel"},{"id":"14220202631","owner":"116797173@N07","secret":"3faf1c5634","server":"2940","farm":3,"title":"Elephant","ispublic":1,"isfriend":0,"isfamily":0,"ownername":"j_arlecchino"},{"id":"5500415078","owner":"41904174@N06","secret":"528e3b97f9","server":"5016","farm":6,"title":"Elephants","ispublic":1,"isfriend":0,"isfamily":0,"ownername":"Ellenvd"},{"id":"12144686693","owner":"47152453@N07","secret":"883d0ace0f","server":"7321","farm":8,"title":"elephant","ispublic":1,"isfriend":0,"isfamily":0,"ownername":"Tammy McGary"},{"id":"44790100285","owner":"41763012@N06","secret":"8dd861ba0e","server":"4814","farm":5,"title":"Elephant","ispublic":1,"isfriend":0,"isfamily":0,"ownername":"dsskstephen"},{"id":"2434679154","owner":"12483291@N06","secret":"2e5376d9a4","server":"3051","farm":4,"title":"\u00c9l\u00e9phant","ispublic":1,"isfriend":0,"isfamily":0,"ownername":"mr peer"}]},"stat":"ok"}