{"photos":{"page":1,"pages":31833,"perpage":15,"total":"477495","photo":[{"id":"5590252562","owner":"53388142@N08","secret":"b5b8817338","server":"5307","farm":6,"title":"Eye","ispublic":1,"isfriend":0,"isfamily":0,"ownername":"Ahlen Geamhradh"},{"id":"4648457913","owner":"36587311@N08","secret":"bc3f37b7b6","server":"4059","farm":5,"title":"eye","ispublic":1,"isfriend":0,"isfamily":0,"ownername":"\u25baCubaGallery"},{"id":"7604861998","owner":"14200358@N06","secret":"88afeb1dd7","server":"8149","farm":9,"title":"Eye","ispublic":1,"isfriend":0,"isfamily":0,"ownername":"danielletakespictures"},{"id":"7392569","owner":"95914789@N00","secret":"be5f935723","server":"7","farm":1,"title":"eye","ispublic":1,"isfriend":0,"isfamily":0,"ownername":"justasite"},{"id":"4985662581","owner":"41236732@N03","secret":"5ab06e55d6","server":"4114","farm":5,"title":"eye","ispublic":1,"isfriend":0,"isfamily":0,"ownername":"fishbum2"},{"id":"15571312296","owner":"89286863@N04","secret":"6d352b51aa","server":"5601","farm":6,"title":"eye!","ispublic":1,"isfriend":0,"isfamily":0,"ownername":"KarolinaHrishka"},{"id":"5330582764","owner":"24847324@N03","secret":"02a4d3b0ac","server":"5001","farm":6,"title":"Eye","ispublic":1,"isfriend":0,"isfamily":0,"ownername":"David Heaton"},{"id":"3192574075","owner":"36533384@N00","secret":"5d2cba88ed","server":"3403","farm":4,"title":"eye","ispublic":1,"isfriend":0,"isfamily":0,"ownername":"amazin_vix"},{"id":"15022307460","owner":"113529939@N08","secret":"45c4660b38","server":"3876","farm":4,"title":"Eye","ispublic":1,"isfriend":0,"isfamily":0,"ownername":"delic_u"},{"id":"6600916271","owner":"41503592@N06","secret":"ff9600dc69","server":"7156","farm":8,"title":"Eye","ispublic":1,"isfriend":0,"isfamily":0,"ownername":"KristenD3195"},{"id":"2512522104","owner":"26805121@N05","secret":"f9c3b55d85","server":"3249","farm":4,"title":"Eye.","ispublic":1,"isfriend":0,"isfamily":0,"ownername":"LoreUh"},{"id":"2474824431","owner":"25539555@N00","secret":"6c1c4b2c09","server":"2149","farm":3,"title":"Eye","ispublic":1,"isfriend":0,"isfamily":0,"ownername":"minblade"},{"id":"1466207243","owner":"31421433@N00","secret":"8f988be919","server":"1002","farm":2,"title":"eye!","ispublic":1,"isfriend":0,"isfamily":0,"ownername":"Rabbitine"},{"id":"5058603894","owner":"40073374@N04","secret":"16a335d3cd","server":"4108","farm":5,"title":"EYE!","ispublic":1,"isfriend":0,"isfamily":0,"ownername":"shutupxlovee"},{"id":"467317514","owner":"83301865@N00","secret":"889aca75be","server":"227","farm":1,"title":"Eye!!!","ispublic":1,"isfriend":0,"isfamily":0,"ownername":"\u0398 What??  You wanted something clever?? \u0398"}]},"stat":"ok"}