{"photos":{"page":1,"pages":52591,"perpage":15,"total":"788859","photo":[{"id":"10559616544","owner":"82066314@N06","secret":"b04d37d3b1","server":"5484","farm":6,"title":"Eye","ispublic":1,"isfriend":0,"isfamily":0,"ownername":"Iqbal Osman1"},{"id":"15763580736","owner":"41855101@N07","secret":"3b953c88a5","server":"7501","farm":8,"title":"eyes","ispublic":1,"isfriend":0,"isfamily":0,"ownername":"Everything is magic"},{"id":"6883072907","owner":"53540615@N04","secret":"e503b26672","server":"7191","farm":8,"title":"Eye","ispublic":1,"isfriend":0,"isfamily":0,"ownername":"zeldagraphic"},{"id":"5342241227","owner":"28448736@N03","secret":"b78e6b467d","server":"5285","farm":6,"title":"Eyes","ispublic":1,"isfriend":0,"isfamily":0,"ownername":"Dagmar :-)"},{"id":"1386516478","owner":"8448795@N03","secret":"2389cff316","server":"1138","farm":2,"title":"Eyes","ispublic":1,"isfriend":0,"isfamily":0,"ownername":"D\u00f6\u00f6ner"},{"id":"6595723175","owner":"73001842@N04","secret":"94c71c271c","server":"7155","farm":8,"title":"Eye","ispublic":1,"isfriend":0,"isfamily":0,"ownername":"The_Oakster"},{"id":"6672906281","owner":"62684437@N04","secret":"a593d0b067","server":"7173","farm":8,"title":"Eye","ispublic":1,"isfriend":0,"isfamily":0,"ownername":"MarieLHG"},{"id":"6303150314","owner":"17662905@N05","secret":"20ce885eb2","server":"6039","farm":7,"title":"eyes","ispublic":1,"isfriend":0,"isfamily":0,"ownername":"Icarus1566"},{"id":"9734819862","owner":"101464333@N07","secret":"4fdacae6a4","server":"5540","farm":6,"title":"Eyes","ispublic":1,"isfriend":0,"isfamily":0,"ownername":"Hisham Alqawsi"},{"id":"5881347045","owner":"34244976@N02","secret":"d327f6a059","server":"5280","farm":6,"title":"Eye","ispublic":1,"isfriend":0,"isfamily":0,"ownername":"**ALICJA**"},{"id":"5359587608","owner":"58378686@N06","secret":"d845038de3","server":"5244","farm":6,"title":"Eyes","ispublic":1,"isfriend":0,"isfamily":0,"ownername":"lindspills"},{"id":"8559136261","owner":"41095821@N00","secret":"9fe29363b0","server":"8517","farm":9,"title":"Eyes","ispublic":1,"isfriend":0,"isfamily":0,"ownername":"Jamie Mastrio Photography"},{"id":"122922978","owner":"51845556@N00","secret":"5954160be9","server":"42","farm":1,"title":"eyes","ispublic":1,"isfriend":0,"isfamily":0,"ownername":"just_a_name_thingie"},{"id":"7993237006","owner":"58320095@N04","secret":"d970893ebd","server":"8299","farm":9,"title":"eyes","ispublic":1,"isfriend":0,"isfamily":0,"ownername":"Joyce Oliveira ."},{"id":"8520439272","owner":"11343344@N06","secret":"8707c87c15","server":"8370","farm":9,"title":"Eye","ispublic":1,"isfriend":0,"isfamily":0,"ownername":"matingus"}]},"stat":"ok"}