{"photos":{"page":1,"pages":65092,"perpage":15,"total":"976368","photo":[{"id":"3768882047","owner":"27376687@N05","secret":"864d11e95a","server":"3517","farm":4,"title":"Face","ispublic":1,"isfriend":0,"isfamily":0,"ownername":"raffacama"},{"id":"7471705956","owner":"33909700@N02","secret":"f51181a068","server":"8028","farm":9,"title":"Face","ispublic":1,"isfriend":0,"isfamily":0,"ownername":"Dave Stokes"},{"id":"34961974444","owner":"65089906@N00","secret":"417c791b4c","server":"4280","farm":5,"title":"face","ispublic":1,"isfriend":0,"isfamily":0,"ownername":"PHOTOPHANATIC1"},{"id":"4926663103","owner":"27376687@N05","secret":"0e2241d0b5","server":"4135","farm":5,"title":"Face","ispublic":1,"isfriend":0,"isfamily":0,"ownername":"raffacama"},{"id":"4544308396","owner":"27376687@N05","secret":"1039a9f6dd","server":"3","farm":1,"title":"Face","ispublic":1,"isfriend":0,"isfamily":0,"ownername":"raffacama"},{"id":"9684017634","owner":"21692577@N02","secret":"3962bb7e50","server":"7328","farm":8,"title":"face","ispublic":1,"isfriend":0,"isfamily":0,"ownername":"Danny VB"},{"id":"2417860441","owner":"14926768@N05","secret":"1329f859c0","server":"3181","farm":4,"title":"Face","ispublic":1,"isfriend":0,"isfamily":0,"ownername":"momoyama"},{"id":"5582910985","owner":"30814759@N05","secret":"a48d193577","server":"5104","farm":6,"title":"Face","ispublic":1,"isfriend":0,"isfamily":0,"ownername":"watcherob"},{"id":"5241695642","owner":"27869736@N04","secret":"a1f75e577f","server":"5128","farm":6,"title":"FACE","ispublic":1,"isfriend":0,"isfamily":0,"ownername":"Muhammed Sageer"},{"id":"4156855375","owner":"14926768@N05","secret":"9438560dd7","server":"2532","farm":3,"title":"face","ispublic":1,"isfriend":0,"isfamily":0,"ownername":"momoyama"},{"id":"7471705394","owner":"33909700@N02","secret":"4837eb2fcc","server":"8159","farm":9,"title":"Face","ispublic":1,"isfriend":0,"isfamily":0,"ownername":"Dave Stokes"},{"id":"3777208713","owner":"21692577@N02","secret":"50e3caa3f0","server":"2532","farm":3,"title":"face","ispublic":1,"isfriend":0,"isfamily":0,"ownername":"Danny VB"},{"id":"3969808024","owner":"27376687@N05","secret":"ddac8069ed","server":"3451","farm":4,"title":"Face","ispublic":1,"isfriend":0,"isfamily":0,"ownername":"raffacama"},{"id":"9718384915","owner":"21692577@N02","secret":"5fb2ed0f92","server":"7365","farm":8,"title":"Face","ispublic":1,"isfriend":0,"isfamily":0,"ownername":"Danny VB"},{"id":"4153011552","owner":"45189121@N05","secret":"8f64e1402c","server":"2655","farm":3,"title":"face","ispublic":1,"isfriend":0,"isfamily":0,"ownername":"DukeHui"}]},"stat":"ok"}