{"photos":{"page":1,"pages":21998,"perpage":15,"total":"329962","photo":[{"id":"3781343156","owner":"13010352@N04","secret":"e130291ee5","server":"2437","farm":3,"title":"factory","ispublic":1,"isfriend":0,"isfamily":0,"ownername":"jimhflickr"},{"id":"3688659746","owner":"13527347@N06","secret":"81eefed973","server":"2499","farm":3,"title":"Factory","ispublic":1,"isfriend":0,"isfamily":0,"ownername":"Digit@l Exposure"},{"id":"45732974435","owner":"81945528@N07","secret":"4066e5bf65","server":"7859","farm":8,"title":"factory","ispublic":1,"isfriend":0,"isfamily":0,"ownername":"heroyama"},{"id":"8092876212","owner":"88716016@N04","secret":"b9424d50b8","server":"8193","farm":9,"title":"Factory","ispublic":1,"isfriend":0,"isfamily":0,"ownername":"yasuw"},{"id":"5100623015","owner":"25620962@N08","secret":"7b15d66a9e","server":"4111","farm":5,"title":"Factory","ispublic":1,"isfriend":0,"isfamily":0,"ownername":"cinderelly1"},{"id":"6964366522","owner":"66624940@N03","secret":"e67b199952","server":"5079","farm":6,"title":"Factory","ispublic":1,"isfriend":0,"isfamily":0,"ownername":"RFVphoto"},{"id":"44579936255","owner":"131787406@N06","secret":"3ace679fa5","server":"1936","farm":2,"title":"Factory","ispublic":1,"isfriend":0,"isfamily":0,"ownername":"KariFinland"},{"id":"2774645616","owner":"13455929@N04","secret":"341f4c71f2","server":"3244","farm":4,"title":"Factory","ispublic":1,"isfriend":0,"isfamily":0,"ownername":"andreashallgren"},{"id":"3929906220","owner":"8123490@N02","secret":"6f36ab0c4a","server":"2539","farm":3,"title":"Factory","ispublic":1,"isfriend":0,"isfamily":0,"ownername":"Mr. RAR"},{"id":"4921067844","owner":"7612710@N07","secret":"ec0c686459","server":"4100","farm":5,"title":"Gunpowder factory","ispublic":1,"isfriend":0,"isfamily":0,"ownername":"Chris.T. (Eng)"},{"id":"41689452611","owner":"91619997@N04","secret":"6c0416bc6c","server":"944","farm":1,"title":"Factory","ispublic":1,"isfriend":0,"isfamily":0,"ownername":"De Rode Olifant"},{"id":"3296250497","owner":"27653412@N06","secret":"8ea1acdb2b","server":"3558","farm":4,"title":"Factory","ispublic":1,"isfriend":0,"isfamily":0,"ownername":"auddess"},{"id":"907656507","owner":"84457027@N00","secret":"0723c848c0","server":"1106","farm":2,"title":"factory","ispublic":1,"isfriend":0,"isfamily":0,"ownername":"helenarostunova"},{"id":"8560804576","owner":"29069052@N06","secret":"4f7d31139a","server":"8528","farm":9,"title":"factory","ispublic":1,"isfriend":0,"isfamily":0,"ownername":"futoshita"},{"id":"6246248718","owner":"68649357@N07","secret":"cca214699a","server":"6216","farm":7,"title":"Factory","ispublic":1,"isfriend":0,"isfamily":0,"ownername":"Petra2079"}]},"stat":"ok"}