{"photos":{"page":1,"pages":77020,"perpage":15,"total":"1155293","photo":[{"id":"5950641618","owner":"47875208@N07","secret":"ca8f82fea9","server":"6145","farm":7,"title":"farm","ispublic":1,"isfriend":0,"isfamily":0,"ownername":"de-marco"},{"id":"5621823868","owner":"43520084@N06","secret":"18f286fbb5","server":"5061","farm":6,"title":"Farm","ispublic":1,"isfriend":0,"isfamily":0,"ownername":"Taffe1"},{"id":"6904692250","owner":"21692577@N02","secret":"7797d9fe3e","server":"7232","farm":8,"title":"farm","ispublic":1,"isfriend":0,"isfamily":0,"ownername":"Danny VB"},{"id":"5991156963","owner":"64370926@N08","secret":"938edb4ab8","server":"6003","farm":7,"title":"farm","ispublic":1,"isfriend":0,"isfamily":0,"ownername":"Lara szwk"},{"id":"39760368743","owner":"123860072@N07","secret":"6c43509a5d","server":"7800","farm":8,"title":"Farm","ispublic":1,"isfriend":0,"isfamily":0,"ownername":"multifaceted_m"},{"id":"15608216794","owner":"40829377@N08","secret":"127246ef50","server":"7526","farm":8,"title":"Farm","ispublic":1,"isfriend":0,"isfamily":0,"ownername":"T M\u00e6sel"},{"id":"21172635423","owner":"21692577@N02","secret":"353f5cf862","server":"5798","farm":6,"title":"farm","ispublic":1,"isfriend":0,"isfamily":0,"ownername":"Danny VB"},{"id":"4908210967","owner":"46578765@N08","secret":"233eba6d74","server":"4075","farm":5,"title":"Farm","ispublic":1,"isfriend":0,"isfamily":0,"ownername":"Assorter"},{"id":"14718936226","owner":"38795342@N06","secret":"48b3fc4dcb","server":"2901","farm":3,"title":"Farm.","ispublic":1,"isfriend":0,"isfamily":0,"ownername":"Rubem Jr"},{"id":"2333030472","owner":"66036063@N00","secret":"5bf17b7f4b","server":"2406","farm":3,"title":"Farm","ispublic":1,"isfriend":0,"isfamily":0,"ownername":"pontman"},{"id":"5940981069","owner":"63509478@N08","secret":"ffbf81f622","server":"6132","farm":7,"title":"Farm","ispublic":1,"isfriend":0,"isfamily":0,"ownername":"ROB HARTLEY 1"},{"id":"349391170","owner":"55346630@N00","secret":"24e7be1179","server":"130","farm":1,"title":"Farm","ispublic":1,"isfriend":0,"isfamily":0,"ownername":"flyingspores"},{"id":"543284395","owner":"8006548@N05","secret":"4f94c12b4a","server":"1099","farm":2,"title":"Farm","ispublic":1,"isfriend":0,"isfamily":0,"ownername":"yamezbond"},{"id":"2987370373","owner":"11697546@N02","secret":"6b115e9f20","server":"3231","farm":4,"title":"Farm","ispublic":1,"isfriend":0,"isfamily":0,"ownername":"Bigpixal"},{"id":"543285149","owner":"8006548@N05","secret":"80d35f5dbe","server":"1089","farm":2,"title":"Farm","ispublic":1,"isfriend":0,"isfamily":0,"ownername":"yamezbond"}]},"stat":"ok"}