{"photos":{"page":1,"pages":8177,"perpage":15,"total":"122646","photo":[{"id":"8147439869","owner":"69148745@N02","secret":"1e81b95ac1","server":"8184","farm":9,"title":"feather","ispublic":1,"isfriend":0,"isfamily":0,"ownername":"land[e]scape"},{"id":"6818427539","owner":"28298906@N03","secret":"1db8be682c","server":"7022","farm":8,"title":"Feather","ispublic":1,"isfriend":0,"isfamily":0,"ownername":"Omair Haq"},{"id":"2799159151","owner":"48152987@N00","secret":"bb748691a2","server":"3173","farm":4,"title":"feather","ispublic":1,"isfriend":0,"isfamily":0,"ownername":"freshclaws"},{"id":"366873545","owner":"85712049@N00","secret":"341be2424c","server":"123","farm":1,"title":"feather","ispublic":1,"isfriend":0,"isfamily":0,"ownername":"matthewvenn"},{"id":"3666038054","owner":"10936350@N04","secret":"2ce105b378","server":"3338","farm":4,"title":"Feather","ispublic":1,"isfriend":0,"isfamily":0,"ownername":"magnummavis"},{"id":"10857795354","owner":"67186206@N05","secret":"02141f215e","server":"7397","farm":8,"title":"Feather","ispublic":1,"isfriend":0,"isfamily":0,"ownername":"honey and milk"},{"id":"279414728","owner":"54568523@N00","secret":"0624c06a8f","server":"92","farm":1,"title":"Feather","ispublic":1,"isfriend":0,"isfamily":0,"ownername":"Instant Moments"},{"id":"2143836619","owner":"17054488@N00","secret":"29fa8227e6","server":"2226","farm":3,"title":"feather","ispublic":1,"isfriend":0,"isfamily":0,"ownername":"logu"},{"id":"14581312436","owner":"61126360@N07","secret":"797dcef278","server":"3911","farm":4,"title":"~feather~","ispublic":1,"isfriend":0,"isfamily":0,"ownername":"unexpected item in the bagging area"},{"id":"40383772800","owner":"137319556@N08","secret":"f1ec302079","server":"953","farm":1,"title":"Feather","ispublic":1,"isfriend":0,"isfamily":0,"ownername":"patrick_milan"},{"id":"6081639545","owner":"66594784@N04","secret":"5be4782b0a","server":"6208","farm":7,"title":"feather","ispublic":1,"isfriend":0,"isfamily":0,"ownername":"akashirokiiro"},{"id":"14724684711","owner":"22895884@N07","secret":"52396a8169","server":"2915","farm":3,"title":"Feather","ispublic":1,"isfriend":0,"isfamily":0,"ownername":"Al Abbasi"},{"id":"8960233150","owner":"36522716@N06","secret":"712a7131d3","server":"7331","farm":8,"title":"Feather","ispublic":1,"isfriend":0,"isfamily":0,"ownername":"fxdx"},{"id":"4923750659","owner":"53281156@N05","secret":"eb2635d93d","server":"4117","farm":5,"title":"feather","ispublic":1,"isfriend":0,"isfamily":0,"ownername":"Jo Andre Johansen"},{"id":"8395019873","owner":"33705615@N02","secret":"a1b2d99e55","server":"8360","farm":9,"title":"Feather","ispublic":1,"isfriend":0,"isfamily":0,"ownername":"Greet N."}]},"stat":"ok"}