{"photos":{"page":1,"pages":24009,"perpage":15,"total":"360129","photo":[{"id":"6740286223","owner":"74879325@N05","secret":"fd0b08d86d","server":"7010","farm":8,"title":"Feet","ispublic":1,"isfriend":0,"isfamily":0,"ownername":"Randy_Dupree"},{"id":"4913431930","owner":"51198642@N05","secret":"ee263df8cf","server":"4117","farm":5,"title":"Feet","ispublic":1,"isfriend":0,"isfamily":0,"ownername":"Estelle Blake"},{"id":"5914517475","owner":"58603750@N05","secret":"f9676f397a","server":"5159","farm":6,"title":"Feet","ispublic":1,"isfriend":0,"isfamily":0,"ownername":"Luca Vagnini"},{"id":"221252103","owner":"33459353@N00","secret":"b576cabad7","server":"80","farm":1,"title":"Feet","ispublic":1,"isfriend":0,"isfamily":0,"ownername":"j_9d9"},{"id":"2406251168","owner":"15159472@N05","secret":"da2be9408d","server":"2049","farm":3,"title":"Feet","ispublic":1,"isfriend":0,"isfamily":0,"ownername":"joseonelove"},{"id":"5738588806","owner":"49780980@N07","secret":"76e5c22156","server":"5268","farm":6,"title":"feet","ispublic":1,"isfriend":0,"isfamily":0,"ownername":"Carmen Henry"},{"id":"16346973442","owner":"130823888@N08","secret":"9397d5ac66","server":"7471","farm":8,"title":"feet","ispublic":1,"isfriend":0,"isfamily":0,"ownername":"E.Gekkonidae"},{"id":"4549363124","owner":"35774429@N03","secret":"68d5ff0c73","server":"4064","farm":5,"title":"feet","ispublic":1,"isfriend":0,"isfamily":0,"ownername":"angela_c_m"},{"id":"11727591875","owner":"87122581@N06","secret":"916ca78fee","server":"3694","farm":4,"title":"feet","ispublic":1,"isfriend":0,"isfamily":0,"ownername":"Zborowska"},{"id":"33002328441","owner":"113324177@N08","secret":"8a270e1c81","server":"3854","farm":4,"title":"Feet","ispublic":1,"isfriend":0,"isfamily":0,"ownername":"Chris Bilodeau Photography"},{"id":"2214659902","owner":"22733959@N04","secret":"f7df959905","server":"2376","farm":3,"title":"Feet!","ispublic":1,"isfriend":0,"isfamily":0,"ownername":"Stink Poop"},{"id":"16515589798","owner":"10297464@N00","secret":"4c81e08137","server":"8615","farm":9,"title":"Feet","ispublic":1,"isfriend":0,"isfamily":0,"ownername":"BeccaG"},{"id":"8511721237","owner":"50542505@N08","secret":"e55c44ff2e","server":"8524","farm":9,"title":"Feet","ispublic":1,"isfriend":0,"isfamily":0,"ownername":"@SJA Photography"},{"id":"4884537379","owner":"94927802@N00","secret":"f175765c7f","server":"4081","farm":5,"title":"Feet","ispublic":1,"isfriend":0,"isfamily":0,"ownername":"amyferg"},{"id":"14304577179","owner":"122482293@N04","secret":"b4e87a65ac","server":"2896","farm":3,"title":"feet","ispublic":1,"isfriend":0,"isfamily":0,"ownername":"soarestaynah"}]},"stat":"ok"}