{"photos":{"page":1,"pages":4308,"perpage":15,"total":"64615","photo":[{"id":"6853868686","owner":"46100774@N04","secret":"af2dbb9047","server":"6232","farm":7,"title":"fiddle","ispublic":1,"isfriend":0,"isfamily":0,"ownername":"Kirstin Mckee"},{"id":"8333641992","owner":"34573372@N04","secret":"bb8cd3f775","server":"8355","farm":9,"title":"Bow Fiddle Rock, Moray","ispublic":1,"isfriend":0,"isfamily":0,"ownername":"Kit Downey"},{"id":"8917995014","owner":"16310943@N07","secret":"4fa3867ee1","server":"2861","farm":3,"title":"Bow Fiddle Rock. Portknockie.","ispublic":1,"isfriend":0,"isfamily":0,"ownername":"PeskyMesky"},{"id":"8921492785","owner":"16310943@N07","secret":"1c36a83d59","server":"8255","farm":9,"title":"Bow Fiddle Rock. Portknockie. Aberdeenshire.","ispublic":1,"isfriend":0,"isfamily":0,"ownername":"PeskyMesky"},{"id":"3417540330","owner":"31444528@N03","secret":"b1c0482e61","server":"3628","farm":4,"title":"Bow Fiddle Rock","ispublic":1,"isfriend":0,"isfamily":0,"ownername":"freeskiing"},{"id":"8632409092","owner":"38523785@N00","secret":"2bb7aa4f22","server":"8531","farm":9,"title":"poopdeck's fiddle","ispublic":1,"isfriend":0,"isfamily":0,"ownername":"It'sGreg"},{"id":"4081309614","owner":"85827210@N00","secret":"858721ce97","server":"2804","farm":3,"title":"Bow Fiddle Rock","ispublic":1,"isfriend":0,"isfamily":0,"ownername":"Kenny Muir"},{"id":"6022977023","owner":"85827210@N00","secret":"63042864c7","server":"6200","farm":7,"title":"Bow fiddle aurora","ispublic":1,"isfriend":0,"isfamily":0,"ownername":"Kenny Muir"},{"id":"3503220180","owner":"24420613@N08","secret":"9ac946862d","server":"3378","farm":4,"title":"The Cat and the Fiddle","ispublic":1,"isfriend":0,"isfamily":0,"ownername":"faith goble"},{"id":"12879364123","owner":"31777558@N00","secret":"cefcfd59ba","server":"3796","farm":4,"title":"Bow Fiddle Reflections","ispublic":1,"isfriend":0,"isfamily":0,"ownername":"Sarah*Rose"},{"id":"10298663154","owner":"90955804@N04","secret":"1f605e9c6f","server":"5486","farm":6,"title":"Fiddle Me","ispublic":1,"isfriend":0,"isfamily":0,"ownername":"Ted's photos - For Me & You"},{"id":"2806306011","owner":"9870274@N08","secret":"8a242c235d","server":"3214","farm":4,"title":"Kathryn on the fiddle","ispublic":1,"isfriend":0,"isfamily":0,"ownername":"The Bugmaster"},{"id":"5513753604","owner":"34383366@N04","secret":"6e54b4e263","server":"5058","farm":6,"title":"Grampa's Fiddle [EXPLORED]","ispublic":1,"isfriend":0,"isfamily":0,"ownername":"Chaos2k"},{"id":"8179090697","owner":"26076634@N04","secret":"6a89934c1d","server":"8203","farm":9,"title":"Bow Fiddle Rock - Portnockie","ispublic":1,"isfriend":0,"isfamily":0,"ownername":"Michael Carver Photography"},{"id":"8412689890","owner":"34573372@N04","secret":"02dd1262d8","server":"8509","farm":9,"title":"Bow Fiddle Rock","ispublic":1,"isfriend":0,"isfamily":0,"ownername":"Kit Downey"}]},"stat":"ok"}