{"photos":{"page":1,"pages":18710,"perpage":15,"total":"280650","photo":[{"id":"15560637429","owner":"47748817@N02","secret":"69aa837354","server":"7578","farm":8,"title":"fields","ispublic":1,"isfriend":0,"isfamily":0,"ownername":"vetbonkie"},{"id":"127023579","owner":"93493441@N00","secret":"6b73800c59","server":"49","farm":1,"title":"Field","ispublic":1,"isfriend":0,"isfamily":0,"ownername":"sudeepuk"},{"id":"2047825999","owner":"7386452@N05","secret":"5c093e604d","server":"2010","farm":3,"title":"Fields","ispublic":1,"isfriend":0,"isfamily":0,"ownername":"Daniel Krepsky"},{"id":"6020838692","owner":"34299625@N03","secret":"28dcbdc7e4","server":"6018","farm":7,"title":"Fields","ispublic":1,"isfriend":0,"isfamily":0,"ownername":"Karmen Smolnikar"},{"id":"5813535582","owner":"63810539@N04","secret":"fe20d3aaac","server":"3654","farm":4,"title":"Fields","ispublic":1,"isfriend":0,"isfamily":0,"ownername":"GraemeReen (www.graemereen.com)"},{"id":"14039243944","owner":"20970859@N05","secret":"740bddc35d","server":"5054","farm":6,"title":"fields","ispublic":1,"isfriend":0,"isfamily":0,"ownername":"feldweg"},{"id":"20268353603","owner":"47748817@N02","secret":"108227dd41","server":"766","farm":1,"title":"Fields","ispublic":1,"isfriend":0,"isfamily":0,"ownername":"vetbonkie"},{"id":"338913803","owner":"16548476@N00","secret":"27737dbbf0","server":"149","farm":1,"title":"Fields","ispublic":1,"isfriend":0,"isfamily":0,"ownername":"notbadish"},{"id":"7855635430","owner":"31748439@N06","secret":"98d0a75569","server":"8430","farm":9,"title":"Fields","ispublic":1,"isfriend":0,"isfamily":0,"ownername":"Christoph Zurbuchen"},{"id":"5983586982","owner":"24115570@N08","secret":"25d44e593d","server":"6148","farm":7,"title":"Green Fields","ispublic":1,"isfriend":0,"isfamily":0,"ownername":"Dances With Light"},{"id":"4981340056","owner":"47051377@N00","secret":"6653f0edbe","server":"4132","farm":5,"title":"Fields","ispublic":1,"isfriend":0,"isfamily":0,"ownername":"ellenm1"},{"id":"40924808305","owner":"73422502@N08","secret":"7754bb2529","server":"978","farm":1,"title":"Fields","ispublic":1,"isfriend":0,"isfamily":0,"ownername":"Zeeyolq Photography"},{"id":"4995333334","owner":"55232058@N00","secret":"928d43a6e2","server":"4098","farm":5,"title":"Fields","ispublic":1,"isfriend":0,"isfamily":0,"ownername":"pahujaamit"},{"id":"5323788275","owner":"85465967@N00","secret":"0073419f70","server":"5244","farm":6,"title":"Fields","ispublic":1,"isfriend":0,"isfamily":0,"ownername":"Theophilos"},{"id":"91225559","owner":"30567804@N00","secret":"6724bdd438","server":"25","farm":1,"title":"Fields","ispublic":1,"isfriend":0,"isfamily":0,"ownername":"echiner1"}]},"stat":"ok"}