{"photos":{"page":1,"pages":45223,"perpage":15,"total":"678344","photo":[{"id":"8383742696","owner":"64346712@N04","secret":"da51c44131","server":"8506","farm":9,"title":"wax figure","ispublic":1,"isfriend":0,"isfamily":0,"ownername":"karl.wagner.photography"},{"id":"3445445281","owner":"21746156@N06","secret":"d83150a6a0","server":"3409","farm":4,"title":"Figure","ispublic":1,"isfriend":0,"isfamily":0,"ownername":"addie_rose"},{"id":"5099727428","owner":"17680132@N06","secret":"cc3c851cdf","server":"1341","farm":2,"title":"figure","ispublic":1,"isfriend":0,"isfamily":0,"ownername":"kj-s.net"},{"id":"19199886175","owner":"81276450@N00","secret":"7e40a5f170","server":"315","farm":1,"title":"Abstract Figure","ispublic":1,"isfriend":0,"isfamily":0,"ownername":"\"Jimmer\" ( http:\/\/jim-vance.pixels.com )"},{"id":"333535712","owner":"60029969@N00","secret":"df9503e08b","server":"134","farm":1,"title":"Figure","ispublic":1,"isfriend":0,"isfamily":0,"ownername":"Blu3_Sky777"},{"id":"1112426528","owner":"69078600@N00","secret":"d13f1673b9","server":"1226","farm":2,"title":"Figure","ispublic":1,"isfriend":0,"isfamily":0,"ownername":"kirainet"},{"id":"17189858910","owner":"91837729@N02","secret":"ccd7f3c963","server":"7745","farm":8,"title":"Figures","ispublic":1,"isfriend":0,"isfamily":0,"ownername":"Mystique P"},{"id":"333535717","owner":"60029969@N00","secret":"fe62d8e787","server":"164","farm":1,"title":"Figure","ispublic":1,"isfriend":0,"isfamily":0,"ownername":"Blu3_Sky777"},{"id":"14371631285","owner":"85314460@N02","secret":"78295c7812","server":"3869","farm":4,"title":"Figures","ispublic":1,"isfriend":0,"isfamily":0,"ownername":"Kari Siren"},{"id":"3222984001","owner":"23163327@N03","secret":"e0bc801447","server":"3390","farm":4,"title":"figure","ispublic":1,"isfriend":0,"isfamily":0,"ownername":"costisnet"},{"id":"165204563","owner":"49729374@N00","secret":"6045c51489","server":"63","farm":1,"title":"figure","ispublic":1,"isfriend":0,"isfamily":0,"ownername":":: arom ::"},{"id":"9186023201","owner":"76359891@N04","secret":"5290d59742","server":"7426","farm":8,"title":"Figure","ispublic":1,"isfriend":0,"isfamily":0,"ownername":"Ruben Dc Photography"},{"id":"2702771321","owner":"13240615@N08","secret":"97d05494ce","server":"3242","farm":4,"title":"Figure.","ispublic":1,"isfriend":0,"isfamily":0,"ownername":"spike_joyce"},{"id":"4843760134","owner":"52470882@N04","secret":"4f58acd0e2","server":"4113","farm":5,"title":"figure","ispublic":1,"isfriend":0,"isfamily":0,"ownername":"berkedel"},{"id":"2703590480","owner":"13240615@N08","secret":"b0d3567491","server":"3072","farm":4,"title":"Figure.","ispublic":1,"isfriend":0,"isfamily":0,"ownername":"spike_joyce"}]},"stat":"ok"}