{"photos":{"page":1,"pages":92967,"perpage":15,"total":"1394491","photo":[{"id":"14919067269","owner":"119678691@N02","secret":"d0013e0d0e","server":"5555","farm":6,"title":"Fire","ispublic":1,"isfriend":0,"isfamily":0,"ownername":"be creator"},{"id":"8104316845","owner":"23658102@N07","secret":"cb5e30e849","server":"8333","farm":9,"title":"Fire","ispublic":1,"isfriend":0,"isfamily":0,"ownername":"Mike Weekes Jr."},{"id":"8104318057","owner":"23658102@N07","secret":"4d211cb4a1","server":"8045","farm":9,"title":"Fire","ispublic":1,"isfriend":0,"isfamily":0,"ownername":"Mike Weekes Jr."},{"id":"8104332476","owner":"23658102@N07","secret":"d26414873d","server":"8047","farm":9,"title":"Fire","ispublic":1,"isfriend":0,"isfamily":0,"ownername":"Mike Weekes Jr."},{"id":"8104333702","owner":"23658102@N07","secret":"e9e8a9c703","server":"8190","farm":9,"title":"Fire","ispublic":1,"isfriend":0,"isfamily":0,"ownername":"Mike Weekes Jr."},{"id":"8104331736","owner":"23658102@N07","secret":"6386de6fd5","server":"8052","farm":9,"title":"Fire","ispublic":1,"isfriend":0,"isfamily":0,"ownername":"Mike Weekes Jr."},{"id":"33334880635","owner":"138730545@N04","secret":"64c40464f7","server":"781","farm":1,"title":"Fire","ispublic":1,"isfriend":0,"isfamily":0,"ownername":"Photography By Troy."},{"id":"4463811185","owner":"21828301@N03","secret":"bfff953767","server":"4041","farm":5,"title":"Fire!","ispublic":1,"isfriend":0,"isfamily":0,"ownername":"SrivastavaAnkit"},{"id":"8954021256","owner":"62122462@N00","secret":"18223e1640","server":"8558","farm":9,"title":"Fire!","ispublic":1,"isfriend":0,"isfamily":0,"ownername":"Eoghann Irving"},{"id":"3073034300","owner":"69891852@N00","secret":"8e68d49fdc","server":"3073","farm":4,"title":"Fire","ispublic":1,"isfriend":0,"isfamily":0,"ownername":"Abdulaziz Alkhaldi \/ @alkhaldislr"},{"id":"3549469560","owner":"32563497@N05","secret":"5365ee4fb0","server":"2430","farm":3,"title":"Fire","ispublic":1,"isfriend":0,"isfamily":0,"ownername":"Sara Duane"},{"id":"4550956161","owner":"49035201@N08","secret":"d504f97694","server":"4011","farm":5,"title":"Fire","ispublic":1,"isfriend":0,"isfamily":0,"ownername":"thurlbut"},{"id":"947754522","owner":"34427465953@N01","secret":"e18363944e","server":"1306","farm":2,"title":"Fire","ispublic":1,"isfriend":0,"isfamily":0,"ownername":"rvacapinta"},{"id":"170606050","owner":"98927723@N00","secret":"be89c42e86","server":"46","farm":1,"title":"Fire","ispublic":1,"isfriend":0,"isfamily":0,"ownername":"shantimel"},{"id":"7519611230","owner":"14151838@N00","secret":"9b9b47b695","server":"8166","farm":9,"title":"Fire","ispublic":1,"isfriend":0,"isfamily":0,"ownername":"dzedzar"}]},"stat":"ok"}