{"photos":{"page":1,"pages":73193,"perpage":15,"total":"1097889","photo":[{"id":"4804318331","owner":"50862932@N06","secret":"9a459faf51","server":"4102","farm":5,"title":"fish.","ispublic":1,"isfriend":0,"isfamily":0,"ownername":"photographBOOM"},{"id":"11950139756","owner":"85315082@N07","secret":"ac2335b913","server":"7381","farm":8,"title":"Fish","ispublic":1,"isfriend":0,"isfamily":0,"ownername":"narendra44mail"},{"id":"10404051516","owner":"54169606@N05","secret":"447815d814","server":"3738","farm":4,"title":"Fish","ispublic":1,"isfriend":0,"isfamily":0,"ownername":"Shalva1948"},{"id":"8134190679","owner":"54169606@N05","secret":"bdf2c7854f","server":"8335","farm":9,"title":"Fish","ispublic":1,"isfriend":0,"isfamily":0,"ownername":"Shalva1948"},{"id":"10404045385","owner":"54169606@N05","secret":"bdb0994ca9","server":"5545","farm":6,"title":"Fish","ispublic":1,"isfriend":0,"isfamily":0,"ownername":"Shalva1948"},{"id":"13084990385","owner":"73422502@N08","secret":"29230d1115","server":"3520","farm":4,"title":"Fish","ispublic":1,"isfriend":0,"isfamily":0,"ownername":"Zeeyolq Photography"},{"id":"10404049996","owner":"54169606@N05","secret":"541947227a","server":"5483","farm":6,"title":"Fish","ispublic":1,"isfriend":0,"isfamily":0,"ownername":"Shalva1948"},{"id":"3700049592","owner":"37155226@N06","secret":"81043eee8a","server":"2575","farm":3,"title":"Fish","ispublic":1,"isfriend":0,"isfamily":0,"ownername":"Fly Sandman"},{"id":"9680254996","owner":"54169606@N05","secret":"a972a5bcef","server":"3777","farm":4,"title":"Fish","ispublic":1,"isfriend":0,"isfamily":0,"ownername":"Shalva1948"},{"id":"15435572367","owner":"44826137@N05","secret":"501ae8d91a","server":"3953","farm":4,"title":"Fish","ispublic":1,"isfriend":0,"isfamily":0,"ownername":"Vincent-Lin"},{"id":"9405820048","owner":"53843194@N06","secret":"28a09cd10c","server":"3812","farm":4,"title":"fish","ispublic":1,"isfriend":0,"isfamily":0,"ownername":"Steven Olmstead"},{"id":"34836192791","owner":"63172536@N00","secret":"6913be6035","server":"4219","farm":5,"title":"Fish","ispublic":1,"isfriend":0,"isfamily":0,"ownername":"Wavelength415"},{"id":"11286266343","owner":"50318388@N00","secret":"849dde062e","server":"3680","farm":4,"title":"Fish","ispublic":1,"isfriend":0,"isfamily":0,"ownername":"mag3737"},{"id":"8094974730","owner":"48546728@N02","secret":"2057553647","server":"8183","farm":9,"title":"fish 1","ispublic":1,"isfriend":0,"isfamily":0,"ownername":"Phil Newell"},{"id":"3004055302","owner":"30791053@N04","secret":"fc648f2767","server":"3143","farm":4,"title":"Fish","ispublic":1,"isfriend":0,"isfamily":0,"ownername":"AbdulRahman .M"}]},"stat":"ok"}