{"photos":{"page":1,"pages":2110,"perpage":15,"total":"31650","photo":[{"id":"42676525601","owner":"61135968@N00","secret":"35a4e7135e","server":"1756","farm":2,"title":"Robberfly","ispublic":1,"isfriend":0,"isfamily":0,"ownername":"jim_mcculloch"},{"id":"26673925686","owner":"12123228@N02","secret":"78db04aa9b","server":"1511","farm":2,"title":"Fly","ispublic":1,"isfriend":0,"isfamily":0,"ownername":"MrHollick"},{"id":"33387149494","owner":"133887160@N07","secret":"969745afe0","server":"2810","farm":3,"title":"fly","ispublic":1,"isfriend":0,"isfamily":0,"ownername":"rideoncu"},{"id":"7172784102","owner":"78205806@N07","secret":"74c706b091","server":"7211","farm":8,"title":"Harry Fly","ispublic":1,"isfriend":0,"isfamily":0,"ownername":"Darts5"},{"id":"5731876512","owner":"22649910@N03","secret":"bba6aac1bc","server":"5190","farm":6,"title":"fly","ispublic":1,"isfriend":0,"isfamily":0,"ownername":"Tinkerbell54"},{"id":"40867706850","owner":"80184464@N05","secret":"e764605aeb","server":"1743","farm":2,"title":"emperor dragonfly","ispublic":1,"isfriend":0,"isfamily":0,"ownername":"colin 1957"},{"id":"282925605","owner":"10074717@N00","secret":"fe643a7bd1","server":"111","farm":1,"title":"fly","ispublic":1,"isfriend":0,"isfamily":0,"ownername":"rouben_freeman"},{"id":"25417429568","owner":"16269349@N02","secret":"6000d03293","server":"4636","farm":5,"title":"Flies","ispublic":1,"isfriend":0,"isfamily":0,"ownername":"De Partha"},{"id":"6645304295","owner":"23285301@N04","secret":"ba0d60cd51","server":"7150","farm":8,"title":"flies","ispublic":1,"isfriend":0,"isfamily":0,"ownername":"m4xim4"},{"id":"6270705722","owner":"22649910@N03","secret":"38038a3c44","server":"6113","farm":7,"title":"fly","ispublic":1,"isfriend":0,"isfamily":0,"ownername":"Tinkerbell54"},{"id":"5494536040","owner":"42643583@N07","secret":"7029c67830","server":"5054","farm":6,"title":"FLIES","ispublic":1,"isfriend":0,"isfamily":0,"ownername":"captive_18"},{"id":"38982057175","owner":"50782847@N06","secret":"564aa38183","server":"4769","farm":5,"title":"robberfly","ispublic":1,"isfriend":0,"isfamily":0,"ownername":"TLHibbitts"},{"id":"15112735633","owner":"73983829@N07","secret":"1a2c3da732","server":"7522","farm":8,"title":"Flies 0491","ispublic":1,"isfriend":0,"isfamily":0,"ownername":"Niney Azman"},{"id":"6246101237","owner":"29147787@N05","secret":"dc7b5830bc","server":"6103","farm":7,"title":"Flies","ispublic":1,"isfriend":0,"isfamily":0,"ownername":"loncarici"},{"id":"5989122731","owner":"60417477@N00","secret":"342fd3567e","server":"6029","farm":7,"title":"FLIES","ispublic":1,"isfriend":0,"isfamily":0,"ownername":"whologwhy"}]},"stat":"ok"}