{"photos":{"page":1,"pages":264178,"perpage":15,"total":"3962664","photo":[{"id":"3446613250","owner":"17419711@N00","secret":"8569b7d582","server":"3559","farm":4,"title":"flowers","ispublic":1,"isfriend":0,"isfamily":0,"ownername":"Jeny's flickr page"},{"id":"8943869261","owner":"21644167@N04","secret":"b32d628f2e","server":"5338","farm":6,"title":"Flower","ispublic":1,"isfriend":0,"isfamily":0,"ownername":"Bahman Farzad"},{"id":"8534950377","owner":"21644167@N04","secret":"465382c334","server":"8522","farm":9,"title":"Flower","ispublic":1,"isfriend":0,"isfamily":0,"ownername":"Bahman Farzad"},{"id":"16303186738","owner":"62294423@N02","secret":"96891616c4","server":"7405","farm":8,"title":"Flower","ispublic":1,"isfriend":0,"isfamily":0,"ownername":"apple371"},{"id":"3594278573","owner":"94123706@N00","secret":"500f415e39","server":"2454","farm":3,"title":"flowers","ispublic":1,"isfriend":0,"isfamily":0,"ownername":"saxyman0"},{"id":"16730267521","owner":"62118446@N03","secret":"389b6de795","server":"8609","farm":9,"title":"flowers","ispublic":1,"isfriend":0,"isfamily":0,"ownername":"cbrutel"},{"id":"5922660880","owner":"64295720@N04","secret":"c35b1948df","server":"6127","farm":7,"title":"flowers","ispublic":1,"isfriend":0,"isfamily":0,"ownername":"Kor@y"},{"id":"13493441803","owner":"21644167@N04","secret":"5b400d166e","server":"7001","farm":8,"title":"FLOWEr","ispublic":1,"isfriend":0,"isfamily":0,"ownername":"Bahman Farzad"},{"id":"7414823922","owner":"38827046@N06","secret":"88d7631e6f","server":"8145","farm":9,"title":"Flowers","ispublic":1,"isfriend":0,"isfamily":0,"ownername":"Valery_RW"},{"id":"14072034510","owner":"94673614@N04","secret":"d8671d5353","server":"5159","farm":6,"title":"Flowers","ispublic":1,"isfriend":0,"isfamily":0,"ownername":"lrlebron"},{"id":"3445798405","owner":"17419711@N00","secret":"6cb990ae76","server":"3609","farm":4,"title":"flowers","ispublic":1,"isfriend":0,"isfamily":0,"ownername":"Jeny's flickr page"},{"id":"14205288792","owner":"93155677@N00","secret":"7e6d64bc39","server":"2903","farm":3,"title":"Flowers","ispublic":1,"isfriend":0,"isfamily":0,"ownername":"Ben Daniels"},{"id":"3346391421","owner":"35749339@N05","secret":"a992365a59","server":"3565","farm":4,"title":"flowers","ispublic":1,"isfriend":0,"isfamily":0,"ownername":"Artybee"},{"id":"3445794437","owner":"17419711@N00","secret":"f548ee8e8d","server":"3409","farm":4,"title":"flowers","ispublic":1,"isfriend":0,"isfamily":0,"ownername":"Jeny's flickr page"},{"id":"9760479164","owner":"101803767@N08","secret":"be0e613a04","server":"5532","farm":6,"title":"Flower","ispublic":1,"isfriend":0,"isfamily":0,"ownername":"Netta Aragona"}]},"stat":"ok"}