{"photos":{"page":1,"pages":34039,"perpage":15,"total":"510573","photo":[{"id":"29173386377","owner":"69148745@N02","secret":"5fa85e3b00","server":"1854","farm":2,"title":"fly","ispublic":1,"isfriend":0,"isfamily":0,"ownername":"land[e]scape"},{"id":"40713219000","owner":"93754546@N02","secret":"e910380ddb","server":"901","farm":1,"title":"Fly","ispublic":1,"isfriend":0,"isfamily":0,"ownername":"ragnebl"},{"id":"42200962474","owner":"133282803@N06","secret":"57a3f64b81","server":"895","farm":1,"title":"Fly","ispublic":1,"isfriend":0,"isfamily":0,"ownername":"aivar95"},{"id":"3140703561","owner":"32594277@N04","secret":"1dbdb4324a","server":"3098","farm":4,"title":"fly","ispublic":1,"isfriend":0,"isfamily":0,"ownername":"Kenny Teo (zoompict)"},{"id":"30605050038","owner":"166352944@N04","secret":"a4af002fc9","server":"1898","farm":2,"title":"Fly","ispublic":1,"isfriend":0,"isfamily":0,"ownername":"Zolt\u00e1n Max"},{"id":"44358893435","owner":"151819483@N08","secret":"081ec30089","server":"1952","farm":2,"title":"fly","ispublic":1,"isfriend":0,"isfamily":0,"ownername":"aneeshpandian"},{"id":"4782371667","owner":"51100343@N03","secret":"cce7ec0325","server":"4079","farm":5,"title":"fly","ispublic":1,"isfriend":0,"isfamily":0,"ownername":"Karen Chiswell-Williams"},{"id":"42193051591","owner":"107545378@N03","secret":"e3f12a60d4","server":"968","farm":1,"title":"Fly","ispublic":1,"isfriend":0,"isfamily":0,"ownername":"EvelyneRenske"},{"id":"45264535114","owner":"151722026@N05","secret":"cb8a8728be","server":"4872","farm":5,"title":"Flies","ispublic":1,"isfriend":0,"isfamily":0,"ownername":"Craperture91"},{"id":"7991916866","owner":"78554167@N00","secret":"c0972520c7","server":"8181","farm":9,"title":"Fly","ispublic":1,"isfriend":0,"isfamily":0,"ownername":"MattX27"},{"id":"42400472380","owner":"106611665@N07","secret":"df25bcf0da","server":"1812","farm":2,"title":"Fly","ispublic":1,"isfriend":0,"isfamily":0,"ownername":"kristenbruleylovesphotons"},{"id":"46433943985","owner":"148986266@N06","secret":"31ff4e944f","server":"7865","farm":8,"title":"Fly","ispublic":1,"isfriend":0,"isfamily":0,"ownername":"lisabaker-richardson"},{"id":"7159775493","owner":"38299004@N08","secret":"a447179a0e","server":"7220","farm":8,"title":"Fly","ispublic":1,"isfriend":0,"isfamily":0,"ownername":"Les Butler"},{"id":"47320044492","owner":"145516340@N06","secret":"6cb2d2201b","server":"7816","farm":8,"title":"Fly","ispublic":1,"isfriend":0,"isfamily":0,"ownername":"fkhan3d"},{"id":"28592173537","owner":"36532156@N02","secret":"24a99f8cdb","server":"926","farm":1,"title":"fly","ispublic":1,"isfriend":0,"isfamily":0,"ownername":"lindapp57"}]},"stat":"ok"}