{"photos":{"page":1,"pages":12651,"perpage":15,"total":"189752","photo":[{"id":"32880187224","owner":"76830337@N07","secret":"2339f72e7c","server":"2856","farm":3,"title":"beach feet","ispublic":1,"isfriend":0,"isfamily":0,"ownername":"Charmed Public Studios"},{"id":"34285121184","owner":"155414326@N05","secret":"f9fb696558","server":"4209","farm":5,"title":"IMG_0170","ispublic":1,"isfriend":0,"isfamily":0,"ownername":"muzi27"},{"id":"34343856972","owner":"148884703@N06","secret":"c909dd5252","server":"4165","farm":5,"title":"Screenshot_20170425-174900","ispublic":1,"isfriend":0,"isfamily":0,"ownername":"Tickler_socks_feet"},{"id":"35090235386","owner":"155414326@N05","secret":"83af8b04c6","server":"4211","farm":5,"title":"IMG_0167","ispublic":1,"isfriend":0,"isfamily":0,"ownername":"muzi27"},{"id":"34428461252","owner":"154455375@N07","secret":"e0b738053a","server":"4158","farm":5,"title":"Feet man stole photos","ispublic":1,"isfriend":0,"isfamily":0,"ownername":"tobiibot"},{"id":"39743466722","owner":"147919482@N06","secret":"e75aa814e9","server":"4694","farm":5,"title":"Feety","ispublic":1,"isfriend":0,"isfamily":0,"ownername":"NailClicks"},{"id":"32969689780","owner":"144466227@N06","secret":"5dfeee4e5c","server":"772","farm":1,"title":"glass bottom","ispublic":1,"isfriend":0,"isfamily":0,"ownername":"chicago_tarot"},{"id":"35090231716","owner":"155414326@N05","secret":"1b6d9fc6ee","server":"4213","farm":5,"title":"IMG_0169","ispublic":1,"isfriend":0,"isfamily":0,"ownername":"muzi27"},{"id":"39438661345","owner":"147919482@N06","secret":"093d55aa02","server":"4672","farm":5,"title":"Lake","ispublic":1,"isfriend":0,"isfamily":0,"ownername":"NailClicks"},{"id":"34285218364","owner":"155414326@N05","secret":"f2d0cbc930","server":"4277","farm":5,"title":"IMG_0139","ispublic":1,"isfriend":0,"isfamily":0,"ownername":"muzi27"},{"id":"40965732375","owner":"147553895@N07","secret":"82d43daa63","server":"907","farm":1,"title":"IMG_6447","ispublic":1,"isfriend":0,"isfamily":0,"ownername":"brianfitzpatrick8852"},{"id":"34189383742","owner":"11264074@N08","secret":"e5efe0aee7","server":"2824","farm":3,"title":"Lines","ispublic":1,"isfriend":0,"isfamily":0,"ownername":"Mabel\u00edn Santos"},{"id":"43673473260","owner":"159205736@N06","secret":"400f6ddbaf","server":"1920","farm":2,"title":"RED 300","ispublic":1,"isfriend":0,"isfamily":0,"ownername":"boxer2valve1"},{"id":"37082717916","owner":"76690572@N02","secret":"10599305d3","server":"4416","farm":5,"title":"Blue Sneakers KEDs 1","ispublic":1,"isfriend":0,"isfamily":0,"ownername":"Kevin NX"},{"id":"32964423943","owner":"143413445@N08","secret":"173eb928b2","server":"3951","farm":4,"title":"Barefoot - Dirty feet","ispublic":1,"isfriend":0,"isfamily":0,"ownername":"UnrealGamers"}]},"stat":"ok"}