{"photos":{"page":1,"pages":17880,"perpage":15,"total":"268188","photo":[{"id":"9531972960","owner":"93686885@N02","secret":"8eb76825a2","server":"5530","farm":6,"title":"fox","ispublic":1,"isfriend":0,"isfamily":0,"ownername":"Neal J.Wilson"},{"id":"6090854592","owner":"41994854@N05","secret":"674caffcf7","server":"6190","farm":7,"title":"Fox","ispublic":1,"isfriend":0,"isfamily":0,"ownername":"wingy42 Steve Wing"},{"id":"3099303617","owner":"16360627@N03","secret":"c34be90e6b","server":"3033","farm":4,"title":"Fox","ispublic":1,"isfriend":0,"isfamily":0,"ownername":"jlipsc1948"},{"id":"13914300962","owner":"55867228@N06","secret":"b37b0844cc","server":"3728","farm":4,"title":"Fox","ispublic":1,"isfriend":0,"isfamily":0,"ownername":"djcarr007"},{"id":"8240338083","owner":"16177003@N03","secret":"bd40cfed90","server":"8066","farm":9,"title":"Fox","ispublic":1,"isfriend":0,"isfamily":0,"ownername":"charlie.syme"},{"id":"13663976394","owner":"114781512@N02","secret":"33dd6c734d","server":"7448","farm":8,"title":"Fox","ispublic":1,"isfriend":0,"isfamily":0,"ownername":"Peanut1371"},{"id":"17517988786","owner":"76079862@N06","secret":"3b061e8ef6","server":"7761","farm":8,"title":"Fox","ispublic":1,"isfriend":0,"isfamily":0,"ownername":"Diane Higdem Photography"},{"id":"13486614834","owner":"114781512@N02","secret":"eaa4fd95aa","server":"5061","farm":6,"title":"Fox","ispublic":1,"isfriend":0,"isfamily":0,"ownername":"Peanut1371"},{"id":"13908764685","owner":"114781512@N02","secret":"aaed935c83","server":"7003","farm":8,"title":"Fox","ispublic":1,"isfriend":0,"isfamily":0,"ownername":"Peanut1371"},{"id":"16114945600","owner":"51013318@N06","secret":"e142dbd037","server":"8650","farm":9,"title":"Fox","ispublic":1,"isfriend":0,"isfamily":0,"ownername":"Mandy West"},{"id":"6090854608","owner":"41994854@N05","secret":"59e7fb2cc7","server":"6076","farm":7,"title":"Fox","ispublic":1,"isfriend":0,"isfamily":0,"ownername":"wingy42 Steve Wing"},{"id":"9486830547","owner":"16186783@N02","secret":"b92e908974","server":"7444","farm":8,"title":"Fox","ispublic":1,"isfriend":0,"isfamily":0,"ownername":"Chas Moonie-Wild Photography"},{"id":"9389155029","owner":"37632150@N06","secret":"aa2d2a1baa","server":"5487","farm":6,"title":"Fox","ispublic":1,"isfriend":0,"isfamily":0,"ownername":"kimvisser77"},{"id":"6028395886","owner":"60407706@N06","secret":"792cf2ac46","server":"6201","farm":7,"title":"Fox","ispublic":1,"isfriend":0,"isfamily":0,"ownername":"DoctorFomite"},{"id":"4720880751","owner":"46456891@N03","secret":"82785dee7c","server":"1381","farm":2,"title":"Fox","ispublic":1,"isfriend":0,"isfamily":0,"ownername":"Methodical2"}]},"stat":"ok"}