{"photos":{"page":1,"pages":2608,"perpage":15,"total":"39115","photo":[{"id":"24293219281","owner":"90076467@N07","secret":"c7fac6813c","server":"1659","farm":2,"title":"... Frankenstein's Monster walks ... in Barcelona!!!","ispublic":1,"isfriend":0,"isfamily":0,"ownername":"Fede Falces (slow as snail)"},{"id":"3180110788","owner":"7977981@N06","secret":"b3f191a5ef","server":"3381","farm":4,"title":"Dr. Frankenstein [Explored]","ispublic":1,"isfriend":0,"isfamily":0,"ownername":"Rickydavid"},{"id":"2919995129","owner":"21476771@N08","secret":"98832e9709","server":"3172","farm":4,"title":"(Frankenstein) SCREAM SHOT","ispublic":1,"isfriend":0,"isfamily":0,"ownername":"It's The Internet Ghost!!!"},{"id":"4414796791","owner":"11759027@N00","secret":"034d81103e","server":"4033","farm":5,"title":"Frankenstein cake","ispublic":1,"isfriend":0,"isfamily":0,"ownername":"debbiedoescakes"},{"id":"3887355139","owner":"19599137@N00","secret":"3dac04589c","server":"2472","farm":3,"title":"Frankenstein 001","ispublic":1,"isfriend":0,"isfamily":0,"ownername":"bob canada"},{"id":"1538953234","owner":"89093669@N00","secret":"59b4799eab","server":"2147","farm":3,"title":"Frankenstein","ispublic":1,"isfriend":0,"isfamily":0,"ownername":"twm1340"},{"id":"4909274356","owner":"19599137@N00","secret":"745b79454b","server":"4139","farm":5,"title":"Frankenstein 010: Frankenstein Papercraft","ispublic":1,"isfriend":0,"isfamily":0,"ownername":"bob canada"},{"id":"444592894","owner":"73276289@N00","secret":"3acd80e42a","server":"193","farm":1,"title":"FRANKENSTEIN grave","ispublic":1,"isfriend":0,"isfamily":0,"ownername":"Jane in Catland - ON TEMP. BREAK"},{"id":"6384424903","owner":"12622904@N03","secret":"7c9dae27de","server":"6214","farm":7,"title":"Frankenstein's Lab","ispublic":1,"isfriend":0,"isfamily":0,"ownername":"Lino M"},{"id":"6205534691","owner":"19599137@N00","secret":"a096a8d41c","server":"6175","farm":7,"title":"Frankenstein 012: Frankenspock","ispublic":1,"isfriend":0,"isfamily":0,"ownername":"bob canada"},{"id":"1538943238","owner":"89093669@N00","secret":"ed0c7ec660","server":"2319","farm":3,"title":"Frankenstein","ispublic":1,"isfriend":0,"isfamily":0,"ownername":"twm1340"},{"id":"5513630131","owner":"12434061@N07","secret":"2f3a9af5ec","server":"5180","farm":6,"title":"FRANKENSTEIN","ispublic":1,"isfriend":0,"isfamily":0,"ownername":"manart303"},{"id":"214294179","owner":"25902026@N00","secret":"ade9d7a317","server":"58","farm":1,"title":"Frankenstein, MO","ispublic":1,"isfriend":0,"isfamily":0,"ownername":"Neato Coolville"},{"id":"6790006990","owner":"49956044@N07","secret":"ea954ff971","server":"7188","farm":8,"title":"frankenstein","ispublic":1,"isfriend":0,"isfamily":0,"ownername":"Man o Matic"},{"id":"5790864450","owner":"7131727@N04","secret":"81e518e438","server":"3212","farm":4,"title":"Frankenstein 1118","ispublic":1,"isfriend":0,"isfamily":0,"ownername":"IowaPolitics.com"}]},"stat":"ok"}