{"photos":{"page":1,"pages":14250,"perpage":15,"total":"213736","photo":[{"id":"11950173946","owner":"85315082@N07","secret":"cfcb3050fa","server":"2889","farm":3,"title":"Frog","ispublic":1,"isfriend":0,"isfamily":0,"ownername":"narendra44mail"},{"id":"14000800067","owner":"48275083@N00","secret":"c53260a7cd","server":"5276","farm":6,"title":"frog","ispublic":1,"isfriend":0,"isfamily":0,"ownername":"J Blough"},{"id":"3042628421","owner":"32580522@N06","secret":"227a41f1c1","server":"3247","farm":4,"title":"Frog","ispublic":1,"isfriend":0,"isfamily":0,"ownername":"damci"},{"id":"7549070606","owner":"45846738@N06","secret":"b50b64e54a","server":"7264","farm":8,"title":"Frog","ispublic":1,"isfriend":0,"isfamily":0,"ownername":"Nicholas Roche"},{"id":"21657338041","owner":"125053471@N07","secret":"676c86e5ee","server":"641","farm":1,"title":"Frog","ispublic":1,"isfriend":0,"isfamily":0,"ownername":"swbshop1"},{"id":"15906745618","owner":"21680391@N04","secret":"b6fdb65491","server":"7528","farm":8,"title":"Frog","ispublic":1,"isfriend":0,"isfamily":0,"ownername":"justinclayton99"},{"id":"5050935678","owner":"24019848@N03","secret":"54f082e2b7","server":"4130","farm":5,"title":"Frog","ispublic":1,"isfriend":0,"isfamily":0,"ownername":"Goamick"},{"id":"5706438171","owner":"48452951@N07","secret":"e52a22b13c","server":"2015","farm":3,"title":"Frog","ispublic":1,"isfriend":0,"isfamily":0,"ownername":"Dan Jonsson"},{"id":"16065406756","owner":"21680391@N04","secret":"ac82d05840","server":"8656","farm":9,"title":"Frog","ispublic":1,"isfriend":0,"isfamily":0,"ownername":"justinclayton99"},{"id":"7291323404","owner":"52627644@N06","secret":"be250e0908","server":"7072","farm":8,"title":"Frog","ispublic":1,"isfriend":0,"isfamily":0,"ownername":"Anthony M Cedrone"},{"id":"4310148378","owner":"31887311@N02","secret":"bfdd2bc860","server":"2795","farm":3,"title":"FROG","ispublic":1,"isfriend":0,"isfamily":0,"ownername":"Adam PigeonMan Rogers"},{"id":"14648651656","owner":"57646181@N00","secret":"85bdf4e6a4","server":"3883","farm":4,"title":"frog","ispublic":1,"isfriend":0,"isfamily":0,"ownername":"Twoshoes3"},{"id":"8706403035","owner":"9072354@N08","secret":"6713951459","server":"8137","farm":9,"title":"Frog","ispublic":1,"isfriend":0,"isfamily":0,"ownername":"Bokor.Istvan"},{"id":"8021277276","owner":"24256344@N00","secret":"632d4c9689","server":"8307","farm":9,"title":"frog","ispublic":1,"isfriend":0,"isfamily":0,"ownername":"zalo"},{"id":"41923868011","owner":"75715068@N02","secret":"5bc8216ef5","server":"827","farm":1,"title":"Frog","ispublic":1,"isfriend":0,"isfamily":0,"ownername":"Pam P Photos"}]},"stat":"ok"}