{"photos":{"page":1,"pages":1022,"perpage":15,"total":"15330","photo":[{"id":"3256951604","owner":"77984208@N00","secret":"af3acbc65e","server":"3523","farm":4,"title":"Fry!","ispublic":1,"isfriend":0,"isfamily":0,"ownername":"jesirose"},{"id":"5836462077","owner":"71898024@N00","secret":"25e53315e6","server":"3063","farm":4,"title":"","ispublic":1,"isfriend":0,"isfamily":0,"ownername":"Louis Edwin Fry"},{"id":"7190380821","owner":"44731160@N02","secret":"58863c1639","server":"8159","farm":9,"title":"Fry","ispublic":1,"isfriend":0,"isfamily":0,"ownername":"EssleyJane [drifting in and out for a few weeks]"},{"id":"6141606786","owner":"71898024@N00","secret":"4cf84c04a3","server":"6163","farm":7,"title":"","ispublic":1,"isfriend":0,"isfamily":0,"ownername":"Louis Edwin Fry"},{"id":"6931382713","owner":"71898024@N00","secret":"8ac9d0fba4","server":"7178","farm":8,"title":"","ispublic":1,"isfriend":0,"isfamily":0,"ownername":"Louis Edwin Fry"},{"id":"3256121423","owner":"77984208@N00","secret":"dbdf8a8762","server":"3091","farm":4,"title":"Fry!","ispublic":1,"isfriend":0,"isfamily":0,"ownername":"jesirose"},{"id":"4550578521","owner":"71898024@N00","secret":"39362019ac","server":"4052","farm":5,"title":"","ispublic":1,"isfriend":0,"isfamily":0,"ownername":"Louis Edwin Fry"},{"id":"3256122037","owner":"77984208@N00","secret":"7a59707f7a","server":"3493","farm":4,"title":"Fry!","ispublic":1,"isfriend":0,"isfamily":0,"ownername":"jesirose"},{"id":"4438342395","owner":"7718908@N04","secret":"9d3e971e11","server":"4045","farm":5,"title":"fry","ispublic":1,"isfriend":0,"isfamily":0,"ownername":"h080"},{"id":"6668762341","owner":"71898024@N00","secret":"253dc283aa","server":"7144","farm":8,"title":"","ispublic":1,"isfriend":0,"isfamily":0,"ownername":"Louis Edwin Fry"},{"id":"30291664267","owner":"57767843@N04","secret":"8e435f68d2","server":"1964","farm":2,"title":"Fry","ispublic":1,"isfriend":0,"isfamily":0,"ownername":"BurnThePlans"},{"id":"5477130598","owner":"79943369@N00","secret":"f3639007f6","server":"5172","farm":6,"title":"Fry","ispublic":1,"isfriend":0,"isfamily":0,"ownername":"mmcclair"},{"id":"4531709320","owner":"71898024@N00","secret":"916f1fae45","server":"4033","farm":5,"title":"","ispublic":1,"isfriend":0,"isfamily":0,"ownername":"Louis Edwin Fry"},{"id":"16720360696","owner":"96031484@N00","secret":"16b6fcb3ae","server":"8587","farm":9,"title":"FRY","ispublic":1,"isfriend":0,"isfamily":0,"ownername":"Brighton Rocks"},{"id":"2528331664","owner":"15464649@N00","secret":"2ed32b7d46","server":"2213","farm":3,"title":"Fry","ispublic":1,"isfriend":0,"isfamily":0,"ownername":"stephmanuel1980"}]},"stat":"ok"}