{"photos":{"page":1,"pages":19514,"perpage":15,"total":"292709","photo":[{"id":"23342542252","owner":"58130019@N08","secret":"8a1a8b70a8","server":"5819","farm":6,"title":"Giant Schnauzer (Explored)","ispublic":1,"isfriend":0,"isfamily":0,"ownername":"Giant_Schnauzer"},{"id":"22197839845","owner":"58130019@N08","secret":"38132b7769","server":"5683","farm":6,"title":"Giant Schnauzer tucked in","ispublic":1,"isfriend":0,"isfamily":0,"ownername":"Giant_Schnauzer"},{"id":"13444777074","owner":"58130019@N08","secret":"a020d665d2","server":"3718","farm":4,"title":"Giant Schnauzer (Explored)","ispublic":1,"isfriend":0,"isfamily":0,"ownername":"Giant_Schnauzer"},{"id":"5338762379","owner":"58130019@N08","secret":"22b93466be","server":"5284","farm":6,"title":"Giant Schnauzer Riesenschnauzer","ispublic":1,"isfriend":0,"isfamily":0,"ownername":"Giant_Schnauzer"},{"id":"6550201953","owner":"58130019@N08","secret":"5bb1368bdb","server":"7154","farm":8,"title":"Giant Schnauzer Riesenschnauzer","ispublic":1,"isfriend":0,"isfamily":0,"ownername":"Giant_Schnauzer"},{"id":"10052428463","owner":"58130019@N08","secret":"77974977cd","server":"7311","farm":8,"title":"Giant Schnauzer","ispublic":1,"isfriend":0,"isfamily":0,"ownername":"Giant_Schnauzer"},{"id":"15604505723","owner":"58130019@N08","secret":"2e4f3d16a5","server":"7522","farm":8,"title":"Giant Schnauzer dog (Explored)","ispublic":1,"isfriend":0,"isfamily":0,"ownername":"Giant_Schnauzer"},{"id":"11685716905","owner":"58130019@N08","secret":"8d6be37b52","server":"3762","farm":4,"title":"Giant Schnauzer","ispublic":1,"isfriend":0,"isfamily":0,"ownername":"Giant_Schnauzer"},{"id":"6448649605","owner":"58130019@N08","secret":"d2e2d43ce4","server":"7027","farm":8,"title":"Giant Schnauzer Gigante Riesenschnauzer Lili Portrait","ispublic":1,"isfriend":0,"isfamily":0,"ownername":"Giant_Schnauzer"},{"id":"9791205146","owner":"58130019@N08","secret":"0625411146","server":"7307","farm":8,"title":"Giant Schnauzer . (Explored)","ispublic":1,"isfriend":0,"isfamily":0,"ownername":"Giant_Schnauzer"},{"id":"5340129950","owner":"58130019@N08","secret":"89cd590237","server":"5287","farm":6,"title":"Giant Schnauzer Lili tugging with cow","ispublic":1,"isfriend":0,"isfamily":0,"ownername":"Giant_Schnauzer"},{"id":"6109700078","owner":"58130019@N08","secret":"dbac2f98b6","server":"6064","farm":7,"title":"Giant Schnauzer Gigante Riesenschnauzer in the snow.","ispublic":1,"isfriend":0,"isfamily":0,"ownername":"Giant_Schnauzer"},{"id":"5395600624","owner":"58130019@N08","secret":"59b4667513","server":"5053","farm":6,"title":"Giant Schnauzer Gigante Riesenschnauzer Lili in the Meadow","ispublic":1,"isfriend":0,"isfamily":0,"ownername":"Giant_Schnauzer"},{"id":"5395681878","owner":"58130019@N08","secret":"414c308464","server":"5016","farm":6,"title":"Giant Schnauzer Gigante Riesenschnauzer \u0420\u0438\u0437\u0435\u043d\u0448\u043d\u0430\u0443\u0446\u0435\u0440 Lili Coming Ashore","ispublic":1,"isfriend":0,"isfamily":0,"ownername":"Giant_Schnauzer"},{"id":"5340132000","owner":"58130019@N08","secret":"98f55aeb2d","server":"5043","farm":6,"title":"Giant Schnauzer","ispublic":1,"isfriend":0,"isfamily":0,"ownername":"Giant_Schnauzer"}]},"stat":"ok"}