{"photos":{"page":1,"pages":270316,"perpage":15,"total":"4054735","photo":[{"id":"2244658233","owner":"23574255@N08","secret":"35d782b4be","server":"2147","farm":3,"title":"girl","ispublic":1,"isfriend":0,"isfamily":0,"ownername":"ionathelle"},{"id":"17337462198","owner":"27376687@N05","secret":"96882591e8","server":"5465","farm":6,"title":"Girl","ispublic":1,"isfriend":0,"isfamily":0,"ownername":"raffacama"},{"id":"4097214931","owner":"36587311@N08","secret":"fb2a903654","server":"2572","farm":3,"title":"girl","ispublic":1,"isfriend":0,"isfamily":0,"ownername":"\u25baCubaGallery"},{"id":"14477132796","owner":"68109066@N04","secret":"9ce74ab963","server":"5485","farm":6,"title":"girl","ispublic":1,"isfriend":0,"isfamily":0,"ownername":"Andrew M Gilmore"},{"id":"4456145801","owner":"36587311@N08","secret":"fe249ff4f6","server":"4036","farm":5,"title":"girl","ispublic":1,"isfriend":0,"isfamily":0,"ownername":"\u25baCubaGallery"},{"id":"15473868066","owner":"21692577@N02","secret":"c66cc59ba1","server":"2950","farm":3,"title":"girl","ispublic":1,"isfriend":0,"isfamily":0,"ownername":"Danny VB"},{"id":"6968897689","owner":"36587311@N08","secret":"0a25a94afa","server":"7183","farm":8,"title":"girl","ispublic":1,"isfriend":0,"isfamily":0,"ownername":"\u25baCubaGallery"},{"id":"4075054990","owner":"21692577@N02","secret":"47998a170a","server":"2765","farm":3,"title":"girl","ispublic":1,"isfriend":0,"isfamily":0,"ownername":"Danny VB"},{"id":"5383855126","owner":"36587311@N08","secret":"d369e778aa","server":"5218","farm":6,"title":"girl","ispublic":1,"isfriend":0,"isfamily":0,"ownername":"\u25baCubaGallery"},{"id":"9444975994","owner":"37034324@N05","secret":"26bebbb258","server":"5533","farm":6,"title":"girl","ispublic":1,"isfriend":0,"isfamily":0,"ownername":"Smo_Q"},{"id":"23379015530","owner":"55959716@N08","secret":"5128876124","server":"5764","farm":6,"title":"girl","ispublic":1,"isfriend":0,"isfamily":0,"ownername":"Philocycler"},{"id":"4673933629","owner":"36587311@N08","secret":"af90419853","server":"4009","farm":5,"title":"girl","ispublic":1,"isfriend":0,"isfamily":0,"ownername":"\u25baCubaGallery"},{"id":"10071099075","owner":"27376687@N05","secret":"702e514314","server":"7315","farm":8,"title":"girl","ispublic":1,"isfriend":0,"isfamily":0,"ownername":"raffacama"},{"id":"15739085002","owner":"27376687@N05","secret":"e3cd21b728","server":"3945","farm":4,"title":"Girl","ispublic":1,"isfriend":0,"isfamily":0,"ownername":"raffacama"},{"id":"4179447773","owner":"27376687@N05","secret":"27e2abf913","server":"2509","farm":3,"title":"Girl","ispublic":1,"isfriend":0,"isfamily":0,"ownername":"raffacama"}]},"stat":"ok"}