{"photos":{"page":1,"pages":17610,"perpage":15,"total":"264142","photo":[{"id":"3664200471","owner":"30990153@N03","secret":"b8c1cda63d","server":"2567","farm":3,"title":"God","ispublic":1,"isfriend":0,"isfamily":0,"ownername":"petalouda62"},{"id":"11441269556","owner":"21406103@N00","secret":"6aa931bd8e","server":"5501","farm":6,"title":"#God","ispublic":1,"isfriend":0,"isfamily":0,"ownername":"La Shola y EL Gringo?"},{"id":"2548657037","owner":"27316328@N03","secret":"268d01e654","server":"3274","farm":4,"title":"God","ispublic":1,"isfriend":0,"isfamily":0,"ownername":"Rebecca Raatz"},{"id":"31808742307","owner":"150819981@N04","secret":"416d5c2e3c","server":"4853","farm":5,"title":"God","ispublic":1,"isfriend":0,"isfamily":0,"ownername":"Velmock"},{"id":"9814646265","owner":"95637005@N04","secret":"5fb1e1006d","server":"7307","farm":8,"title":"God","ispublic":1,"isfriend":0,"isfamily":0,"ownername":"cdfda7a08682eb9a8b5183b06582e10a"},{"id":"15657336351","owner":"53448046@N08","secret":"1d24783821","server":"7574","farm":8,"title":"god","ispublic":1,"isfriend":0,"isfamily":0,"ownername":"Z o o K"},{"id":"2548673329","owner":"27316328@N03","secret":"bc9dcac97e","server":"3264","farm":4,"title":"God","ispublic":1,"isfriend":0,"isfamily":0,"ownername":"Rebecca Raatz"},{"id":"4643441986","owner":"33299955@N04","secret":"020e74eaeb","server":"4072","farm":5,"title":"god","ispublic":1,"isfriend":0,"isfamily":0,"ownername":"royeroge"},{"id":"2769867551","owner":"29640534@N06","secret":"0d624d6296","server":"3053","farm":4,"title":"god","ispublic":1,"isfriend":0,"isfamily":0,"ownername":"asimplee"},{"id":"15047061914","owner":"121526464@N05","secret":"810e60444d","server":"7538","farm":8,"title":"God","ispublic":1,"isfriend":0,"isfamily":0,"ownername":"Vagrant-Pin"},{"id":"5322606447","owner":"39743231@N07","secret":"d5010e5575","server":"5206","farm":6,"title":"God","ispublic":1,"isfriend":0,"isfamily":0,"ownername":"sovadja"},{"id":"9814534125","owner":"95637005@N04","secret":"891a659db7","server":"7433","farm":8,"title":"God","ispublic":1,"isfriend":0,"isfamily":0,"ownername":"cdfda7a08682eb9a8b5183b06582e10a"},{"id":"34338209772","owner":"9241306@N07","secret":"b2b3bccb29","server":"4156","farm":5,"title":"GOD","ispublic":1,"isfriend":0,"isfamily":0,"ownername":"North East Parliament Delhi DPCC DELHI"},{"id":"3557365832","owner":"30927310@N05","secret":"3dd1aff351","server":"3652","farm":4,"title":"GOD","ispublic":1,"isfriend":0,"isfamily":0,"ownername":"jamesjacobjordan@yahoo.com"},{"id":"33347293394","owner":"35674933@N03","secret":"cfcefe5720","server":"2872","farm":3,"title":"god","ispublic":1,"isfriend":0,"isfamily":0,"ownername":"primemundo"}]},"stat":"ok"}