{"photos":{"page":1,"pages":2905,"perpage":15,"total":"43564","photo":[{"id":"16317336682","owner":"13523064@N03","secret":"c385740ed5","server":"7560","farm":8,"title":"Gods","ispublic":1,"isfriend":0,"isfamily":0,"ownername":"llee_wu"},{"id":"16316427501","owner":"13523064@N03","secret":"84ae33170a","server":"7504","farm":8,"title":"Gods","ispublic":1,"isfriend":0,"isfamily":0,"ownername":"llee_wu"},{"id":"28714112998","owner":"140378377@N07","secret":"e7e8e7bed9","server":"1753","farm":2,"title":"#gods","ispublic":1,"isfriend":0,"isfamily":0,"ownername":"Wildess"},{"id":"6151448044","owner":"50644440@N04","secret":"3cec8f4646","server":"6080","farm":7,"title":"Gods","ispublic":1,"isfriend":0,"isfamily":0,"ownername":"GODSER"},{"id":"7106343283","owner":"27968229@N02","secret":"b37097c2bf","server":"7054","farm":8,"title":"gods","ispublic":1,"isfriend":0,"isfamily":0,"ownername":"Carlotta Marchioni aka Scintilla"},{"id":"11346505356","owner":"31750975@N05","secret":"53bfe99009","server":"7307","farm":8,"title":"Valley of the Gods","ispublic":1,"isfriend":0,"isfamily":0,"ownername":"Rayphotos.com"},{"id":"14598383233","owner":"98077309@N04","secret":"2cffcf2392","server":"3918","farm":4,"title":"IMG_6453","ispublic":1,"isfriend":0,"isfamily":0,"ownername":"arnaudlost"},{"id":"7106345223","owner":"27968229@N02","secret":"e8b1cb0486","server":"7094","farm":8,"title":"gods","ispublic":1,"isfriend":0,"isfamily":0,"ownername":"Carlotta Marchioni aka Scintilla"},{"id":"7106343769","owner":"27968229@N02","secret":"9c0327862a","server":"8165","farm":9,"title":"gods","ispublic":1,"isfriend":0,"isfamily":0,"ownername":"Carlotta Marchioni aka Scintilla"},{"id":"6960272994","owner":"27968229@N02","secret":"e28485220a","server":"7267","farm":8,"title":"gods","ispublic":1,"isfriend":0,"isfamily":0,"ownername":"Carlotta Marchioni aka Scintilla"},{"id":"6960273634","owner":"27968229@N02","secret":"47d90aba26","server":"8020","farm":9,"title":"gods","ispublic":1,"isfriend":0,"isfamily":0,"ownername":"Carlotta Marchioni aka Scintilla"},{"id":"316125460","owner":"78528710@N00","secret":"b1bd237660","server":"101","farm":1,"title":"Gods","ispublic":1,"isfriend":0,"isfamily":0,"ownername":"The Otta"},{"id":"7106343159","owner":"27968229@N02","secret":"5d74953a92","server":"8011","farm":9,"title":"gods","ispublic":1,"isfriend":0,"isfamily":0,"ownername":"Carlotta Marchioni aka Scintilla"},{"id":"6960272012","owner":"27968229@N02","secret":"7d30214dd3","server":"8149","farm":9,"title":"gods","ispublic":1,"isfriend":0,"isfamily":0,"ownername":"Carlotta Marchioni aka Scintilla"},{"id":"192272549","owner":"94581578@N00","secret":"9132aee566","server":"48","farm":1,"title":"P1000225","ispublic":1,"isfriend":0,"isfamily":0,"ownername":"Steffen's Photo Attempts"}]},"stat":"ok"}