{"photos":{"page":1,"pages":44511,"perpage":15,"total":"667657","photo":[{"id":"41759227832","owner":"49133515@N06","secret":"e2f4889b44","server":"973","farm":1,"title":"Golden Plover","ispublic":1,"isfriend":0,"isfamily":0,"ownername":"Martial2010"},{"id":"15168109358","owner":"83699372@N00","secret":"5bd1be2ef2","server":"2941","farm":3,"title":"golden","ispublic":1,"isfriend":0,"isfamily":0,"ownername":"cor23"},{"id":"9854351254","owner":"12836528@N00","secret":"29c1efd87b","server":"2832","farm":3,"title":"Golden","ispublic":1,"isfriend":0,"isfamily":0,"ownername":"kevin dooley"},{"id":"27873820092","owner":"91619997@N04","secret":"206c039e72","server":"7535","farm":8,"title":"Golden","ispublic":1,"isfriend":0,"isfamily":0,"ownername":"De Rode Olifant"},{"id":"1098448578","owner":"83728830@N00","secret":"3825f19d9f","server":"1323","farm":2,"title":"Golden","ispublic":1,"isfriend":0,"isfamily":0,"ownername":"Essence of :Hope\u2665s Fine art Photography"},{"id":"7396720772","owner":"34856302@N00","secret":"92d71cfd1c","server":"8022","farm":9,"title":"golden","ispublic":1,"isfriend":0,"isfamily":0,"ownername":"T Glow"},{"id":"16743956844","owner":"69073653@N03","secret":"2ced569cf8","server":"8777","farm":9,"title":"Goldens.","ispublic":1,"isfriend":0,"isfamily":0,"ownername":"Sergey Ryumin"},{"id":"7094122971","owner":"43793670@N04","secret":"f0b1f4193a","server":"7234","farm":8,"title":"Golden","ispublic":1,"isfriend":0,"isfamily":0,"ownername":"ninasclicks"},{"id":"8975291611","owner":"82714843@N08","secret":"69225df207","server":"7284","farm":8,"title":"Golden Sunset","ispublic":1,"isfriend":0,"isfamily":0,"ownername":"akarakoc"},{"id":"12852724225","owner":"57232586@N08","secret":"3f2379d52f","server":"3826","farm":4,"title":"Golden boat","ispublic":1,"isfriend":0,"isfamily":0,"ownername":"www.utkupekli.com"},{"id":"35483247891","owner":"131159122@N05","secret":"5039cbb869","server":"4118","farm":5,"title":"Golden evening","ispublic":1,"isfriend":0,"isfamily":0,"ownername":"**Karin**"},{"id":"14386012738","owner":"39908029@N04","secret":"9fab23de56","server":"3907","farm":4,"title":"Golden","ispublic":1,"isfriend":0,"isfamily":0,"ownername":"Microcell"},{"id":"9158562670","owner":"15268848@N00","secret":"d37affe858","server":"5540","farm":6,"title":"Golden","ispublic":1,"isfriend":0,"isfamily":0,"ownername":"{amanda}"},{"id":"32186399","owner":"53367917@N00","secret":"0ac89444c2","server":"23","farm":1,"title":"golden","ispublic":1,"isfriend":0,"isfamily":0,"ownername":"macca"},{"id":"4064331984","owner":"14028823@N02","secret":"790a6647b5","server":"2801","farm":3,"title":"~Golden~","ispublic":1,"isfriend":0,"isfamily":0,"ownername":"mikenpo"}]},"stat":"ok"}