{"photos":{"page":1,"pages":171246,"perpage":15,"total":"2568680","photo":[{"id":"15574194230","owner":"34427470616@N01","secret":"6cb7e55d1a","server":"3954","farm":4,"title":"graffiti, Stockwell","ispublic":1,"isfriend":0,"isfamily":0,"ownername":"duncan"},{"id":"14114694383","owner":"34427470616@N01","secret":"5873fdbb39","server":"7307","farm":8,"title":"graffiti, Stockwell","ispublic":1,"isfriend":0,"isfamily":0,"ownername":"duncan"},{"id":"12326950454","owner":"34427470616@N01","secret":"9cd7c4f717","server":"7414","farm":8,"title":"graffiti, Stockwell","ispublic":1,"isfriend":0,"isfamily":0,"ownername":"duncan"},{"id":"8680960015","owner":"58026243@N08","secret":"41332dd7f8","server":"8397","farm":9,"title":"graffiti Nijkerk","ispublic":1,"isfriend":0,"isfamily":0,"ownername":"remcovdk"},{"id":"16090913075","owner":"34427470616@N01","secret":"35fbd44a93","server":"8599","farm":9,"title":"graffiti, Shoreditch","ispublic":1,"isfriend":0,"isfamily":0,"ownername":"duncan"},{"id":"3997830199","owner":"43422341@N02","secret":"1e5c0a1d7b","server":"2503","farm":3,"title":"Graffiti","ispublic":1,"isfriend":0,"isfamily":0,"ownername":"Alaric - www.OneBreath.co.uk"},{"id":"15405394558","owner":"34427470616@N01","secret":"49423a29db","server":"3951","farm":4,"title":"graffiti, Stockwell","ispublic":1,"isfriend":0,"isfamily":0,"ownername":"duncan"},{"id":"5228589359","owner":"16688857@N03","secret":"acf85b7123","server":"5001","farm":6,"title":"Graffiti","ispublic":1,"isfriend":0,"isfamily":0,"ownername":"vpickering"},{"id":"9625928586","owner":"34427470616@N01","secret":"f666d60447","server":"3691","farm":4,"title":"graffiti, Stockwell","ispublic":1,"isfriend":0,"isfamily":0,"ownername":"duncan"},{"id":"4383274286","owner":"85425557@N00","secret":"d1f047566b","server":"4006","farm":5,"title":"Graffiti","ispublic":1,"isfriend":0,"isfamily":0,"ownername":"Jay Carroll"},{"id":"4469547899","owner":"56553246@N00","secret":"ea9c3b832e","server":"4028","farm":5,"title":"Graffiti","ispublic":1,"isfriend":0,"isfamily":0,"ownername":"Steve Parker"},{"id":"14985424674","owner":"34427470616@N01","secret":"25f6817922","server":"3932","farm":4,"title":"graffiti, Stockwell","ispublic":1,"isfriend":0,"isfamily":0,"ownername":"duncan"},{"id":"4192654811","owner":"39518603@N07","secret":"d0313024f7","server":"4005","farm":5,"title":"Graffiti","ispublic":1,"isfriend":0,"isfamily":0,"ownername":"mjdconti"},{"id":"2393260350","owner":"11418280@N03","secret":"a06414c753","server":"3166","farm":4,"title":"Graffiti","ispublic":1,"isfriend":0,"isfamily":0,"ownername":"Stephanie Hobson"},{"id":"7699876760","owner":"84167729@N08","secret":"2698a72f3b","server":"8006","farm":9,"title":"Graffiti","ispublic":1,"isfriend":0,"isfamily":0,"ownername":"LemonJade89"}]},"stat":"ok"}