{"photos":{"page":1,"pages":4796,"perpage":15,"total":"71928","photo":[{"id":"10090172776","owner":"37838237@N08","secret":"9473284578","server":"2806","farm":3,"title":"Hungarian Grapes","ispublic":1,"isfriend":0,"isfamily":0,"ownername":"mszarek"},{"id":"5821794145","owner":"63377227@N05","secret":"7185f01723","server":"5228","farm":6,"title":"Ripe grapes","ispublic":1,"isfriend":0,"isfamily":0,"ownername":"halina.reshetova"},{"id":"8012050999","owner":"82088316@N05","secret":"dc7ed02ab7","server":"8462","farm":9,"title":"Grapes","ispublic":1,"isfriend":0,"isfamily":0,"ownername":"tribp"},{"id":"11543856295","owner":"68935249@N02","secret":"bf20eb4240","server":"7459","farm":8,"title":"Grapes","ispublic":1,"isfriend":0,"isfamily":0,"ownername":"Frank McGrath Photography Australia"},{"id":"6717793997","owner":"15253558@N04","secret":"caa317eab0","server":"7030","farm":8,"title":"Grapes","ispublic":1,"isfriend":0,"isfamily":0,"ownername":"Jupiter Rose Art"},{"id":"2391885024","owner":"8801623@N07","secret":"69d2b7464e","server":"3285","farm":4,"title":"grapes","ispublic":1,"isfriend":0,"isfamily":0,"ownername":"laughingoysterbabies popping in and out ~**"},{"id":"9701078363","owner":"101454335@N07","secret":"ab5d427164","server":"7393","farm":8,"title":"Grapes","ispublic":1,"isfriend":0,"isfamily":0,"ownername":"jjutski"},{"id":"14573597890","owner":"95489603@N07","secret":"ee6a6c56b8","server":"2913","farm":3,"title":"grapes","ispublic":1,"isfriend":0,"isfamily":0,"ownername":"piet104"},{"id":"7619024174","owner":"70209976@N04","secret":"4bcc3e0f3e","server":"8006","farm":9,"title":"Grapes","ispublic":1,"isfriend":0,"isfamily":0,"ownername":"KevinCollins00"},{"id":"1860227508","owner":"66764967@N00","secret":"2792f30d05","server":"2213","farm":3,"title":"Grapes","ispublic":1,"isfriend":0,"isfamily":0,"ownername":"bibliobess"},{"id":"4571165483","owner":"47582219@N05","secret":"b4f59cf00f","server":"4030","farm":5,"title":"Grapes","ispublic":1,"isfriend":0,"isfamily":0,"ownername":"ScarecrowPirate"},{"id":"9296948397","owner":"79034874@N08","secret":"218ab55b82","server":"2852","farm":3,"title":"Grapes","ispublic":1,"isfriend":0,"isfamily":0,"ownername":"Below The Benthic"},{"id":"5878887877","owner":"24474775@N05","secret":"e231433266","server":"6024","farm":7,"title":"Grapes","ispublic":1,"isfriend":0,"isfamily":0,"ownername":"captureyoursmile"},{"id":"50046871","owner":"22634111@N00","secret":"08266f4ca7","server":"29","farm":1,"title":"Grapes","ispublic":1,"isfriend":0,"isfamily":0,"ownername":"Lillnea"},{"id":"9622488640","owner":"53982811@N05","secret":"7a8ab062d4","server":"3727","farm":4,"title":"Grapes","ispublic":1,"isfriend":0,"isfamily":0,"ownername":"Photography by Jen Hoesen"}]},"stat":"ok"}