{"photos":{"page":1,"pages":23775,"perpage":15,"total":"356621","photo":[{"id":"8631270765","owner":"73064996@N08","secret":"466ceeaff4","server":"8395","farm":9,"title":"Overlooking the Graveyard","ispublic":1,"isfriend":0,"isfamily":0,"ownername":"Jimmy McIntyre - Editor HDR One Magazine"},{"id":"6022560118","owner":"51518769@N04","secret":"16d237d073","server":"6063","farm":7,"title":"Glasgow Graveyard","ispublic":1,"isfriend":0,"isfamily":0,"ownername":"Phitophylic"},{"id":"376358710","owner":"53579227@N00","secret":"15f055b043","server":"131","farm":1,"title":"graveyard","ispublic":1,"isfriend":0,"isfamily":0,"ownername":"Apocrypha"},{"id":"3450367712","owner":"56111350@N00","secret":"82abe5a055","server":"3386","farm":4,"title":"graveyard","ispublic":1,"isfriend":0,"isfamily":0,"ownername":"gabbys_mom21(Rachel B)"},{"id":"125095030","owner":"16392306@N00","secret":"0e3906950c","server":"42","farm":1,"title":"Graveyard","ispublic":1,"isfriend":0,"isfamily":0,"ownername":"26354"},{"id":"5349286339","owner":"58192300@N05","secret":"48f4a38d77","server":"5003","farm":6,"title":"Graveyard","ispublic":1,"isfriend":0,"isfamily":0,"ownername":"Fettpack"},{"id":"5016773369","owner":"51361928@N05","secret":"b11f581f8c","server":"4112","farm":5,"title":"Graveyard","ispublic":1,"isfriend":0,"isfamily":0,"ownername":"EyPeeet"},{"id":"15164305076","owner":"53759377@N05","secret":"350684c3f1","server":"5586","farm":6,"title":"graveyard","ispublic":1,"isfriend":0,"isfamily":0,"ownername":"ldinlove"},{"id":"4338217366","owner":"42395895@N08","secret":"8d1246d8b6","server":"4060","farm":5,"title":"Graveyard Headstones","ispublic":1,"isfriend":0,"isfamily":0,"ownername":"itsonlymeagain"},{"id":"14651555210","owner":"92493660@N05","secret":"d3327590ca","server":"3915","farm":4,"title":"At graveyard...","ispublic":1,"isfriend":0,"isfamily":0,"ownername":"Ruslan Vassiljev"},{"id":"8639958191","owner":"90198690@N00","secret":"7fd74e0693","server":"8380","farm":9,"title":"Graveyard","ispublic":1,"isfriend":0,"isfamily":0,"ownername":"Jacob-Manes"},{"id":"8639947715","owner":"90198690@N00","secret":"426d215a13","server":"8522","farm":9,"title":"Graveyard","ispublic":1,"isfriend":0,"isfamily":0,"ownername":"Jacob-Manes"},{"id":"8448078000","owner":"27222044@N05","secret":"f8aa9c6d37","server":"8516","farm":9,"title":"GRAVEYARD","ispublic":1,"isfriend":0,"isfamily":0,"ownername":"EDUSLAYER music photography"},{"id":"8641053384","owner":"90198690@N00","secret":"42261c92bf","server":"8380","farm":9,"title":"Graveyard","ispublic":1,"isfriend":0,"isfamily":0,"ownername":"Jacob-Manes"}]},"stat":"ok"}