{"photos":{"page":1,"pages":252637,"perpage":15,"total":"3789542","photo":[{"id":"5150506566","owner":"21644167@N04","secret":"e696291301","server":"1413","farm":2,"title":"GREEN","ispublic":1,"isfriend":0,"isfamily":0,"ownername":"Bahman Farzad"},{"id":"2871761928","owner":"8695333@N06","secret":"c612e2d802","server":"3025","farm":4,"title":"greens","ispublic":1,"isfriend":0,"isfamily":0,"ownername":"arnistm"},{"id":"6876117732","owner":"44912907@N05","secret":"5f3d53bd15","server":"6224","farm":7,"title":"Green","ispublic":1,"isfriend":0,"isfamily":0,"ownername":"Sunsword & Moonsabre"},{"id":"13965689472","owner":"63337363@N04","secret":"8cdea4c1ee","server":"2899","farm":3,"title":"Green","ispublic":1,"isfriend":0,"isfamily":0,"ownername":"Anwer Reyaz"},{"id":"4859591452","owner":"52684168@N03","secret":"23f3801cc5","server":"4121","farm":5,"title":"green","ispublic":1,"isfriend":0,"isfamily":0,"ownername":"anuradha.k815"},{"id":"5441286529","owner":"21692577@N02","secret":"8c98913771","server":"5299","farm":6,"title":"green","ispublic":1,"isfriend":0,"isfamily":0,"ownername":"Danny VB"},{"id":"2673380588","owner":"11276735@N05","secret":"ef7ee16409","server":"3016","farm":4,"title":"Green","ispublic":1,"isfriend":0,"isfamily":0,"ownername":"extreme\u00a9ph"},{"id":"260042126","owner":"31276374@N00","secret":"03b14f6e3d","server":"103","farm":1,"title":"green","ispublic":1,"isfriend":0,"isfamily":0,"ownername":"heavenuphere"},{"id":"4675144485","owner":"27409143@N00","secret":"b971638a1e","server":"1286","farm":2,"title":"Green","ispublic":1,"isfriend":0,"isfamily":0,"ownername":"kb_vaidya"},{"id":"264351000","owner":"72586375@N00","secret":"f409cbdac0","server":"86","farm":1,"title":"green","ispublic":1,"isfriend":0,"isfamily":0,"ownername":"Red Zena"},{"id":"4859568878","owner":"52684168@N03","secret":"424e94817c","server":"4140","farm":5,"title":"green","ispublic":1,"isfriend":0,"isfamily":0,"ownername":"anuradha.k815"},{"id":"5156009233","owner":"49503163906@N01","secret":"e45e5e6e28","server":"1244","farm":2,"title":"Green.","ispublic":1,"isfriend":0,"isfamily":0,"ownername":"mjd-s"},{"id":"8135826062","owner":"50265666@N06","secret":"b6f3a9b355","server":"8324","farm":9,"title":"greens...","ispublic":1,"isfriend":0,"isfamily":0,"ownername":"starhanger"},{"id":"14377883537","owner":"87802652@N05","secret":"3ff50e8dee","server":"5509","farm":6,"title":"Green","ispublic":1,"isfriend":0,"isfamily":0,"ownername":"NTS-hk"},{"id":"2242375736","owner":"19868360@N07","secret":"7aff7a3a86","server":"2319","farm":3,"title":"green","ispublic":1,"isfriend":0,"isfamily":0,"ownername":"shane_vicious"}]},"stat":"ok"}