{"photos":{"page":1,"pages":716,"perpage":15,"total":"10734","photo":[{"id":"17970820180","owner":"27043160@N04","secret":"451e596a35","server":"8867","farm":9,"title":"Groundhog","ispublic":1,"isfriend":0,"isfamily":0,"ownername":"SuperGLS"},{"id":"9669504190","owner":"63026124@N05","secret":"440b727b14","server":"7286","farm":8,"title":"Groundhog","ispublic":1,"isfriend":0,"isfamily":0,"ownername":"WabbyTwaxx"},{"id":"8160908953","owner":"8311418@N08","secret":"5273eec777","server":"8199","farm":9,"title":"Groundhog","ispublic":1,"isfriend":0,"isfamily":0,"ownername":"elise_fleming"},{"id":"3535391818","owner":"33323125@N00","secret":"620339c61b","server":"2003","farm":3,"title":"Groundhog","ispublic":1,"isfriend":0,"isfamily":0,"ownername":"rocurti"},{"id":"13971967935","owner":"41274083@N05","secret":"40a3090758","server":"5201","farm":6,"title":"Groundhog","ispublic":1,"isfriend":0,"isfamily":0,"ownername":"John Gregoire"},{"id":"5509237094","owner":"54736680@N02","secret":"985c50faec","server":"5136","farm":6,"title":"Groundhog","ispublic":1,"isfriend":0,"isfamily":0,"ownername":"Lisa Karloo"},{"id":"1258879289","owner":"50511498@N00","secret":"b843858aa9","server":"1171","farm":2,"title":"Groundhog","ispublic":1,"isfriend":0,"isfamily":0,"ownername":"Purr!!!"},{"id":"3509438762","owner":"24500129@N04","secret":"32956efe58","server":"3354","farm":4,"title":"Groundhog","ispublic":1,"isfriend":0,"isfamily":0,"ownername":"Giny.T"},{"id":"8142737636","owner":"14233971@N04","secret":"a6b8a7e1e5","server":"8195","farm":9,"title":"Groundhog","ispublic":1,"isfriend":0,"isfamily":0,"ownername":"maractwin"},{"id":"3821842352","owner":"32343662@N08","secret":"f9af0f7015","server":"2450","farm":3,"title":"groundhog","ispublic":1,"isfriend":0,"isfamily":0,"ownername":"dicegirlsnapz"},{"id":"18831581385","owner":"120566525@N06","secret":"4c9b2b4456","server":"5563","farm":6,"title":"Groundhog","ispublic":1,"isfriend":0,"isfamily":0,"ownername":"lintonscott99"},{"id":"5486507506","owner":"41822602@N07","secret":"64105f6865","server":"5059","farm":6,"title":"Groundhog","ispublic":1,"isfriend":0,"isfamily":0,"ownername":"Jelly Brain"},{"id":"4817036222","owner":"14771153@N04","secret":"f39bed093a","server":"4140","farm":5,"title":"Groundhog","ispublic":1,"isfriend":0,"isfamily":0,"ownername":"slgckgc"},{"id":"2737383882","owner":"9761457@N05","secret":"bd33beebe8","server":"3274","farm":4,"title":"Groundhog","ispublic":1,"isfriend":0,"isfamily":0,"ownername":"sweetgoddess71"},{"id":"26397007240","owner":"28493015@N05","secret":"85419df112","server":"1626","farm":2,"title":"Groundhog","ispublic":1,"isfriend":0,"isfamily":0,"ownername":"Daniel Taieb"}]},"stat":"ok"}