{"photos":{"page":1,"pages":13185,"perpage":15,"total":"197770","photo":[{"id":"5266099751","owner":"44447091@N08","secret":"12a3733dcd","server":"5203","farm":6,"title":"gun","ispublic":1,"isfriend":0,"isfamily":0,"ownername":"Willamette Week"},{"id":"5035113868","owner":"42699716@N00","secret":"e55441b23a","server":"4145","farm":5,"title":"Guns","ispublic":1,"isfriend":0,"isfamily":0,"ownername":"mpblase"},{"id":"46563577414","owner":"168208625@N07","secret":"cec630393c","server":"7817","farm":8,"title":"gun","ispublic":1,"isfriend":0,"isfamily":0,"ownername":"PJ Photo Studio"},{"id":"6670162623","owner":"69853032@N04","secret":"1156faeb4b","server":"7020","farm":8,"title":"gun 017","ispublic":1,"isfriend":0,"isfamily":0,"ownername":"pillars87"},{"id":"3129512515","owner":"33271627@N04","secret":"40619e7fbe","server":"3234","farm":4,"title":"gun","ispublic":1,"isfriend":0,"isfamily":0,"ownername":"VMK_narutoshadowclone"},{"id":"6188071705","owner":"51999025@N07","secret":"b5cb0a51af","server":"6176","farm":7,"title":"Dart gun","ispublic":1,"isfriend":0,"isfamily":0,"ownername":"Mr.Bleau: -0.6 mentor-"},{"id":"8588332902","owner":"33769660@N02","secret":"68a3814f87","server":"8250","farm":9,"title":"3 Gun","ispublic":1,"isfriend":0,"isfamily":0,"ownername":"S.Dobbins"},{"id":"5250149837","owner":"56904661@N04","secret":"9fe1ce4788","server":"5006","farm":6,"title":"gun 047","ispublic":1,"isfriend":0,"isfamily":0,"ownername":"colt1945ace"},{"id":"9718053754","owner":"65409703@N05","secret":"71a8703f71","server":"5460","farm":6,"title":"GUN 4","ispublic":1,"isfriend":0,"isfamily":0,"ownername":"ToniGor"},{"id":"8588306298","owner":"33769660@N02","secret":"59b0bd2513","server":"8519","farm":9,"title":"3 Gun","ispublic":1,"isfriend":0,"isfamily":0,"ownername":"S.Dobbins"},{"id":"8587233671","owner":"33769660@N02","secret":"5c1b7669a2","server":"8234","farm":9,"title":"3 Gun","ispublic":1,"isfriend":0,"isfamily":0,"ownername":"S.Dobbins"},{"id":"8686149353","owner":"78797881@N07","secret":"337381a3fe","server":"8541","farm":9,"title":"Airsoft gun: M4A1","ispublic":1,"isfriend":0,"isfamily":0,"ownername":"joshyboy2525"},{"id":"3925172460","owner":"36140808@N02","secret":"ef14ce79d5","server":"3513","farm":4,"title":"gun 031","ispublic":1,"isfriend":0,"isfamily":0,"ownername":"cec_212006"},{"id":"3685903989","owner":"85063250@N00","secret":"142fac02f8","server":"3641","farm":4,"title":"Machine gun","ispublic":1,"isfriend":0,"isfamily":0,"ownername":"Kawa0310"},{"id":"3274349183","owner":"22924454@N03","secret":"0840d07e30","server":"3332","farm":4,"title":"guns-46","ispublic":1,"isfriend":0,"isfamily":0,"ownername":"regreen007"}]},"stat":"ok"}