{"photos":{"page":1,"pages":8264,"perpage":15,"total":"123957","photo":[{"id":"3751363525","owner":"40614376@N03","secret":"365512fd3d","server":"2569","farm":3,"title":"guns","ispublic":1,"isfriend":0,"isfamily":0,"ownername":"jdeejay"},{"id":"5471537113","owner":"59889587@N02","secret":"bea33c6861","server":"5140","farm":6,"title":"gun","ispublic":1,"isfriend":0,"isfamily":0,"ownername":"GunControlDebate"},{"id":"5638767100","owner":"37574396@N08","secret":"c9a26c28c9","server":"5308","farm":6,"title":"Guns","ispublic":1,"isfriend":0,"isfamily":0,"ownername":"AngelusRach"},{"id":"101121888","owner":"25908690@N00","secret":"92102aa53a","server":"42","farm":1,"title":"guns","ispublic":1,"isfriend":0,"isfamily":0,"ownername":"_boris"},{"id":"5437715294","owner":"59397787@N05","secret":"4ec23a12f8","server":"5299","farm":6,"title":"Guns 001","ispublic":1,"isfriend":0,"isfamily":0,"ownername":"briand1782"},{"id":"6889546829","owner":"9106107@N05","secret":"e5654218a0","server":"7180","farm":8,"title":"Guns 004","ispublic":1,"isfriend":0,"isfamily":0,"ownername":"SorensenPower"},{"id":"16518782686","owner":"72977897@N07","secret":"995c0b319e","server":"7408","farm":8,"title":"guns 001","ispublic":1,"isfriend":0,"isfamily":0,"ownername":"Newjoebondo"},{"id":"15570674146","owner":"21935925@N05","secret":"3d9ae063a4","server":"3941","farm":4,"title":"guns 012","ispublic":1,"isfriend":0,"isfamily":0,"ownername":"alallen1946@sbcglobal.net"},{"id":"15344362399","owner":"126430312@N08","secret":"d465613a41","server":"5615","farm":6,"title":"Ruger Guns","ispublic":1,"isfriend":0,"isfamily":0,"ownername":"swfirearmsinc"},{"id":"16267684977","owner":"71476265@N07","secret":"7034d653c3","server":"7292","farm":8,"title":"Paintball Guns for sale","ispublic":1,"isfriend":0,"isfamily":0,"ownername":"jamis Bicycles Factory Store"},{"id":"3489495655","owner":"37679972@N05","secret":"1b77db82f6","server":"3355","farm":4,"title":"pink-gun","ispublic":1,"isfriend":0,"isfamily":0,"ownername":"dark-kristal"},{"id":"15408258698","owner":"21935925@N05","secret":"240de76344","server":"3951","farm":4,"title":"guns 015","ispublic":1,"isfriend":0,"isfamily":0,"ownername":"alallen1946@sbcglobal.net"},{"id":"15531835052","owner":"126430312@N08","secret":"f5a4832a54","server":"5605","farm":6,"title":"Ruger Guns","ispublic":1,"isfriend":0,"isfamily":0,"ownername":"swfirearmsinc"},{"id":"4438612614","owner":"47933419@N08","secret":"f3b7cb9556","server":"2750","farm":3,"title":"guns 217","ispublic":1,"isfriend":0,"isfamily":0,"ownername":"motherof9famof11"},{"id":"16543083871","owner":"72977897@N07","secret":"7dba808fa7","server":"7383","farm":8,"title":"guns 012","ispublic":1,"isfriend":0,"isfamily":0,"ownername":"Newjoebondo"}]},"stat":"ok"}