{"photos":{"page":1,"pages":28807,"perpage":15,"total":"432097","photo":[{"id":"14495857820","owner":"53597646@N02","secret":"a4f5c59dc0","server":"3897","farm":4,"title":"Hand","ispublic":1,"isfriend":0,"isfamily":0,"ownername":"hupe-kollektiv"},{"id":"15197616651","owner":"30493186@N03","secret":"722d398bb0","server":"5578","farm":6,"title":"Hand","ispublic":1,"isfriend":0,"isfamily":0,"ownername":"d o l f i"},{"id":"6152314057","owner":"36521965462@N01","secret":"213d50cce6","server":"6205","farm":7,"title":"hand","ispublic":1,"isfriend":0,"isfamily":0,"ownername":"dasar"},{"id":"2958987532","owner":"7613674@N07","secret":"63c4bb388f","server":"3046","farm":4,"title":"hand","ispublic":1,"isfriend":0,"isfamily":0,"ownername":"aurel_ichim"},{"id":"6152313197","owner":"36521965462@N01","secret":"ec7dc09f7f","server":"6201","farm":7,"title":"hand","ispublic":1,"isfriend":0,"isfamily":0,"ownername":"dasar"},{"id":"15293352000","owner":"127799490@N08","secret":"0c56f1eb39","server":"3939","farm":4,"title":"hand","ispublic":1,"isfriend":0,"isfamily":0,"ownername":"rafaelamartins263"},{"id":"7439226652","owner":"63757183@N08","secret":"a1f217d6ab","server":"5457","farm":6,"title":"Hand","ispublic":1,"isfriend":0,"isfamily":0,"ownername":"PhotoRecall"},{"id":"3579129774","owner":"37418500@N02","secret":"0cefa3af22","server":"2460","farm":3,"title":"hand","ispublic":1,"isfriend":0,"isfamily":0,"ownername":"steffierlo"},{"id":"15705925368","owner":"68053835@N05","secret":"008e58a048","server":"7552","farm":8,"title":"hand","ispublic":1,"isfriend":0,"isfamily":0,"ownername":"Kamil Cicho\u0144"},{"id":"3470505840","owner":"41786947@N00","secret":"b076402ffd","server":"3527","farm":4,"title":"Hand","ispublic":1,"isfriend":0,"isfamily":0,"ownername":"Steven Pam"},{"id":"4189984415","owner":"43884815@N07","secret":"957198c7d9","server":"4001","farm":5,"title":"hand","ispublic":1,"isfriend":0,"isfamily":0,"ownername":"herzsoweitvongl\u00fcck"},{"id":"2471658538","owner":"23456942@N05","secret":"0fa46d1078","server":"2298","farm":3,"title":"hand","ispublic":1,"isfriend":0,"isfamily":0,"ownername":"FotoKong"},{"id":"448245375","owner":"11867110@N00","secret":"9582959bea","server":"168","farm":1,"title":"Hand","ispublic":1,"isfriend":0,"isfamily":0,"ownername":"Ng\u1ecdc H\u00e0"},{"id":"15158494878","owner":"56091199@N03","secret":"407cf46bf8","server":"3856","farm":4,"title":"hand","ispublic":1,"isfriend":0,"isfamily":0,"ownername":"Stiller Beobachter"},{"id":"3725185611","owner":"32699686@N07","secret":"650e5b6525","server":"3524","farm":4,"title":"hand","ispublic":1,"isfriend":0,"isfamily":0,"ownername":"Isaiah Greene"}]},"stat":"ok"}