{"photos":{"page":1,"pages":1786,"perpage":15,"total":"26790","photo":[{"id":"24480081661","owner":"55262352@N03","secret":"53274c2882","server":"1708","farm":2,"title":"Handle","ispublic":1,"isfriend":0,"isfamily":0,"ownername":"D()MENICK"},{"id":"25659844220","owner":"57949897@N00","secret":"6af512d28b","server":"1684","farm":2,"title":"Handle","ispublic":1,"isfriend":0,"isfamily":0,"ownername":"Jerzy Durczak"},{"id":"38771561540","owner":"132859944@N06","secret":"b5ac6ac907","server":"4629","farm":5,"title":"The Green Handle","ispublic":1,"isfriend":0,"isfamily":0,"ownername":"that_damn_duck"},{"id":"8456115135","owner":"91248320@N04","secret":"f5d0128402","server":"8387","farm":9,"title":"Handle","ispublic":1,"isfriend":0,"isfamily":0,"ownername":"Jekurantodistaja"},{"id":"16227337196","owner":"128348854@N08","secret":"37b879ed56","server":"8605","farm":9,"title":"handles","ispublic":1,"isfriend":0,"isfamily":0,"ownername":"Rodrigo Alceu Baliza"},{"id":"4891970846","owner":"36671408@N05","secret":"c5722ca4d8","server":"4081","farm":5,"title":"Handle","ispublic":1,"isfriend":0,"isfamily":0,"ownername":"Old One Eye"},{"id":"8955062219","owner":"22909854@N04","secret":"75da5a9cd4","server":"3769","farm":4,"title":"handle","ispublic":1,"isfriend":0,"isfamily":0,"ownername":"delikizinyeri"},{"id":"5595730289","owner":"61549448@N08","secret":"d391884147","server":"5106","farm":6,"title":"Handle","ispublic":1,"isfriend":0,"isfamily":0,"ownername":"Lisa Gambino Photography"},{"id":"4003877530","owner":"36425125@N08","secret":"b8cb5af7ba","server":"2672","farm":3,"title":"Handle","ispublic":1,"isfriend":0,"isfamily":0,"ownername":"deckmann1"},{"id":"2547406327","owner":"65749227@N00","secret":"166e52f7b3","server":"3265","farm":4,"title":"Handles","ispublic":1,"isfriend":0,"isfamily":0,"ownername":"robynejay"},{"id":"6238229396","owner":"41454560@N04","secret":"193a03effa","server":"6116","farm":7,"title":"Handle","ispublic":1,"isfriend":0,"isfamily":0,"ownername":"ilovememphis"},{"id":"5460528221","owner":"57949897@N00","secret":"ee8c0d26f4","server":"5014","farm":6,"title":"Exit","ispublic":1,"isfriend":0,"isfamily":0,"ownername":"Jerzy Durczak"},{"id":"6162738387","owner":"44100440@N04","secret":"88a0e792ff","server":"6162","farm":7,"title":"Handle","ispublic":1,"isfriend":0,"isfamily":0,"ownername":"Antoine Auriol"},{"id":"130437677","owner":"82455007@N00","secret":"1803156ecf","server":"51","farm":1,"title":"handle","ispublic":1,"isfriend":0,"isfamily":0,"ownername":"Skapande"},{"id":"297317302","owner":"92356741@N00","secret":"a3c7ff7df8","server":"111","farm":1,"title":"handle","ispublic":1,"isfriend":0,"isfamily":0,"ownername":"Just Kutz"}]},"stat":"ok"}