{"photos":{"page":1,"pages":78626,"perpage":15,"total":"1179388","photo":[{"id":"4008033338","owner":"36587311@N08","secret":"ece5bc51f9","server":"2562","farm":3,"title":"happy","ispublic":1,"isfriend":0,"isfamily":0,"ownername":"\u25baCubaGallery"},{"id":"14300836830","owner":"36587311@N08","secret":"e20d4b282c","server":"5527","farm":6,"title":"happy","ispublic":1,"isfriend":0,"isfamily":0,"ownername":"\u25baCubaGallery"},{"id":"5778305365","owner":"21692577@N02","secret":"3f8f08896e","server":"3637","farm":4,"title":"happy","ispublic":1,"isfriend":0,"isfamily":0,"ownername":"Danny VB"},{"id":"15662776084","owner":"73422502@N08","secret":"68cbd9654d","server":"7535","farm":8,"title":"Happy","ispublic":1,"isfriend":0,"isfamily":0,"ownername":"Zeeyolq Photography"},{"id":"37231200830","owner":"73422502@N08","secret":"5d64282957","server":"4474","farm":5,"title":"Happy","ispublic":1,"isfriend":0,"isfamily":0,"ownername":"Zeeyolq Photography"},{"id":"15358658012","owner":"21692577@N02","secret":"deaf35de2b","server":"3841","farm":4,"title":"happy","ispublic":1,"isfriend":0,"isfamily":0,"ownername":"Danny VB"},{"id":"9145717454","owner":"27376687@N05","secret":"c72def6b0c","server":"3697","farm":4,"title":"happy","ispublic":1,"isfriend":0,"isfamily":0,"ownername":"raffacama"},{"id":"4206163204","owner":"21692577@N02","secret":"189c815cfe","server":"4031","farm":5,"title":"happy","ispublic":1,"isfriend":0,"isfamily":0,"ownername":"Danny VB"},{"id":"15852215462","owner":"129651348@N08","secret":"09bcffb6e4","server":"7539","farm":8,"title":"#happy","ispublic":1,"isfriend":0,"isfamily":0,"ownername":"m.tamer2255"},{"id":"37088946375","owner":"73422502@N08","secret":"37dd9c4b01","server":"4429","farm":5,"title":"Happy","ispublic":1,"isfriend":0,"isfamily":0,"ownername":"Zeeyolq Photography"},{"id":"6899082988","owner":"10681652@N06","secret":"93c2e8325c","server":"5335","farm":6,"title":"happy","ispublic":1,"isfriend":0,"isfamily":0,"ownername":"miserablespice"},{"id":"32044637786","owner":"73422502@N08","secret":"bfc6bb4f21","server":"322","farm":1,"title":"Happy","ispublic":1,"isfriend":0,"isfamily":0,"ownername":"Zeeyolq Photography"},{"id":"6238926986","owner":"21692577@N02","secret":"714e66087b","server":"6096","farm":7,"title":"Happy","ispublic":1,"isfriend":0,"isfamily":0,"ownername":"Danny VB"},{"id":"10268583805","owner":"21692577@N02","secret":"f69c7262b8","server":"7445","farm":8,"title":"Happy","ispublic":1,"isfriend":0,"isfamily":0,"ownername":"Danny VB"},{"id":"6531538693","owner":"21692577@N02","secret":"7631e63805","server":"7015","farm":8,"title":"Happy","ispublic":1,"isfriend":0,"isfamily":0,"ownername":"Danny VB"}]},"stat":"ok"}