{"photos":{"page":1,"pages":19535,"perpage":15,"total":"293023","photo":[{"id":"4970442200","owner":"41439239@N03","secret":"d2400977a7","server":"4108","farm":5,"title":"46 \/ 365","ispublic":1,"isfriend":0,"isfamily":0,"ownername":"Rachel Elsa"},{"id":"6540604495","owner":"61688168@N08","secret":"5c13a89368","server":"7166","farm":8,"title":"Hard Rock","ispublic":1,"isfriend":0,"isfamily":0,"ownername":"liquidends"},{"id":"18619614919","owner":"12229048@N08","secret":"6003615763","server":"493","farm":1,"title":"Boats in the Harbor","ispublic":1,"isfriend":0,"isfamily":0,"ownername":"woobear"},{"id":"2676561745","owner":"24107987@N05","secret":"6dfe20f47e","server":"3245","farm":4,"title":"HARD","ispublic":1,"isfriend":0,"isfamily":0,"ownername":"abulaga"},{"id":"2775541888","owner":"29658095@N07","secret":"94d53677dd","server":"3260","farm":4,"title":"hard","ispublic":1,"isfriend":0,"isfamily":0,"ownername":"andrew2pack"},{"id":"13189660523","owner":"64864648@N06","secret":"3fbc0734a6","server":"3742","farm":4,"title":"hard","ispublic":1,"isfriend":0,"isfamily":0,"ownername":"wallsdontlie"},{"id":"5362628641","owner":"43206212@N02","secret":"b5aea38d50","server":"5130","farm":6,"title":"Hard Alley Hellbourne","ispublic":1,"isfriend":0,"isfamily":0,"ownername":"Hard Rust, the Sleaze King"},{"id":"4833807814","owner":"72747427@N00","secret":"4e30cf249f","server":"4106","farm":5,"title":"the hard interchange","ispublic":1,"isfriend":0,"isfamily":0,"ownername":"galuppi"},{"id":"4568441768","owner":"43320827@N07","secret":"0b2970b2b2","server":"4066","farm":5,"title":"hard","ispublic":1,"isfriend":0,"isfamily":0,"ownername":"StageJournal"},{"id":"3250754026","owner":"32313553@N03","secret":"c377e9b071","server":"3313","farm":4,"title":"hard","ispublic":1,"isfriend":0,"isfamily":0,"ownername":"oneonethree"},{"id":"11785041536","owner":"64864648@N06","secret":"568ca55b34","server":"5492","farm":6,"title":"hard","ispublic":1,"isfriend":0,"isfamily":0,"ownername":"wallsdontlie"},{"id":"3829832287","owner":"31516696@N06","secret":"a8d2852079","server":"3577","farm":4,"title":"Stupid Bokeh xP","ispublic":1,"isfriend":0,"isfamily":0,"ownername":"*a7mdo.\u03c1rsN \u2665 \u0627\u0648\u0648\u0648\u0643\u064a :P brb-.-"},{"id":"14151860101","owner":"118856295@N07","secret":"e85406ebde","server":"7303","farm":8,"title":"Mark 2, Air Defense Hardsuits","ispublic":1,"isfriend":0,"isfamily":0,"ownername":"SpartanBricks"},{"id":"15944315438","owner":"50564229@N02","secret":"19131132f4","server":"7509","farm":8,"title":"Hard winter in Switzerland","ispublic":1,"isfriend":0,"isfamily":0,"ownername":"Ioan BACIVAROV Photography+3.500.000visitsTHANKS"},{"id":"3881383700","owner":"36889873@N00","secret":"ca7fb52b86","server":"3526","farm":4,"title":"Work Hard","ispublic":1,"isfriend":0,"isfamily":0,"ownername":"Soundless Image"}]},"stat":"ok"}