{"photos":{"page":1,"pages":33614,"perpage":15,"total":"504207","photo":[{"id":"3963327366","owner":"22384185@N08","secret":"5e91d16522","server":"2534","farm":3,"title":"Hat","ispublic":1,"isfriend":0,"isfamily":0,"ownername":"Sami Taipale"},{"id":"8663716925","owner":"91262622@N02","secret":"a9c35481bd","server":"8240","farm":9,"title":"Hat","ispublic":1,"isfriend":0,"isfamily":0,"ownername":"jseliger2"},{"id":"6656280329","owner":"50147823@N04","secret":"6c34991c22","server":"7142","farm":8,"title":"hat","ispublic":1,"isfriend":0,"isfamily":0,"ownername":"MarCarMom"},{"id":"15426768738","owner":"23813062@N08","secret":"d0fb11c9d2","server":"5604","farm":6,"title":"hat","ispublic":1,"isfriend":0,"isfamily":0,"ownername":"mgstanton"},{"id":"3033159581","owner":"9105766@N07","secret":"8c753823e3","server":"3029","farm":4,"title":"Hat!","ispublic":1,"isfriend":0,"isfamily":0,"ownername":"PhotograBee"},{"id":"3104459839","owner":"33097208@N08","secret":"fcb2749cbb","server":"3092","farm":4,"title":"hat","ispublic":1,"isfriend":0,"isfamily":0,"ownername":"CarolK4"},{"id":"4998547699","owner":"14606829@N03","secret":"6c5c222629","server":"4149","farm":5,"title":"Hat","ispublic":1,"isfriend":0,"isfamily":0,"ownername":"P-tricia"},{"id":"4049542570","owner":"33188495@N02","secret":"72c6287cd8","server":"2457","farm":3,"title":"hat","ispublic":1,"isfriend":0,"isfamily":0,"ownername":"pnkspider"},{"id":"8003820969","owner":"82045490@N07","secret":"1330c77fb1","server":"8454","farm":9,"title":"Hat","ispublic":1,"isfriend":0,"isfamily":0,"ownername":"IvyMay7"},{"id":"6008514547","owner":"65963682@N04","secret":"18746f88bc","server":"6021","farm":7,"title":"hat","ispublic":1,"isfriend":0,"isfamily":0,"ownername":"magical balance"},{"id":"2314991000","owner":"22862164@N04","secret":"f36fbe6071","server":"2257","farm":3,"title":"Hat","ispublic":1,"isfriend":0,"isfamily":0,"ownername":"Sergio1970"},{"id":"5216200160","owner":"9829875@N07","secret":"ca42accc58","server":"4090","farm":5,"title":"new hat","ispublic":1,"isfriend":0,"isfamily":0,"ownername":"lucky billie 84"},{"id":"3035946822","owner":"16705049@N00","secret":"b6549987c9","server":"3156","farm":4,"title":"hat","ispublic":1,"isfriend":0,"isfamily":0,"ownername":"gurley"},{"id":"2249634380","owner":"21660652@N07","secret":"d1f2e54cc0","server":"2387","farm":3,"title":"hat","ispublic":1,"isfriend":0,"isfamily":0,"ownername":"Hammotime"},{"id":"5266088419","owner":"49081285@N02","secret":"d38a38e781","server":"5287","farm":6,"title":"hat","ispublic":1,"isfriend":0,"isfamily":0,"ownername":"lakeplacidknitter"}]},"stat":"ok"}