{"photos":{"page":1,"pages":682,"perpage":15,"total":"10216","photo":[{"id":"5128484880","owner":"74807285@N00","secret":"9bd8e25699","server":"1068","farm":2,"title":"Haystack","ispublic":1,"isfriend":0,"isfamily":0,"ownername":"(reizen)"},{"id":"8202537246","owner":"35240543@N02","secret":"220338db65","server":"8206","farm":9,"title":"Haystack","ispublic":1,"isfriend":0,"isfamily":0,"ownername":"Irene Becker"},{"id":"8195080821","owner":"48141388@N07","secret":"fc218d0607","server":"8489","farm":9,"title":"Haystacks","ispublic":1,"isfriend":0,"isfamily":0,"ownername":"D & E Grey Wolf Photography"},{"id":"9047845199","owner":"19170026@N04","secret":"9d066dd086","server":"3773","farm":4,"title":"Haystack","ispublic":1,"isfriend":0,"isfamily":0,"ownername":"Rufus Spiller"},{"id":"6319020151","owner":"35240543@N02","secret":"f73fce16c0","server":"6240","farm":7,"title":"Haystacks","ispublic":1,"isfriend":0,"isfamily":0,"ownername":"Irene Becker"},{"id":"16312771870","owner":"120862522@N04","secret":"9e2dc3ecdb","server":"8643","farm":9,"title":"haystacks","ispublic":1,"isfriend":0,"isfamily":0,"ownername":"Sergiu St. O."},{"id":"34936079476","owner":"24822263@N08","secret":"931bde4639","server":"4220","farm":5,"title":"Haystacks","ispublic":1,"isfriend":0,"isfamily":0,"ownername":"artyom.smirnov"},{"id":"42854797151","owner":"15129755@N08","secret":"08702c6fae","server":"884","farm":1,"title":"Haystack","ispublic":1,"isfriend":0,"isfamily":0,"ownername":"< - > ! < - >"},{"id":"2702179216","owner":"23175846@N05","secret":"64520bae22","server":"3060","farm":4,"title":"haystacks","ispublic":1,"isfriend":0,"isfamily":0,"ownername":"Donna56455"},{"id":"4921395618","owner":"52126800@N00","secret":"bed811fa19","server":"4082","farm":5,"title":"Haystacks","ispublic":1,"isfriend":0,"isfamily":0,"ownername":"Olivier Landreau aka lepopov"},{"id":"3427183700","owner":"37130193@N04","secret":"db7e551f02","server":"3376","farm":4,"title":"Haystack","ispublic":1,"isfriend":0,"isfamily":0,"ownername":"Bhutan-360"},{"id":"3434018244","owner":"34068123@N07","secret":"2a38f3e423","server":"3321","farm":4,"title":"Haystack","ispublic":1,"isfriend":0,"isfamily":0,"ownername":"Dave Arnold Photo"},{"id":"5639305205","owner":"34467853@N04","secret":"20a1c4845f","server":"5223","farm":6,"title":"Haystack","ispublic":1,"isfriend":0,"isfamily":0,"ownername":"EvenCool"},{"id":"3088877128","owner":"30128121@N05","secret":"0c33769722","server":"3223","farm":4,"title":"haystack","ispublic":1,"isfriend":0,"isfamily":0,"ownername":"mandmheads"},{"id":"6789880813","owner":"41597157@N00","secret":"eee5ea61ba","server":"7153","farm":8,"title":"haystack","ispublic":1,"isfriend":0,"isfamily":0,"ownername":"E>mar"}]},"stat":"ok"}