{"photos":{"page":1,"pages":2867,"perpage":15,"total":"43002","photo":[{"id":"40208695961","owner":"44301199@N03","secret":"a1d2b5b344","server":"4746","farm":5,"title":"heads","ispublic":1,"isfriend":0,"isfamily":0,"ownername":"modcasey"},{"id":"2990391079","owner":"8436683@N03","secret":"62505ef0d1","server":"3179","farm":4,"title":"Mop's disembodied head","ispublic":1,"isfriend":0,"isfamily":0,"ownername":"M. Rex"},{"id":"39499200615","owner":"16137863@N00","secret":"de5b6bdf14","server":"4747","farm":5,"title":"Talking Heads","ispublic":1,"isfriend":0,"isfamily":0,"ownername":"orbed"},{"id":"3509053976","owner":"9128458@N03","secret":"7ebb6019ce","server":"3385","farm":4,"title":"heads","ispublic":1,"isfriend":0,"isfamily":0,"ownername":"Megan Bellamy"},{"id":"40906580994","owner":"95472394@N05","secret":"988578669e","server":"789","farm":1,"title":"Heads","ispublic":1,"isfriend":0,"isfamily":0,"ownername":"CosmoClick"},{"id":"3346570785","owner":"28174828@N05","secret":"bdae7ed575","server":"3424","farm":4,"title":"Heads","ispublic":1,"isfriend":0,"isfamily":0,"ownername":"camcole13"},{"id":"5461866847","owner":"63681308@N00","secret":"f8c497a6ff","server":"5053","farm":6,"title":"Heads","ispublic":1,"isfriend":0,"isfamily":0,"ownername":"WillyG"},{"id":"344347123","owner":"17571877@N00","secret":"1398b40609","server":"128","farm":1,"title":"spotted head","ispublic":1,"isfriend":0,"isfamily":0,"ownername":"James Cosgrove"},{"id":"10802823585","owner":"48937942@N03","secret":"74388dc22d","server":"3810","farm":4,"title":"Good Bunch of Heads","ispublic":1,"isfriend":0,"isfamily":0,"ownername":"Plastik99"},{"id":"6033952782","owner":"49301380@N05","secret":"ae74392ab3","server":"6183","farm":7,"title":"Head","ispublic":1,"isfriend":0,"isfamily":0,"ownername":"BumbyFoto"},{"id":"2329875724","owner":"24692050@N08","secret":"250cf5b4c8","server":"2224","farm":3,"title":"Heads 01 CH 009","ispublic":1,"isfriend":0,"isfamily":0,"ownername":"jazzmouth"},{"id":"45956711425","owner":"46685575@N06","secret":"de982bc610","server":"7830","farm":8,"title":"Heads ewe win.","ispublic":1,"isfriend":0,"isfamily":0,"ownername":"artanglerPD"},{"id":"6963871701","owner":"13135831@N02","secret":"d90233c6f8","server":"7065","farm":8,"title":"Violet","ispublic":1,"isfriend":0,"isfamily":0,"ownername":"ClueVille"},{"id":"37068191900","owner":"87819219@N02","secret":"f25e093c47","server":"4426","farm":5,"title":"Heads","ispublic":1,"isfriend":0,"isfamily":0,"ownername":"Gerry Marchand"},{"id":"11675574063","owner":"113109468@N08","secret":"d6c85cc416","server":"7426","farm":8,"title":"la fabrique des femmes","ispublic":1,"isfriend":0,"isfamily":0,"ownername":"THE KULA NET"}]},"stat":"ok"}