{"photos":{"page":1,"pages":24369,"perpage":15,"total":"365525","photo":[{"id":"3786699363","owner":"27545739@N07","secret":"4d83264998","server":"2528","farm":3,"title":"head laceration","ispublic":1,"isfriend":0,"isfamily":0,"ownername":"kebele"},{"id":"34154735013","owner":"33909700@N02","secret":"bcce3c7ed9","server":"4228","farm":5,"title":"Head","ispublic":1,"isfriend":0,"isfamily":0,"ownername":"Dave Stokes"},{"id":"37633687496","owner":"65089906@N00","secret":"871d8ce135","server":"4458","farm":5,"title":"head","ispublic":1,"isfriend":0,"isfamily":0,"ownername":"PHOTOPHANATIC1"},{"id":"2843542105","owner":"30377708@N04","secret":"a48f46b5e2","server":"3115","farm":4,"title":"head","ispublic":1,"isfriend":0,"isfamily":0,"ownername":"bmachon"},{"id":"42318090930","owner":"148527705@N03","secret":"52b15d42ae","server":"1850","farm":2,"title":"HEAD","ispublic":1,"isfriend":0,"isfamily":0,"ownername":"Loris G."},{"id":"4085556206","owner":"79168449@N00","secret":"efb8f1266b","server":"2618","farm":3,"title":"head","ispublic":1,"isfriend":0,"isfamily":0,"ownername":"johnxlewis"},{"id":"4647137717","owner":"50623680@N06","secret":"03daf9e1ea","server":"3334","farm":4,"title":"head","ispublic":1,"isfriend":0,"isfamily":0,"ownername":"bluesss2010"},{"id":"4446880492","owner":"44601164@N03","secret":"6b0a5fafaf","server":"4026","farm":5,"title":"Heads.","ispublic":1,"isfriend":0,"isfamily":0,"ownername":"milee frances"},{"id":"4257736927","owner":"43722677@N03","secret":"8928ec9795","server":"2756","farm":3,"title":"head-image","ispublic":1,"isfriend":0,"isfamily":0,"ownername":"charlie444433322"},{"id":"35433001055","owner":"126568250@N02","secret":"2167a2a616","server":"4274","farm":5,"title":"Heads up","ispublic":1,"isfriend":0,"isfamily":0,"ownername":"leewoods106"},{"id":"309957939","owner":"79256186@N00","secret":"1e6a4df77a","server":"103","farm":1,"title":"Head Bang","ispublic":1,"isfriend":0,"isfamily":0,"ownername":"karissa_lynne"},{"id":"15502697046","owner":"100315645@N02","secret":"7d66392ec2","server":"3949","farm":4,"title":"my head KKeRRinDolls","ispublic":1,"isfriend":0,"isfamily":0,"ownername":"KKeRRinDolls"},{"id":"90950290","owner":"88211650@N00","secret":"0105ee9eee","server":"27","farm":1,"title":"head","ispublic":1,"isfriend":0,"isfamily":0,"ownername":"horse.bh"},{"id":"3029397169","owner":"75988428@N00","secret":"9eb257f592","server":"3150","farm":4,"title":"Heads","ispublic":1,"isfriend":0,"isfamily":0,"ownername":"fedesartorio"},{"id":"2476355638","owner":"53509003@N00","secret":"2012b24b80","server":"2341","farm":3,"title":"Towel Head","ispublic":1,"isfriend":0,"isfamily":0,"ownername":"melg44"}]},"stat":"ok"}