{"photos":{"page":1,"pages":2237,"perpage":15,"total":"33541","photo":[{"id":"15231656888","owner":"88123769@N02","secret":"cdaa9a159a","server":"3929","farm":4,"title":"Headlight..","ispublic":1,"isfriend":0,"isfamily":0,"ownername":"Bernard Spragg"},{"id":"3937144395","owner":"48600073768@N01","secret":"53596e6cf9","server":"3468","farm":4,"title":"Headlight special","ispublic":1,"isfriend":0,"isfamily":0,"ownername":"twatson"},{"id":"22367245543","owner":"67822622@N07","secret":"b463216a39","server":"5726","farm":6,"title":"Headlights","ispublic":1,"isfriend":0,"isfamily":0,"ownername":"omgitsjen412"},{"id":"6590736635","owner":"47340201@N03","secret":"da3cf423ea","server":"7158","farm":8,"title":"Headlights","ispublic":1,"isfriend":0,"isfamily":0,"ownername":"Michael Sheets"},{"id":"7640368508","owner":"83466611@N08","secret":"0a4b307d11","server":"8026","farm":9,"title":"Headlight Restoration","ispublic":1,"isfriend":0,"isfamily":0,"ownername":"Elite Detailing"},{"id":"7640368810","owner":"83466611@N08","secret":"3ea35ac563","server":"8005","farm":9,"title":"Headlight Restoration","ispublic":1,"isfriend":0,"isfamily":0,"ownername":"Elite Detailing"},{"id":"7640362008","owner":"83466611@N08","secret":"7bd24035ee","server":"8017","farm":9,"title":"Headlight Restoration","ispublic":1,"isfriend":0,"isfamily":0,"ownername":"Elite Detailing"},{"id":"7640369288","owner":"83466611@N08","secret":"c4068ffd70","server":"7268","farm":8,"title":"Headlight Restoration","ispublic":1,"isfriend":0,"isfamily":0,"ownername":"Elite Detailing"},{"id":"29431034","owner":"93335356@N00","secret":"8f0315778e","server":"21","farm":1,"title":"Headlights","ispublic":1,"isfriend":0,"isfamily":0,"ownername":"beecue"},{"id":"7640370428","owner":"83466611@N08","secret":"874fc9fee8","server":"7257","farm":8,"title":"Headlight Restoration","ispublic":1,"isfriend":0,"isfamily":0,"ownername":"Elite Detailing"},{"id":"7640370590","owner":"83466611@N08","secret":"a6cf20af71","server":"8025","farm":9,"title":"Headlight Restoration","ispublic":1,"isfriend":0,"isfamily":0,"ownername":"Elite Detailing"},{"id":"7640368108","owner":"83466611@N08","secret":"189b05b09f","server":"8167","farm":9,"title":"Headlight Restoration","ispublic":1,"isfriend":0,"isfamily":0,"ownername":"Elite Detailing"},{"id":"7284763520","owner":"98194978@N00","secret":"84e89e4869","server":"7213","farm":8,"title":"Week 21: Dog on the Grill","ispublic":1,"isfriend":0,"isfamily":0,"ownername":"dishevld"},{"id":"4961830296","owner":"44378228@N07","secret":"5e5eae07a7","server":"4106","farm":5,"title":"Headlights","ispublic":1,"isfriend":0,"isfamily":0,"ownername":"Andrew Eisnor"},{"id":"7640370920","owner":"83466611@N08","secret":"e9d929e57d","server":"8026","farm":9,"title":"Headlight Restoration","ispublic":1,"isfriend":0,"isfamily":0,"ownername":"Elite Detailing"}]},"stat":"ok"}