{"photos":{"page":1,"pages":24394,"perpage":15,"total":"365903","photo":[{"id":"4397711604","owner":"47409110@N07","secret":"2afe581dcc","server":"4068","farm":5,"title":"heart","ispublic":1,"isfriend":0,"isfamily":0,"ownername":"karen H. nickname.{ pooh}"},{"id":"2397413908","owner":"11436884@N03","secret":"e811f92f54","server":"2226","farm":3,"title":"heart","ispublic":1,"isfriend":0,"isfamily":0,"ownername":"Magda Reis"},{"id":"5409579672","owner":"68802967@N00","secret":"c45554d6b3","server":"4148","farm":5,"title":"hearts","ispublic":1,"isfriend":0,"isfamily":0,"ownername":"roneycordeiro"},{"id":"4968000623","owner":"48156052@N05","secret":"24663331e8","server":"4092","farm":5,"title":"Heart","ispublic":1,"isfriend":0,"isfamily":0,"ownername":"Pandalia_YUE"},{"id":"32563274744","owner":"30493186@N03","secret":"e314d0db42","server":"3832","farm":4,"title":"Heart","ispublic":1,"isfriend":0,"isfamily":0,"ownername":"d o l f i"},{"id":"17171379518","owner":"77278497@N00","secret":"d8c72fe829","server":"7766","farm":8,"title":"Heart","ispublic":1,"isfriend":0,"isfamily":0,"ownername":"iM@n"},{"id":"4567385665","owner":"49770494@N07","secret":"7fb90edd57","server":"3298","farm":4,"title":"heart","ispublic":1,"isfriend":0,"isfamily":0,"ownername":"villagiolife"},{"id":"3485392399","owner":"23991575@N03","secret":"a660dc6c86","server":"3389","farm":4,"title":"heart","ispublic":1,"isfriend":0,"isfamily":0,"ownername":"my lala"},{"id":"40024937883","owner":"53326314@N04","secret":"9f2c71c7f6","server":"4861","farm":5,"title":"Heart","ispublic":1,"isfriend":0,"isfamily":0,"ownername":"Karen McQuilkin"},{"id":"5431761562","owner":"59339706@N04","secret":"d7f2e2ddfa","server":"5176","farm":6,"title":"heart","ispublic":1,"isfriend":0,"isfamily":0,"ownername":"mywonderland1"},{"id":"2734988341","owner":"23259675@N07","secret":"7fa1fa365b","server":"3078","farm":4,"title":"HEART","ispublic":1,"isfriend":0,"isfamily":0,"ownername":"!  SWEET DREAMS :-)"},{"id":"3820595587","owner":"33124348@N05","secret":"987f06e0f5","server":"3526","farm":4,"title":"heart","ispublic":1,"isfriend":0,"isfamily":0,"ownername":"alan guido"},{"id":"32505595820","owner":"127176018@N02","secret":"d61c3f673c","server":"3728","farm":4,"title":"Heart","ispublic":1,"isfriend":0,"isfamily":0,"ownername":"justinalouise"},{"id":"2884402292","owner":"28893264@N04","secret":"41364fd85c","server":"3282","farm":4,"title":"heart","ispublic":1,"isfriend":0,"isfamily":0,"ownername":"ahmed_kadima"},{"id":"5445074836","owner":"21916932@N06","secret":"847769c637","server":"5135","farm":6,"title":":: Heart ::","ispublic":1,"isfriend":0,"isfamily":0,"ownername":"Sabbrica"}]},"stat":"ok"}