{"photos":{"page":1,"pages":8788,"perpage":15,"total":"131813","photo":[{"id":"15035445102","owner":"28164415@N06","secret":"d421db7841","server":"3876","farm":4,"title":"heaven","ispublic":1,"isfriend":0,"isfamily":0,"ownername":"\u00d0enise"},{"id":"6393860229","owner":"32649829@N06","secret":"d44ac8bde0","server":"6058","farm":7,"title":"Heaven","ispublic":1,"isfriend":0,"isfamily":0,"ownername":"hl4rbc"},{"id":"6348968860","owner":"44912907@N05","secret":"e3de6f60c9","server":"6239","farm":7,"title":"Heaven","ispublic":1,"isfriend":0,"isfamily":0,"ownername":"Sunsword & Moonsabre"},{"id":"8642828808","owner":"36714029@N05","secret":"336df83453","server":"8111","farm":9,"title":"Heaven","ispublic":1,"isfriend":0,"isfamily":0,"ownername":"acphoto conde"},{"id":"5700583397","owner":"25461271@N07","secret":"f0f80e4e51","server":"5027","farm":6,"title":"Heaven...","ispublic":1,"isfriend":0,"isfamily":0,"ownername":"Corrie Heijstek"},{"id":"14728959279","owner":"56561063@N07","secret":"96deb66ca8","server":"3877","farm":4,"title":"Heaven","ispublic":1,"isfriend":0,"isfamily":0,"ownername":"Freddy Olsson"},{"id":"10624478964","owner":"62550295@N08","secret":"282c488e7e","server":"5495","farm":6,"title":"Heaven","ispublic":1,"isfriend":0,"isfamily":0,"ownername":"~ Alba Corvus ~"},{"id":"6855930540","owner":"78259034@N08","secret":"ee64e14e47","server":"7221","farm":8,"title":"heaven","ispublic":1,"isfriend":0,"isfamily":0,"ownername":"pointlessxnostalgic"},{"id":"15482692846","owner":"94489119@N05","secret":"1773665f66","server":"2946","farm":3,"title":"heaven","ispublic":1,"isfriend":0,"isfamily":0,"ownername":"yle92"},{"id":"45217313505","owner":"151891954@N05","secret":"07d40153d0","server":"4842","farm":5,"title":"heaven","ispublic":1,"isfriend":0,"isfamily":0,"ownername":"vanderwoud1"},{"id":"40238282560","owner":"147039682@N04","secret":"37daf3f333","server":"961","farm":1,"title":"Heaven","ispublic":1,"isfriend":0,"isfamily":0,"ownername":"dearestmyrtle"},{"id":"4290784933","owner":"46740754@N07","secret":"312dfbb2ed","server":"4045","farm":5,"title":"Heaven","ispublic":1,"isfriend":0,"isfamily":0,"ownername":"SimonRahn"},{"id":"14233970358","owner":"125299023@N04","secret":"9bf46d2395","server":"3904","farm":4,"title":"\"Heaven\"","ispublic":1,"isfriend":0,"isfamily":0,"ownername":"edoguerra1"},{"id":"2654877626","owner":"38687875@N00","secret":"c0fb973c1b","server":"3275","farm":4,"title":"Heaven","ispublic":1,"isfriend":0,"isfamily":0,"ownername":"Dustin Diaz"},{"id":"248925621","owner":"67743346@N00","secret":"96a998223c","server":"98","farm":1,"title":"HEAVEN","ispublic":1,"isfriend":0,"isfamily":0,"ownername":"Telstar2000"}]},"stat":"ok"}