{"photos":{"page":1,"pages":14864,"perpage":15,"total":"222957","photo":[{"id":"12916139953","owner":"46484010@N08","secret":"e8c1aee88c","server":"3717","farm":4,"title":"Heels","ispublic":1,"isfriend":0,"isfamily":0,"ownername":"Boots Hunter"},{"id":"14211341234","owner":"88680997@N03","secret":"6ef1e81097","server":"2913","farm":3,"title":"heels","ispublic":1,"isfriend":0,"isfamily":0,"ownername":"Vesa Reijonen"},{"id":"16166550293","owner":"46484010@N08","secret":"0890e12dbe","server":"8702","farm":9,"title":"Heels","ispublic":1,"isfriend":0,"isfamily":0,"ownername":"Boots Hunter"},{"id":"15640485689","owner":"83407408@N06","secret":"40e75a55c1","server":"7534","farm":8,"title":"heels","ispublic":1,"isfriend":0,"isfamily":0,"ownername":"near death experience"},{"id":"15318561028","owner":"46484010@N08","secret":"fc0e09f62b","server":"3954","farm":4,"title":"Heels","ispublic":1,"isfriend":0,"isfamily":0,"ownername":"Boots Hunter"},{"id":"11898181864","owner":"46484010@N08","secret":"353ab13aac","server":"2835","farm":3,"title":"Heels","ispublic":1,"isfriend":0,"isfamily":0,"ownername":"Boots Hunter"},{"id":"8187247187","owner":"23062294@N03","secret":"51a521b0d0","server":"8208","farm":9,"title":"Heels","ispublic":1,"isfriend":0,"isfamily":0,"ownername":"medu74"},{"id":"2302599182","owner":"8757826@N03","secret":"170a0c9d36","server":"2098","farm":3,"title":"heels","ispublic":1,"isfriend":0,"isfamily":0,"ownername":"nlfrtd95"},{"id":"16102614472","owner":"16601722@N08","secret":"a114e75210","server":"7505","farm":8,"title":"Heels","ispublic":1,"isfriend":0,"isfamily":0,"ownername":"daya_devi"},{"id":"7502096298","owner":"72709846@N04","secret":"c76910ff26","server":"7126","farm":8,"title":"Heel","ispublic":1,"isfriend":0,"isfamily":0,"ownername":"something far away"},{"id":"11937755883","owner":"46484010@N08","secret":"4c44c230bb","server":"7438","farm":8,"title":"Heels","ispublic":1,"isfriend":0,"isfamily":0,"ownername":"Boots Hunter"},{"id":"11897821365","owner":"46484010@N08","secret":"a5dc6062f7","server":"7430","farm":8,"title":"Heels","ispublic":1,"isfriend":0,"isfamily":0,"ownername":"Boots Hunter"},{"id":"12916465524","owner":"46484010@N08","secret":"a6bd722216","server":"2852","farm":3,"title":"Heels","ispublic":1,"isfriend":0,"isfamily":0,"ownername":"Boots Hunter"},{"id":"11897791365","owner":"46484010@N08","secret":"44ea44edd6","server":"5542","farm":6,"title":"Heels","ispublic":1,"isfriend":0,"isfamily":0,"ownername":"Boots Hunter"},{"id":"3022313417","owner":"32164793@N07","secret":"49110f9518","server":"3176","farm":4,"title":"heels","ispublic":1,"isfriend":0,"isfamily":0,"ownername":"j'adoreFASHION"}]},"stat":"ok"}