{"photos":{"page":1,"pages":4917,"perpage":15,"total":"73751","photo":[{"id":"3236430231","owner":"21399246@N07","secret":"7630331aaf","server":"3408","farm":4,"title":"Hell","ispublic":1,"isfriend":0,"isfamily":0,"ownername":"f3nd1"},{"id":"14091247998","owner":"10141102@N08","secret":"2a2bae064a","server":"2906","farm":3,"title":"\" HELL \"","ispublic":1,"isfriend":0,"isfamily":0,"ownername":"Wiffsmiff23"},{"id":"5643132674","owner":"22244021@N03","secret":"30e5e1b10a","server":"5070","farm":6,"title":"hell","ispublic":1,"isfriend":0,"isfamily":0,"ownername":"besiaman"},{"id":"3327824257","owner":"35820790@N07","secret":"4922f6e866","server":"3313","farm":4,"title":"hell","ispublic":1,"isfriend":0,"isfamily":0,"ownername":"Burcu Atalay Tankut"},{"id":"3613427221","owner":"34233637@N08","secret":"50dc956f78","server":"3620","farm":4,"title":"Hell","ispublic":1,"isfriend":0,"isfamily":0,"ownername":"KomodorO \/\/ Paco LopeH"},{"id":"1452527949","owner":"95894426@N00","secret":"a590218608","server":"1381","farm":2,"title":"Hell","ispublic":1,"isfriend":0,"isfamily":0,"ownername":"EugeniaF"},{"id":"2548769813","owner":"8629981@N07","secret":"e4c196fd3c","server":"3083","farm":4,"title":"Hell","ispublic":1,"isfriend":0,"isfamily":0,"ownername":"katieraz"},{"id":"2747101746","owner":"27893822@N08","secret":"47b6374976","server":"3233","farm":4,"title":"Hell","ispublic":1,"isfriend":0,"isfamily":0,"ownername":"..:: ADD::.."},{"id":"7476421384","owner":"61341577@N00","secret":"eb492b142c","server":"8024","farm":9,"title":"Train HELL","ispublic":1,"isfriend":0,"isfamily":0,"ownername":"Chasing Paint"},{"id":"10298207014","owner":"93882982@N05","secret":"fb1ddd8f3d","server":"5511","farm":6,"title":"hell","ispublic":1,"isfriend":0,"isfamily":0,"ownername":"tomaskabela"},{"id":"35762773910","owner":"32273289@N05","secret":"df5299907d","server":"4312","farm":5,"title":"Du ziehst mich an","ispublic":1,"isfriend":0,"isfamily":0,"ownername":"Hildegard Spickenbaum"},{"id":"6253267581","owner":"67273502@N04","secret":"a6aa0dd7d1","server":"6101","farm":7,"title":"hell","ispublic":1,"isfriend":0,"isfamily":0,"ownername":"ChrisFonte2011"},{"id":"8233447730","owner":"87272508@N00","secret":"e7e6796519","server":"8063","farm":9,"title":"HELL YES!","ispublic":1,"isfriend":0,"isfamily":0,"ownername":"hanan bercu"},{"id":"3995485433","owner":"43359993@N05","secret":"f02d040148","server":"3157","farm":4,"title":"Hell","ispublic":1,"isfriend":0,"isfamily":0,"ownername":"SEObySwaby"},{"id":"105063347","owner":"67003323@N00","secret":"c41827446e","server":"43","farm":1,"title":"hell","ispublic":1,"isfriend":0,"isfamily":0,"ownername":"urban_data"}]},"stat":"ok"}