{"photos":{"page":1,"pages":31904,"perpage":15,"total":"478556","photo":[{"id":"6004345963","owner":"64144979@N05","secret":"11224495ff","server":"6149","farm":7,"title":"Highway","ispublic":1,"isfriend":0,"isfamily":0,"ownername":"nymphofox"},{"id":"6992753995","owner":"65350924@N08","secret":"e6a8c4acf4","server":"7201","farm":8,"title":"Highway","ispublic":1,"isfriend":0,"isfamily":0,"ownername":"Kabaampje"},{"id":"38218357604","owner":"18067877@N00","secret":"63f778e649","server":"4550","farm":5,"title":"Highway","ispublic":1,"isfriend":0,"isfamily":0,"ownername":"Predrag Bubalo"},{"id":"7957769046","owner":"86924150@N06","secret":"6a0566cf2b","server":"8318","farm":9,"title":"highway","ispublic":1,"isfriend":0,"isfamily":0,"ownername":"Mr_Seni"},{"id":"2871123578","owner":"27678377@N03","secret":"0e4161bbc2","server":"3258","farm":4,"title":"night @ highway","ispublic":1,"isfriend":0,"isfamily":0,"ownername":"redcili"},{"id":"9617464209","owner":"65892557@N05","secret":"2633f55f5b","server":"7425","farm":8,"title":"highway","ispublic":1,"isfriend":0,"isfamily":0,"ownername":"bluesbird83"},{"id":"975500888","owner":"68935587@N00","secret":"9c13a227d6","server":"1292","farm":2,"title":"Highway","ispublic":1,"isfriend":0,"isfamily":0,"ownername":"rajamahbub"},{"id":"3698023590","owner":"39998940@N03","secret":"38481fa26b","server":"2478","farm":3,"title":"Highway","ispublic":1,"isfriend":0,"isfamily":0,"ownername":"feuer-teufel"},{"id":"4839808803","owner":"47761700@N08","secret":"edc56d9dab","server":"4112","farm":5,"title":"Highway","ispublic":1,"isfriend":0,"isfamily":0,"ownername":"balrog013"},{"id":"2901600463","owner":"23394572@N06","secret":"6dd0de6034","server":"3033","farm":4,"title":"Highway","ispublic":1,"isfriend":0,"isfamily":0,"ownername":"Michelle Paul"},{"id":"4966028792","owner":"31583370@N04","secret":"3569e9ba8d","server":"4083","farm":5,"title":"highway","ispublic":1,"isfriend":0,"isfamily":0,"ownername":"fatalbeauty1956"},{"id":"322499804","owner":"57269789@N00","secret":"955729f411","server":"143","farm":1,"title":"Highway","ispublic":1,"isfriend":0,"isfamily":0,"ownername":"Novica"},{"id":"5473134658","owner":"10290887@N03","secret":"1957e171da","server":"5179","farm":6,"title":"Highway 101","ispublic":1,"isfriend":0,"isfamily":0,"ownername":"CFlo Photography"},{"id":"495367610","owner":"18527544@N00","secret":"277705591a","server":"232","farm":1,"title":"Highway","ispublic":1,"isfriend":0,"isfamily":0,"ownername":"exodite_dragon"},{"id":"286727267","owner":"95648763@N00","secret":"baf81ae7d7","server":"120","farm":1,"title":"HighWay","ispublic":1,"isfriend":0,"isfamily":0,"ownername":"Tricheco"}]},"stat":"ok"}