{"photos":{"page":1,"pages":13673,"perpage":15,"total":"205082","photo":[{"id":"18082524062","owner":"73154039@N00","secret":"6fcc25eaf1","server":"7705","farm":8,"title":"Holes","ispublic":1,"isfriend":0,"isfamily":0,"ownername":"David K. Edwards"},{"id":"60898068","owner":"78364563@N00","secret":"2072ff915c","server":"25","farm":1,"title":"hole","ispublic":1,"isfriend":0,"isfamily":0,"ownername":"estherase"},{"id":"4606604552","owner":"38745062@N02","secret":"81cf2dc6cf","server":"1278","farm":2,"title":"Hole in the Wall arch","ispublic":1,"isfriend":0,"isfamily":0,"ownername":"IronRodArt - Royce Bair (\"Star Shooter\")"},{"id":"4608326663","owner":"38745062@N02","secret":"26ff27df10","server":"1385","farm":2,"title":"Hole in the Wall arch - night exposure","ispublic":1,"isfriend":0,"isfamily":0,"ownername":"IronRodArt - Royce Bair (\"Star Shooter\")"},{"id":"4941694315","owner":"12355556@N00","secret":"d05851be43","server":"4081","farm":5,"title":"Hole in the wall","ispublic":1,"isfriend":0,"isfamily":0,"ownername":"Zeb Andrews"},{"id":"90632001","owner":"32454422@N00","secret":"46c99752b8","server":"37","farm":1,"title":"Rock with erosion holes in it","ispublic":1,"isfriend":0,"isfamily":0,"ownername":"Martin LaBar (going on hiatus)"},{"id":"6798975794","owner":"50397417@N06","secret":"60b978154b","server":"7181","farm":8,"title":"hole of wall - \u58c1\u306e\u7a74","ispublic":1,"isfriend":0,"isfamily":0,"ownername":"turntable00000"},{"id":"7635561562","owner":"42552696@N05","secret":"68cc729864","server":"8426","farm":9,"title":"Hole","ispublic":1,"isfriend":0,"isfamily":0,"ownername":"art\u00a9ore"},{"id":"3948160138","owner":"30679835@N03","secret":"708aea2fae","server":"2513","farm":3,"title":"A hole in the wall","ispublic":1,"isfriend":0,"isfamily":0,"ownername":"foje64"},{"id":"3933037422","owner":"21692577@N02","secret":"c83aa6cd28","server":"2651","farm":3,"title":"Hole","ispublic":1,"isfriend":0,"isfamily":0,"ownername":"Danny VB"},{"id":"3144407360","owner":"33760510@N04","secret":"eb68ba0380","server":"3105","farm":4,"title":"Magic hole","ispublic":1,"isfriend":0,"isfamily":0,"ownername":"vincenzoalbanese"},{"id":"14373658311","owner":"48408899@N08","secret":"af93384f1e","server":"5585","farm":6,"title":"Pigeon Holes","ispublic":1,"isfriend":0,"isfamily":0,"ownername":"Cowboy 55"},{"id":"268404910","owner":"78693551@N00","secret":"0411450fda","server":"115","farm":1,"title":"Hole","ispublic":1,"isfriend":0,"isfamily":0,"ownername":"Pop Weasle"},{"id":"12598507465","owner":"30493186@N03","secret":"7cc458b5f1","server":"2864","farm":3,"title":"Hole","ispublic":1,"isfriend":0,"isfamily":0,"ownername":"d o l f i"},{"id":"23697582146","owner":"81114518@N02","secret":"dc974704ae","server":"5721","farm":6,"title":"Hole of Horcum","ispublic":1,"isfriend":0,"isfamily":0,"ownername":"rustyruth1959"}]},"stat":"ok"}