{"photos":{"page":1,"pages":113086,"perpage":15,"total":"1696283","photo":[{"id":"5000948053","owner":"46124487@N00","secret":"4774656a88","server":"4113","farm":5,"title":"home","ispublic":1,"isfriend":0,"isfamily":0,"ownername":"mandybee123"},{"id":"8565509941","owner":"29065834@N08","secret":"6357b783ba","server":"8104","farm":9,"title":"Home","ispublic":1,"isfriend":0,"isfamily":0,"ownername":"herve was here"},{"id":"4751841969","owner":"16918182@N03","secret":"f8113be70f","server":"4122","farm":5,"title":"Home","ispublic":1,"isfriend":0,"isfamily":0,"ownername":"Quiltsalad"},{"id":"8329301149","owner":"42216198@N04","secret":"15e464cd8e","server":"8361","farm":9,"title":"Home","ispublic":1,"isfriend":0,"isfamily":0,"ownername":"Sophie Idsinga"},{"id":"14475214797","owner":"53458587@N05","secret":"e29986966b","server":"3880","farm":4,"title":"Malibu home","ispublic":1,"isfriend":0,"isfamily":0,"ownername":"federicojanni"},{"id":"3481140243","owner":"87074214@N00","secret":"ab47685354","server":"3340","farm":4,"title":"@ home","ispublic":1,"isfriend":0,"isfamily":0,"ownername":"Pork-Chop"},{"id":"26241971","owner":"95854051@N00","secret":"93a554d081","server":"21","farm":1,"title":"Home","ispublic":1,"isfriend":0,"isfamily":0,"ownername":"smays"},{"id":"3752882243","owner":"37847166@N08","secret":"4d5ec42c99","server":"2601","farm":3,"title":"Home","ispublic":1,"isfriend":0,"isfamily":0,"ownername":"thevirge"},{"id":"5658985111","owner":"41983461@N04","secret":"f7c915f650","server":"5146","farm":6,"title":"Home","ispublic":1,"isfriend":0,"isfamily":0,"ownername":"LIS Atelier"},{"id":"294234968","owner":"39995934@N00","secret":"3c3853da16","server":"99","farm":1,"title":"home","ispublic":1,"isfriend":0,"isfamily":0,"ownername":"Avocadolite Family"},{"id":"2554096398","owner":"9961391@N02","secret":"d9cb7f070f","server":"3118","farm":4,"title":"Home","ispublic":1,"isfriend":0,"isfamily":0,"ownername":"Merrypetal"},{"id":"5144407085","owner":"54874792@N08","secret":"ee88f3a8fd","server":"4145","farm":5,"title":"home","ispublic":1,"isfriend":0,"isfamily":0,"ownername":"itaisatoshi"},{"id":"1996002985","owner":"15779944@N00","secret":"45fb339882","server":"2119","farm":3,"title":"Home.","ispublic":1,"isfriend":0,"isfamily":0,"ownername":"stevelyon"},{"id":"2148761296","owner":"46461413@N00","secret":"0959ee72e9","server":"2130","farm":3,"title":"Home","ispublic":1,"isfriend":0,"isfamily":0,"ownername":"Siva_K"},{"id":"2230332588","owner":"23223593@N05","secret":"f5c8fcac3e","server":"2349","farm":3,"title":"Home","ispublic":1,"isfriend":0,"isfamily":0,"ownername":"nakamurie"}]},"stat":"ok"}