{"photos":{"page":1,"pages":53712,"perpage":15,"total":"805677","photo":[{"id":"7396248874","owner":"65829996@N02","secret":"64ff634d09","server":"7223","farm":8,"title":"Horses","ispublic":1,"isfriend":0,"isfamily":0,"ownername":"glenncooke"},{"id":"2900960201","owner":"24647980@N06","secret":"aafee72d96","server":"3028","farm":4,"title":"Horses","ispublic":1,"isfriend":0,"isfamily":0,"ownername":"7scout7"},{"id":"2901798846","owner":"24647980@N06","secret":"a0c3e02300","server":"3166","farm":4,"title":"Horses","ispublic":1,"isfriend":0,"isfamily":0,"ownername":"7scout7"},{"id":"10215131145","owner":"65915670@N08","secret":"05729f9ce7","server":"7384","farm":8,"title":"horses","ispublic":1,"isfriend":0,"isfamily":0,"ownername":"pmhlms"},{"id":"3810643474","owner":"41122055@N02","secret":"82d84a50d1","server":"2444","farm":3,"title":"Horses","ispublic":1,"isfriend":0,"isfamily":0,"ownername":"Western Images"},{"id":"2900963837","owner":"24647980@N06","secret":"da8b6c1fc7","server":"3196","farm":4,"title":"Horses","ispublic":1,"isfriend":0,"isfamily":0,"ownername":"7scout7"},{"id":"2900958717","owner":"24647980@N06","secret":"430c7f8c9b","server":"3200","farm":4,"title":"Horses","ispublic":1,"isfriend":0,"isfamily":0,"ownername":"7scout7"},{"id":"10215139245","owner":"65915670@N08","secret":"00c35afcf9","server":"3672","farm":4,"title":"horses","ispublic":1,"isfriend":0,"isfamily":0,"ownername":"pmhlms"},{"id":"47170631441","owner":"168482034@N07","secret":"535dd98e40","server":"7861","farm":8,"title":"Horses","ispublic":1,"isfriend":0,"isfamily":0,"ownername":"```` Sol ````"},{"id":"10215158236","owner":"65915670@N08","secret":"d86e362465","server":"3796","farm":4,"title":"horses","ispublic":1,"isfriend":0,"isfamily":0,"ownername":"pmhlms"},{"id":"10215222023","owner":"65915670@N08","secret":"2e662d85bd","server":"3696","farm":4,"title":"horses","ispublic":1,"isfriend":0,"isfamily":0,"ownername":"pmhlms"},{"id":"47170632191","owner":"168482034@N07","secret":"270420a47f","server":"7912","farm":8,"title":"Horses","ispublic":1,"isfriend":0,"isfamily":0,"ownername":"```` Sol ````"},{"id":"46256471445","owner":"168482034@N07","secret":"5f7eccdca6","server":"7859","farm":8,"title":"Horses","ispublic":1,"isfriend":0,"isfamily":0,"ownername":"```` Sol ````"},{"id":"47170632381","owner":"168482034@N07","secret":"6ca8922626","server":"7858","farm":8,"title":"Horses","ispublic":1,"isfriend":0,"isfamily":0,"ownername":"```` Sol ````"},{"id":"2901797416","owner":"24647980@N06","secret":"a25d5e077d","server":"3095","farm":4,"title":"Horses","ispublic":1,"isfriend":0,"isfamily":0,"ownername":"7scout7"}]},"stat":"ok"}