{"photos":{"page":1,"pages":96656,"perpage":15,"total":"1449837","photo":[{"id":"3535107540","owner":"8774403@N03","secret":"778b8d3db7","server":"3092","farm":4,"title":"HoT","ispublic":1,"isfriend":0,"isfamily":0,"ownername":"gUdU_teNsiOn"},{"id":"3534292449","owner":"8774403@N03","secret":"fd76f6232c","server":"2402","farm":3,"title":"HoT","ispublic":1,"isfriend":0,"isfamily":0,"ownername":"gUdU_teNsiOn"},{"id":"699313988","owner":"95804815@N00","secret":"8563d0a4ca","server":"1288","farm":2,"title":"hot!","ispublic":1,"isfriend":0,"isfamily":0,"ownername":"daniel_toie"},{"id":"3592548434","owner":"15263179@N03","secret":"755ea60573","server":"3408","farm":4,"title":"Hot !!!","ispublic":1,"isfriend":0,"isfamily":0,"ownername":"Dimit\u00aei"},{"id":"3535108844","owner":"8774403@N03","secret":"74590d5ea8","server":"2274","farm":3,"title":"HoT","ispublic":1,"isfriend":0,"isfamily":0,"ownername":"gUdU_teNsiOn"},{"id":"2317076750","owner":"23846885@N05","secret":"c413a9c87d","server":"2263","farm":3,"title":"hot","ispublic":1,"isfriend":0,"isfamily":0,"ownername":"pure magic"},{"id":"14898124370","owner":"8307945@N02","secret":"b1265290a3","server":"5558","farm":6,"title":"Hot!","ispublic":1,"isfriend":0,"isfamily":0,"ownername":"clickclique"},{"id":"27769149091","owner":"57949897@N00","secret":"f9c98f7a52","server":"7316","farm":8,"title":"Hot","ispublic":1,"isfriend":0,"isfamily":0,"ownername":"Jerzy Durczak"},{"id":"9474709553","owner":"63888207@N03","secret":"e65f9aa1f9","server":"7283","farm":8,"title":"hot","ispublic":1,"isfriend":0,"isfamily":0,"ownername":"Granttom"},{"id":"3858073777","owner":"41830700@N07","secret":"53dcacfbb9","server":"2188","farm":3,"title":"hot","ispublic":1,"isfriend":0,"isfamily":0,"ownername":"shrisen23"},{"id":"14831225770","owner":"95993439@N02","secret":"f4eaf2e3e3","server":"5572","farm":6,"title":"Hot!","ispublic":1,"isfriend":0,"isfamily":0,"ownername":"Anastasios Georgakopoulos"},{"id":"40005906683","owner":"163819415@N03","secret":"3286411471","server":"4848","farm":5,"title":"#hot","ispublic":1,"isfriend":0,"isfamily":0,"ownername":"karami_84"},{"id":"2406700896","owner":"24882745@N08","secret":"9960770302","server":"2072","farm":3,"title":"HOT","ispublic":1,"isfriend":0,"isfamily":0,"ownername":"Dj Xia"},{"id":"2492400893","owner":"25706250@N05","secret":"5b9938e125","server":"2280","farm":3,"title":"hot","ispublic":1,"isfriend":0,"isfamily":0,"ownername":"Kirkyy! ^^"},{"id":"3475679799","owner":"11531632@N06","secret":"aaf9c15419","server":"3664","farm":4,"title":"Hot","ispublic":1,"isfriend":0,"isfamily":0,"ownername":"cili007"}]},"stat":"ok"}