{"photos":{"page":1,"pages":117294,"perpage":15,"total":"1759405","photo":[{"id":"35220846520","owner":"108382282@N04","secret":"eabf73d394","server":"4250","farm":5,"title":"hotel","ispublic":1,"isfriend":0,"isfamily":0,"ownername":"maj-lis photo"},{"id":"45881298741","owner":"143790323@N04","secret":"cf653cbd1d","server":"4843","farm":5,"title":"hotel","ispublic":1,"isfriend":0,"isfamily":0,"ownername":"migueldeozarko"},{"id":"4078969913","owner":"29212979@N04","secret":"165ff23f7e","server":"2776","farm":3,"title":"Hotel","ispublic":1,"isfriend":0,"isfamily":0,"ownername":"Mohammad Al-yaeesh \u0645\u062d\u0645\u062f \u0627\u0644\u064a\u0639\u064a\u0634"},{"id":"46130597831","owner":"164310828@N08","secret":"88ae16708e","server":"4813","farm":5,"title":"Hotel","ispublic":1,"isfriend":0,"isfamily":0,"ownername":"Lea Ruiz Donoso"},{"id":"1472267178","owner":"30201246@N00","secret":"340c76ab91","server":"1218","farm":2,"title":"...Hotel","ispublic":1,"isfriend":0,"isfamily":0,"ownername":"lauratitian"},{"id":"5541122704","owner":"47517717@N03","secret":"1ec0651de7","server":"5133","farm":6,"title":"hotel","ispublic":1,"isfriend":0,"isfamily":0,"ownername":"zenyt"},{"id":"5579453555","owner":"34654941@N02","secret":"791d7e5d18","server":"5181","farm":6,"title":"Hotel","ispublic":1,"isfriend":0,"isfamily":0,"ownername":"\u0639\u0644\u064a \u0627\u0644\u062d\u0633\u064a\u0646"},{"id":"269627996","owner":"77497476@N00","secret":"c17cbdd3a4","server":"91","farm":1,"title":"hotel","ispublic":1,"isfriend":0,"isfamily":0,"ownername":"rushland"},{"id":"8365513324","owner":"91965829@N02","secret":"85a5d28548","server":"8238","farm":9,"title":"Hotel","ispublic":1,"isfriend":0,"isfamily":0,"ownername":"laurenjeannejones"},{"id":"1432210973","owner":"14061788@N02","secret":"d25c57dc85","server":"1412","farm":2,"title":"HOTEL","ispublic":1,"isfriend":0,"isfamily":0,"ownername":"wehan chang"},{"id":"12656161964","owner":"40565618@N00","secret":"1bb1b61259","server":"7355","farm":8,"title":"Hotel","ispublic":1,"isfriend":0,"isfamily":0,"ownername":"Antonio Guti\u00e9rrez Fotograf\u00eda"}]},"stat":"ok"}