{"photos":{"page":1,"pages":2862,"perpage":15,"total":"42920","photo":[{"id":"16530190035","owner":"114781512@N02","secret":"54bebb8eb7","server":"7432","farm":8,"title":"Basset Hound","ispublic":1,"isfriend":0,"isfamily":0,"ownername":"Peanut1371"},{"id":"8092060131","owner":"22543204@N08","secret":"3716dd11c3","server":"8189","farm":9,"title":"Basset Hound.","ispublic":1,"isfriend":0,"isfamily":0,"ownername":"dork17"},{"id":"35125585452","owner":"32431640@N03","secret":"2803ab5e19","server":"4263","farm":5,"title":"Field hound","ispublic":1,"isfriend":0,"isfamily":0,"ownername":"Rich Peters- foosqust"},{"id":"8573343484","owner":"34518162@N08","secret":"9690f8d743","server":"8244","farm":9,"title":"Bassett hound","ispublic":1,"isfriend":0,"isfamily":0,"ownername":"mandyhedley"},{"id":"3625360692","owner":"24578303@N07","secret":"14716e1074","server":"2462","farm":3,"title":"Hound show","ispublic":1,"isfriend":0,"isfamily":0,"ownername":"Alan10eden"},{"id":"3102055445","owner":"12651736@N04","secret":"039b05da6e","server":"3156","farm":4,"title":"Billie Basset Hound","ispublic":1,"isfriend":0,"isfamily":0,"ownername":"AndyAst"},{"id":"44645155410","owner":"90355165@N03","secret":"eed2a05d07","server":"4803","farm":5,"title":"Basset Hound","ispublic":1,"isfriend":0,"isfamily":0,"ownername":"im2fast4u2c"},{"id":"32960030953","owner":"8133668@N08","secret":"fdcdb0a44a","server":"2856","farm":3,"title":"70\/365","ispublic":1,"isfriend":0,"isfamily":0,"ownername":"Paguma \/ Darren"},{"id":"33498089081","owner":"16309074@N07","secret":"3cc1b12682","server":"3736","farm":4,"title":"basset hound attila","ispublic":1,"isfriend":0,"isfamily":0,"ownername":"grahama.green1"},{"id":"32589459558","owner":"90355165@N03","secret":"f037e63646","server":"4874","farm":5,"title":"Basset Hound","ispublic":1,"isfriend":0,"isfamily":0,"ownername":"im2fast4u2c"},{"id":"33831640354","owner":"148127600@N05","secret":"9d73df14af","server":"4166","farm":5,"title":"Fisher","ispublic":1,"isfriend":0,"isfamily":0,"ownername":"brennenguzik"},{"id":"31522276347","owner":"90355165@N03","secret":"7e0da8aa06","server":"4830","farm":5,"title":"Basset Hound","ispublic":1,"isfriend":0,"isfamily":0,"ownername":"im2fast4u2c"},{"id":"34394935540","owner":"8133668@N08","secret":"27b1efb1ce","server":"4220","farm":5,"title":"DSC_3876","ispublic":1,"isfriend":0,"isfamily":0,"ownername":"Paguma \/ Darren"},{"id":"34032035236","owner":"8133668@N08","secret":"8642a769bb","server":"3931","farm":4,"title":"DSC_0807","ispublic":1,"isfriend":0,"isfamily":0,"ownername":"Paguma \/ Darren"},{"id":"112148776","owner":"50264668@N00","secret":"206c2fd4cb","server":"22","farm":1,"title":"SweetYardDog","ispublic":1,"isfriend":0,"isfamily":0,"ownername":"Spirits Mom"}]},"stat":"ok"}