{"photos":{"page":1,"pages":154512,"perpage":15,"total":"2317671","photo":[{"id":"2105991752","owner":"21692577@N02","secret":"cc151b3190","server":"2307","farm":3,"title":"house","ispublic":1,"isfriend":0,"isfamily":0,"ownername":"Danny VB"},{"id":"6883150650","owner":"21692577@N02","secret":"b4e7c18007","server":"7252","farm":8,"title":"house","ispublic":1,"isfriend":0,"isfamily":0,"ownername":"Danny VB"},{"id":"7192574692","owner":"75487768@N04","secret":"fe79551900","server":"7234","farm":8,"title":"house","ispublic":1,"isfriend":0,"isfamily":0,"ownername":"barnyz"},{"id":"7510139430","owner":"75487768@N04","secret":"b993050cdb","server":"8017","farm":9,"title":"house","ispublic":1,"isfriend":0,"isfamily":0,"ownername":"barnyz"},{"id":"7510144480","owner":"75487768@N04","secret":"186794cc88","server":"8017","farm":9,"title":"house","ispublic":1,"isfriend":0,"isfamily":0,"ownername":"barnyz"},{"id":"7167753812","owner":"75487768@N04","secret":"8ba8900e6d","server":"7092","farm":8,"title":"house","ispublic":1,"isfriend":0,"isfamily":0,"ownername":"barnyz"},{"id":"7272204242","owner":"75487768@N04","secret":"8e455dcfba","server":"7092","farm":8,"title":"house","ispublic":1,"isfriend":0,"isfamily":0,"ownername":"barnyz"},{"id":"7192571778","owner":"75487768@N04","secret":"edd59c73c4","server":"7105","farm":8,"title":"house","ispublic":1,"isfriend":0,"isfamily":0,"ownername":"barnyz"},{"id":"5212753867","owner":"54668241@N07","secret":"7be64dcc03","server":"5003","farm":6,"title":"House","ispublic":1,"isfriend":0,"isfamily":0,"ownername":"Images by Lynn"},{"id":"27053562599","owner":"75487768@N04","secret":"4fe49f2ac0","server":"4544","farm":5,"title":"house","ispublic":1,"isfriend":0,"isfamily":0,"ownername":"barnyz"},{"id":"7255424846","owner":"75487768@N04","secret":"32306f6655","server":"7101","farm":8,"title":"house","ispublic":1,"isfriend":0,"isfamily":0,"ownername":"barnyz"},{"id":"6329858220","owner":"37022251@N03","secret":"9b87112bb3","server":"6052","farm":7,"title":"House","ispublic":1,"isfriend":0,"isfamily":0,"ownername":"emileegrace"},{"id":"7316180350","owner":"30493186@N03","secret":"1a932760cc","server":"7237","farm":8,"title":"House","ispublic":1,"isfriend":0,"isfamily":0,"ownername":"d o l f i"},{"id":"16249666224","owner":"21692577@N02","secret":"17f9144dae","server":"7637","farm":8,"title":"House","ispublic":1,"isfriend":0,"isfamily":0,"ownername":"Danny VB"},{"id":"30012283808","owner":"75487768@N04","secret":"5c125dee2c","server":"1831","farm":2,"title":"house","ispublic":1,"isfriend":0,"isfamily":0,"ownername":"barnyz"}]},"stat":"ok"}