{"photos":{"page":1,"pages":103123,"perpage":15,"total":"1546839","photo":[{"id":"16203719970","owner":"46195191@N00","secret":"76ea801b91","server":"8648","farm":9,"title":"Ice","ispublic":1,"isfriend":0,"isfamily":0,"ownername":"PsychaSec"},{"id":"16022426668","owner":"107176214@N04","secret":"d5fa9ebf23","server":"7484","farm":8,"title":"Ice","ispublic":1,"isfriend":0,"isfamily":0,"ownername":"Amandaclicks"},{"id":"11307743246","owner":"98005175@N02","secret":"6b4b3f6bfa","server":"2855","farm":3,"title":"Ice","ispublic":1,"isfriend":0,"isfamily":0,"ownername":"hedenljung"},{"id":"6749482535","owner":"72208005@N05","secret":"90410c8578","server":"7031","farm":8,"title":"Ice","ispublic":1,"isfriend":0,"isfamily":0,"ownername":"Nazzii"},{"id":"6470999665","owner":"38734215@N02","secret":"9d4ea48f0a","server":"7030","farm":8,"title":"Ice","ispublic":1,"isfriend":0,"isfamily":0,"ownername":"Sonch"},{"id":"16486176266","owner":"130396908@N02","secret":"c354fe7cf2","server":"7318","farm":8,"title":"Ice","ispublic":1,"isfriend":0,"isfamily":0,"ownername":"Pappagallo123"},{"id":"5356522995","owner":"43752033@N03","secret":"8f92f08d83","server":"5009","farm":6,"title":"ice","ispublic":1,"isfriend":0,"isfamily":0,"ownername":"bambe1964"},{"id":"6100577124","owner":"66692238@N04","secret":"4dced63bc2","server":"6183","farm":7,"title":"Ice","ispublic":1,"isfriend":0,"isfamily":0,"ownername":"Pondd."},{"id":"16346760259","owner":"49830880@N05","secret":"bd245b13b7","server":"7291","farm":8,"title":"Ice","ispublic":1,"isfriend":0,"isfamily":0,"ownername":"JeffkNY"},{"id":"12492910573","owner":"61045053@N00","secret":"a877b2fe25","server":"3754","farm":4,"title":"Ice","ispublic":1,"isfriend":0,"isfamily":0,"ownername":"SorenHedberg"},{"id":"5402208542","owner":"55653329@N06","secret":"e2b3b111a5","server":"5219","farm":6,"title":"ice","ispublic":1,"isfriend":0,"isfamily":0,"ownername":"Luckymydog"},{"id":"2383762417","owner":"19429821@N00","secret":"4392f4348f","server":"3265","farm":4,"title":"ice","ispublic":1,"isfriend":0,"isfamily":0,"ownername":"cluczkow"},{"id":"32435963740","owner":"24544649@N06","secret":"87cc6bbfb3","server":"2259","farm":3,"title":"Ice","ispublic":1,"isfriend":0,"isfamily":0,"ownername":"evisdotter"},{"id":"3241706343","owner":"92995962@N00","secret":"ed683a8ff7","server":"3470","farm":4,"title":"Ice","ispublic":1,"isfriend":0,"isfamily":0,"ownername":"oparrish"},{"id":"16543571871","owner":"130530280@N06","secret":"3d75d0ed4a","server":"7409","farm":8,"title":"Ice","ispublic":1,"isfriend":0,"isfamily":0,"ownername":"sannarat"}]},"stat":"ok"}