{"photos":{"page":1,"pages":2200,"perpage":15,"total":"32999","photo":[{"id":"38823906752","owner":"151209268@N02","secret":"50dc3144f6","server":"4543","farm":5,"title":"Icing","ispublic":1,"isfriend":0,"isfamily":0,"ownername":"tatranka7"},{"id":"16168668039","owner":"48561129@N04","secret":"c4de596e2c","server":"7438","farm":8,"title":"Icing","ispublic":1,"isfriend":0,"isfamily":0,"ownername":"Martin Amager"},{"id":"25059514337","owner":"138222485@N02","secret":"645a3506a9","server":"4747","farm":5,"title":"Icing","ispublic":1,"isfriend":0,"isfamily":0,"ownername":"karol.ox"},{"id":"1231747174","owner":"28745163@N00","secret":"5cd1f944e8","server":"1106","farm":2,"title":"Icing","ispublic":1,"isfriend":0,"isfamily":0,"ownername":"diongillard"},{"id":"5245327236","owner":"48105510@N08","secret":"f6cc6f1f6a","server":"5166","farm":6,"title":"","ispublic":1,"isfriend":0,"isfamily":0,"ownername":"Alanoud Os"},{"id":"15572679606","owner":"51055690@N07","secret":"a3cdbdcd07","server":"5598","farm":6,"title":"the icing","ispublic":1,"isfriend":0,"isfamily":0,"ownername":"Lana37rus"},{"id":"5234212347","owner":"35687633@N02","secret":"f067fda36f","server":"5282","farm":6,"title":"Icing","ispublic":1,"isfriend":0,"isfamily":0,"ownername":"softlight0628"},{"id":"74920707","owner":"49036929@N00","secret":"b85794ee81","server":"41","farm":1,"title":"Icing","ispublic":1,"isfriend":0,"isfamily":0,"ownername":"blakethomas"},{"id":"4979130165","owner":"36125838@N06","secret":"cca5be06cc","server":"4091","farm":5,"title":"icing","ispublic":1,"isfriend":0,"isfamily":0,"ownername":"maggyvaneijk"},{"id":"2130650815","owner":"7729466@N05","secret":"7e100dd4dd","server":"2379","farm":3,"title":"Icing","ispublic":1,"isfriend":0,"isfamily":0,"ownername":"mischuge"},{"id":"4485823312","owner":"41264611@N08","secret":"432e78b7a2","server":"4002","farm":5,"title":"Icing","ispublic":1,"isfriend":0,"isfamily":0,"ownername":"katviola"},{"id":"3184726787","owner":"71753172@N00","secret":"a6293a68a3","server":"3352","farm":4,"title":"icing","ispublic":1,"isfriend":0,"isfamily":0,"ownername":"joebeone"},{"id":"161416134","owner":"81675713@N00","secret":"fb59d1ff34","server":"54","farm":1,"title":"icing...","ispublic":1,"isfriend":0,"isfamily":0,"ownername":"Sassy Pants Momma"},{"id":"409997867","owner":"39712788@N00","secret":"18d9fb5253","server":"149","farm":1,"title":"Icing time","ispublic":1,"isfriend":0,"isfamily":0,"ownername":"luns_spluctrum"},{"id":"8130819108","owner":"76321128@N02","secret":"5120c539fe","server":"8195","farm":9,"title":"ICING","ispublic":1,"isfriend":0,"isfamily":0,"ownername":"\u064cruqaya"}]},"stat":"ok"}