{"photos":{"page":1,"pages":2616,"perpage":15,"total":"39226","photo":[{"id":"5921803701","owner":"60827908@N06","secret":"162d4598df","server":"6144","farm":7,"title":"imagine","ispublic":1,"isfriend":0,"isfamily":0,"ownername":"Laura Len"},{"id":"28045628741","owner":"91619997@N04","secret":"762e14f72a","server":"7073","farm":8,"title":"Imagine","ispublic":1,"isfriend":0,"isfamily":0,"ownername":"De Rode Olifant"},{"id":"8385881465","owner":"84793122@N07","secret":"3cfbf81ca2","server":"8502","farm":9,"title":"imagine","ispublic":1,"isfriend":0,"isfamily":0,"ownername":"monika strataki (off for a while)"},{"id":"1804339262","owner":"10525009@N06","secret":"46a1838037","server":"2225","farm":3,"title":"Imagine","ispublic":1,"isfriend":0,"isfamily":0,"ownername":"CristinaJG"},{"id":"33299059132","owner":"74863493@N07","secret":"5933a08f7a","server":"775","farm":1,"title":"Imagine","ispublic":1,"isfriend":0,"isfamily":0,"ownername":"louise garin"},{"id":"16469815756","owner":"59479280@N03","secret":"832862c26f","server":"8638","farm":9,"title":"imagine","ispublic":1,"isfriend":0,"isfamily":0,"ownername":"Dolme80"},{"id":"8085193240","owner":"12074318@N07","secret":"8bb244fc06","server":"8472","farm":9,"title":"imagine","ispublic":1,"isfriend":0,"isfamily":0,"ownername":"scoobyk9"},{"id":"12211171944","owner":"55747750@N02","secret":"07d7a1a3be","server":"7356","farm":8,"title":"Imagine","ispublic":1,"isfriend":0,"isfamily":0,"ownername":"PATRICE OUELLET"},{"id":"40178734693","owner":"53596679@N04","secret":"dfd99f27ef","server":"7904","farm":8,"title":"Imagine","ispublic":1,"isfriend":0,"isfamily":0,"ownername":"~\u2665~ Edike`s World ~\u266a\u266b\u266a~"},{"id":"43123484074","owner":"154930716@N06","secret":"d0db908608","server":"850","farm":1,"title":"imagine frumoas\u0103 budist\u0103","ispublic":1,"isfriend":0,"isfamily":0,"ownername":"ho\u1eb1ng d\u01b0\u01a1ng ph\u1eadt ph\u00e1p"},{"id":"3061228539","owner":"54062057@N00","secret":"9351a5e417","server":"3217","farm":4,"title":"imagine . . .","ispublic":1,"isfriend":0,"isfamily":0,"ownername":"Kelly's Pics (haydillygirl)"},{"id":"5384428428","owner":"47287800@N07","secret":"53eb00bf37","server":"5213","farm":6,"title":".imagine","ispublic":1,"isfriend":0,"isfamily":0,"ownername":".thomas alexander"},{"id":"24760827742","owner":"137784895@N07","secret":"d39203d6ee","server":"1565","farm":2,"title":"Imagine","ispublic":1,"isfriend":0,"isfamily":0,"ownername":"Sydney Levee"},{"id":"32511817338","owner":"135814731@N07","secret":"79ef6d3365","server":"4835","farm":5,"title":"Imagine","ispublic":1,"isfriend":0,"isfamily":0,"ownername":"Delviant"},{"id":"80334","owner":"44124469818@N01","secret":"736129b448","server":"1","farm":1,"title":"imagine","ispublic":1,"isfriend":0,"isfamily":0,"ownername":"~lenny"}]},"stat":"ok"}