{"photos":{"page":1,"pages":341181,"perpage":15,"total":"5117711","photo":[{"id":"12247723834","owner":"95012188@N02","secret":"73edbd0898","server":"3665","farm":4,"title":"India","ispublic":1,"isfriend":0,"isfamily":0,"ownername":"sandeepachetan.com"},{"id":"11381394614","owner":"95012188@N02","secret":"7b741a9db4","server":"5502","farm":6,"title":"INDIA","ispublic":1,"isfriend":0,"isfamily":0,"ownername":"sandeepachetan.com"},{"id":"9697559233","owner":"95012188@N02","secret":"d2f30a00e1","server":"7451","farm":8,"title":"India","ispublic":1,"isfriend":0,"isfamily":0,"ownername":"sandeepachetan.com"},{"id":"11417036513","owner":"95012188@N02","secret":"5eeeda5bce","server":"7353","farm":8,"title":"India","ispublic":1,"isfriend":0,"isfamily":0,"ownername":"sandeepachetan.com"},{"id":"5225701942","owner":"17904502@N00","secret":"d281e78614","server":"5167","farm":6,"title":"INDIA","ispublic":1,"isfriend":0,"isfamily":0,"ownername":"BoazImages"},{"id":"16660761714","owner":"22918294@N04","secret":"2d7cd3fc15","server":"8702","farm":9,"title":"India.","ispublic":1,"isfriend":0,"isfamily":0,"ownername":"richard.mcmanus."},{"id":"294168099","owner":"17904502@N00","secret":"763fdbd69c","server":"122","farm":1,"title":"INDIA","ispublic":1,"isfriend":0,"isfamily":0,"ownername":"BoazImages"},{"id":"15290730865","owner":"22918294@N04","secret":"1b3dd65b16","server":"5584","farm":6,"title":"India.","ispublic":1,"isfriend":0,"isfamily":0,"ownername":"richard.mcmanus."},{"id":"14647560362","owner":"33363480@N05","secret":"971f5d589e","server":"3844","farm":4,"title":"India","ispublic":1,"isfriend":0,"isfamily":0,"ownername":"Nick Kenrick."},{"id":"15329232874","owner":"22918294@N04","secret":"e7ebfa2f96","server":"7570","farm":8,"title":"India.","ispublic":1,"isfriend":0,"isfamily":0,"ownername":"richard.mcmanus."},{"id":"6713015989","owner":"17904502@N00","secret":"e734036997","server":"7143","farm":8,"title":"INDIA","ispublic":1,"isfriend":0,"isfamily":0,"ownername":"BoazImages"},{"id":"6706905529","owner":"17904502@N00","secret":"af355627ee","server":"7158","farm":8,"title":"INDIA","ispublic":1,"isfriend":0,"isfamily":0,"ownername":"BoazImages"},{"id":"4708177263","owner":"22918294@N04","secret":"17b8366484","server":"4050","farm":5,"title":"India.","ispublic":1,"isfriend":0,"isfamily":0,"ownername":"richard.mcmanus."},{"id":"8227389402","owner":"17904502@N00","secret":"99b7262f43","server":"8064","farm":9,"title":"INDIA","ispublic":1,"isfriend":0,"isfamily":0,"ownername":"BoazImages"},{"id":"6601689515","owner":"12963652@N08","secret":"1316a71259","server":"7017","farm":8,"title":"india","ispublic":1,"isfriend":0,"isfamily":0,"ownername":"peo pea"}]},"stat":"ok"}