{"photos":{"page":1,"pages":15897,"perpage":15,"total":"238453","photo":[{"id":"35049816786","owner":"63092207@N02","secret":"fe35315c9d","server":"4279","farm":5,"title":"Iron","ispublic":1,"isfriend":0,"isfamily":0,"ownername":"Free Derry"},{"id":"8963912341","owner":"83133472@N05","secret":"e586a6f3a3","server":"8117","farm":9,"title":"iron","ispublic":1,"isfriend":0,"isfamily":0,"ownername":"timp37"},{"id":"14713229880","owner":"37355742@N08","secret":"b51948e625","server":"5587","farm":6,"title":"iron","ispublic":1,"isfriend":0,"isfamily":0,"ownername":"Rambynas"},{"id":"6314738942","owner":"23185552@N04","secret":"7cdb173e82","server":"6221","farm":7,"title":"iron","ispublic":1,"isfriend":0,"isfamily":0,"ownername":"gordon gekkoh"},{"id":"3608634118","owner":"37282046@N07","secret":"3fdd064e50","server":"3656","farm":4,"title":"iron","ispublic":1,"isfriend":0,"isfamily":0,"ownername":"mdlphotography"},{"id":"6895770695","owner":"23185552@N04","secret":"1fe9a9fa74","server":"7182","farm":8,"title":"iron","ispublic":1,"isfriend":0,"isfamily":0,"ownername":"gordon gekkoh"},{"id":"8600933642","owner":"61548286@N02","secret":"63337d34de","server":"8373","farm":9,"title":"Iron","ispublic":1,"isfriend":0,"isfamily":0,"ownername":"angelo0690"},{"id":"17050839679","owner":"132760437@N06","secret":"d3afd3b1c9","server":"8696","farm":9,"title":"IRON","ispublic":1,"isfriend":0,"isfamily":0,"ownername":"Fence Contractor Woodland Hills"},{"id":"235100262","owner":"26952049@N00","secret":"2c4f7b7abd","server":"97","farm":1,"title":"iron","ispublic":1,"isfriend":0,"isfamily":0,"ownername":"habaneros"},{"id":"8426610874","owner":"90946300@N07","secret":"c2f4f32664","server":"8232","farm":9,"title":"iron","ispublic":1,"isfriend":0,"isfamily":0,"ownername":"Campra Marmi"},{"id":"383957570","owner":"41929263@N00","secret":"7f3fe760d8","server":"163","farm":1,"title":"Iron","ispublic":1,"isfriend":0,"isfamily":0,"ownername":"dejanii"},{"id":"8600923812","owner":"61548286@N02","secret":"367d4dd5b0","server":"8226","farm":9,"title":"Iron","ispublic":1,"isfriend":0,"isfamily":0,"ownername":"angelo0690"},{"id":"417466727","owner":"7285420@N02","secret":"b92b2f16e0","server":"154","farm":1,"title":"Iron","ispublic":1,"isfriend":0,"isfamily":0,"ownername":"___=^..^=___"},{"id":"4261220293","owner":"45305447@N08","secret":"7e63b70d03","server":"2698","farm":3,"title":"Iron","ispublic":1,"isfriend":0,"isfamily":0,"ownername":"hellahyphy"},{"id":"2343526489","owner":"82746666@N00","secret":"d8e649427c","server":"3130","farm":4,"title":"iron","ispublic":1,"isfriend":0,"isfamily":0,"ownername":"MASTER P."}]},"stat":"ok"}