{"photos":{"page":1,"pages":161694,"perpage":15,"total":"2425399","photo":[{"id":"13903823750","owner":"69148745@N02","secret":"c91770879b","server":"7453","farm":8,"title":"Island","ispublic":1,"isfriend":0,"isfamily":0,"ownername":"land[e]scape"},{"id":"11818187885","owner":"69148745@N02","secret":"63d7b40d62","server":"3782","farm":4,"title":"island","ispublic":1,"isfriend":0,"isfamily":0,"ownername":"land[e]scape"},{"id":"11818614314","owner":"69148745@N02","secret":"43731fdfd8","server":"3767","farm":4,"title":"island","ispublic":1,"isfriend":0,"isfamily":0,"ownername":"land[e]scape"},{"id":"7291276434","owner":"44912907@N05","secret":"b84860c57b","server":"7099","farm":8,"title":"Island","ispublic":1,"isfriend":0,"isfamily":0,"ownername":"Sunsword & Moonsabre"},{"id":"29825259138","owner":"60166527@N07","secret":"8d6555c403","server":"862","farm":1,"title":"Island","ispublic":1,"isfriend":0,"isfamily":0,"ownername":"Amg80"},{"id":"15877902584","owner":"127154526@N05","secret":"c09b8190e4","server":"7399","farm":8,"title":"island","ispublic":1,"isfriend":0,"isfamily":0,"ownername":"Tandika Cendrawan"},{"id":"32322503127","owner":"142519917@N07","secret":"94bbe4e18f","server":"7844","farm":8,"title":"A764 Island","ispublic":1,"isfriend":0,"isfamily":0,"ownername":"Ulrich Scharw\u00e4chter"},{"id":"26570758998","owner":"60166527@N07","secret":"4404dc70fa","server":"4674","farm":5,"title":"Island","ispublic":1,"isfriend":0,"isfamily":0,"ownername":"Amg80"},{"id":"27754632535","owner":"88184604@N03","secret":"4a35cfb109","server":"7560","farm":8,"title":"Island","ispublic":1,"isfriend":0,"isfamily":0,"ownername":"bonsaifanki"},{"id":"41528458695","owner":"60166527@N07","secret":"9ed4b17284","server":"874","farm":1,"title":"Island","ispublic":1,"isfriend":0,"isfamily":0,"ownername":"Amg80"},{"id":"34497513930","owner":"34499715@N00","secret":"c519892a72","server":"4226","farm":5,"title":"Island","ispublic":1,"isfriend":0,"isfamily":0,"ownername":"bridschit"},{"id":"32722659153","owner":"60166527@N07","secret":"e44c418164","server":"2870","farm":3,"title":"Island","ispublic":1,"isfriend":0,"isfamily":0,"ownername":"Amg80"},{"id":"16549331049","owner":"23370650@N06","secret":"a551708527","server":"8632","farm":9,"title":"Island","ispublic":1,"isfriend":0,"isfamily":0,"ownername":"merripat"},{"id":"34891829606","owner":"60166527@N07","secret":"e0613c88fa","server":"4244","farm":5,"title":"Island.","ispublic":1,"isfriend":0,"isfamily":0,"ownername":"Amg80"},{"id":"35416529243","owner":"9286498@N05","secret":"da9457c04a","server":"4301","farm":5,"title":"Island : Papageientaucher","ispublic":1,"isfriend":0,"isfamily":0,"ownername":"andreas.thomet"}]},"stat":"ok"}