{"photos":{"page":1,"pages":9630,"perpage":15,"total":"144447","photo":[{"id":"2421162608","owner":"86491730@N00","secret":"7159868591","server":"3067","farm":4,"title":"jacket","ispublic":1,"isfriend":0,"isfamily":0,"ownername":"mamichan"},{"id":"5216093158","owner":"46461213@N02","secret":"e82ebcd307","server":"5087","farm":6,"title":"down jacket street","ispublic":1,"isfriend":0,"isfamily":0,"ownername":"downbnm"},{"id":"6929001036","owner":"71590295@N06","secret":"7ffcc1f640","server":"5444","farm":6,"title":"leather jacket","ispublic":1,"isfriend":0,"isfamily":0,"ownername":"leatherx"},{"id":"4559719559","owner":"41902234@N02","secret":"4b76b716e6","server":"3316","farm":4,"title":"Jacket","ispublic":1,"isfriend":0,"isfamily":0,"ownername":"Lizzie Staley"},{"id":"8619838113","owner":"68588333@N02","secret":"76251656c9","server":"8113","farm":9,"title":"jacket","ispublic":1,"isfriend":0,"isfamily":0,"ownername":"jangawebmaster"},{"id":"6092549254","owner":"67573468@N00","secret":"a80151c901","server":"6084","farm":7,"title":"jacket","ispublic":1,"isfriend":0,"isfamily":0,"ownername":"brixtoncat"},{"id":"685562429","owner":"22841871@N00","secret":"a0b6c646b9","server":"1139","farm":2,"title":"jacket","ispublic":1,"isfriend":0,"isfamily":0,"ownername":"my other car is a spaceship"},{"id":"4401252054","owner":"47980130@N07","secret":"54a41bdef2","server":"2532","farm":3,"title":"Jacket","ispublic":1,"isfriend":0,"isfamily":0,"ownername":"neskita_flickr"},{"id":"3216816785","owner":"27459854@N04","secret":"452952e01f","server":"3504","farm":4,"title":"Jacket","ispublic":1,"isfriend":0,"isfamily":0,"ownername":"kosmokula"},{"id":"5470494540","owner":"59862368@N06","secret":"012c85a374","server":"5172","farm":6,"title":"Jacket","ispublic":1,"isfriend":0,"isfamily":0,"ownername":"ShubaFashion"},{"id":"2492518078","owner":"11643071@N05","secret":"a2dc7a8705","server":"2238","farm":3,"title":"Denim jacket","ispublic":1,"isfriend":0,"isfamily":0,"ownername":"zarinaia"},{"id":"8313614078","owner":"42848645@N04","secret":"949c648acf","server":"8074","farm":9,"title":"Chelsea 12-13 Blue Jacket","ispublic":1,"isfriend":0,"isfamily":0,"ownername":"Hingto"},{"id":"8313611484","owner":"42848645@N04","secret":"0393cea4cc","server":"8219","farm":9,"title":"Liverpool 12-13 Red Jacket","ispublic":1,"isfriend":0,"isfamily":0,"ownername":"Hingto"},{"id":"8312561657","owner":"42848645@N04","secret":"95dce67b7f","server":"8212","farm":9,"title":"PSG 12-13 Blue Jacket","ispublic":1,"isfriend":0,"isfamily":0,"ownername":"Hingto"},{"id":"8312561831","owner":"42848645@N04","secret":"6a43ed47fc","server":"8084","farm":9,"title":"MU 12-13 Red Jacket","ispublic":1,"isfriend":0,"isfamily":0,"ownername":"Hingto"}]},"stat":"ok"}