{"photos":{"page":1,"pages":2294,"perpage":15,"total":"34402","photo":[{"id":"9449189243","owner":"99913004@N07","secret":"5ea04a9888","server":"5521","farm":6,"title":"Jar","ispublic":1,"isfriend":0,"isfamily":0,"ownername":"Cosmic Samizdat"},{"id":"5440194277","owner":"83806278@N00","secret":"3954b8f3bd","server":"5059","farm":6,"title":"jar.","ispublic":1,"isfriend":0,"isfamily":0,"ownername":"michellecarl"},{"id":"8699683154","owner":"53266001@N04","secret":"e2f01169e6","server":"8269","farm":9,"title":"Jars","ispublic":1,"isfriend":0,"isfamily":0,"ownername":"oarranzli"},{"id":"8448363411","owner":"34121831@N00","secret":"d77be56a16","server":"8368","farm":9,"title":"button-jar","ispublic":1,"isfriend":0,"isfamily":0,"ownername":"Pattys-photos"},{"id":"59330602","owner":"21791827@N00","secret":"a937f4a0a8","server":"27","farm":1,"title":"jar","ispublic":1,"isfriend":0,"isfamily":0,"ownername":"Vermario"},{"id":"43917036432","owner":"57949897@N00","secret":"613d90d20f","server":"942","farm":1,"title":"Jar","ispublic":1,"isfriend":0,"isfamily":0,"ownername":"Jerzy Durczak"},{"id":"27739324637","owner":"65089906@N00","secret":"cb265924c4","server":"1746","farm":2,"title":"jar","ispublic":1,"isfriend":0,"isfamily":0,"ownername":"PHOTOPHANATIC1"},{"id":"42213089731","owner":"149020698@N08","secret":"16ff2bfeb9","server":"955","farm":1,"title":"jars","ispublic":1,"isfriend":0,"isfamily":0,"ownername":"sandrorotonaria"},{"id":"14393855457","owner":"58034434@N06","secret":"d60d8a43ba","server":"5478","farm":6,"title":"Jars","ispublic":1,"isfriend":0,"isfamily":0,"ownername":"Matt Dolphin"},{"id":"23328472569","owner":"57949897@N00","secret":"e3f1a70b4c","server":"631","farm":1,"title":"Jar","ispublic":1,"isfriend":0,"isfamily":0,"ownername":"Jerzy Durczak"},{"id":"44535570830","owner":"162707131@N05","secret":"d026ff05dd","server":"4867","farm":5,"title":"Jar","ispublic":1,"isfriend":0,"isfamily":0,"ownername":"Connie_little"},{"id":"4699026974","owner":"35016951@N00","secret":"45c7f38665","server":"4066","farm":5,"title":"Jar","ispublic":1,"isfriend":0,"isfamily":0,"ownername":"mattpete"},{"id":"3508423858","owner":"26127225@N06","secret":"eb01bd0b4b","server":"3537","farm":4,"title":"Jar","ispublic":1,"isfriend":0,"isfamily":0,"ownername":"M E L A D \u2663\u2665"},{"id":"2337178863","owner":"68236655@N00","secret":"83cdef63f9","server":"2214","farm":3,"title":"jar","ispublic":1,"isfriend":0,"isfamily":0,"ownername":"funkypancake"},{"id":"6680735863","owner":"27791851@N05","secret":"3a231765df","server":"7012","farm":8,"title":"Jar","ispublic":1,"isfriend":0,"isfamily":0,"ownername":"Cole802Photography"}]},"stat":"ok"}