{"photos":{"page":1,"pages":4993,"perpage":15,"total":"74886","photo":[{"id":"562496275","owner":"78695167@N00","secret":"af4ef88fe5","server":"1269","farm":2,"title":"Jedi Council 2007","ispublic":1,"isfriend":0,"isfamily":0,"ownername":"Zeetz Jones"},{"id":"16130864577","owner":"47189863@N05","secret":"edaf19d199","server":"7507","farm":8,"title":"Jedi","ispublic":1,"isfriend":0,"isfamily":0,"ownername":"\u2665TRINITY\u2665"},{"id":"15187951423","owner":"84176344@N02","secret":"4937f08cb2","server":"5607","farm":6,"title":"Avatar Jedi: Group","ispublic":1,"isfriend":0,"isfamily":0,"ownername":"MCLegoboy"},{"id":"5982181571","owner":"23397895@N08","secret":"9416570745","server":"6012","farm":7,"title":"Jedi VS. Sith","ispublic":1,"isfriend":0,"isfamily":0,"ownername":"Oky - Space Ranger"},{"id":"4865691835","owner":"36751018@N03","secret":"389b13e73d","server":"4118","farm":5,"title":"Jedi Knight (Day 5)","ispublic":1,"isfriend":0,"isfamily":0,"ownername":"Zeessi"},{"id":"20406185868","owner":"31240046@N06","secret":"521f926f0f","server":"773","farm":1,"title":"Jedi Knight and Jeremy Pyles as Darth Maul 2015 Phoenix Comicon","ispublic":1,"isfriend":0,"isfamily":0,"ownername":"gbrummett"},{"id":"24191026192","owner":"52298140@N06","secret":"ace96d5574","server":"1545","farm":2,"title":"jedi or sith-","ispublic":1,"isfriend":0,"isfamily":0,"ownername":"arrowlili"},{"id":"3483785903","owner":"7167788@N04","secret":"3884be7b1c","server":"3621","farm":4,"title":"Master Jedi","ispublic":1,"isfriend":0,"isfamily":0,"ownername":"dracorubio"},{"id":"368506814","owner":"64576282@N00","secret":"9297603a9d","server":"187","farm":1,"title":"Jedi Trainer intense stare","ispublic":1,"isfriend":0,"isfamily":0,"ownername":"FrogMiller"},{"id":"6032369298","owner":"32649046@N08","secret":"f0e3cb8dd0","server":"6086","farm":7,"title":"Old Republic Jedi and Troopers","ispublic":1,"isfriend":0,"isfamily":0,"ownername":"JasBrick"},{"id":"5266930831","owner":"7167788@N04","secret":"6886abc24e","server":"5245","farm":6,"title":"339 Dark Jedi","ispublic":1,"isfriend":0,"isfamily":0,"ownername":"dracorubio"},{"id":"13985384449","owner":"111421927@N08","secret":"ab35110e72","server":"7364","farm":8,"title":"Star Wars: Jedi Padawan -Chapter 1- Room of a Thousand Fountains","ispublic":1,"isfriend":0,"isfamily":0,"ownername":"Echo Saber"},{"id":"16845776796","owner":"78006269@N04","secret":"5e620d43bf","server":"7637","farm":8,"title":"The Life of a Jedi #4- Exploring the Archives","ispublic":1,"isfriend":0,"isfamily":0,"ownername":"Brickwielder"},{"id":"16642856585","owner":"78006269@N04","secret":"51d79e6337","server":"8578","farm":9,"title":"The Life of a Jedi 1#- Being Taken to the Temple","ispublic":1,"isfriend":0,"isfamily":0,"ownername":"Brickwielder"},{"id":"14809599241","owner":"34607320@N04","secret":"9fe8406a60","server":"5586","farm":6,"title":"Jedi General in the lead.","ispublic":1,"isfriend":0,"isfamily":0,"ownername":"kevinmboots77"}]},"stat":"ok"}