{"photos":{"page":1,"pages":26964,"perpage":15,"total":"404452","photo":[{"id":"14518698495","owner":"73422502@N08","secret":"e52ee01deb","server":"2932","farm":3,"title":"Jump","ispublic":1,"isfriend":0,"isfamily":0,"ownername":"Zeeyolq Photography"},{"id":"2815126224","owner":"11121917@N07","secret":"5776a7772d","server":"3088","farm":4,"title":"jump","ispublic":1,"isfriend":0,"isfamily":0,"ownername":"maxpiemontese"},{"id":"6093244629","owner":"43365132@N05","secret":"7b76426b2c","server":"6080","farm":7,"title":"Jump","ispublic":1,"isfriend":0,"isfamily":0,"ownername":"Riccardo Ravelli"},{"id":"2721007496","owner":"68575154@N00","secret":"73585c448d","server":"3067","farm":4,"title":"Jump","ispublic":1,"isfriend":0,"isfamily":0,"ownername":"ShakeFrog"},{"id":"2385185519","owner":"21692577@N02","secret":"6208201b43","server":"2229","farm":3,"title":"Jump","ispublic":1,"isfriend":0,"isfamily":0,"ownername":"Danny VB"},{"id":"3723310265","owner":"40071764@N03","secret":"5c3ee6590d","server":"2670","farm":3,"title":"Jump!","ispublic":1,"isfriend":0,"isfamily":0,"ownername":"Screatch"},{"id":"13907290922","owner":"21692577@N02","secret":"a2a47ac8c6","server":"2922","farm":3,"title":"Jump","ispublic":1,"isfriend":0,"isfamily":0,"ownername":"Danny VB"},{"id":"531071015","owner":"8631087@N02","secret":"45e0b0413d","server":"1180","farm":2,"title":"Jump","ispublic":1,"isfriend":0,"isfamily":0,"ownername":"namja806"},{"id":"386036728","owner":"53375488@N00","secret":"02a4af99f2","server":"65","farm":1,"title":"jump","ispublic":1,"isfriend":0,"isfamily":0,"ownername":"jgwat"},{"id":"6947819734","owner":"78558851@N05","secret":"3097500f29","server":"7238","farm":8,"title":"jump","ispublic":1,"isfriend":0,"isfamily":0,"ownername":"Michael Kaltenboeck"},{"id":"759369612","owner":"17962660@N00","secret":"af6ddaa171","server":"1357","farm":2,"title":"Jump","ispublic":1,"isfriend":0,"isfamily":0,"ownername":"Pamela Lin Photography"},{"id":"5071619404","owner":"54170186@N05","secret":"76cb09f5bf","server":"4147","farm":5,"title":"Jump","ispublic":1,"isfriend":0,"isfamily":0,"ownername":"Andrej Grzn\u00e1r"},{"id":"2187875657","owner":"22682008@N05","secret":"c52e64169d","server":"2376","farm":3,"title":"Jump!","ispublic":1,"isfriend":0,"isfamily":0,"ownername":"rdelwiche"},{"id":"3234568942","owner":"34803130@N03","secret":"4cb53b5432","server":"3114","farm":4,"title":"jump","ispublic":1,"isfriend":0,"isfamily":0,"ownername":"loutomlinson"},{"id":"9417192110","owner":"30617044@N03","secret":"e6d4cb20bb","server":"5504","farm":6,"title":"jump!","ispublic":1,"isfriend":0,"isfamily":0,"ownername":"Bojana Paovic"}]},"stat":"ok"}