{"photos":{"page":1,"pages":19782,"perpage":15,"total":"296716","photo":[{"id":"6881428366","owner":"76518626@N05","secret":"db4c9e498a","server":"7208","farm":8,"title":"Jungle","ispublic":1,"isfriend":0,"isfamily":0,"ownername":"BaderTv F"},{"id":"433187552","owner":"61926883@N00","secret":"fcf7e6d44e","server":"156","farm":1,"title":"Jungle","ispublic":1,"isfriend":0,"isfamily":0,"ownername":"DBduo Photography"},{"id":"5245045033","owner":"58932090@N00","secret":"d9d2a54522","server":"5045","farm":6,"title":"Jungle","ispublic":1,"isfriend":0,"isfamily":0,"ownername":"lyzadanger"},{"id":"35219808675","owner":"56949160@N03","secret":"3e3b362201","server":"4250","farm":5,"title":"jungle","ispublic":1,"isfriend":0,"isfamily":0,"ownername":"coupeuse meier"},{"id":"15883272864","owner":"28495394@N07","secret":"c95d9894f6","server":"7320","farm":8,"title":"Jungle","ispublic":1,"isfriend":0,"isfamily":0,"ownername":"Sake Ieneka"},{"id":"6854141041","owner":"75532131@N05","secret":"2b8b9cd4ed","server":"7037","farm":8,"title":"Jungle","ispublic":1,"isfriend":0,"isfamily":0,"ownername":"A\u043c\u03b9x\u03b9t\u0251 N\u0454ox"},{"id":"4799838754","owner":"49554852@N00","secret":"5709d27ef5","server":"4077","farm":5,"title":"Jungle","ispublic":1,"isfriend":0,"isfamily":0,"ownername":"m00nbugg"},{"id":"29580014684","owner":"130655349@N05","secret":"0a4727c86b","server":"5229","farm":6,"title":"Jungle","ispublic":1,"isfriend":0,"isfamily":0,"ownername":"vadim.zhuravskiy"},{"id":"5038460333","owner":"42068644@N02","secret":"8027192b21","server":"4121","farm":5,"title":"Jungle...","ispublic":1,"isfriend":0,"isfamily":0,"ownername":"Tahiticed"},{"id":"1334530150","owner":"23642145@N00","secret":"144a339938","server":"1276","farm":2,"title":"Jungle","ispublic":1,"isfriend":0,"isfamily":0,"ownername":"Accretion Disc"},{"id":"5706669106","owner":"62698134@N06","secret":"3d49d41139","server":"2703","farm":3,"title":"Jungle","ispublic":1,"isfriend":0,"isfamily":0,"ownername":"Expert_Driller2011"},{"id":"6892541528","owner":"42992406@N04","secret":"970726c320","server":"7068","farm":8,"title":"jungle","ispublic":1,"isfriend":0,"isfamily":0,"ownername":"milox82"},{"id":"3504132644","owner":"37294892@N04","secret":"62942a648a","server":"3359","farm":4,"title":"jungle","ispublic":1,"isfriend":0,"isfamily":0,"ownername":"eyes in zurich"},{"id":"1334533356","owner":"23642145@N00","secret":"43088b7052","server":"1398","farm":2,"title":"Jungle","ispublic":1,"isfriend":0,"isfamily":0,"ownername":"Accretion Disc"},{"id":"6266891613","owner":"63467576@N03","secret":"798abb7df3","server":"6099","farm":7,"title":"Jungle","ispublic":1,"isfriend":0,"isfamily":0,"ownername":"Tasty food & photography"}]},"stat":"ok"}