{"photos":{"page":1,"pages":12224,"perpage":15,"total":"183347","photo":[{"id":"5020913497","owner":"33666746@N03","secret":"5b657c099e","server":"4146","farm":5,"title":"Karate","ispublic":1,"isfriend":0,"isfamily":0,"ownername":"sana_ayubshah"},{"id":"5301104883","owner":"29797746@N08","secret":"dfb7a697c7","server":"5282","farm":6,"title":"Karate","ispublic":1,"isfriend":0,"isfamily":0,"ownername":"The Consortium"},{"id":"1347074034","owner":"12676267@N08","secret":"3ec31071de","server":"1007","farm":2,"title":"karate","ispublic":1,"isfriend":0,"isfamily":0,"ownername":"cosassencillas"},{"id":"5301699676","owner":"29797746@N08","secret":"0c73724bec","server":"5085","farm":6,"title":"Karate","ispublic":1,"isfriend":0,"isfamily":0,"ownername":"The Consortium"},{"id":"6990004119","owner":"41887251@N05","secret":"0e9ef9ea71","server":"7068","farm":8,"title":"Karate","ispublic":1,"isfriend":0,"isfamily":0,"ownername":"36th Chamber"},{"id":"5301700466","owner":"29797746@N08","secret":"4160f449fd","server":"5161","farm":6,"title":"Karate","ispublic":1,"isfriend":0,"isfamily":0,"ownername":"The Consortium"},{"id":"13326071023","owner":"121010198@N03","secret":"8987f29dcc","server":"3818","farm":4,"title":"Karate","ispublic":1,"isfriend":0,"isfamily":0,"ownername":"Wsp\u00f3lny-Kadr (Marcin Kubiak)"},{"id":"5301106467","owner":"29797746@N08","secret":"b8b73871f7","server":"5247","farm":6,"title":"Karate","ispublic":1,"isfriend":0,"isfamily":0,"ownername":"The Consortium"},{"id":"5301106213","owner":"29797746@N08","secret":"12302d0158","server":"5167","farm":6,"title":"Karate","ispublic":1,"isfriend":0,"isfamily":0,"ownername":"The Consortium"},{"id":"5301107265","owner":"29797746@N08","secret":"6a72a8e1ee","server":"5281","farm":6,"title":"Karate","ispublic":1,"isfriend":0,"isfamily":0,"ownername":"The Consortium"},{"id":"5301105547","owner":"29797746@N08","secret":"4ff7179309","server":"5125","farm":6,"title":"Karate","ispublic":1,"isfriend":0,"isfamily":0,"ownername":"The Consortium"},{"id":"5301102195","owner":"29797746@N08","secret":"483fe168ba","server":"5168","farm":6,"title":"Karate","ispublic":1,"isfriend":0,"isfamily":0,"ownername":"The Consortium"},{"id":"5301696184","owner":"29797746@N08","secret":"6f09e0b19e","server":"5003","farm":6,"title":"Karate","ispublic":1,"isfriend":0,"isfamily":0,"ownername":"The Consortium"},{"id":"5301698212","owner":"29797746@N08","secret":"0b60d1ea03","server":"5121","farm":6,"title":"Karate","ispublic":1,"isfriend":0,"isfamily":0,"ownername":"The Consortium"},{"id":"28038215798","owner":"156140575@N08","secret":"457471eb83","server":"956","farm":1,"title":"Karate","ispublic":1,"isfriend":0,"isfamily":0,"ownername":"vomar76"}]},"stat":"ok"}