{"photos":{"page":1,"pages":33435,"perpage":15,"total":"501518","photo":[{"id":"35402622692","owner":"55959716@N08","secret":"426b7cfdeb","server":"4209","farm":5,"title":"kid","ispublic":1,"isfriend":0,"isfamily":0,"ownername":"Philocycler"},{"id":"44839261732","owner":"55959716@N08","secret":"f88914e883","server":"1936","farm":2,"title":"kid","ispublic":1,"isfriend":0,"isfamily":0,"ownername":"Philocycler"},{"id":"30228475764","owner":"55959716@N08","secret":"f5ffe4befa","server":"5350","farm":6,"title":"kid","ispublic":1,"isfriend":0,"isfamily":0,"ownername":"Philocycler"},{"id":"2855937450","owner":"27875223@N07","secret":"01de5577f0","server":"3009","farm":4,"title":"Kid","ispublic":1,"isfriend":0,"isfamily":0,"ownername":"longamagam"},{"id":"31096793350","owner":"55959716@N08","secret":"0e13ede043","server":"5563","farm":6,"title":"kid","ispublic":1,"isfriend":0,"isfamily":0,"ownername":"Philocycler"},{"id":"29453957312","owner":"55959716@N08","secret":"d8f7dc1d18","server":"8427","farm":9,"title":"kid","ispublic":1,"isfriend":0,"isfamily":0,"ownername":"Philocycler"},{"id":"4282982597","owner":"22424652@N00","secret":"ee23de93d1","server":"2683","farm":3,"title":"kids","ispublic":1,"isfriend":0,"isfamily":0,"ownername":"edtrigger"},{"id":"31140442126","owner":"55959716@N08","secret":"312f921563","server":"5461","farm":6,"title":"kid","ispublic":1,"isfriend":0,"isfamily":0,"ownername":"Philocycler"},{"id":"14837066040","owner":"44674424@N07","secret":"91fb6f3fe6","server":"3846","farm":4,"title":"Kid.","ispublic":1,"isfriend":0,"isfamily":0,"ownername":"Rococo Quyn"},{"id":"5307311830","owner":"27409143@N00","secret":"eb2e9d363b","server":"5206","farm":6,"title":"Kid","ispublic":1,"isfriend":0,"isfamily":0,"ownername":"kb_vaidya"},{"id":"3235636975","owner":"8126142@N06","secret":"feb692c928","server":"3456","farm":4,"title":"Kid","ispublic":1,"isfriend":0,"isfamily":0,"ownername":"teresachin2007"},{"id":"44070400134","owner":"154259107@N08","secret":"8f8d6a5a18","server":"1898","farm":2,"title":"Kids","ispublic":1,"isfriend":0,"isfamily":0,"ownername":"tom.too"},{"id":"15426116666","owner":"29940556@N07","secret":"6de80920d1","server":"3929","farm":4,"title":"kid","ispublic":1,"isfriend":0,"isfamily":0,"ownername":"dogstar966"},{"id":"15729725633","owner":"8729097@N04","secret":"02d6aeae65","server":"7505","farm":8,"title":"kid","ispublic":1,"isfriend":0,"isfamily":0,"ownername":"amir_mku"},{"id":"4371829345","owner":"44305206@N06","secret":"117944c9bc","server":"2785","farm":3,"title":"kid","ispublic":1,"isfriend":0,"isfamily":0,"ownername":"moun2"}]},"stat":"ok"}