{"photos":{"page":1,"pages":2854,"perpage":15,"total":"42804","photo":[{"id":"6545646791","owner":"60129317@N07","secret":"9a8c10e763","server":"7144","farm":8,"title":"Who Kills Who","ispublic":1,"isfriend":0,"isfamily":0,"ownername":"Dorian_TxT"},{"id":"35800743665","owner":"55026884@N06","secret":"36a4bd9282","server":"4236","farm":5,"title":"The Kill","ispublic":1,"isfriend":0,"isfamily":0,"ownername":"Bert Ertman"},{"id":"3830147574","owner":"41536093@N05","secret":"b1ec630571","server":"2501","farm":3,"title":"kill","ispublic":1,"isfriend":0,"isfamily":0,"ownername":"gangsta_king101"},{"id":"6298436238","owner":"68643093@N03","secret":"8c65b971e8","server":"6096","farm":7,"title":"KILL","ispublic":1,"isfriend":0,"isfamily":0,"ownername":"\u68b3\u71c3"},{"id":"6297907059","owner":"68643093@N03","secret":"44e2753f2c","server":"6032","farm":7,"title":"KILL","ispublic":1,"isfriend":0,"isfamily":0,"ownername":"\u68b3\u71c3"},{"id":"6310556230","owner":"11054128@N00","secret":"fd4b792fc2","server":"6115","farm":7,"title":"kill","ispublic":1,"isfriend":0,"isfamily":0,"ownername":"muhammadmurphy"},{"id":"9944805675","owner":"30399098@N08","secret":"faf52f39fd","server":"5334","farm":6,"title":"Kill","ispublic":1,"isfriend":0,"isfamily":0,"ownername":"Metal Traveller"},{"id":"9944827424","owner":"30399098@N08","secret":"474d6beeda","server":"3802","farm":4,"title":"Kill","ispublic":1,"isfriend":0,"isfamily":0,"ownername":"Metal Traveller"},{"id":"19097562464","owner":"8581486@N05","secret":"3be1215391","server":"464","farm":1,"title":"Cheetah kill","ispublic":1,"isfriend":0,"isfamily":0,"ownername":"dickysingh"},{"id":"6298436388","owner":"68643093@N03","secret":"3d07bca8ea","server":"6231","farm":7,"title":"KILL","ispublic":1,"isfriend":0,"isfamily":0,"ownername":"\u68b3\u71c3"},{"id":"6297906963","owner":"68643093@N03","secret":"7fccc07162","server":"6217","farm":7,"title":"KILL","ispublic":1,"isfriend":0,"isfamily":0,"ownername":"\u68b3\u71c3"},{"id":"6298436432","owner":"68643093@N03","secret":"904f385a80","server":"6217","farm":7,"title":"KILL","ispublic":1,"isfriend":0,"isfamily":0,"ownername":"\u68b3\u71c3"},{"id":"6297907129","owner":"68643093@N03","secret":"d762f0e436","server":"6057","farm":7,"title":"KILL","ispublic":1,"isfriend":0,"isfamily":0,"ownername":"\u68b3\u71c3"},{"id":"6298436776","owner":"68643093@N03","secret":"4d822d3277","server":"6223","farm":7,"title":"KILL","ispublic":1,"isfriend":0,"isfamily":0,"ownername":"\u68b3\u71c3"},{"id":"6297907173","owner":"68643093@N03","secret":"4bd03d1a78","server":"6234","farm":7,"title":"KILL","ispublic":1,"isfriend":0,"isfamily":0,"ownername":"\u68b3\u71c3"}]},"stat":"ok"}