{"photos":{"page":1,"pages":26070,"perpage":15,"total":"391036","photo":[{"id":"36919417031","owner":"57792541@N08","secret":"1f42294fff","server":"4355","farm":5,"title":"King...","ispublic":1,"isfriend":0,"isfamily":0,"ownername":"ZenonasM"},{"id":"42850450540","owner":"68801823@N00","secret":"651291702f","server":"1888","farm":2,"title":"King","ispublic":1,"isfriend":0,"isfamily":0,"ownername":"Robby van Moor"},{"id":"16503757555","owner":"47196980@N03","secret":"92dd14a965","server":"8593","farm":9,"title":"KING","ispublic":1,"isfriend":0,"isfamily":0,"ownername":"Commit Larceny"},{"id":"5502028308","owner":"54087061@N03","secret":"5c0c78d033","server":"5213","farm":6,"title":"King","ispublic":1,"isfriend":0,"isfamily":0,"ownername":"www.graffiti-denbosch.nl"},{"id":"9494177135","owner":"92994565@N04","secret":"46a48cca15","server":"5522","farm":6,"title":"King","ispublic":1,"isfriend":0,"isfamily":0,"ownername":"David Dou\u0161a"},{"id":"24464511336","owner":"124464287@N07","secret":"b1af5743b4","server":"1571","farm":2,"title":"King","ispublic":1,"isfriend":0,"isfamily":0,"ownername":"Joe Son Nguyen"},{"id":"4656797285","owner":"23855076@N00","secret":"d4fe962030","server":"4070","farm":5,"title":"King","ispublic":1,"isfriend":0,"isfamily":0,"ownername":"nivu san"},{"id":"14972743562","owner":"52690905@N08","secret":"300e825748","server":"5581","farm":6,"title":"The Monkey King","ispublic":1,"isfriend":0,"isfamily":0,"ownername":"The Deathly Halliwell"},{"id":"5616304172","owner":"73217716@N00","secret":"8fe155e9c8","server":"5306","farm":6,"title":"King","ispublic":1,"isfriend":0,"isfamily":0,"ownername":"teenytinyturkey"},{"id":"2280296696","owner":"22028887@N07","secret":"b082a711c5","server":"2322","farm":3,"title":"King","ispublic":1,"isfriend":0,"isfamily":0,"ownername":"S\u00e9rgio Dur\u00e3es"},{"id":"4404168692","owner":"38075018@N04","secret":"1f95f33c58","server":"4025","farm":5,"title":"king","ispublic":1,"isfriend":0,"isfamily":0,"ownername":"ogocmenler"},{"id":"4007577255","owner":"43503145@N05","secret":"a32ea14c85","server":"2485","farm":3,"title":"king","ispublic":1,"isfriend":0,"isfamily":0,"ownername":"kingjangu"},{"id":"2819461594","owner":"28915104@N04","secret":"100d330438","server":"3076","farm":4,"title":"King","ispublic":1,"isfriend":0,"isfamily":0,"ownername":"Yogui G"},{"id":"32961961554","owner":"131644916@N03","secret":"c709a0f5cb","server":"3848","farm":4,"title":"#king","ispublic":1,"isfriend":0,"isfamily":0,"ownername":"Jodi Rene' ROI BREEN"},{"id":"5487190463","owner":"60098235@N07","secret":"393bfc4d1f","server":"4120","farm":5,"title":"King","ispublic":1,"isfriend":0,"isfamily":0,"ownername":"Chris Bellerophon Dotson"}]},"stat":"ok"}