{"photos":{"page":1,"pages":30487,"perpage":15,"total":"457303","photo":[{"id":"6947162476","owner":"12246329@N02","secret":"b15393eeba","server":"7217","farm":8,"title":"Kitchen","ispublic":1,"isfriend":0,"isfamily":0,"ownername":"*Caity*"},{"id":"4852550005","owner":"63737151@N00","secret":"f4f4cb1339","server":"4081","farm":5,"title":"Kitchen","ispublic":1,"isfriend":0,"isfamily":0,"ownername":"roundedbygravity"},{"id":"2237024765","owner":"37754464@N00","secret":"6c70b7d0f4","server":"2092","farm":3,"title":"Kitchen","ispublic":1,"isfriend":0,"isfamily":0,"ownername":"littlestar19"},{"id":"2417022376","owner":"25683903@N05","secret":"2291f75103","server":"2167","farm":3,"title":"kitchen","ispublic":1,"isfriend":0,"isfamily":0,"ownername":"LCMez"},{"id":"560801328","owner":"50464582@N00","secret":"f19bac17d7","server":"1403","farm":2,"title":"kitchen","ispublic":1,"isfriend":0,"isfamily":0,"ownername":"mon petit fromage"},{"id":"4954614605","owner":"14771153@N04","secret":"4b65e6c4e4","server":"4104","farm":5,"title":"Kitchen","ispublic":1,"isfriend":0,"isfamily":0,"ownername":"slgckgc"},{"id":"3492962734","owner":"7993188@N02","secret":"2a2c547358","server":"3352","farm":4,"title":"kitchen blue","ispublic":1,"isfriend":0,"isfamily":0,"ownername":"Knitty, Vintage and Rosy"},{"id":"5708390762","owner":"62709727@N02","secret":"c951789740","server":"3212","farm":4,"title":"Kitchen","ispublic":1,"isfriend":0,"isfamily":0,"ownername":"Grace Builders West"},{"id":"3038478282","owner":"87902718@N00","secret":"7fa8cff5a5","server":"3245","farm":4,"title":"kitchen","ispublic":1,"isfriend":0,"isfamily":0,"ownername":"nadanaka"},{"id":"254340648","owner":"71878824@N00","secret":"40ae837333","server":"116","farm":1,"title":"Kitchen","ispublic":1,"isfriend":0,"isfamily":0,"ownername":"jonleleu"},{"id":"1615428332","owner":"15319909@N07","secret":"0d518d3be8","server":"2413","farm":3,"title":"kitchen","ispublic":1,"isfriend":0,"isfamily":0,"ownername":"pointewestvilla"},{"id":"5448684368","owner":"48492984@N03","secret":"78a3841ba6","server":"4082","farm":5,"title":"Kitchen","ispublic":1,"isfriend":0,"isfamily":0,"ownername":"lmeredith2010"},{"id":"253461610","owner":"14973569@N00","secret":"2ff5e511b4","server":"103","farm":1,"title":"Kitchen","ispublic":1,"isfriend":0,"isfamily":0,"ownername":"thrashor"},{"id":"13263144443","owner":"119999776@N08","secret":"9359553dc4","server":"2850","farm":3,"title":"Kitchen","ispublic":1,"isfriend":0,"isfamily":0,"ownername":"Classic Revivals"},{"id":"3408030532","owner":"7518956@N02","secret":"62abf0d99b","server":"3324","farm":4,"title":"Kitchen","ispublic":1,"isfriend":0,"isfamily":0,"ownername":"the dartt"}]},"stat":"ok"}