{"photos":{"page":1,"pages":16252,"perpage":15,"total":"243770","photo":[{"id":"11748926486","owner":"100326355@N03","secret":"1cedc874b0","server":"3811","farm":4,"title":"kites","ispublic":1,"isfriend":0,"isfamily":0,"ownername":"abimercado"},{"id":"4434976958","owner":"45492863@N04","secret":"11683906cd","server":"4037","farm":5,"title":"Kites","ispublic":1,"isfriend":0,"isfamily":0,"ownername":"cat_chu"},{"id":"2032996002","owner":"14705900@N02","secret":"6f1e5befc0","server":"2082","farm":3,"title":"Kites","ispublic":1,"isfriend":0,"isfamily":0,"ownername":"happymrlocust"},{"id":"436941202","owner":"41786947@N00","secret":"205f04ef83","server":"176","farm":1,"title":"Kite","ispublic":1,"isfriend":0,"isfamily":0,"ownername":"Steven Pam"},{"id":"2328418561","owner":"62022846@N00","secret":"4726736042","server":"2332","farm":3,"title":"Kite","ispublic":1,"isfriend":0,"isfamily":0,"ownername":"zzathras777"},{"id":"2032161081","owner":"14705900@N02","secret":"c46461ed73","server":"2043","farm":3,"title":"Kites","ispublic":1,"isfriend":0,"isfamily":0,"ownername":"happymrlocust"},{"id":"2747338471","owner":"75106621@N00","secret":"84a279e8f3","server":"3121","farm":4,"title":"Kite","ispublic":1,"isfriend":0,"isfamily":0,"ownername":"willscool13"},{"id":"5655077654","owner":"23635630@N08","secret":"a6681d83ba","server":"5028","farm":6,"title":"Kite","ispublic":1,"isfriend":0,"isfamily":0,"ownername":"adsci"},{"id":"4615330792","owner":"50602384@N00","secret":"d9068c166d","server":"4051","farm":5,"title":"Kite","ispublic":1,"isfriend":0,"isfamily":0,"ownername":"Mai.Nemesis"},{"id":"4939731200","owner":"9090143@N08","secret":"b5bf25236c","server":"4094","farm":5,"title":"kite","ispublic":1,"isfriend":0,"isfamily":0,"ownername":"mahler231"},{"id":"1016514892","owner":"8778398@N06","secret":"6e6a0f6ebe","server":"1198","farm":2,"title":"Kite","ispublic":1,"isfriend":0,"isfamily":0,"ownername":"jesseinman"},{"id":"7579911578","owner":"64455764@N03","secret":"3fb1696332","server":"8163","farm":9,"title":"kite","ispublic":1,"isfriend":0,"isfamily":0,"ownername":"jpMilk"},{"id":"2489240874","owner":"80306207@N00","secret":"dd64b8355b","server":"3094","farm":4,"title":"Kite","ispublic":1,"isfriend":0,"isfamily":0,"ownername":"smith of smiths"},{"id":"3371389606","owner":"33111108@N05","secret":"96ae4340fa","server":"3428","farm":4,"title":"Kite","ispublic":1,"isfriend":0,"isfamily":0,"ownername":"sharonmcflanagan"},{"id":"2936646874","owner":"71235231@N00","secret":"4985e25d29","server":"3031","farm":4,"title":"Kites","ispublic":1,"isfriend":0,"isfamily":0,"ownername":"nicholasjon"}]},"stat":"ok"}