{"photos":{"page":1,"pages":8318,"perpage":15,"total":"124761","photo":[{"id":"9599284744","owner":"36522716@N06","secret":"c0449afb25","server":"3762","farm":4,"title":"Knight","ispublic":1,"isfriend":0,"isfamily":0,"ownername":"fxdx"},{"id":"2640066159","owner":"55785940@N00","secret":"668c611297","server":"3142","farm":4,"title":"knight","ispublic":1,"isfriend":0,"isfamily":0,"ownername":"Tim Cummins"},{"id":"6349613267","owner":"67732671@N03","secret":"e846228cdd","server":"6096","farm":7,"title":"knight","ispublic":1,"isfriend":0,"isfamily":0,"ownername":"Helmie Azmi"},{"id":"14900099742","owner":"95614423@N00","secret":"abcd298848","server":"3860","farm":4,"title":"Knight","ispublic":1,"isfriend":0,"isfamily":0,"ownername":"Turkinator"},{"id":"45954713202","owner":"144063106@N02","secret":"3255148aa4","server":"4830","farm":5,"title":"knight","ispublic":1,"isfriend":0,"isfamily":0,"ownername":"PL BILL"},{"id":"23551123333","owner":"101643774@N05","secret":"69d0ed4673","server":"1537","farm":2,"title":"Knight","ispublic":1,"isfriend":0,"isfamily":0,"ownername":"matthiasstiefel"},{"id":"15583167517","owner":"118021993@N04","secret":"c5d521845a","server":"7535","farm":8,"title":"Knights","ispublic":1,"isfriend":0,"isfamily":0,"ownername":"jozef_purdes"},{"id":"3728074662","owner":"40521609@N03","secret":"0bbdea949a","server":"3477","farm":4,"title":"Knight","ispublic":1,"isfriend":0,"isfamily":0,"ownername":"Yuriy Dyachenko"},{"id":"5082775576","owner":"54859063@N03","secret":"08853e7bb1","server":"4109","farm":5,"title":"Knight","ispublic":1,"isfriend":0,"isfamily":0,"ownername":"Gagan the Dragon"},{"id":"9628740886","owner":"16932300@N07","secret":"e9e6778ddd","server":"3754","farm":4,"title":"Knights","ispublic":1,"isfriend":0,"isfamily":0,"ownername":"Holly W Hopkins"},{"id":"4922719","owner":"46484797@N00","secret":"151ed4b358","server":"4","farm":1,"title":"knight","ispublic":1,"isfriend":0,"isfamily":0,"ownername":"Picturetakindevil"},{"id":"39837557935","owner":"51687473@N02","secret":"c47998d5ef","server":"4802","farm":5,"title":"Knight","ispublic":1,"isfriend":0,"isfamily":0,"ownername":"CliveDodd"},{"id":"383198895","owner":"41894198330@N01","secret":"bb227f135f","server":"150","farm":1,"title":"knight","ispublic":1,"isfriend":0,"isfamily":0,"ownername":"jonlink"},{"id":"9495651993","owner":"36330879@N04","secret":"569efc3027","server":"5530","farm":6,"title":"knight","ispublic":1,"isfriend":0,"isfamily":0,"ownername":"brankocovic"},{"id":"15966332141","owner":"33507619@N05","secret":"252fca4a46","server":"7574","farm":8,"title":"Knight","ispublic":1,"isfriend":0,"isfamily":0,"ownername":"Masudur Rahman Mamoon"}]},"stat":"ok"}