{"photos":{"page":1,"pages":3544,"perpage":15,"total":"53152","photo":[{"id":"23177443371","owner":"80036114@N08","secret":"5cfbb6099a","server":"5756","farm":6,"title":"Knot - Calidris canutus","ispublic":1,"isfriend":0,"isfamily":0,"ownername":"normanwest4tography"},{"id":"19745671501","owner":"80036114@N08","secret":"335bc4a025","server":"365","farm":1,"title":"Knot - Calidris canutus","ispublic":1,"isfriend":0,"isfamily":0,"ownername":"normanwest4tography"},{"id":"5356437129","owner":"39138751@N04","secret":"5ffde3a473","server":"5163","farm":6,"title":"Knot","ispublic":1,"isfriend":0,"isfamily":0,"ownername":"heisajo"},{"id":"15769508411","owner":"114781512@N02","secret":"f467644ba2","server":"5607","farm":6,"title":"Knot","ispublic":1,"isfriend":0,"isfamily":0,"ownername":"Peanut1371"},{"id":"15486661867","owner":"114781512@N02","secret":"ce911db99d","server":"5610","farm":6,"title":"Knot","ispublic":1,"isfriend":0,"isfamily":0,"ownername":"Peanut1371"},{"id":"15455365498","owner":"114781512@N02","secret":"16b6b763fc","server":"5603","farm":6,"title":"Knot","ispublic":1,"isfriend":0,"isfamily":0,"ownername":"Peanut1371"},{"id":"16304253219","owner":"114781512@N02","secret":"b37c223312","server":"7410","farm":8,"title":"Knot","ispublic":1,"isfriend":0,"isfamily":0,"ownername":"Peanut1371"},{"id":"15922097878","owner":"114781512@N02","secret":"9f6ed17388","server":"7538","farm":8,"title":"Knot","ispublic":1,"isfriend":0,"isfamily":0,"ownername":"Peanut1371"},{"id":"15242330110","owner":"114781512@N02","secret":"3fff24e266","server":"2946","farm":3,"title":"Knot","ispublic":1,"isfriend":0,"isfamily":0,"ownername":"Peanut1371"},{"id":"15366641672","owner":"114781512@N02","secret":"800a5bd374","server":"2941","farm":3,"title":"Knot","ispublic":1,"isfriend":0,"isfamily":0,"ownername":"Peanut1371"},{"id":"15173525270","owner":"114781512@N02","secret":"2969c9a75a","server":"2942","farm":3,"title":"Knot","ispublic":1,"isfriend":0,"isfamily":0,"ownername":"Peanut1371"},{"id":"16433797111","owner":"114781512@N02","secret":"69f18e97e8","server":"8588","farm":9,"title":"Knot","ispublic":1,"isfriend":0,"isfamily":0,"ownername":"Peanut1371"},{"id":"16068471649","owner":"114781512@N02","secret":"5cd0dcf357","server":"8612","farm":9,"title":"Knot","ispublic":1,"isfriend":0,"isfamily":0,"ownername":"Peanut1371"},{"id":"11487096293","owner":"80036114@N08","secret":"ab0c5d6917","server":"3720","farm":4,"title":"Knot - Calidris canutus","ispublic":1,"isfriend":0,"isfamily":0,"ownername":"normanwest4tography"},{"id":"14916261782","owner":"114781512@N02","secret":"d05880da0b","server":"3851","farm":4,"title":"Knot","ispublic":1,"isfriend":0,"isfamily":0,"ownername":"Peanut1371"}]},"stat":"ok"}