{"photos":{"page":1,"pages":1683,"perpage":15,"total":"25243","photo":[{"id":"8735960896","owner":"64782870@N00","secret":"8a5941ff3e","server":"7321","farm":8,"title":"Lambs","ispublic":1,"isfriend":0,"isfamily":0,"ownername":"BadgerGravling"},{"id":"8735961926","owner":"64782870@N00","secret":"27a1f0979c","server":"7309","farm":8,"title":"Lambs","ispublic":1,"isfriend":0,"isfamily":0,"ownername":"BadgerGravling"},{"id":"9881535245","owner":"92432665@N06","secret":"56095253a6","server":"2807","farm":3,"title":"Lamb","ispublic":1,"isfriend":0,"isfamily":0,"ownername":"Simon D Wilson1"},{"id":"16539486297","owner":"92823399@N07","secret":"d64ea7e48a","server":"7637","farm":8,"title":"Lamb","ispublic":1,"isfriend":0,"isfamily":0,"ownername":"stanzebla"},{"id":"3969154755","owner":"16379752@N00","secret":"b1a4371dd5","server":"3519","farm":4,"title":"Lambs","ispublic":1,"isfriend":0,"isfamily":0,"ownername":"Wil Freeborn"},{"id":"3435169090","owner":"34449428@N03","secret":"81348d47f3","server":"3342","farm":4,"title":"lambs","ispublic":1,"isfriend":0,"isfamily":0,"ownername":"JuniperFrancis"},{"id":"3391444641","owner":"36170809@N02","secret":"854d72dcab","server":"3663","farm":4,"title":"Lambs","ispublic":1,"isfriend":0,"isfamily":0,"ownername":"lawboys10"},{"id":"33775907074","owner":"130038370@N07","secret":"ea7f775a89","server":"4176","farm":5,"title":"Lamb","ispublic":1,"isfriend":0,"isfamily":0,"ownername":"Robert & Pamela"},{"id":"2359590803","owner":"17261826@N00","secret":"f432db6d73","server":"3052","farm":4,"title":"lamb","ispublic":1,"isfriend":0,"isfamily":0,"ownername":"queenjill"},{"id":"35892828760","owner":"93463155@N07","secret":"9aabd7537f","server":"4325","farm":5,"title":"I'm watching you!","ispublic":1,"isfriend":0,"isfamily":0,"ownername":"Adventures with a Camera"},{"id":"72179952","owner":"20557415@N00","secret":"399dafe28c","server":"35","farm":1,"title":"Lambs","ispublic":1,"isfriend":0,"isfamily":0,"ownername":"The Dogs Blogs"},{"id":"5678919839","owner":"50511453@N08","secret":"a2b6d26fd4","server":"5182","farm":6,"title":"Lambs","ispublic":1,"isfriend":0,"isfamily":0,"ownername":"Kezmo2010"},{"id":"2385027313","owner":"79206134@N00","secret":"85877d722d","server":"2383","farm":3,"title":"Lambs","ispublic":1,"isfriend":0,"isfamily":0,"ownername":"Kirrus"},{"id":"2483720514","owner":"12717669@N02","secret":"cee0f7177e","server":"3172","farm":4,"title":"Lambs","ispublic":1,"isfriend":0,"isfamily":0,"ownername":"scotproof"}]},"stat":"ok"}