{"photos":{"page":1,"pages":4831,"perpage":15,"total":"72460","photo":[{"id":"8670767013","owner":"92330746@N06","secret":"2e2a4b5ce9","server":"8541","farm":9,"title":"leg","ispublic":1,"isfriend":0,"isfamily":0,"ownername":"urban competition"},{"id":"675278232","owner":"9506377@N02","secret":"788408b229","server":"1120","farm":2,"title":"legs","ispublic":1,"isfriend":0,"isfamily":0,"ownername":"drops__"},{"id":"14624026124","owner":"24719640@N03","secret":"00a3fbebc1","server":"5570","farm":6,"title":"leg","ispublic":1,"isfriend":0,"isfamily":0,"ownername":"leguansinmotion"},{"id":"8371356140","owner":"67323670@N07","secret":"0a68edd1ca","server":"8493","farm":9,"title":"leg","ispublic":1,"isfriend":0,"isfamily":0,"ownername":"2019.tele"},{"id":"24205222654","owner":"22163926@N05","secret":"d8e5340876","server":"1487","farm":2,"title":"Leg","ispublic":1,"isfriend":0,"isfamily":0,"ownername":"WalrusTexas"},{"id":"5294555218","owner":"55248006@N06","secret":"c2ca544db7","server":"5207","farm":6,"title":"Leg","ispublic":1,"isfriend":0,"isfamily":0,"ownername":"erica elan ciganek"},{"id":"9391573919","owner":"33776583@N00","secret":"416343f2d9","server":"7323","farm":8,"title":"leg","ispublic":1,"isfriend":0,"isfamily":0,"ownername":"MariaJC"},{"id":"14842759318","owner":"126263278@N05","secret":"4699773d8d","server":"5587","farm":6,"title":"#leg","ispublic":1,"isfriend":0,"isfamily":0,"ownername":"lucenzoblero"},{"id":"6940693700","owner":"67323670@N07","secret":"8a269f11c2","server":"7091","farm":8,"title":"leg...","ispublic":1,"isfriend":0,"isfamily":0,"ownername":"2019.tele"},{"id":"15591739545","owner":"76931866@N03","secret":"886a4b3146","server":"3949","farm":4,"title":"Leg","ispublic":1,"isfriend":0,"isfamily":0,"ownername":"Lola Massotti"},{"id":"44495764002","owner":"154421658@N08","secret":"026b9a051d","server":"1876","farm":2,"title":"quiet donau leg","ispublic":1,"isfriend":0,"isfamily":0,"ownername":"horstdoehler"},{"id":"15598519611","owner":"46433668@N04","secret":"aa0a5800bf","server":"3937","farm":4,"title":"Legs","ispublic":1,"isfriend":0,"isfamily":0,"ownername":"michellecejlon@yahoo.com"},{"id":"5120910210","owner":"36521965462@N01","secret":"548ca48c37","server":"4033","farm":5,"title":"legs","ispublic":1,"isfriend":0,"isfamily":0,"ownername":"dasar"},{"id":"13822876","owner":"21273863@N00","secret":"42ebf5cc96","server":"9","farm":1,"title":"legs","ispublic":1,"isfriend":0,"isfamily":0,"ownername":"azakeri"}]},"stat":"ok"}