{"photos":{"page":1,"pages":68365,"perpage":15,"total":"1025472","photo":[{"id":"7110349263","owner":"69148745@N02","secret":"ef42bde23b","server":"7082","farm":8,"title":"lego","ispublic":1,"isfriend":0,"isfamily":0,"ownername":"land[e]scape"},{"id":"8520469695","owner":"69148745@N02","secret":"bb1e16bb07","server":"8107","farm":9,"title":"Lego","ispublic":1,"isfriend":0,"isfamily":0,"ownername":"land[e]scape"},{"id":"12862605785","owner":"103614218@N03","secret":"a9b3d4bb13","server":"7436","farm":8,"title":"lego","ispublic":1,"isfriend":0,"isfamily":0,"ownername":"simmon12"},{"id":"9993504264","owner":"103614218@N03","secret":"f7d8087181","server":"3763","farm":4,"title":"lego","ispublic":1,"isfriend":0,"isfamily":0,"ownername":"simmon12"},{"id":"9993511294","owner":"103614218@N03","secret":"86394da666","server":"7328","farm":8,"title":"lego","ispublic":1,"isfriend":0,"isfamily":0,"ownername":"simmon12"},{"id":"9993640573","owner":"103614218@N03","secret":"350bbdf20f","server":"2853","farm":3,"title":"lego","ispublic":1,"isfriend":0,"isfamily":0,"ownername":"simmon12"},{"id":"14550627814","owner":"12327675@N05","secret":"ff9c284711","server":"3861","farm":4,"title":"Lego","ispublic":1,"isfriend":0,"isfamily":0,"ownername":"tomkpunkt"},{"id":"9993637763","owner":"103614218@N03","secret":"b14614a59a","server":"7414","farm":8,"title":"lego","ispublic":1,"isfriend":0,"isfamily":0,"ownername":"simmon12"},{"id":"12523256663","owner":"103614218@N03","secret":"9463fd950c","server":"2866","farm":3,"title":"lego","ispublic":1,"isfriend":0,"isfamily":0,"ownername":"simmon12"},{"id":"3105548492","owner":"33132621@N02","secret":"607c667f37","server":"3267","farm":4,"title":"lego","ispublic":1,"isfriend":0,"isfamily":0,"ownername":"javier_cambero"},{"id":"12556210414","owner":"103614218@N03","secret":"a2e84025c2","server":"7314","farm":8,"title":"lego","ispublic":1,"isfriend":0,"isfamily":0,"ownername":"simmon12"},{"id":"17409042601","owner":"133080265@N08","secret":"96cb4ff163","server":"7789","farm":8,"title":"Lego","ispublic":1,"isfriend":0,"isfamily":0,"ownername":"paul.hodgson84"},{"id":"7024569217","owner":"47183913@N00","secret":"5c27539d8c","server":"7240","farm":8,"title":"Lego","ispublic":1,"isfriend":0,"isfamily":0,"ownername":"Mrs Magic"},{"id":"6878407414","owner":"47183913@N00","secret":"53c5571fba","server":"6230","farm":7,"title":"Lego","ispublic":1,"isfriend":0,"isfamily":0,"ownername":"Mrs Magic"},{"id":"6878486266","owner":"47183913@N00","secret":"757b9561b4","server":"6040","farm":7,"title":"Lego","ispublic":1,"isfriend":0,"isfamily":0,"ownername":"Mrs Magic"}]},"stat":"ok"}