{"photos":{"page":1,"pages":5205,"perpage":15,"total":"78071","photo":[{"id":"6290546686","owner":"32649829@N06","secret":"84de162857","server":"6094","farm":7,"title":"letter","ispublic":1,"isfriend":0,"isfamily":0,"ownername":"hl4rbc"},{"id":"4007881690","owner":"79154628@N00","secret":"da3c5c8c98","server":"2437","farm":3,"title":"letters","ispublic":1,"isfriend":0,"isfamily":0,"ownername":"limbte"},{"id":"3294993920","owner":"9261506@N08","secret":"9dcd663bbd","server":"3625","farm":4,"title":"lettering","ispublic":1,"isfriend":0,"isfamily":0,"ownername":"settka"},{"id":"4060072918","owner":"43204387@N00","secret":"9940d8bcf4","server":"3502","farm":4,"title":"Letter","ispublic":1,"isfriend":0,"isfamily":0,"ownername":"madoriene"},{"id":"7066561683","owner":"62037332@N00","secret":"b24785fb5c","server":"5199","farm":6,"title":"Letters","ispublic":1,"isfriend":0,"isfamily":0,"ownername":"Chris Winters"},{"id":"4481778420","owner":"8979094@N03","secret":"e9a4123539","server":"4050","farm":5,"title":"107\/365","ispublic":1,"isfriend":0,"isfamily":0,"ownername":"NooraBintA"},{"id":"35678061121","owner":"64599070@N05","secret":"ee3867cc3e","server":"4233","farm":5,"title":"white letter hairstreak","ispublic":1,"isfriend":0,"isfamily":0,"ownername":"andy_porter69"},{"id":"5327193861","owner":"56822779@N05","secret":"5c47292dba","server":"5201","farm":6,"title":"letter","ispublic":1,"isfriend":0,"isfamily":0,"ownername":"cloverink"},{"id":"8157645095","owner":"78017912@N06","secret":"8637671507","server":"7136","farm":8,"title":"Letters","ispublic":1,"isfriend":0,"isfamily":0,"ownername":"alme_erno"},{"id":"9106587535","owner":"66517237@N04","secret":"54e9267738","server":"5531","farm":6,"title":"The letter","ispublic":1,"isfriend":0,"isfamily":0,"ownername":"55randomclicks"},{"id":"35575757126","owner":"23665057@N02","secret":"789640971e","server":"4189","farm":5,"title":"The love letter","ispublic":1,"isfriend":0,"isfamily":0,"ownername":"Mara ~earth light~"},{"id":"22425708151","owner":"76099040@N02","secret":"a2c298b973","server":"660","farm":1,"title":"Letters","ispublic":1,"isfriend":0,"isfamily":0,"ownername":"GalichLena"},{"id":"34035784185","owner":"95129203@N04","secret":"9062000182","server":"2867","farm":3,"title":"Letters","ispublic":1,"isfriend":0,"isfamily":0,"ownername":"EdoB."},{"id":"6892588423","owner":"62968500@N04","secret":"136c54d8a4","server":"7065","farm":8,"title":"letter","ispublic":1,"isfriend":0,"isfamily":0,"ownername":"Yulia Harding"}]},"stat":"ok"}