{"photos":{"page":1,"pages":135826,"perpage":15,"total":"2037388","photo":[{"id":"35709591491","owner":"73422502@N08","secret":"d6b0204851","server":"4241","farm":5,"title":"Life","ispublic":1,"isfriend":0,"isfamily":0,"ownername":"Zeeyolq Photography"},{"id":"35389865290","owner":"73422502@N08","secret":"a7fb7de8c3","server":"4257","farm":5,"title":"Life","ispublic":1,"isfriend":0,"isfamily":0,"ownername":"Zeeyolq Photography"},{"id":"16530345079","owner":"93269402@N08","secret":"27b8479e2c","server":"8573","farm":9,"title":"life","ispublic":1,"isfriend":0,"isfamily":0,"ownername":"Bhalalhaika"},{"id":"14294010530","owner":"73422502@N08","secret":"76657406c9","server":"2936","farm":3,"title":"Life","ispublic":1,"isfriend":0,"isfamily":0,"ownername":"Zeeyolq Photography"},{"id":"8411131726","owner":"24058123@N07","secret":"d8f744e664","server":"8513","farm":9,"title":"life","ispublic":1,"isfriend":0,"isfamily":0,"ownername":"mauro maffina"},{"id":"34773474544","owner":"73422502@N08","secret":"d3ddd2f33e","server":"4135","farm":5,"title":"Life","ispublic":1,"isfriend":0,"isfamily":0,"ownername":"Zeeyolq Photography"},{"id":"36216964685","owner":"148260005@N04","secret":"053224a0e9","server":"4330","farm":5,"title":"#life#","ispublic":1,"isfriend":0,"isfamily":0,"ownername":"yangwesley"},{"id":"36081939791","owner":"148260005@N04","secret":"79ff158657","server":"4302","farm":5,"title":"#life#","ispublic":1,"isfriend":0,"isfamily":0,"ownername":"yangwesley"},{"id":"35381497154","owner":"148260005@N04","secret":"f2c2fb8d4e","server":"4315","farm":5,"title":"#life#","ispublic":1,"isfriend":0,"isfamily":0,"ownername":"yangwesley"},{"id":"35845533985","owner":"156095587@N06","secret":"6fb70cb2d1","server":"4215","farm":5,"title":"#life","ispublic":1,"isfriend":0,"isfamily":0,"ownername":"ayseakg\u00fcl"},{"id":"35535969736","owner":"73422502@N08","secret":"413b80619d","server":"4206","farm":5,"title":"Life","ispublic":1,"isfriend":0,"isfamily":0,"ownername":"Zeeyolq Photography"},{"id":"25738341450","owner":"73422502@N08","secret":"a5215e4052","server":"1593","farm":2,"title":"life","ispublic":1,"isfriend":0,"isfamily":0,"ownername":"Zeeyolq Photography"},{"id":"5502182589","owner":"58171968@N05","secret":"d2b28d4552","server":"5059","farm":6,"title":"life","ispublic":1,"isfriend":0,"isfamily":0,"ownername":"qhh001"},{"id":"8267102804","owner":"66442742@N08","secret":"f632baf08e","server":"8481","farm":9,"title":"~Life~","ispublic":1,"isfriend":0,"isfamily":0,"ownername":"Lenzmaan"},{"id":"25727803805","owner":"73422502@N08","secret":"6c9df68c72","server":"1505","farm":2,"title":"Life","ispublic":1,"isfriend":0,"isfamily":0,"ownername":"Zeeyolq Photography"}]},"stat":"ok"}