{"photos":{"page":1,"pages":12599,"perpage":15,"total":"188976","photo":[{"id":"6137660000","owner":"41730849@N05","secret":"a8b74a1cf9","server":"6164","farm":7,"title":"Lightning","ispublic":1,"isfriend":0,"isfamily":0,"ownername":"Bert Modderman"},{"id":"6137583264","owner":"41730849@N05","secret":"7167d266ef","server":"6206","farm":7,"title":"Lightning","ispublic":1,"isfriend":0,"isfamily":0,"ownername":"Bert Modderman"},{"id":"6133951711","owner":"41449400@N05","secret":"8e09c3c667","server":"6156","farm":7,"title":"Lightning","ispublic":1,"isfriend":0,"isfamily":0,"ownername":"Bart van Stratum"},{"id":"18411247","owner":"49502989021@N01","secret":"018f661d30","server":"13","farm":1,"title":"Lightning","ispublic":1,"isfriend":0,"isfamily":0,"ownername":"SnSllvn"},{"id":"36215910895","owner":"116059247@N03","secret":"b92cf2d300","server":"4309","farm":5,"title":"lightning","ispublic":1,"isfriend":0,"isfamily":0,"ownername":"Andy Buchholz"},{"id":"6133951579","owner":"41449400@N05","secret":"2604e2b9c9","server":"6089","farm":7,"title":"Lightning","ispublic":1,"isfriend":0,"isfamily":0,"ownername":"Bart van Stratum"},{"id":"14256560104","owner":"55296876@N06","secret":"3a01cc5a24","server":"3763","farm":4,"title":"LIGHTNING","ispublic":1,"isfriend":0,"isfamily":0,"ownername":"alexxdee"},{"id":"46098557761","owner":"42751028@N03","secret":"29dff7fc01","server":"4895","farm":5,"title":"Lightning","ispublic":1,"isfriend":0,"isfamily":0,"ownername":"Turki al-Hamad"},{"id":"15499072371","owner":"68942208@N02","secret":"cb969805f8","server":"3943","farm":4,"title":"Lightning","ispublic":1,"isfriend":0,"isfamily":0,"ownername":"tsbl2000"},{"id":"6771097341","owner":"27095118@N00","secret":"63a705e869","server":"7141","farm":8,"title":"Lightning","ispublic":1,"isfriend":0,"isfamily":0,"ownername":"nathan_lounds"},{"id":"5967242121","owner":"33193190@N02","secret":"795831f490","server":"6024","farm":7,"title":"Lightning","ispublic":1,"isfriend":0,"isfamily":0,"ownername":"Birdman of El Paso"},{"id":"7170448160","owner":"66214789@N04","secret":"3a5c104263","server":"7091","farm":8,"title":"lightning","ispublic":1,"isfriend":0,"isfamily":0,"ownername":"Bas Bakema"},{"id":"3762193048","owner":"53986933@N00","secret":"ecaa18a3a1","server":"3438","farm":4,"title":"Lightning","ispublic":1,"isfriend":0,"isfamily":0,"ownername":"snowpeak"},{"id":"2763677140","owner":"18213356@N00","secret":"8df1799751","server":"3244","farm":4,"title":"Lightning","ispublic":1,"isfriend":0,"isfamily":0,"ownername":"Tom Harrington"},{"id":"2763677972","owner":"18213356@N00","secret":"b2041e7978","server":"3153","farm":4,"title":"Lightning","ispublic":1,"isfriend":0,"isfamily":0,"ownername":"Tom Harrington"}]},"stat":"ok"}