{"photos":{"page":1,"pages":41108,"perpage":15,"total":"616614","photo":[{"id":"16004228473","owner":"128094957@N07","secret":"123c27f4d6","server":"8669","farm":9,"title":"Lighthouse","ispublic":1,"isfriend":0,"isfamily":0,"ownername":"phillmcgraa"},{"id":"14668144310","owner":"21692577@N02","secret":"d7f397b98a","server":"3895","farm":4,"title":"lighthouse","ispublic":1,"isfriend":0,"isfamily":0,"ownername":"Danny VB"},{"id":"6053359667","owner":"66403346@N07","secret":"5f9d4ed45b","server":"6064","farm":7,"title":"lighthouse","ispublic":1,"isfriend":0,"isfamily":0,"ownername":"clemens02"},{"id":"14167283900","owner":"95640950@N02","secret":"56a31e3cf7","server":"3851","farm":4,"title":"Lighthouse","ispublic":1,"isfriend":0,"isfamily":0,"ownername":"Kai Lemke"},{"id":"16287740968","owner":"126497776@N07","secret":"57d2896df3","server":"7415","farm":8,"title":"lighthouse","ispublic":1,"isfriend":0,"isfamily":0,"ownername":"Mr. 888"},{"id":"8077941939","owner":"88490822@N08","secret":"b363d803f4","server":"8192","farm":9,"title":"Lighthouse","ispublic":1,"isfriend":0,"isfamily":0,"ownername":"GManVespa"},{"id":"6249242989","owner":"67165266@N04","secret":"fb3726fd10","server":"6236","farm":7,"title":"Lighthouse","ispublic":1,"isfriend":0,"isfamily":0,"ownername":"Ruslan Golenkov"},{"id":"5576840682","owner":"59997535@N00","secret":"dc13011d50","server":"5294","farm":6,"title":"lighthouse","ispublic":1,"isfriend":0,"isfamily":0,"ownername":"Tom Eversley"},{"id":"6249113309","owner":"67165266@N04","secret":"42514e8493","server":"6222","farm":7,"title":"Lighthouse","ispublic":1,"isfriend":0,"isfamily":0,"ownername":"Ruslan Golenkov"},{"id":"9696112751","owner":"78538725@N03","secret":"14b281e391","server":"3775","farm":4,"title":"Lighthouse","ispublic":1,"isfriend":0,"isfamily":0,"ownername":"Trent A. Smith"},{"id":"9687050507","owner":"101333033@N06","secret":"f7a4946664","server":"7318","farm":8,"title":"Lighthouse","ispublic":1,"isfriend":0,"isfamily":0,"ownername":"TadejT"},{"id":"34681501250","owner":"75487768@N04","secret":"c4971a03a4","server":"4220","farm":5,"title":"lighthouse","ispublic":1,"isfriend":0,"isfamily":0,"ownername":"barnyz"},{"id":"2158335452","owner":"22371906@N06","secret":"1cd6c24cc6","server":"2381","farm":3,"title":"Lighthouse","ispublic":1,"isfriend":0,"isfamily":0,"ownername":"Brian Aitkenhead [PHOTOGRAPHY]"},{"id":"15136861338","owner":"54103284@N00","secret":"0f8d0ca0af","server":"5552","farm":6,"title":"Lighthouse","ispublic":1,"isfriend":0,"isfamily":0,"ownername":"alotroy"},{"id":"14962295372","owner":"36053919@N02","secret":"4dc7e72138","server":"5554","farm":6,"title":"Lighthouse","ispublic":1,"isfriend":0,"isfamily":0,"ownername":"ErikLevin"}]},"stat":"ok"}