{"photos":{"page":1,"pages":256353,"perpage":15,"total":"3845281","photo":[{"id":"15585290135","owner":"84935187@N04","secret":"642a4e0b04","server":"3954","farm":4,"title":"Light","ispublic":1,"isfriend":0,"isfamily":0,"ownername":"Sunny M5"},{"id":"4332377612","owner":"12608598@N02","secret":"3667edee0d","server":"2754","farm":3,"title":"light","ispublic":1,"isfriend":0,"isfamily":0,"ownername":"Sierragoddess"},{"id":"2633351182","owner":"28295156@N08","secret":"31c60f81ca","server":"3063","farm":4,"title":"lights","ispublic":1,"isfriend":0,"isfamily":0,"ownername":"Artur Netsvetaev"},{"id":"14044505060","owner":"121756996@N08","secret":"0f084a2be5","server":"5195","farm":6,"title":"Light","ispublic":1,"isfriend":0,"isfamily":0,"ownername":"Sigbarth"},{"id":"6587102503","owner":"8003562@N08","secret":"cb69e2a68c","server":"7018","farm":8,"title":"LIGHT","ispublic":1,"isfriend":0,"isfamily":0,"ownername":"khoory123"},{"id":"4563557935","owner":"39391142@N06","secret":"6c4e68afde","server":"3368","farm":4,"title":"Lights","ispublic":1,"isfriend":0,"isfamily":0,"ownername":"Gemma Portella"},{"id":"6018444699","owner":"25602037@N08","secret":"bd32f57189","server":"6002","farm":7,"title":"Lights","ispublic":1,"isfriend":0,"isfamily":0,"ownername":"David THIBAULT"},{"id":"13932500728","owner":"82306114@N07","secret":"20e6dbc6f2","server":"7325","farm":8,"title":"lights","ispublic":1,"isfriend":0,"isfamily":0,"ownername":"YuHao Peng"},{"id":"8750188483","owner":"46450275@N07","secret":"152e41b350","server":"7351","farm":8,"title":"Light","ispublic":1,"isfriend":0,"isfamily":0,"ownername":"The Artfuldodger"},{"id":"41324511301","owner":"123860072@N07","secret":"908c77655b","server":"814","farm":1,"title":"Lights","ispublic":1,"isfriend":0,"isfamily":0,"ownername":"multifaceted_m"},{"id":"13760795435","owner":"86944574@N03","secret":"9cc995df94","server":"7009","farm":8,"title":"Light","ispublic":1,"isfriend":0,"isfamily":0,"ownername":"IsabellaFlore"},{"id":"2148198356","owner":"12674411@N03","secret":"842c75e078","server":"2185","farm":3,"title":"Lights","ispublic":1,"isfriend":0,"isfamily":0,"ownername":"One BIG Freakin Ray of Sunshine :)"},{"id":"6992495132","owner":"71022027@N02","secret":"4cd652d936","server":"7135","farm":8,"title":"Light","ispublic":1,"isfriend":0,"isfamily":0,"ownername":"Stepan Ostarek"},{"id":"3632443013","owner":"28390750@N05","secret":"5b7f0a929b","server":"2449","farm":3,"title":"Light","ispublic":1,"isfriend":0,"isfamily":0,"ownername":"M\u00f2nica V. B."},{"id":"344620338","owner":"71378023@N00","secret":"b922989458","server":"149","farm":1,"title":"Light","ispublic":1,"isfriend":0,"isfamily":0,"ownername":"danielle_pounder23"}]},"stat":"ok"}