{"photos":{"page":1,"pages":24548,"perpage":15,"total":"368209","photo":[{"id":"11958950446","owner":"85315082@N07","secret":"0ccccf9dc0","server":"5495","farm":6,"title":"Lion","ispublic":1,"isfriend":0,"isfamily":0,"ownername":"narendra44mail"},{"id":"3395142097","owner":"14805586@N03","secret":"f4c1b302b0","server":"3590","farm":4,"title":"Lion","ispublic":1,"isfriend":0,"isfamily":0,"ownername":"Michael Lavander"},{"id":"11958550544","owner":"85315082@N07","secret":"de173dae56","server":"3784","farm":4,"title":"Lion","ispublic":1,"isfriend":0,"isfamily":0,"ownername":"narendra44mail"},{"id":"9694943518","owner":"84892197@N08","secret":"cecc65b0fd","server":"3803","farm":4,"title":"Lion","ispublic":1,"isfriend":0,"isfamily":0,"ownername":"JLyn Nature Photography"},{"id":"4838996064","owner":"52336505@N07","secret":"4d6ec6763d","server":"4149","farm":5,"title":"Lion","ispublic":1,"isfriend":0,"isfamily":0,"ownername":"safari-partners"},{"id":"8040094305","owner":"50830259@N06","secret":"e70ba3f3cf","server":"8316","farm":9,"title":"lion","ispublic":1,"isfriend":0,"isfamily":0,"ownername":"dUKe.svk"},{"id":"6034642740","owner":"88198131@N00","secret":"73a737da67","server":"6084","farm":7,"title":"Lion","ispublic":1,"isfriend":0,"isfamily":0,"ownername":"john white photos"},{"id":"5695709533","owner":"21692577@N02","secret":"0b6fbe01e8","server":"5147","farm":6,"title":"lion","ispublic":1,"isfriend":0,"isfamily":0,"ownername":"Danny VB"},{"id":"7790368354","owner":"14093468@N08","secret":"e5cb496e98","server":"7270","farm":8,"title":"LION","ispublic":1,"isfriend":0,"isfamily":0,"ownername":"pace man 2"},{"id":"15125703291","owner":"100340752@N06","secret":"effd11e8b8","server":"5574","farm":6,"title":"lion","ispublic":1,"isfriend":0,"isfamily":0,"ownername":"angoranoir"},{"id":"14059996318","owner":"69856371@N00","secret":"f0d7077901","server":"5482","farm":6,"title":"Lion","ispublic":1,"isfriend":0,"isfamily":0,"ownername":"danskiego"},{"id":"4899152504","owner":"49114357@N08","secret":"fc78f90214","server":"4077","farm":5,"title":"Lion","ispublic":1,"isfriend":0,"isfamily":0,"ownername":"jt893x"},{"id":"1450618163","owner":"7537807@N04","secret":"3db4aa4453","server":"1078","farm":2,"title":"Lion","ispublic":1,"isfriend":0,"isfamily":0,"ownername":"Astrid~73"},{"id":"7318771404","owner":"77096872@N00","secret":"acf6532665","server":"7074","farm":8,"title":"Lion","ispublic":1,"isfriend":0,"isfamily":0,"ownername":"Nelson~Blue"},{"id":"15586628314","owner":"129684005@N08","secret":"32dd3b65aa","server":"7506","farm":8,"title":"Lion","ispublic":1,"isfriend":0,"isfamily":0,"ownername":"Mike Jones Photos"}]},"stat":"ok"}