{"photos":{"page":1,"pages":32922,"perpage":15,"total":"493816","photo":[{"id":"46496923021","owner":"91619997@N04","secret":"b45b113b21","server":"7897","farm":8,"title":"Little","ispublic":1,"isfriend":0,"isfamily":0,"ownername":"De Rode Olifant"},{"id":"36193393171","owner":"30590207@N02","secret":"d9071409ed","server":"4403","farm":5,"title":"Little Penguins","ispublic":1,"isfriend":0,"isfamily":0,"ownername":"misi212"},{"id":"16084730899","owner":"127080240@N07","secret":"f57a1ac05f","server":"7583","farm":8,"title":"Little Italy","ispublic":1,"isfriend":0,"isfamily":0,"ownername":"Hide & Seek Images"},{"id":"43521392630","owner":"113700018@N06","secret":"f8b44f1e8c","server":"1967","farm":2,"title":"little ray \/ \u043b\u0443\u0447\u0438\u043a","ispublic":1,"isfriend":0,"isfamily":0,"ownername":"Den7on"},{"id":"40321844793","owner":"130372894@N04","secret":"35fbbe6158","server":"7852","farm":8,"title":"Little Grebe","ispublic":1,"isfriend":0,"isfamily":0,"ownername":"brianwaller703"},{"id":"14448648812","owner":"115645766@N05","secret":"29087f94aa","server":"5513","farm":6,"title":"Little","ispublic":1,"isfriend":0,"isfamily":0,"ownername":"Aymeric Kaczmarski"},{"id":"34917385504","owner":"128600095@N02","secret":"4300e32036","server":"4045","farm":5,"title":"Little Mermaid ;)","ispublic":1,"isfriend":0,"isfamily":0,"ownername":"follow*light"},{"id":"395068971","owner":"40040700146@N01","secret":"dda698c6b3","server":"174","farm":1,"title":"little","ispublic":1,"isfriend":0,"isfamily":0,"ownername":"yi"},{"id":"3061526660","owner":"32804156@N04","secret":"ef87313b55","server":"3231","farm":4,"title":"Little","ispublic":1,"isfriend":0,"isfamily":0,"ownername":"nocturne_snow"},{"id":"28898386478","owner":"149467991@N04","secret":"0aff293434","server":"1734","farm":2,"title":"a little after sunset","ispublic":1,"isfriend":0,"isfamily":0,"ownername":"uiriidolgalev"},{"id":"7366842604","owner":"43815942@N07","secret":"69a63b5866","server":"7241","farm":8,"title":"Little","ispublic":1,"isfriend":0,"isfamily":0,"ownername":"MudMapImages"},{"id":"35010719925","owner":"119679149@N03","secret":"63208048f1","server":"4268","farm":5,"title":"Little Owl (Athene noctua)","ispublic":1,"isfriend":0,"isfamily":0,"ownername":"Fly~catcher"},{"id":"35229948192","owner":"30590207@N02","secret":"64c77f28c0","server":"4233","farm":5,"title":"little cat","ispublic":1,"isfriend":0,"isfamily":0,"ownername":"misi212"},{"id":"12676913693","owner":"114017326@N05","secret":"7d7fca700c","server":"2870","farm":3,"title":"Little waterfall","ispublic":1,"isfriend":0,"isfamily":0,"ownername":"Snowlike96"},{"id":"395063021","owner":"40040700146@N01","secret":"09afe14487","server":"148","farm":1,"title":"little","ispublic":1,"isfriend":0,"isfamily":0,"ownername":"yi"}]},"stat":"ok"}