{"photos":{"page":1,"pages":3973,"perpage":15,"total":"59594","photo":[{"id":"44461455764","owner":"154421658@N08","secret":"7aeeca935b","server":"1972","farm":2,"title":"Lobster","ispublic":1,"isfriend":0,"isfamily":0,"ownername":"horstdoehler"},{"id":"236349522","owner":"41894170049@N01","secret":"6b5fcfb545","server":"86","farm":1,"title":"Lobster","ispublic":1,"isfriend":0,"isfamily":0,"ownername":"andrewmalone"},{"id":"3936975325","owner":"37526366@N03","secret":"1ccd0b1394","server":"2556","farm":3,"title":"Lobster","ispublic":1,"isfriend":0,"isfamily":0,"ownername":"imaginaryz"},{"id":"3936972769","owner":"37526366@N03","secret":"403bbb4c35","server":"3461","farm":4,"title":"Lobster","ispublic":1,"isfriend":0,"isfamily":0,"ownername":"imaginaryz"},{"id":"33066284606","owner":"126001807@N05","secret":"a83a2ef9fc","server":"2493","farm":3,"title":"#Lobster#","ispublic":1,"isfriend":0,"isfamily":0,"ownername":"lakshitha_sampath"},{"id":"3936971069","owner":"37526366@N03","secret":"1e314dcdb8","server":"2457","farm":3,"title":"Lobster","ispublic":1,"isfriend":0,"isfamily":0,"ownername":"imaginaryz"},{"id":"4195389525","owner":"37654439@N03","secret":"279594ab65","server":"2683","farm":3,"title":"lobster","ispublic":1,"isfriend":0,"isfamily":0,"ownername":"bethany.micheletti"},{"id":"5558609931","owner":"55412344@N07","secret":"46944e06ae","server":"5257","farm":6,"title":"Lobster","ispublic":1,"isfriend":0,"isfamily":0,"ownername":"Rebecca Slabbers"},{"id":"3754058943","owner":"99897356@N00","secret":"d36d7f9653","server":"3458","farm":4,"title":"Lobster","ispublic":1,"isfriend":0,"isfamily":0,"ownername":"silverblue_2005"},{"id":"7740759286","owner":"53808944@N07","secret":"e89ddf0dd2","server":"8288","farm":9,"title":"Lobster","ispublic":1,"isfriend":0,"isfamily":0,"ownername":"Thirteensteps13"},{"id":"3719215670","owner":"12535801@N03","secret":"d03ab33560","server":"3488","farm":4,"title":"Lobster ?","ispublic":1,"isfriend":0,"isfamily":0,"ownername":"collied"},{"id":"6747036711","owner":"32623873@N07","secret":"a845d0923b","server":"7159","farm":8,"title":"Lobster","ispublic":1,"isfriend":0,"isfamily":0,"ownername":"tkecincy"},{"id":"3248481139","owner":"34150866@N05","secret":"3dca4e9446","server":"3469","farm":4,"title":"Lobster","ispublic":1,"isfriend":0,"isfamily":0,"ownername":"nikman."},{"id":"12240878805","owner":"112579413@N05","secret":"1a77529f37","server":"7323","farm":8,"title":"Lobster","ispublic":1,"isfriend":0,"isfamily":0,"ownername":"arigrumelli"},{"id":"13504818154","owner":"45306057@N02","secret":"8ab644babb","server":"3709","farm":4,"title":"Lobster","ispublic":1,"isfriend":0,"isfamily":0,"ownername":"John M Butler"}]},"stat":"ok"}