{"photos":{"page":1,"pages":262446,"perpage":15,"total":"3936688","photo":[{"id":"29491986160","owner":"21680391@N04","secret":"d7435d55d5","server":"8459","farm":9,"title":"London","ispublic":1,"isfriend":0,"isfamily":0,"ownername":"justinclayton99"},{"id":"5011370054","owner":"36587311@N08","secret":"31e8d387ee","server":"4102","farm":5,"title":"london","ispublic":1,"isfriend":0,"isfamily":0,"ownername":"\u25baCubaGallery"},{"id":"16298657569","owner":"28596055@N02","secret":"b606bae4fe","server":"7426","farm":8,"title":"london","ispublic":1,"isfriend":0,"isfamily":0,"ownername":"dorinser"},{"id":"22762252842","owner":"21680391@N04","secret":"fd6df12511","server":"732","farm":1,"title":"London","ispublic":1,"isfriend":0,"isfamily":0,"ownername":"justinclayton99"},{"id":"23097463112","owner":"21680391@N04","secret":"ed9b34cc88","server":"742","farm":1,"title":"london","ispublic":1,"isfriend":0,"isfamily":0,"ownername":"justinclayton99"},{"id":"23024489089","owner":"21680391@N04","secret":"efb8a2fdb7","server":"5757","farm":6,"title":"London","ispublic":1,"isfriend":0,"isfamily":0,"ownername":"justinclayton99"},{"id":"29537417995","owner":"21680391@N04","secret":"a7277b7750","server":"8506","farm":9,"title":"London","ispublic":1,"isfriend":0,"isfamily":0,"ownername":"justinclayton99"},{"id":"5246332732","owner":"21775664@N07","secret":"8e4e930a16","server":"5010","farm":6,"title":"London","ispublic":1,"isfriend":0,"isfamily":0,"ownername":"davidgutierrez.co.uk"},{"id":"5806249880","owner":"21775664@N07","secret":"842df1a8de","server":"3414","farm":4,"title":"London","ispublic":1,"isfriend":0,"isfamily":0,"ownername":"davidgutierrez.co.uk"},{"id":"8503250623","owner":"21775664@N07","secret":"e254492ae9","server":"8381","farm":9,"title":"London","ispublic":1,"isfriend":0,"isfamily":0,"ownername":"davidgutierrez.co.uk"},{"id":"9065634113","owner":"21775664@N07","secret":"028ae2c7f2","server":"7397","farm":8,"title":"London","ispublic":1,"isfriend":0,"isfamily":0,"ownername":"davidgutierrez.co.uk"},{"id":"6032898556","owner":"21775664@N07","secret":"44eaafea73","server":"6087","farm":7,"title":"London","ispublic":1,"isfriend":0,"isfamily":0,"ownername":"davidgutierrez.co.uk"},{"id":"3293409244","owner":"21775664@N07","secret":"7e38f0a49b","server":"3576","farm":4,"title":"London","ispublic":1,"isfriend":0,"isfamily":0,"ownername":"davidgutierrez.co.uk"},{"id":"32795250512","owner":"28596055@N02","secret":"22c7939d5d","server":"433","farm":1,"title":"london","ispublic":1,"isfriend":0,"isfamily":0,"ownername":"dorinser"},{"id":"13948682802","owner":"30382413@N08","secret":"bed343f9d7","server":"2917","farm":3,"title":"London","ispublic":1,"isfriend":0,"isfamily":0,"ownername":"Street Photography www.osiowy.pl"}]},"stat":"ok"}