{"photos":{"page":1,"pages":5604,"perpage":15,"total":"84046","photo":[{"id":"3250662803","owner":"10112971@N08","secret":"16c7a98e0d","server":"3380","farm":4,"title":"lord","ispublic":1,"isfriend":0,"isfamily":0,"ownername":"nsanyi13"},{"id":"7574962016","owner":"28980550@N03","secret":"6d1081f1e2","server":"8019","farm":9,"title":"Lord","ispublic":1,"isfriend":0,"isfamily":0,"ownername":"K.Y.S."},{"id":"7825261468","owner":"9385028@N07","secret":"4937f93e69","server":"8294","farm":9,"title":"Lord","ispublic":1,"isfriend":0,"isfamily":0,"ownername":"aquira\u2018sarchives"},{"id":"9676083609","owner":"56964579@N03","secret":"c3e7f42d32","server":"7412","farm":8,"title":"lord","ispublic":1,"isfriend":0,"isfamily":0,"ownername":"phollectormo"},{"id":"5121868463","owner":"45357767@N06","secret":"599a73d7ec","server":"4085","farm":5,"title":"Lord Ganesh","ispublic":1,"isfriend":0,"isfamily":0,"ownername":"artclr"},{"id":"2820821021","owner":"12829613@N00","secret":"5bbc5a3e57","server":"3260","farm":4,"title":"lord","ispublic":1,"isfriend":0,"isfamily":0,"ownername":"eva8*"},{"id":"2074217391","owner":"14363698@N07","secret":"a4c9fa25dd","server":"2311","farm":3,"title":"lord","ispublic":1,"isfriend":0,"isfamily":0,"ownername":"Herak 3"},{"id":"998202110","owner":"10908406@N02","secret":"9fbc079f7b","server":"1346","farm":2,"title":"Lord","ispublic":1,"isfriend":0,"isfamily":0,"ownername":"jvbalu"},{"id":"7210768514","owner":"78714404@N08","secret":"740902d11c","server":"8015","farm":9,"title":"Lord","ispublic":1,"isfriend":0,"isfamily":0,"ownername":"s'Poom"},{"id":"4598722393","owner":"44590462@N05","secret":"284472c8f2","server":"3365","farm":4,"title":"Lord Blackwood","ispublic":1,"isfriend":0,"isfamily":0,"ownername":"billbobful"},{"id":"34941851","owner":"33512604@N00","secret":"1fb15356b1","server":"21","farm":1,"title":"Lord","ispublic":1,"isfriend":0,"isfamily":0,"ownername":"Mojeer"},{"id":"999835526","owner":"10865560@N04","secret":"3665ce7800","server":"1108","farm":2,"title":"Lord","ispublic":1,"isfriend":0,"isfamily":0,"ownername":"egobude.de"},{"id":"4257638182","owner":"41580673@N08","secret":"637b8bbe0b","server":"2696","farm":3,"title":"Lord Shiva","ispublic":1,"isfriend":0,"isfamily":0,"ownername":"raul421"},{"id":"12338637863","owner":"64996531@N06","secret":"8e5a01387d","server":"5541","farm":6,"title":"GANDALF II","ispublic":1,"isfriend":0,"isfamily":0,"ownername":"michael co (art)"},{"id":"2069949407","owner":"21377381@N08","secret":"8c68e2124c","server":"2129","farm":3,"title":"Lord","ispublic":1,"isfriend":0,"isfamily":0,"ownername":"Feegard"}]},"stat":"ok"}