{"photos":{"page":1,"pages":167171,"perpage":15,"total":"2507553","photo":[{"id":"16398720945","owner":"73422502@N08","secret":"818b38f469","server":"7447","farm":8,"title":"Love","ispublic":1,"isfriend":0,"isfamily":0,"ownername":"Zeeyolq Photography"},{"id":"15923158298","owner":"21692577@N02","secret":"463279e149","server":"7462","farm":8,"title":"Love","ispublic":1,"isfriend":0,"isfamily":0,"ownername":"Danny VB"},{"id":"8591662381","owner":"69148745@N02","secret":"00f8e11118","server":"8096","farm":9,"title":"love","ispublic":1,"isfriend":0,"isfamily":0,"ownername":"land[e]scape"},{"id":"14846118105","owner":"47748817@N02","secret":"31a6a20a7d","server":"3897","farm":4,"title":"love","ispublic":1,"isfriend":0,"isfamily":0,"ownername":"vetbonkie"},{"id":"4187662944","owner":"21692577@N02","secret":"91851e2942","server":"2653","farm":3,"title":"love","ispublic":1,"isfriend":0,"isfamily":0,"ownername":"Danny VB"},{"id":"9673311536","owner":"69148745@N02","secret":"1d736b3da7","server":"2821","farm":3,"title":"love","ispublic":1,"isfriend":0,"isfamily":0,"ownername":"land[e]scape"},{"id":"12270442764","owner":"73422502@N08","secret":"17a07403c4","server":"2812","farm":3,"title":"Love","ispublic":1,"isfriend":0,"isfamily":0,"ownername":"Zeeyolq Photography"},{"id":"13165443935","owner":"21692577@N02","secret":"6d1978eb67","server":"3819","farm":4,"title":"love","ispublic":1,"isfriend":0,"isfamily":0,"ownername":"Danny VB"},{"id":"16339575490","owner":"21692577@N02","secret":"26491055d4","server":"7306","farm":8,"title":"Love","ispublic":1,"isfriend":0,"isfamily":0,"ownername":"Danny VB"},{"id":"13986512714","owner":"73422502@N08","secret":"5b7b80b44d","server":"2929","farm":3,"title":"Love","ispublic":1,"isfriend":0,"isfamily":0,"ownername":"Zeeyolq Photography"},{"id":"5418880747","owner":"58130019@N08","secret":"f85eba160d","server":"5096","farm":6,"title":"Love","ispublic":1,"isfriend":0,"isfamily":0,"ownername":"Giant_Schnauzer"},{"id":"8411388248","owner":"21692577@N02","secret":"33132eee65","server":"8504","farm":9,"title":"Love","ispublic":1,"isfriend":0,"isfamily":0,"ownername":"Danny VB"},{"id":"14079958617","owner":"73422502@N08","secret":"7d76da8aa6","server":"3719","farm":4,"title":"Love","ispublic":1,"isfriend":0,"isfamily":0,"ownername":"Zeeyolq Photography"},{"id":"6021500905","owner":"65021246@N03","secret":"1c1658c60d","server":"6122","farm":7,"title":"Love","ispublic":1,"isfriend":0,"isfamily":0,"ownername":"SpacePirate82"},{"id":"24936651606","owner":"73422502@N08","secret":"053714ac4b","server":"1524","farm":2,"title":"Love","ispublic":1,"isfriend":0,"isfamily":0,"ownername":"Zeeyolq Photography"}]},"stat":"ok"}