{"photos":{"page":1,"pages":26861,"perpage":15,"total":"402910","photo":[{"id":"6415519971","owner":"36212287@N00","secret":"e9ccdfaaab","server":"6118","farm":7,"title":"magic","ispublic":1,"isfriend":0,"isfamily":0,"ownername":"fatih oktay foxfo"},{"id":"32463615438","owner":"91619997@N04","secret":"e6ab5169e1","server":"4838","farm":5,"title":"Magic","ispublic":1,"isfriend":0,"isfamily":0,"ownername":"De Rode Olifant"},{"id":"16661403961","owner":"94520742@N07","secret":"0656c43d36","server":"8645","farm":9,"title":"MAGIC","ispublic":1,"isfriend":0,"isfamily":0,"ownername":"Anibal Ovelar"},{"id":"16304798498","owner":"93269402@N08","secret":"e76b132925","server":"7413","farm":8,"title":"magic","ispublic":1,"isfriend":0,"isfamily":0,"ownername":"Bhalalhaika"},{"id":"6848355653","owner":"44912907@N05","secret":"0dc95ce5e6","server":"7040","farm":8,"title":"Magic","ispublic":1,"isfriend":0,"isfamily":0,"ownername":"Sunsword & Moonsabre"},{"id":"36188790746","owner":"78241921@N08","secret":"29ea79faeb","server":"4328","farm":5,"title":"Magic nature ..","ispublic":1,"isfriend":0,"isfamily":0,"ownername":"Julie Greg"},{"id":"26325854587","owner":"129545968@N04","secret":"65f50f1ec7","server":"803","farm":1,"title":"Magic.","ispublic":1,"isfriend":0,"isfamily":0,"ownername":"SakuraRM"},{"id":"22556484943","owner":"126710094@N04","secret":"9f2a8972c0","server":"5716","farm":6,"title":"Magic woods","ispublic":1,"isfriend":0,"isfamily":0,"ownername":"Elena Penkova"},{"id":"15430171573","owner":"76865418@N05","secret":"1b954f3407","server":"8625","farm":9,"title":"Magic","ispublic":1,"isfriend":0,"isfamily":0,"ownername":"Keith now in Wiltshire"},{"id":"42810914170","owner":"153780492@N02","secret":"8dbcd69de2","server":"1895","farm":2,"title":"Magic","ispublic":1,"isfriend":0,"isfamily":0,"ownername":"pastadimama"},{"id":"6659116043","owner":"47948992@N07","secret":"56eb90a644","server":"7151","farm":8,"title":"magic","ispublic":1,"isfriend":0,"isfamily":0,"ownername":"~ Julia Sysoeva ~"},{"id":"4181792849","owner":"38944278@N07","secret":"38fc722602","server":"2549","farm":3,"title":"Magic!","ispublic":1,"isfriend":0,"isfamily":0,"ownername":"StefanoG.com"},{"id":"8122616615","owner":"77058072@N05","secret":"8221680cce","server":"8187","farm":9,"title":"Magic.","ispublic":1,"isfriend":0,"isfamily":0,"ownername":"Maja. \u2665"},{"id":"113363576","owner":"13138694@N00","secret":"de36d3e7c4","server":"37","farm":1,"title":"Magic","ispublic":1,"isfriend":0,"isfamily":0,"ownername":"Miss Pola"},{"id":"7026743671","owner":"54380226@N03","secret":"4a00f198bd","server":"7271","farm":8,"title":"Magic !","ispublic":1,"isfriend":0,"isfamily":0,"ownername":"Meem\u00e9h `"}]},"stat":"ok"}