{"photos":{"page":1,"pages":126126,"perpage":15,"total":"1891889","photo":[{"id":"4580796130","owner":"36587311@N08","secret":"8815d90008","server":"3312","farm":4,"title":"man","ispublic":1,"isfriend":0,"isfamily":0,"ownername":"\u25baCubaGallery"},{"id":"11563426094","owner":"27376687@N05","secret":"eb5faba1cd","server":"5522","farm":6,"title":"Men","ispublic":1,"isfriend":0,"isfamily":0,"ownername":"raffacama"},{"id":"4729806838","owner":"36587311@N08","secret":"80bc8fbd9f","server":"1043","farm":2,"title":"man","ispublic":1,"isfriend":0,"isfamily":0,"ownername":"\u25baCubaGallery"},{"id":"1675838455","owner":"63085988@N00","secret":"625741618e","server":"2395","farm":3,"title":"man","ispublic":1,"isfriend":0,"isfamily":0,"ownername":"subjectivexperience"},{"id":"3391873592","owner":"36587311@N08","secret":"7007a00bcf","server":"3629","farm":4,"title":"man","ispublic":1,"isfriend":0,"isfamily":0,"ownername":"\u25baCubaGallery"},{"id":"3391878958","owner":"36587311@N08","secret":"0d6de27054","server":"3469","farm":4,"title":"man","ispublic":1,"isfriend":0,"isfamily":0,"ownername":"\u25baCubaGallery"},{"id":"4610377675","owner":"36587311@N08","secret":"96a8a26059","server":"4062","farm":5,"title":"man","ispublic":1,"isfriend":0,"isfamily":0,"ownername":"\u25baCubaGallery"},{"id":"11563431266","owner":"27376687@N05","secret":"cf3ef9e6cf","server":"3689","farm":4,"title":"MAN","ispublic":1,"isfriend":0,"isfamily":0,"ownername":"raffacama"},{"id":"4975769054","owner":"21692577@N02","secret":"db53e1f47b","server":"4092","farm":5,"title":"man","ispublic":1,"isfriend":0,"isfamily":0,"ownername":"Danny VB"},{"id":"16633704644","owner":"27376687@N05","secret":"f2558fc27c","server":"7702","farm":8,"title":"Man","ispublic":1,"isfriend":0,"isfamily":0,"ownername":"raffacama"},{"id":"13507737344","owner":"27376687@N05","secret":"b859ee5e4f","server":"3798","farm":4,"title":"MaN","ispublic":1,"isfriend":0,"isfamily":0,"ownername":"raffacama"},{"id":"3391069631","owner":"36587311@N08","secret":"554ea897b4","server":"3564","farm":4,"title":"man","ispublic":1,"isfriend":0,"isfamily":0,"ownername":"\u25baCubaGallery"},{"id":"3391063705","owner":"36587311@N08","secret":"00d0b28cba","server":"3589","farm":4,"title":"man","ispublic":1,"isfriend":0,"isfamily":0,"ownername":"\u25baCubaGallery"},{"id":"10886737235","owner":"27376687@N05","secret":"9e960623d6","server":"2840","farm":3,"title":"Man","ispublic":1,"isfriend":0,"isfamily":0,"ownername":"raffacama"},{"id":"3391880008","owner":"36587311@N08","secret":"6b8c81cc99","server":"3595","farm":4,"title":"man","ispublic":1,"isfriend":0,"isfamily":0,"ownername":"\u25baCubaGallery"}]},"stat":"ok"}