{"photos":{"page":1,"pages":111449,"perpage":15,"total":"1671731","photo":[{"id":"13998386420","owner":"54797371@N06","secret":"2403c02df1","server":"7414","farm":8,"title":"Manhattan","ispublic":1,"isfriend":0,"isfamily":0,"ownername":"afer92 (busy)"},{"id":"34694690203","owner":"23380867@N06","secret":"93cb24e886","server":"4214","farm":5,"title":"Manhattan","ispublic":1,"isfriend":0,"isfamily":0,"ownername":"[~Bryan~]"},{"id":"28781865633","owner":"122896845@N07","secret":"965d525049","server":"7519","farm":8,"title":"Manhattan","ispublic":1,"isfriend":0,"isfamily":0,"ownername":"Marcela McGreal"},{"id":"25058203897","owner":"38697117@N04","secret":"16ce4b56e8","server":"4722","farm":5,"title":"Manhattan","ispublic":1,"isfriend":0,"isfamily":0,"ownername":"\uf8ff Eduard Wichner"},{"id":"6074447050","owner":"48600109393@N01","secret":"764629fb32","server":"6182","farm":7,"title":"Manhattan","ispublic":1,"isfriend":0,"isfamily":0,"ownername":"blech\u200b"},{"id":"5167140098","owner":"14977263@N04","secret":"ea2f8bf906","server":"4086","farm":5,"title":"Manhattan","ispublic":1,"isfriend":0,"isfamily":0,"ownername":"wesbs"},{"id":"22351637629","owner":"48595338@N07","secret":"5317c59860","server":"5646","farm":6,"title":"Manhattan...","ispublic":1,"isfriend":0,"isfamily":0,"ownername":"jackie bernelas"},{"id":"22409770253","owner":"48595338@N07","secret":"633a07a7af","server":"5775","farm":6,"title":"Manhattan...","ispublic":1,"isfriend":0,"isfamily":0,"ownername":"jackie bernelas"},{"id":"32190817056","owner":"73414467@N02","secret":"e881626b62","server":"508","farm":1,"title":"Manhattan","ispublic":1,"isfriend":0,"isfamily":0,"ownername":"Jos\u00e9 Luis Vega"},{"id":"8011002944","owner":"44296911@N03","secret":"3a34a6c7e6","server":"8444","farm":9,"title":"Manhattan","ispublic":1,"isfriend":0,"isfamily":0,"ownername":"Rafakoy"},{"id":"11740746186","owner":"41870915@N07","secret":"ac8bb31a9a","server":"3782","farm":4,"title":"Manhattan","ispublic":1,"isfriend":0,"isfamily":0,"ownername":"albygent Alberto Gentile"},{"id":"8803502032","owner":"16818323@N05","secret":"1b879cf21d","server":"3702","farm":4,"title":"Manhattan","ispublic":1,"isfriend":0,"isfamily":0,"ownername":"Littlepois Photographie"},{"id":"3026754151","owner":"86663523@N00","secret":"d056660b14","server":"3233","farm":4,"title":"Manhattan","ispublic":1,"isfriend":0,"isfamily":0,"ownername":"javi_co"},{"id":"27072539370","owner":"70075489@N03","secret":"6d660c72f7","server":"7755","farm":8,"title":"Manhattan","ispublic":1,"isfriend":0,"isfamily":0,"ownername":"karinavera"},{"id":"6790676525","owner":"44296911@N03","secret":"8e39b47ba3","server":"7163","farm":8,"title":"Manhattan","ispublic":1,"isfriend":0,"isfamily":0,"ownername":"Rafakoy"}]},"stat":"ok"}