{"photos":{"page":1,"pages":9804,"perpage":15,"total":"147049","photo":[{"id":"16716561565","owner":"53460575@N03","secret":"f9eee1d5c9","server":"8596","farm":9,"title":"Mars","ispublic":1,"isfriend":0,"isfamily":0,"ownername":"Kevin M. Gill"},{"id":"2749044635","owner":"24117329@N06","secret":"9eff735c96","server":"3049","farm":4,"title":"mars","ispublic":1,"isfriend":0,"isfamily":0,"ownername":"lia___"},{"id":"353371940","owner":"61135315@N00","secret":"511e8d7847","server":"148","farm":1,"title":"Mars","ispublic":1,"isfriend":0,"isfamily":0,"ownername":"Russell Horn"},{"id":"31468403075","owner":"73422502@N08","secret":"2bbbc9bf16","server":"5344","farm":6,"title":"Mars","ispublic":1,"isfriend":0,"isfamily":0,"ownername":"Zeeyolq Photography"},{"id":"7788056546","owner":"81086832@N05","secret":"e463fac076","server":"8448","farm":9,"title":"Mars","ispublic":1,"isfriend":0,"isfamily":0,"ownername":"Vougemodels"},{"id":"4314824988","owner":"37031529@N00","secret":"cd94ecccf5","server":"4048","farm":5,"title":"mars","ispublic":1,"isfriend":0,"isfamily":0,"ownername":"fsse8info"},{"id":"4314827208","owner":"37031529@N00","secret":"cc9beb776d","server":"4015","farm":5,"title":"mars","ispublic":1,"isfriend":0,"isfamily":0,"ownername":"fsse8info"},{"id":"15802527822","owner":"44042244@N08","secret":"dafe9dab95","server":"7540","farm":8,"title":"mars","ispublic":1,"isfriend":0,"isfamily":0,"ownername":"RoMaj"},{"id":"6799558830","owner":"73268291@N05","secret":"982dd33697","server":"7045","farm":8,"title":"MARS","ispublic":1,"isfriend":0,"isfamily":0,"ownername":"Ray's Astro Photos"},{"id":"54788233","owner":"29753878@N00","secret":"e7765e2396","server":"33","farm":1,"title":"Mars","ispublic":1,"isfriend":0,"isfamily":0,"ownername":"classicalimage"},{"id":"2806974036","owner":"30008380@N04","secret":"a233133aa0","server":"3210","farm":4,"title":"mars","ispublic":1,"isfriend":0,"isfamily":0,"ownername":"norma6172"},{"id":"14007531908","owner":"120767853@N07","secret":"27fb1d7982","server":"2912","farm":3,"title":"Mars","ispublic":1,"isfriend":0,"isfamily":0,"ownername":"Andy Milner Astro"},{"id":"2530639052","owner":"22087856@N00","secret":"a60e90ac52","server":"3197","farm":4,"title":"mars","ispublic":1,"isfriend":0,"isfamily":0,"ownername":"edge_reith"},{"id":"13832642745","owner":"7216770@N04","secret":"fef0beb7e2","server":"7392","farm":8,"title":"Mars","ispublic":1,"isfriend":0,"isfamily":0,"ownername":"ejwwest"},{"id":"6876927483","owner":"59251448@N04","secret":"fb610ecdb7","server":"7194","farm":8,"title":"Mars","ispublic":1,"isfriend":0,"isfamily":0,"ownername":"Starman_1969"}]},"stat":"ok"}