{"photos":{"page":1,"pages":2478,"perpage":15,"total":"37157","photo":[{"id":"2527716558","owner":"26577484@N06","secret":"7a9c3fd6ee","server":"2383","farm":3,"title":"maze","ispublic":1,"isfriend":0,"isfamily":0,"ownername":"xervian"},{"id":"14251651644","owner":"60709008@N02","secret":"bf46fb6ce5","server":"5493","farm":6,"title":"MAZE","ispublic":1,"isfriend":0,"isfamily":0,"ownername":"MERLIN 27"},{"id":"2465321","owner":"44124356053@N01","secret":"9a04c8da9e","server":"2","farm":1,"title":"Maze","ispublic":1,"isfriend":0,"isfamily":0,"ownername":"robholland"},{"id":"2526895167","owner":"26577484@N06","secret":"620da421d3","server":"3122","farm":4,"title":"maze","ispublic":1,"isfriend":0,"isfamily":0,"ownername":"xervian"},{"id":"2527715946","owner":"26577484@N06","secret":"693d1d5555","server":"2005","farm":3,"title":"maze","ispublic":1,"isfriend":0,"isfamily":0,"ownername":"xervian"},{"id":"5999888524","owner":"76101004@N00","secret":"426ceca03b","server":"6030","farm":7,"title":"Maze","ispublic":1,"isfriend":0,"isfamily":0,"ownername":"Daniel Kuperman"},{"id":"16719926706","owner":"26283218@N03","secret":"126bd77d29","server":"7619","farm":8,"title":"Maze","ispublic":1,"isfriend":0,"isfamily":0,"ownername":"better with bikes"},{"id":"14064576540","owner":"60709008@N02","secret":"6e1edb6473","server":"5485","farm":6,"title":"MAZE","ispublic":1,"isfriend":0,"isfamily":0,"ownername":"MERLIN 27"},{"id":"6575697493","owner":"50706066@N00","secret":"380b8aefc7","server":"7173","farm":8,"title":"Maze","ispublic":1,"isfriend":0,"isfamily":0,"ownername":"ijob"},{"id":"6872073833","owner":"76560939@N02","secret":"8416b7ec71","server":"7060","farm":8,"title":"maze","ispublic":1,"isfriend":0,"isfamily":0,"ownername":"tilcboy44"},{"id":"2526895237","owner":"26577484@N06","secret":"06f1767d24","server":"2324","farm":3,"title":"maze","ispublic":1,"isfriend":0,"isfamily":0,"ownername":"xervian"},{"id":"3682358827","owner":"48819349@N00","secret":"0a8bef958f","server":"3621","farm":4,"title":"maze","ispublic":1,"isfriend":0,"isfamily":0,"ownername":"metroave"},{"id":"2526895071","owner":"26577484@N06","secret":"dcf8ef686b","server":"2052","farm":3,"title":"maze","ispublic":1,"isfriend":0,"isfamily":0,"ownername":"xervian"},{"id":"9427021909","owner":"54087061@N03","secret":"1c0ab9b4cd","server":"3774","farm":4,"title":"Maze","ispublic":1,"isfriend":0,"isfamily":0,"ownername":"www.graffiti-denbosch.nl"},{"id":"3338181568","owner":"97282595@N00","secret":"2527c2f383","server":"3611","farm":4,"title":"maze","ispublic":1,"isfriend":0,"isfamily":0,"ownername":"tweeny"}]},"stat":"ok"}