{"photos":{"page":1,"pages":56737,"perpage":15,"total":"851041","photo":[{"id":"14989683819","owner":"27376687@N05","secret":"249675d547","server":"5573","farm":6,"title":"Men","ispublic":1,"isfriend":0,"isfamily":0,"ownername":"raffacama"},{"id":"14694727742","owner":"12836528@N00","secret":"cbca79ae38","server":"3852","farm":4,"title":"Men","ispublic":1,"isfriend":0,"isfamily":0,"ownername":"kevin dooley"},{"id":"2129039820","owner":"19135296@N02","secret":"6823533efd","server":"2128","farm":3,"title":"men","ispublic":1,"isfriend":0,"isfamily":0,"ownername":"ilukuduja"},{"id":"4131051745","owner":"43833976@N08","secret":"1f37a3e35b","server":"2738","farm":3,"title":"Men","ispublic":1,"isfriend":0,"isfamily":0,"ownername":"artwolf2009"},{"id":"2766958446","owner":"10695236@N04","secret":"f7cb963692","server":"3230","farm":4,"title":"men","ispublic":1,"isfriend":0,"isfamily":0,"ownername":"bluefirehawke"},{"id":"6028860150","owner":"57585742@N05","secret":"75eed8dae4","server":"6069","farm":7,"title":"Men","ispublic":1,"isfriend":0,"isfamily":0,"ownername":"andrenowak19"},{"id":"6028860346","owner":"57585742@N05","secret":"f571e8e552","server":"6131","farm":7,"title":"Men","ispublic":1,"isfriend":0,"isfamily":0,"ownername":"andrenowak19"},{"id":"6028307643","owner":"57585742@N05","secret":"547178c8e8","server":"6143","farm":7,"title":"Men","ispublic":1,"isfriend":0,"isfamily":0,"ownername":"andrenowak19"},{"id":"1718444153","owner":"9763783@N02","secret":"0ec4919edb","server":"2336","farm":3,"title":"Men","ispublic":1,"isfriend":0,"isfamily":0,"ownername":"andhong09"},{"id":"10614630725","owner":"40628379@N07","secret":"ccac71e1a1","server":"7403","farm":8,"title":"Men","ispublic":1,"isfriend":0,"isfamily":0,"ownername":"PaulinesFlickr"},{"id":"10560555684","owner":"42857761@N02","secret":"ca020d7701","server":"7302","farm":8,"title":"Men","ispublic":1,"isfriend":0,"isfamily":0,"ownername":"osmondstudio"},{"id":"5568312988","owner":"35113502@N06","secret":"589e61c5e8","server":"5190","farm":6,"title":"Men","ispublic":1,"isfriend":0,"isfamily":0,"ownername":"Naeema Campbell"},{"id":"25038167122","owner":"39027210@N02","secret":"80205deb85","server":"1442","farm":2,"title":"men","ispublic":1,"isfriend":0,"isfamily":0,"ownername":"DSM888"},{"id":"8181107715","owner":"64702799@N08","secret":"e966d36466","server":"8341","farm":9,"title":"Men","ispublic":1,"isfriend":0,"isfamily":0,"ownername":"Dennis_Dean"},{"id":"6238487841","owner":"90686988@N00","secret":"b9772c8262","server":"6232","farm":7,"title":"Men","ispublic":1,"isfriend":0,"isfamily":0,"ownername":"Bracus Triticum"}]},"stat":"ok"}