{"photos":{"page":1,"pages":14139,"perpage":15,"total":"212075","photo":[{"id":"14337880892","owner":"44912907@N05","secret":"ec02e97ef8","server":"2932","farm":3,"title":"Mermaid","ispublic":1,"isfriend":0,"isfamily":0,"ownername":"Sunsword & Moonsabre"},{"id":"13697841944","owner":"97429263@N07","secret":"e4e1f942fe","server":"3681","farm":4,"title":"MERMAID","ispublic":1,"isfriend":0,"isfamily":0,"ownername":"wolfsmoon-photography.de"},{"id":"15807424358","owner":"12836528@N00","secret":"a03283dd78","server":"8616","farm":9,"title":"Mermaid","ispublic":1,"isfriend":0,"isfamily":0,"ownername":"kevin dooley"},{"id":"2207774840","owner":"12265215@N03","secret":"ae19a52765","server":"2182","farm":3,"title":"mermaid jewelry","ispublic":1,"isfriend":0,"isfamily":0,"ownername":"GypsyMermaidLife"},{"id":"17607764053","owner":"102797219@N03","secret":"9fedafe8b3","server":"8822","farm":9,"title":"Cornish Mermaid","ispublic":1,"isfriend":0,"isfamily":0,"ownername":"h.gadd"},{"id":"7937850626","owner":"48490322@N06","secret":"135806a496","server":"8453","farm":9,"title":"Mermaid pool. Staffs moorlands.","ispublic":1,"isfriend":0,"isfamily":0,"ownername":"smiler1995"},{"id":"17926543428","owner":"102797219@N03","secret":"e9b3869890","server":"8899","farm":9,"title":"Mermaid","ispublic":1,"isfriend":0,"isfamily":0,"ownername":"h.gadd"},{"id":"914515448","owner":"10199114@N08","secret":"56c85178aa","server":"1140","farm":2,"title":"mermaid","ispublic":1,"isfriend":0,"isfamily":0,"ownername":"ppisces17"},{"id":"4760691605","owner":"31067558@N03","secret":"e30a9a5c85","server":"4094","farm":5,"title":"Prelude To Becoming A Mermaid","ispublic":1,"isfriend":0,"isfamily":0,"ownername":"Gerald Larocque \u262a"},{"id":"8419436779","owner":"76783826@N08","secret":"6140e8a450","server":"8499","farm":9,"title":"mermaid 003","ispublic":1,"isfriend":0,"isfamily":0,"ownername":"Butterfly Dream Cakes"},{"id":"15106532739","owner":"75337704@N07","secret":"9351ed57ae","server":"5588","farm":6,"title":"The lonely Mermaid","ispublic":1,"isfriend":0,"isfamily":0,"ownername":"Maximus Marketable"},{"id":"16555692062","owner":"87794701@N05","secret":"2ee57d7705","server":"7304","farm":8,"title":"Mermaid tail for Kait","ispublic":1,"isfriend":0,"isfamily":0,"ownername":"MindlessGoo"},{"id":"6801281749","owner":"64305607@N00","secret":"63f414d923","server":"7006","farm":8,"title":"mermaid","ispublic":1,"isfriend":0,"isfamily":0,"ownername":"radkescott"},{"id":"3058446743","owner":"22101288@N03","secret":"242b4c02c4","server":"3035","farm":4,"title":"mermaid","ispublic":1,"isfriend":0,"isfamily":0,"ownername":"anne(\u2665)marie"},{"id":"9838018934","owner":"50313898@N02","secret":"9d5bd818b2","server":"5472","farm":6,"title":"Mermaid Lagoon","ispublic":1,"isfriend":0,"isfamily":0,"ownername":"simplegiftsphotography"}]},"stat":"ok"}