{"photos":{"page":1,"pages":80553,"perpage":15,"total":"1208284","photo":[{"id":"10146987855","owner":"46605172@N00","secret":"953f44fbaa","server":"5506","farm":6,"title":"Metal","ispublic":1,"isfriend":0,"isfamily":0,"ownername":"johndill"},{"id":"45839762611","owner":"137319556@N08","secret":"4dd1daa7b9","server":"4860","farm":5,"title":"Metal","ispublic":1,"isfriend":0,"isfamily":0,"ownername":"patrick_milan"},{"id":"44716972414","owner":"96123717@N06","secret":"527aaa8a62","server":"1911","farm":2,"title":"metal.","ispublic":1,"isfriend":0,"isfamily":0,"ownername":"HansEckart"},{"id":"15274126845","owner":"126277317@N02","secret":"1cfc9d181a","server":"3919","farm":4,"title":"#metal","ispublic":1,"isfriend":0,"isfamily":0,"ownername":"tigercop2k3"},{"id":"34837654353","owner":"53043338@N07","secret":"9dc43bd941","server":"4087","farm":5,"title":"Metal 22","ispublic":1,"isfriend":0,"isfamily":0,"ownername":"2010kev"},{"id":"28636039448","owner":"137319556@N08","secret":"9127263a28","server":"1755","farm":2,"title":"Metal","ispublic":1,"isfriend":0,"isfamily":0,"ownername":"patrick_milan"},{"id":"32768240178","owner":"137319556@N08","secret":"14b5f3795c","server":"7806","farm":8,"title":"Metal","ispublic":1,"isfriend":0,"isfamily":0,"ownername":"patrick_milan"},{"id":"10147112563","owner":"46605172@N00","secret":"d75f2ac079","server":"2864","farm":3,"title":"Metal","ispublic":1,"isfriend":0,"isfamily":0,"ownername":"johndill"},{"id":"40533695831","owner":"153762371@N07","secret":"1c27f7e99c","server":"4720","farm":5,"title":"Metal skyline","ispublic":1,"isfriend":0,"isfamily":0,"ownername":"Cor Oosterbeek"},{"id":"7997207389","owner":"87324309@N07","secret":"fa2378dabc","server":"8442","farm":9,"title":"Metal","ispublic":1,"isfriend":0,"isfamily":0,"ownername":"MissGio89"},{"id":"10147078996","owner":"46605172@N00","secret":"b21e91b87b","server":"5349","farm":6,"title":"Metal","ispublic":1,"isfriend":0,"isfamily":0,"ownername":"johndill"},{"id":"6136899898","owner":"30552994@N04","secret":"28cccc4919","server":"6153","farm":7,"title":"Metal","ispublic":1,"isfriend":0,"isfamily":0,"ownername":"Rez*"},{"id":"8286859911","owner":"33929747@N07","secret":"33f481c2c2","server":"8496","farm":9,"title":"Metal","ispublic":1,"isfriend":0,"isfamily":0,"ownername":"Pat's_photos"},{"id":"8713155505","owner":"43288034@N06","secret":"7e3e5e8bd7","server":"8559","farm":9,"title":"Metal","ispublic":1,"isfriend":0,"isfamily":0,"ownername":"Robert A Scott"},{"id":"2615075202","owner":"22215305@N00","secret":"2d5ccc7917","server":"3282","farm":4,"title":"metal","ispublic":1,"isfriend":0,"isfamily":0,"ownername":"righteye"}]},"stat":"ok"}