{"photos":{"page":1,"pages":1813,"perpage":15,"total":"27194","photo":[{"id":"15693405959","owner":"63061621@N05","secret":"3c38936445","server":"7490","farm":8,"title":"Mouse","ispublic":1,"isfriend":0,"isfamily":0,"ownername":"PerfectStills"},{"id":"414195427","owner":"74856199@N00","secret":"61dbeed4bd","server":"156","farm":1,"title":"1478c mouse","ispublic":1,"isfriend":0,"isfamily":0,"ownername":"georgewashington42"},{"id":"5462363681","owner":"54816150@N00","secret":"000fc76e75","server":"5299","farm":6,"title":"Hand Raised Deer Mouse","ispublic":1,"isfriend":0,"isfamily":0,"ownername":"CSBeck"},{"id":"5160269389","owner":"54816150@N00","secret":"02b60ce2d6","server":"1417","farm":2,"title":"IMG_0597","ispublic":1,"isfriend":0,"isfamily":0,"ownername":"CSBeck"},{"id":"3305507157","owner":"30130185@N08","secret":"8ff3fd2007","server":"3317","farm":4,"title":"Snowball the mouse","ispublic":1,"isfriend":0,"isfamily":0,"ownername":"tazbabeslotus"},{"id":"2334477922","owner":"22525181@N02","secret":"dfb23647b1","server":"2413","farm":3,"title":"Plucky, 19 days old","ispublic":1,"isfriend":0,"isfamily":0,"ownername":"anneelizabeth27"},{"id":"2481851842","owner":"22525181@N02","secret":"bda67e3427","server":"3216","farm":4,"title":"Heather, 15 days old","ispublic":1,"isfriend":0,"isfamily":0,"ownername":"anneelizabeth27"},{"id":"8204390235","owner":"66698762@N00","secret":"081f5f5b43","server":"8069","farm":9,"title":"","ispublic":1,"isfriend":0,"isfamily":0,"ownername":"prismaviolet"},{"id":"2507962916","owner":"22525181@N02","secret":"88e48212a1","server":"2075","farm":3,"title":"Kayla, 22 days old","ispublic":1,"isfriend":0,"isfamily":0,"ownername":"anneelizabeth27"},{"id":"7016946109","owner":"78361581@N03","secret":"1a9d220ecb","server":"7039","farm":8,"title":"Mice","ispublic":1,"isfriend":0,"isfamily":0,"ownername":"Tajikistan9"},{"id":"2483539629","owner":"22525181@N02","secret":"51a6973a22","server":"2043","farm":3,"title":"Govinda, 15 days old","ispublic":1,"isfriend":0,"isfamily":0,"ownername":"anneelizabeth27"},{"id":"5160259669","owner":"54816150@N00","secret":"e37d5a9618","server":"1199","farm":2,"title":"IMG_0609","ispublic":1,"isfriend":0,"isfamily":0,"ownername":"CSBeck"},{"id":"4058940370","owner":"54816150@N00","secret":"9a37f19079","server":"2562","farm":3,"title":"09-10-30 048","ispublic":1,"isfriend":0,"isfamily":0,"ownername":"CSBeck"},{"id":"6233440565","owner":"54816150@N00","secret":"5fc19bb247","server":"6116","farm":7,"title":"2011-10-10 205","ispublic":1,"isfriend":0,"isfamily":0,"ownername":"CSBeck"},{"id":"34305114826","owner":"153866663@N02","secret":"efc7ce16c6","server":"2851","farm":3,"title":"Mouse 04","ispublic":1,"isfriend":0,"isfamily":0,"ownername":"RLStandleyPhotography"}]},"stat":"ok"}