{"photos":{"page":1,"pages":7938,"perpage":15,"total":"119067","photo":[{"id":"7657491402","owner":"99352947@N00","secret":"a83acc6ff8","server":"8291","farm":9,"title":"17 mile drive beach","ispublic":1,"isfriend":0,"isfamily":0,"ownername":"Sunnyvaledave"},{"id":"6574775429","owner":"30055192@N02","secret":"cec6771bb7","server":"7009","farm":8,"title":"Mile","ispublic":1,"isfriend":0,"isfamily":0,"ownername":"pvanderclock"},{"id":"35803706470","owner":"92964532@N00","secret":"5abd21e451","server":"4330","farm":5,"title":"R\u00e5bjerg Mile, Denmark","ispublic":1,"isfriend":0,"isfamily":0,"ownername":"grimhund"},{"id":"35390438193","owner":"92964532@N00","secret":"8209eb8149","server":"4316","farm":5,"title":"R\u00e5bjerg Mile, Denmark","ispublic":1,"isfriend":0,"isfamily":0,"ownername":"grimhund"},{"id":"500604980","owner":"8301980@N05","secret":"2e8da458e5","server":"204","farm":1,"title":"Mile","ispublic":1,"isfriend":0,"isfamily":0,"ownername":"tintu82"},{"id":"5203699266","owner":"36081284@N07","secret":"eb49888c86","server":"5041","farm":6,"title":"mile 174","ispublic":1,"isfriend":0,"isfamily":0,"ownername":"gulgulas"},{"id":"2595524279","owner":"8271011@N02","secret":"2b3d769830","server":"2379","farm":3,"title":"Magnificent Mile","ispublic":1,"isfriend":0,"isfamily":0,"ownername":"spr0ut"},{"id":"5071285572","owner":"27466839@N00","secret":"944a440f86","server":"4104","farm":5,"title":"sevenmile_wide_2","ispublic":1,"isfriend":0,"isfamily":0,"ownername":"hogthrobb"},{"id":"221817116","owner":"67878434@N00","secret":"3c0c588024","server":"63","farm":1,"title":"Mile","ispublic":1,"isfriend":0,"isfamily":0,"ownername":"telerice"},{"id":"3510695888","owner":"28132554@N00","secret":"627b1c1d2b","server":"3201","farm":4,"title":".mile.","ispublic":1,"isfriend":0,"isfamily":0,"ownername":"\"Olivier Jules\""},{"id":"36028438062","owner":"92964532@N00","secret":"aca0f55009","server":"4295","farm":5,"title":"R\u00e5bjerg Mile, Denmark","ispublic":1,"isfriend":0,"isfamily":0,"ownername":"grimhund"},{"id":"5278703720","owner":"88325277@N00","secret":"9f7905a5cb","server":"5085","farm":6,"title":"DSC07566","ispublic":1,"isfriend":0,"isfamily":0,"ownername":"C. Lund"},{"id":"35330268564","owner":"25956017@N07","secret":"21a4ffb6bc","server":"4312","farm":5,"title":"Westerly","ispublic":1,"isfriend":0,"isfamily":0,"ownername":"WarrensPix"},{"id":"1056709992","owner":"11152574@N02","secret":"a10cc8259a","server":"1334","farm":2,"title":"MILE","ispublic":1,"isfriend":0,"isfamily":0,"ownername":"Minnesota Library Association"},{"id":"35803697920","owner":"92964532@N00","secret":"b8f3bcd324","server":"4320","farm":5,"title":"R\u00e5bjerg Mile, Denmark","ispublic":1,"isfriend":0,"isfamily":0,"ownername":"grimhund"}]},"stat":"ok"}