{"photos":{"page":1,"pages":839,"perpage":15,"total":"12584","photo":[{"id":"42405782184","owner":"30468039@N04","secret":"2563995b8b","server":"834","farm":1,"title":"Mockingbird","ispublic":1,"isfriend":0,"isfamily":0,"ownername":"mjeedelbr"},{"id":"43645230360","owner":"30468039@N04","secret":"f18fc59144","server":"1948","farm":2,"title":"Mockingbird","ispublic":1,"isfriend":0,"isfamily":0,"ownername":"mjeedelbr"},{"id":"3964526420","owner":"37987430@N00","secret":"2cc80480bf","server":"2671","farm":3,"title":"Mockingbird","ispublic":1,"isfriend":0,"isfamily":0,"ownername":"Mimi Six"},{"id":"8535039758","owner":"39637113@N04","secret":"2a4d36e3a9","server":"8512","farm":9,"title":"Mockingbird","ispublic":1,"isfriend":0,"isfamily":0,"ownername":"John Rosemeyer"},{"id":"31544599604","owner":"30468039@N04","secret":"4db090b286","server":"331","farm":1,"title":"Mockingbird","ispublic":1,"isfriend":0,"isfamily":0,"ownername":"mjeedelbr"},{"id":"43073492902","owner":"30468039@N04","secret":"a40462f218","server":"915","farm":1,"title":"Mockingbird","ispublic":1,"isfriend":0,"isfamily":0,"ownername":"mjeedelbr"},{"id":"32034510697","owner":"135804526@N03","secret":"fda5fa91a7","server":"7853","farm":8,"title":"Mockingbird","ispublic":1,"isfriend":0,"isfamily":0,"ownername":"dean_gretsch"},{"id":"14694612688","owner":"36276745@N07","secret":"794e609471","server":"3837","farm":4,"title":"mockingbird","ispublic":1,"isfriend":0,"isfamily":0,"ownername":"matthewnormand"},{"id":"38007622116","owner":"87728131@N05","secret":"f0c909d369","server":"4490","farm":5,"title":"Mockingbird","ispublic":1,"isfriend":0,"isfamily":0,"ownername":"Amba-lee"},{"id":"39235532490","owner":"86061498@N07","secret":"e8abf5a080","server":"801","farm":1,"title":"Mockingbird","ispublic":1,"isfriend":0,"isfamily":0,"ownername":"photosauraus rex"},{"id":"132537903","owner":"25006071@N00","secret":"306750f26b","server":"47","farm":1,"title":"Mockingbird","ispublic":1,"isfriend":0,"isfamily":0,"ownername":"Rhubarble"},{"id":"32583736393","owner":"36583858@N05","secret":"f140c1f310","server":"3936","farm":4,"title":"Mockingbird","ispublic":1,"isfriend":0,"isfamily":0,"ownername":"David P James"},{"id":"12602148635","owner":"92435849@N02","secret":"b4c0270c49","server":"2858","farm":3,"title":"Mockingbird","ispublic":1,"isfriend":0,"isfamily":0,"ownername":"carolinabutterfly"},{"id":"32844830085","owner":"145960246@N03","secret":"d1fae57aca","server":"2347","farm":3,"title":"Mockingbird","ispublic":1,"isfriend":0,"isfamily":0,"ownername":"ericanderson7"},{"id":"34831478361","owner":"66020093@N03","secret":"fa74b5b9ba","server":"4247","farm":5,"title":"Mockingbird","ispublic":1,"isfriend":0,"isfamily":0,"ownername":"Andy Morffew"}]},"stat":"ok"}