{"photos":{"page":1,"pages":6204,"perpage":15,"total":"93051","photo":[{"id":"6491129729","owner":"84292292@N00","secret":"9cea47b00b","server":"7150","farm":8,"title":"Monkeys","ispublic":1,"isfriend":0,"isfamily":0,"ownername":"Aleksandr Zykov"},{"id":"3585361333","owner":"34768583@N08","secret":"a89c4f80dc","server":"3323","farm":4,"title":"Monkey","ispublic":1,"isfriend":0,"isfamily":0,"ownername":"GuppyBoy"},{"id":"6827280","owner":"91022167@N00","secret":"85f426b54a","server":"8","farm":1,"title":"Monkeys","ispublic":1,"isfriend":0,"isfamily":0,"ownername":"alwaysmerryandbright"},{"id":"15266939210","owner":"8011959@N03","secret":"a8b47e0aa1","server":"3934","farm":4,"title":"monkey","ispublic":1,"isfriend":0,"isfamily":0,"ownername":"apmckinlay"},{"id":"4139263957","owner":"44602042@N05","secret":"bc97e43311","server":"2518","farm":3,"title":"Monkeys","ispublic":1,"isfriend":0,"isfamily":0,"ownername":"butter.nut"},{"id":"13445150305","owner":"25038650@N00","secret":"a878178240","server":"7141","farm":8,"title":"Monkeys","ispublic":1,"isfriend":0,"isfamily":0,"ownername":"LouBlue"},{"id":"240337588","owner":"66397498@N00","secret":"f45a91ee08","server":"88","farm":1,"title":"monkeys!","ispublic":1,"isfriend":0,"isfamily":0,"ownername":"inateapot"},{"id":"2422920620","owner":"22220186@N03","secret":"ca60730046","server":"2346","farm":3,"title":"Monkey","ispublic":1,"isfriend":0,"isfamily":0,"ownername":"SANAND K | \u0d38\u0d28\u0d28\u0d4d\u0d26\u0d4d"},{"id":"11622240744","owner":"91366312@N02","secret":"6dfee226a2","server":"5503","farm":6,"title":"Monkey","ispublic":1,"isfriend":0,"isfamily":0,"ownername":"Mark Bonsink"},{"id":"6491394491","owner":"49752038@N08","secret":"14135ac4a7","server":"7160","farm":8,"title":"monkey","ispublic":1,"isfriend":0,"isfamily":0,"ownername":"globetrottergirls"},{"id":"472749596","owner":"78247883@N00","secret":"8da3451854","server":"170","farm":1,"title":"Monkeys!","ispublic":1,"isfriend":0,"isfamily":0,"ownername":"Great Danes"},{"id":"6269381300","owner":"68906820@N02","secret":"c8743fcb50","server":"6038","farm":7,"title":"Monkeys","ispublic":1,"isfriend":0,"isfamily":0,"ownername":"RakelFranco"},{"id":"5742527167","owner":"8435962@N06","secret":"1cea916a8d","server":"5026","farm":6,"title":"Monkeys!","ispublic":1,"isfriend":0,"isfamily":0,"ownername":"unforth"},{"id":"2366159347","owner":"21192771@N05","secret":"0a419dbb90","server":"3022","farm":4,"title":"Monkey","ispublic":1,"isfriend":0,"isfamily":0,"ownername":"Angelslain"},{"id":"18840897","owner":"81801189@N00","secret":"d5bfb8350d","server":"15","farm":1,"title":"Monkeys","ispublic":1,"isfriend":0,"isfamily":0,"ownername":"sebwautelet"}]},"stat":"ok"}