{"photos":{"page":1,"pages":3860,"perpage":15,"total":"57890","photo":[{"id":"157461011","owner":"65725927@N00","secret":"0df441e43f","server":"52","farm":1,"title":"Monsters","ispublic":1,"isfriend":0,"isfamily":0,"ownername":"camerondaigle"},{"id":"8227521046","owner":"81538449@N08","secret":"a0a1df5a1f","server":"8062","farm":9,"title":"Monsters","ispublic":1,"isfriend":0,"isfamily":0,"ownername":"lucas_cvlcnt"},{"id":"2763274807","owner":"23742355@N00","secret":"7bc81a2cc7","server":"3092","farm":4,"title":"Monsters","ispublic":1,"isfriend":0,"isfamily":0,"ownername":"Dann Riebe"},{"id":"4999380941","owner":"91387326@N00","secret":"5cd7122409","server":"4109","farm":5,"title":"MONSTERS!","ispublic":1,"isfriend":0,"isfamily":0,"ownername":"postbear"},{"id":"5551116881","owner":"9030082@N08","secret":"b0b4e82785","server":"5147","farm":6,"title":"Monsters Pattern","ispublic":1,"isfriend":0,"isfamily":0,"ownername":"Radical She Tarot"},{"id":"6714585273","owner":"74541377@N02","secret":"3bc1bbfded","server":"7168","farm":8,"title":"Monsters!","ispublic":1,"isfriend":0,"isfamily":0,"ownername":"Folke Lehr"},{"id":"32689194642","owner":"57079916@N06","secret":"4d7882b88c","server":"2377","farm":3,"title":"Monsters","ispublic":1,"isfriend":0,"isfamily":0,"ownername":"jocsdellum"},{"id":"4439430802","owner":"48009082@N02","secret":"4234801d2d","server":"4005","farm":5,"title":"Monsters","ispublic":1,"isfriend":0,"isfamily":0,"ownername":"nyaaly"},{"id":"14966259144","owner":"51652078@N02","secret":"67ae80aca3","server":"5607","farm":6,"title":"Monsters??","ispublic":1,"isfriend":0,"isfamily":0,"ownername":"Kkarl Jardberg"},{"id":"5982518746","owner":"63776546@N05","secret":"369003dc62","server":"6136","farm":7,"title":"Monsters","ispublic":1,"isfriend":0,"isfamily":0,"ownername":"futurestartsslow"},{"id":"12711634863","owner":"50407299@N08","secret":"3c9c52c2e5","server":"2865","farm":3,"title":"monster","ispublic":1,"isfriend":0,"isfamily":0,"ownername":"Lamson\/Ng"},{"id":"8394510580","owner":"28461934@N05","secret":"a5a2330dfb","server":"8506","farm":9,"title":"Monsters","ispublic":1,"isfriend":0,"isfamily":0,"ownername":"Argentem"},{"id":"2069809480","owner":"94077398@N00","secret":"36e90b33f0","server":"2358","farm":3,"title":"Monster","ispublic":1,"isfriend":0,"isfamily":0,"ownername":"Digital Arteese"},{"id":"2056393759","owner":"96426079@N00","secret":"4f5c3cf0b7","server":"2040","farm":3,"title":"monster family","ispublic":1,"isfriend":0,"isfamily":0,"ownername":"Yara"},{"id":"45071344344","owner":"65468919@N06","secret":"3ef739fc1f","server":"4857","farm":5,"title":"Hollywood Monsters Challenge","ispublic":1,"isfriend":0,"isfamily":0,"ownername":"SpikeCLS"}]},"stat":"ok"}