{"photos":{"page":1,"pages":64013,"perpage":15,"total":"960183","photo":[{"id":"14898072021","owner":"87338661@N08","secret":"73f3c89bda","server":"5573","farm":6,"title":"Moon","ispublic":1,"isfriend":0,"isfamily":0,"ownername":"PRodriguez-"},{"id":"14714519078","owner":"87338661@N08","secret":"9c29affe02","server":"5587","farm":6,"title":"Moon","ispublic":1,"isfriend":0,"isfamily":0,"ownername":"PRodriguez-"},{"id":"16643384775","owner":"45626197@N06","secret":"053659c442","server":"8676","farm":9,"title":"moon","ispublic":1,"isfriend":0,"isfamily":0,"ownername":"Efra Gomez"},{"id":"7693433806","owner":"50752493@N03","secret":"985df7fe9c","server":"7139","farm":8,"title":"moon","ispublic":1,"isfriend":0,"isfamily":0,"ownername":"gabygigglez"},{"id":"8341771786","owner":"37775553@N06","secret":"5ba6caa4db","server":"8501","farm":9,"title":"moon","ispublic":1,"isfriend":0,"isfamily":0,"ownername":"aroubin"},{"id":"11118007916","owner":"64242238@N04","secret":"8b499478d5","server":"3826","farm":4,"title":"Moon","ispublic":1,"isfriend":0,"isfamily":0,"ownername":"kPepels"},{"id":"8677497052","owner":"71916579@N05","secret":"eb6743f512","server":"8545","farm":9,"title":"Moon","ispublic":1,"isfriend":0,"isfamily":0,"ownername":"Steve & Elise Wertz"},{"id":"15005422497","owner":"99178087@N03","secret":"bc2169dbd7","server":"3918","farm":4,"title":"moon","ispublic":1,"isfriend":0,"isfamily":0,"ownername":"franciska_bosnjak"},{"id":"4729856802","owner":"45819448@N06","secret":"1c29dfccb6","server":"1177","farm":2,"title":"Moon","ispublic":1,"isfriend":0,"isfamily":0,"ownername":"Lambros Kazan"},{"id":"16147175156","owner":"68023559@N02","secret":"da44bf4837","server":"7583","farm":8,"title":"Moon","ispublic":1,"isfriend":0,"isfamily":0,"ownername":"stig3824"},{"id":"15071918352","owner":"124861597@N08","secret":"68f888246c","server":"3902","farm":4,"title":"Moon","ispublic":1,"isfriend":0,"isfamily":0,"ownername":"BoRaXiN72"},{"id":"8591759230","owner":"77112862@N07","secret":"36119449f3","server":"8529","farm":9,"title":"Moon","ispublic":1,"isfriend":0,"isfamily":0,"ownername":"CorkySandpiper"},{"id":"14878127476","owner":"87338661@N08","secret":"933922b884","server":"5558","farm":6,"title":"Moon","ispublic":1,"isfriend":0,"isfamily":0,"ownername":"PRodriguez-"},{"id":"14878127596","owner":"87338661@N08","secret":"10d4f5a059","server":"3877","farm":4,"title":"Moon","ispublic":1,"isfriend":0,"isfamily":0,"ownername":"PRodriguez-"},{"id":"6877708689","owner":"33909700@N02","secret":"70946674f0","server":"7199","farm":8,"title":"Moon","ispublic":1,"isfriend":0,"isfamily":0,"ownername":"Dave Stokes"}]},"stat":"ok"}