{"photos":{"page":1,"pages":6261,"perpage":15,"total":"93914","photo":[{"id":"2445577777","owner":"23577217@N02","secret":"ffebf43665","server":"2317","farm":3,"title":"Mouth","ispublic":1,"isfriend":0,"isfamily":0,"ownername":"JewelMN"},{"id":"155183682","owner":"53611153@N00","secret":"692fcef546","server":"62","farm":1,"title":"mouth","ispublic":1,"isfriend":0,"isfamily":0,"ownername":"Darwin Bell"},{"id":"2455356841","owner":"24289533@N02","secret":"f4c808a627","server":"3039","farm":4,"title":"mouth","ispublic":1,"isfriend":0,"isfamily":0,"ownername":"....NeNa...."},{"id":"4230136300","owner":"21036932@N03","secret":"96bc2b973f","server":"4030","farm":5,"title":"mouth","ispublic":1,"isfriend":0,"isfamily":0,"ownername":"tillfabriken"},{"id":"3881246932","owner":"30267330@N08","secret":"11d7f79a91","server":"2649","farm":3,"title":"mouth","ispublic":1,"isfriend":0,"isfamily":0,"ownername":"A\u00f0alhei\u00f0ur Arna"},{"id":"5178663092","owner":"47188986@N02","secret":"8ec0feb652","server":"1012","farm":2,"title":"mouth","ispublic":1,"isfriend":0,"isfamily":0,"ownername":"mrsworm2"},{"id":"27391275713","owner":"142416612@N07","secret":"120bb62f03","server":"7396","farm":8,"title":"mouth","ispublic":1,"isfriend":0,"isfamily":0,"ownername":"ellaraumo"},{"id":"14674721228","owner":"78973196@N08","secret":"2f23db85a5","server":"5554","farm":6,"title":"Mouth","ispublic":1,"isfriend":0,"isfamily":0,"ownername":"Alice Rotelli"},{"id":"427046658","owner":"86396709@N00","secret":"854f726e8e","server":"169","farm":1,"title":"mouth","ispublic":1,"isfriend":0,"isfamily":0,"ownername":"my_midwife_was_irish"},{"id":"4597508073","owner":"50062334@N07","secret":"577f52d8e2","server":"3634","farm":4,"title":"mouth","ispublic":1,"isfriend":0,"isfamily":0,"ownername":"rachelvo"},{"id":"4544738778","owner":"49504543@N04","secret":"092fbc4c2f","server":"4005","farm":5,"title":"mouth","ispublic":1,"isfriend":0,"isfamily":0,"ownername":"doodle_spud"},{"id":"7137310119","owner":"57198062@N07","secret":"bd196a97f3","server":"7265","farm":8,"title":"mouth","ispublic":1,"isfriend":0,"isfamily":0,"ownername":"insertkitschname"},{"id":"3166523615","owner":"45901889@N00","secret":"ce135f0365","server":"3056","farm":4,"title":"Mouth","ispublic":1,"isfriend":0,"isfamily":0,"ownername":"purple52"},{"id":"14592877522","owner":"65213952@N08","secret":"40a942e0ed","server":"3874","farm":4,"title":"mouth!","ispublic":1,"isfriend":0,"isfamily":0,"ownername":"Prisciladss \u221e"},{"id":"3631411418","owner":"10065062@N04","secret":"7ccb4ee7f9","server":"3397","farm":4,"title":"mouth","ispublic":1,"isfriend":0,"isfamily":0,"ownername":"cjah2007"}]},"stat":"ok"}