{"photos":{"page":1,"pages":3801,"perpage":15,"total":"57013","photo":[{"id":"5479015504","owner":"30887293@N03","secret":"160e8a1540","server":"5058","farm":6,"title":"Muddy pantyhose","ispublic":1,"isfriend":0,"isfamily":0,"ownername":"jackvanvliet"},{"id":"17304697522","owner":"125839138@N03","secret":"12a9e6f3bf","server":"8730","farm":9,"title":"Muddy","ispublic":1,"isfriend":0,"isfamily":0,"ownername":"Myles Ramsey"},{"id":"3114648814","owner":"33394774@N05","secret":"fc304677a0","server":"3142","farm":4,"title":"Muddy","ispublic":1,"isfriend":0,"isfamily":0,"ownername":"cubbiesfan945"},{"id":"3072436612","owner":"28484801@N08","secret":"b0f2250fe7","server":"3001","farm":4,"title":"Muddy","ispublic":1,"isfriend":0,"isfamily":0,"ownername":"sntxrr"},{"id":"4642914304","owner":"50568445@N07","secret":"c26288f97e","server":"4012","farm":5,"title":"Muddy","ispublic":1,"isfriend":0,"isfamily":0,"ownername":"ingrid.jane"},{"id":"4515571","owner":"10304915@N00","secret":"dd4e642b17","server":"3","farm":1,"title":"muddy","ispublic":1,"isfriend":0,"isfamily":0,"ownername":"La Ratta"},{"id":"5596004506","owner":"7646477@N07","secret":"909f3ce077","server":"5304","farm":6,"title":"Muddy","ispublic":1,"isfriend":0,"isfamily":0,"ownername":"Lawrence Job"},{"id":"2937746551","owner":"28484801@N08","secret":"1336f5b036","server":"3173","farm":4,"title":"Muddy","ispublic":1,"isfriend":0,"isfamily":0,"ownername":"sntxrr"},{"id":"39141041004","owner":"57949897@N00","secret":"78c0741ef8","server":"4768","farm":5,"title":"Muddy street","ispublic":1,"isfriend":0,"isfamily":0,"ownername":"Jerzy Durczak"},{"id":"4945337510","owner":"9060404@N06","secret":"86037437e9","server":"4154","farm":5,"title":"MUDDY","ispublic":1,"isfriend":0,"isfamily":0,"ownername":"PINOY PHOTOGRAPHER"},{"id":"2416484395","owner":"25632535@N02","secret":"7df6c91430","server":"2218","farm":3,"title":"Muddy","ispublic":1,"isfriend":0,"isfamily":0,"ownername":"DiRtYtRaX"},{"id":"4197365212","owner":"45419715@N07","secret":"131d78fd21","server":"4038","farm":5,"title":"muddy","ispublic":1,"isfriend":0,"isfamily":0,"ownername":"charleswei"},{"id":"2990593775","owner":"28484801@N08","secret":"ae250e069c","server":"3292","farm":4,"title":"Muddy","ispublic":1,"isfriend":0,"isfamily":0,"ownername":"sntxrr"},{"id":"86635201","owner":"89658786@N00","secret":"c72bda13a9","server":"43","farm":1,"title":"Muddy","ispublic":1,"isfriend":0,"isfamily":0,"ownername":"sgsf"},{"id":"9546803729","owner":"98021149@N05","secret":"5b1e63bbff","server":"3761","farm":4,"title":"Muddy volcanoes","ispublic":1,"isfriend":0,"isfamily":0,"ownername":"mitzza10"}]},"stat":"ok"}