{"photos":{"page":1,"pages":629,"perpage":15,"total":"9427","photo":[{"id":"16758864592","owner":"9850837@N03","secret":"f7783760d3","server":"7654","farm":8,"title":"Muppets","ispublic":1,"isfriend":0,"isfamily":0,"ownername":"mauzao"},{"id":"16572546250","owner":"9850837@N03","secret":"cd30caf70c","server":"8664","farm":9,"title":"Muppets","ispublic":1,"isfriend":0,"isfamily":0,"ownername":"mauzao"},{"id":"16572361538","owner":"9850837@N03","secret":"d27d468c81","server":"8564","farm":9,"title":"Muppets","ispublic":1,"isfriend":0,"isfamily":0,"ownername":"mauzao"},{"id":"16552670707","owner":"9850837@N03","secret":"57997c255d","server":"8671","farm":9,"title":"Muppets","ispublic":1,"isfriend":0,"isfamily":0,"ownername":"mauzao"},{"id":"7819910410","owner":"39073880@N00","secret":"483f20303c","server":"8428","farm":9,"title":"Muppet","ispublic":1,"isfriend":0,"isfamily":0,"ownername":"Scottspy"},{"id":"5968693023","owner":"65628029@N08","secret":"e8cbed43ae","server":"6150","farm":7,"title":"muppet","ispublic":1,"isfriend":0,"isfamily":0,"ownername":"candypills~"},{"id":"16734043096","owner":"9850837@N03","secret":"c38a8beb8f","server":"8679","farm":9,"title":"Muppets","ispublic":1,"isfriend":0,"isfamily":0,"ownername":"mauzao"},{"id":"16734044526","owner":"9850837@N03","secret":"2f43f373dc","server":"8735","farm":9,"title":"Muppets","ispublic":1,"isfriend":0,"isfamily":0,"ownername":"mauzao"},{"id":"16552671577","owner":"9850837@N03","secret":"a80ded105c","server":"7588","farm":8,"title":"Muppets","ispublic":1,"isfriend":0,"isfamily":0,"ownername":"mauzao"},{"id":"16734041726","owner":"9850837@N03","secret":"45e4461c89","server":"7598","farm":8,"title":"Muppets","ispublic":1,"isfriend":0,"isfamily":0,"ownername":"mauzao"},{"id":"16139980323","owner":"9850837@N03","secret":"0b9f3b5f6e","server":"7648","farm":8,"title":"Muppets","ispublic":1,"isfriend":0,"isfamily":0,"ownername":"mauzao"},{"id":"5298307238","owner":"34257124@N05","secret":"443c263825","server":"5250","farm":6,"title":"Muppets","ispublic":1,"isfriend":0,"isfamily":0,"ownername":"am242_242"},{"id":"16758854722","owner":"9850837@N03","secret":"229890b43e","server":"8637","farm":9,"title":"Muppets","ispublic":1,"isfriend":0,"isfamily":0,"ownername":"mauzao"},{"id":"3389362867","owner":"28246926@N02","secret":"bf21cb81cd","server":"3079","farm":4,"title":"muppet","ispublic":1,"isfriend":0,"isfamily":0,"ownername":"Kristen Viva"},{"id":"3211249792","owner":"34496827@N04","secret":"2e948f642e","server":"3388","farm":4,"title":"MUPPETS!!!","ispublic":1,"isfriend":0,"isfamily":0,"ownername":"danalesley"}]},"stat":"ok"}