{"photos":{"page":1,"pages":223577,"perpage":15,"total":"3353651","photo":[{"id":"14961944103","owner":"123411503@N03","secret":"7ca5143223","server":"3940","farm":4,"title":"museum MUDAM luxembourg 8","ispublic":1,"isfriend":0,"isfamily":0,"ownername":"Ingrid Donkelaar"},{"id":"40357274282","owner":"110169041@N02","secret":"d4c0f74eb2","server":"4631","farm":5,"title":"Museum","ispublic":1,"isfriend":0,"isfamily":0,"ownername":"EUgenG_"},{"id":"8188635165","owner":"90098697@N07","secret":"3586053282","server":"8487","farm":9,"title":"Museum","ispublic":1,"isfriend":0,"isfamily":0,"ownername":"Sergio Alex Azevedo"},{"id":"7317626570","owner":"43909703@N08","secret":"92ef90a461","server":"7214","farm":8,"title":"museum","ispublic":1,"isfriend":0,"isfamily":0,"ownername":"L-L Photography"},{"id":"11689601343","owner":"96249544@N06","secret":"d40ebc62e8","server":"7345","farm":8,"title":"Museum","ispublic":1,"isfriend":0,"isfamily":0,"ownername":"Kim Noordijk"},{"id":"5274386433","owner":"8003562@N08","secret":"2dd7171fb5","server":"5121","farm":6,"title":"MUSEUM","ispublic":1,"isfriend":0,"isfamily":0,"ownername":"khoory123"},{"id":"28246632329","owner":"101125777@N08","secret":"f53d56f889","server":"4757","farm":5,"title":"museum","ispublic":1,"isfriend":0,"isfamily":0,"ownername":"sacha.bs"},{"id":"16720755424","owner":"65630441@N08","secret":"2d37483fdc","server":"8768","farm":9,"title":"Museum","ispublic":1,"isfriend":0,"isfamily":0,"ownername":"decoja"},{"id":"9957541173","owner":"67393500@N04","secret":"bbd2e9c385","server":"3827","farm":4,"title":"#museum","ispublic":1,"isfriend":0,"isfamily":0,"ownername":"Ben O Connor"},{"id":"36135342906","owner":"143613190@N02","secret":"a4d42841e7","server":"4329","farm":5,"title":"#museum","ispublic":1,"isfriend":0,"isfamily":0,"ownername":"ts_nt"},{"id":"7275307634","owner":"13527347@N06","secret":"ce21a5278e","server":"7086","farm":8,"title":"museum","ispublic":1,"isfriend":0,"isfamily":0,"ownername":"Digit@l Exposure"},{"id":"15887244049","owner":"15907528@N02","secret":"7c85a6f246","server":"7552","farm":8,"title":"Museum","ispublic":1,"isfriend":0,"isfamily":0,"ownername":"nick1017"},{"id":"15885885018","owner":"15907528@N02","secret":"e4a881b7da","server":"8585","farm":9,"title":"Museum","ispublic":1,"isfriend":0,"isfamily":0,"ownername":"nick1017"},{"id":"7109842067","owner":"75367224@N07","secret":"2cea21269e","server":"5339","farm":6,"title":"museum","ispublic":1,"isfriend":0,"isfamily":0,"ownername":"afentoeiets"}]},"stat":"ok"}