{"photos":{"page":1,"pages":4144,"perpage":15,"total":"62160","photo":[{"id":"15146811379","owner":"57949897@N00","secret":"7b35863128","server":"2944","farm":3,"title":"Nail","ispublic":1,"isfriend":0,"isfamily":0,"ownername":"Jerzy Durczak"},{"id":"31981445837","owner":"145296095@N08","secret":"2081ab8d30","server":"4805","farm":5,"title":"Nail","ispublic":1,"isfriend":0,"isfamily":0,"ownername":"jhpen2"},{"id":"45644715132","owner":"31791237@N02","secret":"2b309520b3","server":"4906","farm":5,"title":"Nailed","ispublic":1,"isfriend":0,"isfamily":0,"ownername":"Argyro Poursanidou"},{"id":"4766368748","owner":"43357261@N08","secret":"96d7dd43d1","server":"4143","farm":5,"title":"nail","ispublic":1,"isfriend":0,"isfamily":0,"ownername":"yuechan0629"},{"id":"46419335444","owner":"37032252@N03","secret":"c07f2affd2","server":"7809","farm":8,"title":"... nails ...","ispublic":1,"isfriend":0,"isfamily":0,"ownername":"wolli s"},{"id":"16528074723","owner":"13363561@N06","secret":"beb8a2260a","server":"8690","farm":9,"title":"Nail","ispublic":1,"isfriend":0,"isfamily":0,"ownername":"rabbit_akra"},{"id":"17148219195","owner":"13363561@N06","secret":"34fc72ab70","server":"8772","farm":9,"title":"Nail","ispublic":1,"isfriend":0,"isfamily":0,"ownername":"rabbit_akra"},{"id":"66762374","owner":"51035602859@N01","secret":"cdaccfe68a","server":"27","farm":1,"title":"Nail","ispublic":1,"isfriend":0,"isfamily":0,"ownername":"Pete Ashton"},{"id":"17183593955","owner":"13363561@N06","secret":"f319efeabe","server":"8783","farm":9,"title":"Nail","ispublic":1,"isfriend":0,"isfamily":0,"ownername":"rabbit_akra"},{"id":"3390148271","owner":"21854908@N06","secret":"d0fa0f8c1c","server":"3053","farm":4,"title":"Nail","ispublic":1,"isfriend":0,"isfamily":0,"ownername":"ohSNAP Photography"},{"id":"26360494684","owner":"57949897@N00","secret":"67961a7b3a","server":"7088","farm":8,"title":"Nail","ispublic":1,"isfriend":0,"isfamily":0,"ownername":"Jerzy Durczak"},{"id":"168627273","owner":"28956728@N00","secret":"4659863709","server":"57","farm":1,"title":"Nail","ispublic":1,"isfriend":0,"isfamily":0,"ownername":"K. W. Sanders"},{"id":"2679359456","owner":"8282554@N06","secret":"43b4d914aa","server":"3062","farm":4,"title":"Nail","ispublic":1,"isfriend":0,"isfamily":0,"ownername":"NicholasPryde"},{"id":"16960700470","owner":"13363561@N06","secret":"4df94812c2","server":"7688","farm":8,"title":"Nail","ispublic":1,"isfriend":0,"isfamily":0,"ownername":"rabbit_akra"},{"id":"347221284","owner":"77218684@N00","secret":"773197bcb4","server":"125","farm":1,"title":"Nail","ispublic":1,"isfriend":0,"isfamily":0,"ownername":"ndaero"}]},"stat":"ok"}