{"photos":{"page":1,"pages":3396,"perpage":15,"total":"50937","photo":[{"id":"44965447361","owner":"67214100@N00","secret":"e38e73e448","server":"1927","farm":2,"title":"Needles","ispublic":1,"isfriend":0,"isfamily":0,"ownername":"blueverbena"},{"id":"2708272","owner":"44124376668@N01","secret":"7f24d5ee98","server":"1","farm":1,"title":"needle","ispublic":1,"isfriend":0,"isfamily":0,"ownername":"romanlily"},{"id":"2147718252","owner":"12836528@N00","secret":"6086ccb0f4","server":"2178","farm":3,"title":"Cactus needles","ispublic":1,"isfriend":0,"isfamily":0,"ownername":"kevin dooley"},{"id":"5252444186","owner":"51391114@N04","secret":"be3f1d4ae4","server":"5164","farm":6,"title":"Needle","ispublic":1,"isfriend":0,"isfamily":0,"ownername":"steve.li.steve.li"},{"id":"1311267602","owner":"10361581@N07","secret":"0bdf08d17e","server":"1247","farm":2,"title":"Needle","ispublic":1,"isfriend":0,"isfamily":0,"ownername":"Zee."},{"id":"9208635428","owner":"98418183@N06","secret":"b1e1cdd7c8","server":"7370","farm":8,"title":"Needle","ispublic":1,"isfriend":0,"isfamily":0,"ownername":"koudy-vw"},{"id":"4910330485","owner":"48484620@N02","secret":"40e7b63df0","server":"4073","farm":5,"title":"needle","ispublic":1,"isfriend":0,"isfamily":0,"ownername":"timnh"},{"id":"2264919679","owner":"23773249@N03","secret":"3ebc3834b2","server":"2405","farm":3,"title":"needle.","ispublic":1,"isfriend":0,"isfamily":0,"ownername":"- c\u00ednthia."},{"id":"2325803274","owner":"24018356@N05","secret":"9842f42ffb","server":"2120","farm":3,"title":"Needle","ispublic":1,"isfriend":0,"isfamily":0,"ownername":"beautyredefined"},{"id":"15902174939","owner":"130175592@N05","secret":"d62d54825b","server":"8644","farm":9,"title":"Needle","ispublic":1,"isfriend":0,"isfamily":0,"ownername":"Nonamefortime"},{"id":"5062344787","owner":"50623225@N06","secret":"4dc38d26cf","server":"4124","farm":5,"title":"Water Needle","ispublic":1,"isfriend":0,"isfamily":0,"ownername":"woktografie"},{"id":"8589332837","owner":"75656908@N02","secret":"f61e977f7f","server":"8529","farm":9,"title":"needle","ispublic":1,"isfriend":0,"isfamily":0,"ownername":"Palllew"},{"id":"4515803283","owner":"34394143@N07","secret":"1405f344c1","server":"4005","farm":5,"title":"needle","ispublic":1,"isfriend":0,"isfamily":0,"ownername":"david margiotta"},{"id":"100493091","owner":"37996581325@N01","secret":"a6edfd51a6","server":"26","farm":1,"title":"needle","ispublic":1,"isfriend":0,"isfamily":0,"ownername":"Matt Westervelt"},{"id":"6907828279","owner":"63272133@N05","secret":"09480038f3","server":"7046","farm":8,"title":"needle","ispublic":1,"isfriend":0,"isfamily":0,"ownername":"relort"}]},"stat":"ok"}