{"photos":{"page":1,"pages":2116,"perpage":15,"total":"31737","photo":[{"id":"7446527030","owner":"78212955@N05","secret":"e84c4c6b31","server":"8013","farm":9,"title":"Needles","ispublic":1,"isfriend":0,"isfamily":0,"ownername":"Mark M Mulholland"},{"id":"47077901941","owner":"153214441@N04","secret":"17a1c313b8","server":"7830","farm":8,"title":"Needles","ispublic":1,"isfriend":0,"isfamily":0,"ownername":"Eric Tischler"},{"id":"41043006625","owner":"56605255@N00","secret":"855d5f322c","server":"943","farm":1,"title":"Needles in the Sky CS3-792S","ispublic":1,"isfriend":0,"isfamily":0,"ownername":"nikonmike99"},{"id":"4072818240","owner":"79666107@N00","secret":"a3178d3c00","server":"2707","farm":3,"title":"Needles","ispublic":1,"isfriend":0,"isfamily":0,"ownername":"cm195902"},{"id":"7578738918","owner":"70757891@N00","secret":"c3575db265","server":"7257","farm":8,"title":"Needles","ispublic":1,"isfriend":0,"isfamily":0,"ownername":"grongar"},{"id":"9566794000","owner":"37602397@N00","secret":"afa3edb934","server":"2891","farm":3,"title":"The Needles","ispublic":1,"isfriend":0,"isfamily":0,"ownername":"MajiksBox"},{"id":"7038631949","owner":"68547644@N03","secret":"46b54ff740","server":"7056","farm":8,"title":"Needles","ispublic":1,"isfriend":0,"isfamily":0,"ownername":"Fizzy Lifting Drinks"},{"id":"4896417050","owner":"67476265@N00","secret":"1a5a8254d5","server":"4082","farm":5,"title":"needles","ispublic":1,"isfriend":0,"isfamily":0,"ownername":"plesserchick"},{"id":"8130983624","owner":"61845459@N07","secret":"d89125ba93","server":"8183","farm":9,"title":"Needles","ispublic":1,"isfriend":0,"isfamily":0,"ownername":"DrazenVK"},{"id":"33684083234","owner":"137851277@N03","secret":"1069732727","server":"4188","farm":5,"title":"needles","ispublic":1,"isfriend":0,"isfamily":0,"ownername":"jane not janet"},{"id":"3578792888","owner":"50697175@N00","secret":"951453ef9f","server":"3301","farm":4,"title":"Needles","ispublic":1,"isfriend":0,"isfamily":0,"ownername":"baalands"},{"id":"2653971376","owner":"40974052@N00","secret":"e4b2570d28","server":"3011","farm":4,"title":"needles","ispublic":1,"isfriend":0,"isfamily":0,"ownername":"Elli 19"},{"id":"5710419365","owner":"62750716@N06","secret":"015c7ed1c3","server":"3440","farm":4,"title":"Needles","ispublic":1,"isfriend":0,"isfamily":0,"ownername":"cpremoshis"},{"id":"27528430459","owner":"62794756@N02","secret":"532bef7df2","server":"4689","farm":5,"title":"Needles","ispublic":1,"isfriend":0,"isfamily":0,"ownername":"brookis-photography"},{"id":"2663013035","owner":"28495554@N05","secret":"b5c5255d3a","server":"3040","farm":4,"title":"Intolerant society \/ Intoler\u00e1ns t\u00e1rsadalom","ispublic":1,"isfriend":0,"isfamily":0,"ownername":"Zitaaa"}]},"stat":"ok"}