{"photos":{"page":1,"pages":280176,"perpage":15,"total":"4202627","photo":[{"id":"6483549709","owner":"29468339@N02","secret":"c7d67cfeec","server":"7150","farm":8,"title":"Night","ispublic":1,"isfriend":0,"isfamily":0,"ownername":"@Doug88888"},{"id":"6478181821","owner":"69148745@N02","secret":"187e62e87e","server":"7023","farm":8,"title":"night","ispublic":1,"isfriend":0,"isfamily":0,"ownername":"land[e]scape"},{"id":"36261793444","owner":"73422502@N08","secret":"d90be887c8","server":"4399","farm":5,"title":"Night","ispublic":1,"isfriend":0,"isfamily":0,"ownername":"Zeeyolq Photography"},{"id":"8915499435","owner":"54196590@N04","secret":"eddce4a082","server":"8258","farm":9,"title":"Night","ispublic":1,"isfriend":0,"isfamily":0,"ownername":"trev.pix"},{"id":"10536408736","owner":"80226011@N06","secret":"0a5db1c639","server":"3765","farm":4,"title":"night","ispublic":1,"isfriend":0,"isfamily":0,"ownername":"Blueocean64"},{"id":"32874511866","owner":"75487768@N04","secret":"207f9f8ae5","server":"2532","farm":3,"title":"night","ispublic":1,"isfriend":0,"isfamily":0,"ownername":"barnyz"},{"id":"8074602592","owner":"41603347@N08","secret":"9040a118e6","server":"7135","farm":8,"title":"Night","ispublic":1,"isfriend":0,"isfamily":0,"ownername":"Amarok1977"},{"id":"8591604707","owner":"90919890@N08","secret":"33dd7a9991","server":"8516","farm":9,"title":"night","ispublic":1,"isfriend":0,"isfamily":0,"ownername":"Rifky Setya"},{"id":"5541820022","owner":"50869268@N05","secret":"348ea09a75","server":"5132","farm":6,"title":"Night","ispublic":1,"isfriend":0,"isfamily":0,"ownername":"Lulorix"},{"id":"32242463124","owner":"75487768@N04","secret":"635cf584eb","server":"776","farm":1,"title":"night","ispublic":1,"isfriend":0,"isfamily":0,"ownername":"barnyz"},{"id":"42582026015","owner":"75487768@N04","secret":"f6fcb7ecc9","server":"919","farm":1,"title":"night","ispublic":1,"isfriend":0,"isfamily":0,"ownername":"barnyz"},{"id":"31872046793","owner":"73422502@N08","secret":"a8cd221b9d","server":"743","farm":1,"title":"Night","ispublic":1,"isfriend":0,"isfamily":0,"ownername":"Zeeyolq Photography"},{"id":"2724276009","owner":"74598213@N00","secret":"eeae48500e","server":"3019","farm":4,"title":"Night","ispublic":1,"isfriend":0,"isfamily":0,"ownername":"minoir"},{"id":"33143291508","owner":"157583923@N04","secret":"76a5f8e0fd","server":"4843","farm":5,"title":"Night","ispublic":1,"isfriend":0,"isfamily":0,"ownername":"bulbul057"},{"id":"11680874115","owner":"93140027@N08","secret":"9c6f0fbc83","server":"5539","farm":6,"title":"Night Singapore","ispublic":1,"isfriend":0,"isfamily":0,"ownername":"Shanti Alex"}]},"stat":"ok"}