{"photos":{"page":1,"pages":1750,"perpage":15,"total":"26248","photo":[{"id":"31261504068","owner":"109934317@N08","secret":"80be90e185","server":"1940","farm":2,"title":"Nightmare","ispublic":1,"isfriend":0,"isfamily":0,"ownername":"Terry.Fotherington \u271e"},{"id":"211578744","owner":"18023272@N00","secret":"14ef7c2b49","server":"98","farm":1,"title":"Nightmare","ispublic":1,"isfriend":0,"isfamily":0,"ownername":"fesign"},{"id":"42383502344","owner":"153780492@N02","secret":"61708d8bd5","server":"1809","farm":2,"title":"Nightmare","ispublic":1,"isfriend":0,"isfamily":0,"ownername":"pastadimama"},{"id":"4175801491","owner":"22968465@N06","secret":"cf48f575db","server":"4041","farm":5,"title":"Nightmare","ispublic":1,"isfriend":0,"isfamily":0,"ownername":"paololongo48"},{"id":"44734484755","owner":"72515145@N06","secret":"a014b91d64","server":"1951","farm":2,"title":"Nightmare","ispublic":1,"isfriend":0,"isfamily":0,"ownername":"JuliSonne"},{"id":"17501919441","owner":"133111884@N08","secret":"8cd27e6bc0","server":"8776","farm":9,"title":"nightmares","ispublic":1,"isfriend":0,"isfamily":0,"ownername":"J.T.W"},{"id":"14400397198","owner":"84611891@N08","secret":"d4d5107d76","server":"3856","farm":4,"title":"Nightmare","ispublic":1,"isfriend":0,"isfamily":0,"ownername":"Verde_Gnoh"},{"id":"3447578211","owner":"35094764@N03","secret":"6407120be7","server":"3297","farm":4,"title":"Nightmare","ispublic":1,"isfriend":0,"isfamily":0,"ownername":"The red bunny"},{"id":"4119713238","owner":"7205246@N02","secret":"44fbebec1e","server":"2774","farm":3,"title":"Nightmare","ispublic":1,"isfriend":0,"isfamily":0,"ownername":"brentbat"},{"id":"28434169158","owner":"128997342@N07","secret":"b2b3d89e53","server":"959","farm":1,"title":"nightmare","ispublic":1,"isfriend":0,"isfamily":0,"ownername":"Arthur Rx"},{"id":"6849871406","owner":"45378458@N05","secret":"b9d1687653","server":"7140","farm":8,"title":"nightmare","ispublic":1,"isfriend":0,"isfamily":0,"ownername":"villou"},{"id":"25758736288","owner":"135166400@N05","secret":"25023623e2","server":"4762","farm":5,"title":"The Nightmare","ispublic":1,"isfriend":0,"isfamily":0,"ownername":"Phancurio"},{"id":"5937547003","owner":"54626417@N06","secret":"b91b91d895","server":"6010","farm":7,"title":"Nightmare...","ispublic":1,"isfriend":0,"isfamily":0,"ownername":"Anett :)"},{"id":"38969884190","owner":"22154713@N04","secret":"d9fe9f55fb","server":"4776","farm":5,"title":"Nightmare","ispublic":1,"isfriend":0,"isfamily":0,"ownername":"clabudak"},{"id":"2141226802","owner":"42812461@N00","secret":"8f1dcbf174","server":"2130","farm":3,"title":"NIGHTMARE","ispublic":1,"isfriend":0,"isfamily":0,"ownername":"Akbar Simonse"}]},"stat":"ok"}