{"photos":{"page":1,"pages":109208,"perpage":15,"total":"1638114","photo":[{"id":"5256018586","owner":"44912907@N05","secret":"3c33a85064","server":"5285","farm":6,"title":"Orange","ispublic":1,"isfriend":0,"isfamily":0,"ownername":"Sunsword & Moonsabre"},{"id":"39685294905","owner":"105132315@N06","secret":"c5bcc55e84","server":"4768","farm":5,"title":"Orange ...","ispublic":1,"isfriend":0,"isfamily":0,"ownername":"Jackie ..."},{"id":"9731648856","owner":"54273533@N07","secret":"14a8c73fa6","server":"3813","farm":4,"title":"Orange","ispublic":1,"isfriend":0,"isfamily":0,"ownername":"Ler4)"},{"id":"2624658117","owner":"87286968@N00","secret":"017b4a3a78","server":"3291","farm":4,"title":"orange","ispublic":1,"isfriend":0,"isfamily":0,"ownername":"etcher67"},{"id":"24804356440","owner":"127610730@N07","secret":"98aa4454f1","server":"1718","farm":2,"title":"Orange","ispublic":1,"isfriend":0,"isfamily":0,"ownername":"Artemis Snow"},{"id":"32444759507","owner":"163413260@N04","secret":"ba4b25c340","server":"4899","farm":5,"title":"Orange","ispublic":1,"isfriend":0,"isfamily":0,"ownername":"Cosmos and Chaos"},{"id":"6926287398","owner":"19193775@N00","secret":"d01942f28d","server":"7234","farm":8,"title":"orange","ispublic":1,"isfriend":0,"isfamily":0,"ownername":"desertdragon"},{"id":"23704535759","owner":"21692577@N02","secret":"66ff343414","server":"5744","farm":6,"title":"orange","ispublic":1,"isfriend":0,"isfamily":0,"ownername":"Danny VB"},{"id":"4079134775","owner":"9247781@N02","secret":"c90b6701f5","server":"2753","farm":3,"title":"Orange","ispublic":1,"isfriend":0,"isfamily":0,"ownername":"Sarai | Fotography"},{"id":"8086109706","owner":"84159903@N00","secret":"5c81349184","server":"8466","farm":9,"title":"Orange","ispublic":1,"isfriend":0,"isfamily":0,"ownername":"Eldkvast"},{"id":"2716985533","owner":"8679980@N07","secret":"25a101b455","server":"3089","farm":4,"title":"orange","ispublic":1,"isfriend":0,"isfamily":0,"ownername":"Look at the view"},{"id":"2399960206","owner":"25432502@N03","secret":"f58f3af2d2","server":"3161","farm":4,"title":"orange","ispublic":1,"isfriend":0,"isfamily":0,"ownername":"Greatimages"},{"id":"6807948695","owner":"35419960@N05","secret":"8989898f5b","server":"7161","farm":8,"title":"Orange","ispublic":1,"isfriend":0,"isfamily":0,"ownername":"Marybootrixie"},{"id":"15583166119","owner":"100317486@N02","secret":"3f2fb481e7","server":"8558","farm":9,"title":"orange","ispublic":1,"isfriend":0,"isfamily":0,"ownername":"jorge.posado"},{"id":"2110539010","owner":"21842641@N02","secret":"0f36967d39","server":"2102","farm":3,"title":"oranges","ispublic":1,"isfriend":0,"isfamily":0,"ownername":"gokugraphics"}]},"stat":"ok"}