{"photos":{"page":1,"pages":1776,"perpage":15,"total":"26631","photo":[{"id":"6430517147","owner":"64452496@N05","secret":"a8f4bc7920","server":"7024","farm":8,"title":"Orange flowers","ispublic":1,"isfriend":0,"isfamily":0,"ownername":"AbdulAziz Photography"},{"id":"5571603705","owner":"61187944@N06","secret":"2f066b603c","server":"5171","farm":6,"title":"oranges","ispublic":1,"isfriend":0,"isfamily":0,"ownername":"m.zizah"},{"id":"138531710","owner":"50566348@N00","secret":"d3f16b9697","server":"47","farm":1,"title":"Orange","ispublic":1,"isfriend":0,"isfamily":0,"ownername":"Kris Fields"},{"id":"8036300130","owner":"87764507@N07","secret":"6aeac67a53","server":"8032","farm":9,"title":"Oranges","ispublic":1,"isfriend":0,"isfamily":0,"ownername":"OuwdEyez"},{"id":"336283771","owner":"92191162@N00","secret":"ce2d976de1","server":"160","farm":1,"title":"oranges","ispublic":1,"isfriend":0,"isfamily":0,"ownername":"bethanyparker81"},{"id":"431027953","owner":"13587443@N00","secret":"c4bd7a3636","server":"174","farm":1,"title":"Orange","ispublic":1,"isfriend":0,"isfamily":0,"ownername":"darthmaus"},{"id":"32621308024","owner":"150856198@N08","secret":"07eaa4a1b6","server":"2849","farm":3,"title":"#food #oranges #fruit","ispublic":1,"isfriend":0,"isfamily":0,"ownername":"Emilynxphotography"},{"id":"431028314","owner":"13587443@N00","secret":"0043792746","server":"165","farm":1,"title":"Orange","ispublic":1,"isfriend":0,"isfamily":0,"ownername":"darthmaus"},{"id":"310042264","owner":"25875474@N00","secret":"ca5aeb4d60","server":"121","farm":1,"title":"Oranges!!","ispublic":1,"isfriend":0,"isfamily":0,"ownername":"w3ndy @ flickr"},{"id":"2648594198","owner":"28080518@N04","secret":"b569d1d8f0","server":"3167","farm":4,"title":"oranges","ispublic":1,"isfriend":0,"isfamily":0,"ownername":"21*"},{"id":"3602376357","owner":"33873920@N06","secret":"c22bb284fa","server":"3643","farm":4,"title":"oranges","ispublic":1,"isfriend":0,"isfamily":0,"ownername":"cheval_blanc"},{"id":"2595863602","owner":"27741586@N02","secret":"58810a8a34","server":"3262","farm":4,"title":"oranges","ispublic":1,"isfriend":0,"isfamily":0,"ownername":"jessturrill"},{"id":"6678044159","owner":"60008430@N04","secret":"bf28c9af8c","server":"7004","farm":8,"title":"Oranges!","ispublic":1,"isfriend":0,"isfamily":0,"ownername":"peach-water"},{"id":"5235492021","owner":"55914243@N08","secret":"73e98af185","server":"5248","farm":6,"title":"Oranges","ispublic":1,"isfriend":0,"isfamily":0,"ownername":"Aly-X"},{"id":"2299000281","owner":"24080042@N05","secret":"4504fc6187","server":"2053","farm":3,"title":"Orange","ispublic":1,"isfriend":0,"isfamily":0,"ownername":"Tao_of_Drew"}]},"stat":"ok"}