{"photos":{"page":1,"pages":44497,"perpage":15,"total":"667449","photo":[{"id":"35573153762","owner":"37355742@N08","secret":"421c07f42b","server":"4013","farm":5,"title":"paint","ispublic":1,"isfriend":0,"isfamily":0,"ownername":"Rambynas"},{"id":"3594067177","owner":"15168989@N02","secret":"d184ed8ed6","server":"3558","farm":4,"title":"Paint","ispublic":1,"isfriend":0,"isfamily":0,"ownername":"N'REY"},{"id":"46381326485","owner":"7305052@N02","secret":"dba98d0818","server":"7881","farm":8,"title":"Paint","ispublic":1,"isfriend":0,"isfamily":0,"ownername":"sshermanphoto.com"},{"id":"6250423695","owner":"30907914@N04","secret":"b78cffe5be","server":"6100","farm":7,"title":"Paint","ispublic":1,"isfriend":0,"isfamily":0,"ownername":"mateuscs309"},{"id":"6862203302","owner":"72831951@N00","secret":"6d04963f19","server":"7241","farm":8,"title":"Painting","ispublic":1,"isfriend":0,"isfamily":0,"ownername":"Mundo Flo"},{"id":"6737152293","owner":"43422804@N02","secret":"14c6858e88","server":"7170","farm":8,"title":"Paint","ispublic":1,"isfriend":0,"isfamily":0,"ownername":"carl.walker"},{"id":"5882225436","owner":"58572345@N04","secret":"486f1ccbed","server":"6051","farm":7,"title":"paint","ispublic":1,"isfriend":0,"isfamily":0,"ownername":"Cruise Ctrl"},{"id":"15070948765","owner":"10179463@N07","secret":"196352f304","server":"3879","farm":4,"title":"paint","ispublic":1,"isfriend":0,"isfamily":0,"ownername":"CatMacBride"},{"id":"4523710799","owner":"36683672@N03","secret":"4744d1cfe0","server":"2580","farm":3,"title":"Paint","ispublic":1,"isfriend":0,"isfamily":0,"ownername":"Patrick Higgins Photography"},{"id":"35362641780","owner":"37355742@N08","secret":"f3c1867e95","server":"4237","farm":5,"title":"paint","ispublic":1,"isfriend":0,"isfamily":0,"ownername":"Rambynas"},{"id":"4735648868","owner":"51501661@N07","secret":"eaf06cd2ec","server":"4141","farm":5,"title":"Painting","ispublic":1,"isfriend":0,"isfamily":0,"ownername":"Calamito web"},{"id":"16575606120","owner":"55727763@N02","secret":"736f4af926","server":"8578","farm":9,"title":"Paint","ispublic":1,"isfriend":0,"isfamily":0,"ownername":"colin9007"},{"id":"6826230913","owner":"64044909@N08","secret":"be9dab86b0","server":"7026","farm":8,"title":"paint","ispublic":1,"isfriend":0,"isfamily":0,"ownername":"jenny2701"},{"id":"4735980315","owner":"51501661@N07","secret":"e2534bd0da","server":"4078","farm":5,"title":"Painting","ispublic":1,"isfriend":0,"isfamily":0,"ownername":"Calamito web"},{"id":"14060759180","owner":"55282758@N05","secret":"81999db1dd","server":"5536","farm":6,"title":"Paint","ispublic":1,"isfriend":0,"isfamily":0,"ownername":"Euphemia G"}]},"stat":"ok"}