{"photos":{"page":1,"pages":6436,"perpage":15,"total":"96536","photo":[{"id":"15178353845","owner":"41313722@N04","secret":"491ff42e2a","server":"3908","farm":4,"title":"Pale Wisp","ispublic":1,"isfriend":0,"isfamily":0,"ownername":"Shelby's Trail"},{"id":"8694530602","owner":"56825776@N00","secret":"362f265d99","server":"8534","farm":9,"title":"Pale Daffodils","ispublic":1,"isfriend":0,"isfamily":0,"ownername":"Tim Noonan"},{"id":"4728475214","owner":"29468339@N02","secret":"58bbab6376","server":"1022","farm":2,"title":"Pale rose","ispublic":1,"isfriend":0,"isfamily":0,"ownername":"@Doug88888"},{"id":"8362689802","owner":"33441867@N06","secret":"7c25855d5d","server":"8376","farm":9,"title":"Pale eoliche","ispublic":1,"isfriend":0,"isfamily":0,"ownername":"Silvio Arnello"},{"id":"8215995136","owner":"56825776@N00","secret":"4f3a348564","server":"8489","farm":9,"title":"Pale Forest. Explore Nov 24, 2012 #393","ispublic":1,"isfriend":0,"isfamily":0,"ownername":"Tim Noonan"},{"id":"2422493491","owner":"7398986@N04","secret":"d62af91eca","server":"3244","farm":4,"title":"Pale Pink","ispublic":1,"isfriend":0,"isfamily":0,"ownername":"NatureWalk"},{"id":"15177277335","owner":"51710089@N08","secret":"91b6760566","server":"5578","farm":6,"title":"Pale Begonia.","ispublic":1,"isfriend":0,"isfamily":0,"ownername":"Yvette-"},{"id":"3880784877","owner":"26463146@N06","secret":"2bc479c56d","server":"2627","farm":3,"title":"Pale Red Passion","ispublic":1,"isfriend":0,"isfamily":0,"ownername":"Enrico Grotto"},{"id":"15170872280","owner":"97762914@N04","secret":"9fd0df412e","server":"3843","farm":4,"title":"Pale-headed Rosella","ispublic":1,"isfriend":0,"isfamily":0,"ownername":"Reptilezz"},{"id":"3202837919","owner":"25102254@N03","secret":"0bcb27c349","server":"3101","farm":4,"title":"illustration friday: pale","ispublic":1,"isfriend":0,"isfamily":0,"ownername":"Asja."},{"id":"14990583560","owner":"27872610@N05","secret":"e7de147047","server":"3852","farm":4,"title":"Pale Beauty Berries","ispublic":1,"isfriend":0,"isfamily":0,"ownername":"Firery Broome"},{"id":"15151350566","owner":"73325653@N07","secret":"96bf8d0287","server":"3881","farm":4,"title":"Macro Mondays: Pale - A Pale Beauty In a Dark World","ispublic":1,"isfriend":0,"isfamily":0,"ownername":"Fiona Dawkins"},{"id":"15175466295","owner":"116182455@N05","secret":"ea789b33db","server":"3911","farm":4,"title":"pale on pale (paled...kind of...;-])","ispublic":1,"isfriend":0,"isfamily":0,"ownername":"johhartmann"},{"id":"15171585201","owner":"56821923@N04","secret":"6621f6c9bd","server":"5575","farm":6,"title":"A WHITER SHADE OF PALE","ispublic":1,"isfriend":0,"isfamily":0,"ownername":"RLBrinkman"},{"id":"20294056366","owner":"70081115@N06","secret":"b6a7d79e67","server":"3677","farm":4,"title":"Pale Billed Flowerpecker","ispublic":1,"isfriend":0,"isfamily":0,"ownername":"Aravind Venkatraman"}]},"stat":"ok"}