{"photos":{"page":1,"pages":5255,"perpage":15,"total":"78819","photo":[{"id":"9604019977","owner":"99941335@N02","secret":"e01a766d8d","server":"3732","farm":4,"title":"pant","ispublic":1,"isfriend":0,"isfamily":0,"ownername":"zhangliyuanzi"},{"id":"14987470051","owner":"79616168@N08","secret":"8ffc58f2df","server":"3926","farm":4,"title":"hiking pants","ispublic":1,"isfriend":0,"isfamily":0,"ownername":"SnoCountry.com"},{"id":"6983722323","owner":"27357511@N02","secret":"aeba4d7c98","server":"7185","farm":8,"title":"pants 009","ispublic":1,"isfriend":0,"isfamily":0,"ownername":"outhouserealty"},{"id":"6983736133","owner":"27357511@N02","secret":"65a4e5bf1b","server":"7059","farm":8,"title":"pants 016","ispublic":1,"isfriend":0,"isfamily":0,"ownername":"outhouserealty"},{"id":"6838436682","owner":"27357511@N02","secret":"c1941807f9","server":"7208","farm":8,"title":"pants 003","ispublic":1,"isfriend":0,"isfamily":0,"ownername":"outhouserealty"},{"id":"6837586982","owner":"27357511@N02","secret":"1725639481","server":"7040","farm":8,"title":"pants 008","ispublic":1,"isfriend":0,"isfamily":0,"ownername":"outhouserealty"},{"id":"3612507714","owner":"39191312@N08","secret":"a00d326c61","server":"3357","farm":4,"title":"Black Yoga Pants","ispublic":1,"isfriend":0,"isfamily":0,"ownername":"Chara Girl"},{"id":"15548724687","owner":"56767399@N02","secret":"0fa249d4c6","server":"3952","farm":4,"title":"girl leather pants","ispublic":1,"isfriend":0,"isfamily":0,"ownername":"girl leather pants"},{"id":"6838439698","owner":"27357511@N02","secret":"1fb7a3b804","server":"7066","farm":8,"title":"pants 010","ispublic":1,"isfriend":0,"isfamily":0,"ownername":"outhouserealty"},{"id":"15298890719","owner":"111982585@N04","secret":"dd932f8a65","server":"3940","farm":4,"title":"Pleated pants","ispublic":1,"isfriend":0,"isfamily":0,"ownername":"Maison Ullens"},{"id":"9607199896","owner":"99941335@N02","secret":"539a0f1f46","server":"3762","farm":4,"title":"pant","ispublic":1,"isfriend":0,"isfamily":0,"ownername":"zhangliyuanzi"},{"id":"4703919568","owner":"51138008@N05","secret":"df83765d84","server":"4036","farm":5,"title":"Stirrup Pants","ispublic":1,"isfriend":0,"isfamily":0,"ownername":"Darlene624"},{"id":"4268562104","owner":"21547875@N03","secret":"1bf8deb00a","server":"4067","farm":5,"title":"Ripped pants","ispublic":1,"isfriend":0,"isfamily":0,"ownername":"linuswong"},{"id":"4268563782","owner":"21547875@N03","secret":"d85c42dee9","server":"2798","farm":3,"title":"Ripped pants","ispublic":1,"isfriend":0,"isfamily":0,"ownername":"linuswong"},{"id":"8156363860","owner":"9508101@N05","secret":"f7c8780383","server":"8480","farm":9,"title":"Pants Refit - Before","ispublic":1,"isfriend":0,"isfamily":0,"ownername":"nosmallfeet"}]},"stat":"ok"}