{"photos":{"page":1,"pages":3259,"perpage":15,"total":"48885","photo":[{"id":"45264468382","owner":"63426612@N05","secret":"7bccfc7b9c","server":"1952","farm":2,"title":"Panther","ispublic":1,"isfriend":0,"isfamily":0,"ownername":"Pedro1742"},{"id":"4660364980","owner":"60325615@N00","secret":"9f981f5820","server":"4010","farm":5,"title":"PANTHER","ispublic":1,"isfriend":0,"isfamily":0,"ownername":"Welsh Harlequin"},{"id":"9104948096","owner":"50949827@N03","secret":"41fced5d76","server":"5458","farm":6,"title":"Panther","ispublic":1,"isfriend":0,"isfamily":0,"ownername":"Anupam_ts"},{"id":"5018367347","owner":"25470509@N05","secret":"e155f460a0","server":"4091","farm":5,"title":"Panther","ispublic":1,"isfriend":0,"isfamily":0,"ownername":"strobuskids"},{"id":"5707876953","owner":"54507835@N05","secret":"fc3f0d9948","server":"3550","farm":4,"title":"panther","ispublic":1,"isfriend":0,"isfamily":0,"ownername":"Axl_KTS"},{"id":"2347670529","owner":"8047619@N08","secret":"0a4889cc28","server":"2385","farm":3,"title":"panther","ispublic":1,"isfriend":0,"isfamily":0,"ownername":"annette62"},{"id":"4159700940","owner":"40550400@N04","secret":"fa8c09782d","server":"2785","farm":3,"title":"Panther","ispublic":1,"isfriend":0,"isfamily":0,"ownername":"danieldyer"},{"id":"3761555661","owner":"23236224@N04","secret":"c2d5391bf0","server":"3486","farm":4,"title":"Panther","ispublic":1,"isfriend":0,"isfamily":0,"ownername":"metalmonkeytattoo"},{"id":"4689515116","owner":"43803929@N06","secret":"fdc90fa8aa","server":"1297","farm":2,"title":"Panther","ispublic":1,"isfriend":0,"isfamily":0,"ownername":"..::RuinsTown::.."},{"id":"1438210568","owner":"13335600@N07","secret":"0c0a33c0af","server":"1251","farm":2,"title":"PANTHER","ispublic":1,"isfriend":0,"isfamily":0,"ownername":"jeromelouka"},{"id":"33268734906","owner":"53043338@N07","secret":"a686c66225","server":"3795","farm":4,"title":"Panther","ispublic":1,"isfriend":0,"isfamily":0,"ownername":"2010kev"},{"id":"22384884577","owner":"7649805@N07","secret":"39c56dae34","server":"750","farm":1,"title":"Panthers","ispublic":1,"isfriend":0,"isfamily":0,"ownername":"pattoise"},{"id":"2546009292","owner":"58636736@N00","secret":"14df19b3a8","server":"3123","farm":4,"title":"PANTHER","ispublic":1,"isfriend":0,"isfamily":0,"ownername":"douglr88"},{"id":"3790525305","owner":"97609500@N00","secret":"5dfb2b8f55","server":"2443","farm":3,"title":"Panther!","ispublic":1,"isfriend":0,"isfamily":0,"ownername":"Ken's Aviation"},{"id":"5047776972","owner":"50305933@N06","secret":"952ba1b2b9","server":"4106","farm":5,"title":"Panther","ispublic":1,"isfriend":0,"isfamily":0,"ownername":"They Were Invisible"}]},"stat":"ok"}