{"photos":{"page":1,"pages":5321,"perpage":15,"total":"79804","photo":[{"id":"24204938050","owner":"55747750@N02","secret":"d1d2acc090","server":"1643","farm":2,"title":"passage","ispublic":1,"isfriend":0,"isfamily":0,"ownername":"patrice ouellet"},{"id":"20557767152","owner":"40496301@N06","secret":"53bdce2656","server":"5665","farm":6,"title":"Tout est histoire de Passage...","ispublic":1,"isfriend":0,"isfamily":0,"ownername":"\u2570\u22b0\u273f Balexia87"},{"id":"11303282965","owner":"25228175@N08","secret":"1e96a63d4b","server":"2822","farm":3,"title":"Passage walks","ispublic":1,"isfriend":0,"isfamily":0,"ownername":"zilverbat."},{"id":"11581494783","owner":"25228175@N08","secret":"55e2856ca2","server":"3672","farm":4,"title":"Passage walks","ispublic":1,"isfriend":0,"isfamily":0,"ownername":"zilverbat."},{"id":"6952648481","owner":"49036575@N02","secret":"b6789bace3","server":"7196","farm":8,"title":"Passage Jouffroy","ispublic":1,"isfriend":0,"isfamily":0,"ownername":"Zed The Dragon"},{"id":"3734543700","owner":"27082489@N00","secret":"cc608297e7","server":"2583","farm":3,"title":"Prague Passage","ispublic":1,"isfriend":0,"isfamily":0,"ownername":"Mike G. K."},{"id":"4120292185","owner":"38414403@N08","secret":"072363837e","server":"2709","farm":3,"title":"Passages of Light","ispublic":1,"isfriend":0,"isfamily":0,"ownername":"David Shield Photography"},{"id":"8377315593","owner":"55958063@N05","secret":"fd2692a480","server":"8233","farm":9,"title":"passage","ispublic":1,"isfriend":0,"isfamily":0,"ownername":"Jon DeBoer"},{"id":"8213593961","owner":"49036575@N02","secret":"08ec557d4d","server":"8058","farm":9,"title":"Passage du Grand-Cerf, Paris.","ispublic":1,"isfriend":0,"isfamily":0,"ownername":"Zed The Dragon"},{"id":"2756806056","owner":"27082489@N00","secret":"78efa32a3d","server":"3232","farm":4,"title":"Rome Passage","ispublic":1,"isfriend":0,"isfamily":0,"ownername":"Mike G. K."},{"id":"7898320624","owner":"69148745@N02","secret":"f335a99c4d","server":"8462","farm":9,"title":"passage","ispublic":1,"isfriend":0,"isfamily":0,"ownername":"land[e]scape"},{"id":"9516825308","owner":"8188882@N05","secret":"f7d0576bdf","server":"7421","farm":8,"title":"Passage","ispublic":1,"isfriend":0,"isfamily":0,"ownername":"DinosaursAreNotDead"},{"id":"8557784884","owner":"54238565@N07","secret":"67ab9bd991","server":"8244","farm":9,"title":"passage","ispublic":1,"isfriend":0,"isfamily":0,"ownername":"zumima-"},{"id":"5642101851","owner":"36610207@N08","secret":"4425150804","server":"5181","farm":6,"title":"Passage","ispublic":1,"isfriend":0,"isfamily":0,"ownername":"RS..."},{"id":"12444784695","owner":"88468856@N00","secret":"cc74107f96","server":"7314","farm":8,"title":"PASSAGE","ispublic":1,"isfriend":0,"isfamily":0,"ownername":"ajpscs"}]},"stat":"ok"}