{"photos":{"page":1,"pages":155,"perpage":15,"total":"2321","photo":[{"id":"11636651295","owner":"90661829@N05","secret":"a006af1b5a","server":"5505","farm":6,"title":"Barbie Princess and the Pauper: Julian!","ispublic":1,"isfriend":0,"isfamily":0,"ownername":"The Stars In The Sky1"},{"id":"11636673025","owner":"90661829@N05","secret":"6f406ee1b3","server":"5529","farm":6,"title":"Barbie Princess and the Pauper: \"I'll get us out of here Anneliese, I promise\"","ispublic":1,"isfriend":0,"isfamily":0,"ownername":"The Stars In The Sky1"},{"id":"11636900846","owner":"90661829@N05","secret":"a84c720f81","server":"5504","farm":6,"title":"Barbie Princess and the Pauper junior novelization scans: What would it be like to be free?","ispublic":1,"isfriend":0,"isfamily":0,"ownername":"The Stars In The Sky1"},{"id":"11637511966","owner":"90661829@N05","secret":"0ddeb29411","server":"5497","farm":6,"title":"Barbie Princess and the Pauper: Written in your Heart","ispublic":1,"isfriend":0,"isfamily":0,"ownername":"The Stars In The Sky1"},{"id":"11636743104","owner":"90661829@N05","secret":"f535ae7e0b","server":"5521","farm":6,"title":"Barbie Princess and the Pauper: \"Why don't you stick to your books, tutor?\"","ispublic":1,"isfriend":0,"isfamily":0,"ownername":"The Stars In The Sky1"},{"id":"11636277455","owner":"90661829@N05","secret":"72fbc93594","server":"3700","farm":4,"title":"Barbie Princess and the Pauper: I Am A Girl Like You","ispublic":1,"isfriend":0,"isfamily":0,"ownername":"The Stars In The Sky1"},{"id":"11636936584","owner":"90661829@N05","secret":"b30ab4bef0","server":"3806","farm":4,"title":"Barbie Princess and the Pauper: \"You've got to change a lot more than your hair to look like a princess\"","ispublic":1,"isfriend":0,"isfamily":0,"ownername":"The Stars In The Sky1"},{"id":"11636591685","owner":"90661829@N05","secret":"4eb2ef5b5b","server":"5475","farm":6,"title":"Barbie Princess and the Pauper: \"Okay Serafina, it's up to you now.\"","ispublic":1,"isfriend":0,"isfamily":0,"ownername":"The Stars In The Sky1"},{"id":"11636625985","owner":"90661829@N05","secret":"8b791bd9f7","server":"2857","farm":3,"title":"Barbie Princess and the Pauper: If You Love Me For Me","ispublic":1,"isfriend":0,"isfamily":0,"ownername":"The Stars In The Sky1"},{"id":"11636796894","owner":"90661829@N05","secret":"23e1004259","server":"5536","farm":6,"title":"Barbie Princess and the Pauper: To Be A Princess","ispublic":1,"isfriend":0,"isfamily":0,"ownername":"The Stars In The Sky1"},{"id":"11636707285","owner":"90661829@N05","secret":"a4d9c26152","server":"7311","farm":8,"title":"Barbie Princess and the Pauper: \"Stop the wedding!\"","ispublic":1,"isfriend":0,"isfamily":0,"ownername":"The Stars In The Sky1"},{"id":"11636480953","owner":"90661829@N05","secret":"ffb9bb87fb","server":"5520","farm":6,"title":"Barbie Princess and the Pauper: How Can I Refuse?","ispublic":1,"isfriend":0,"isfamily":0,"ownername":"The Stars In The Sky1"},{"id":"23980537903","owner":"30389420@N08","secret":"9e7dd71693","server":"1669","farm":2,"title":"Eat breakfast like a king, lunch like a prince and dinner like a pauper","ispublic":1,"isfriend":0,"isfamily":0,"ownername":"marco18678"},{"id":"19272457899","owner":"72877666@N04","secret":"d1c23d74eb","server":"359","farm":1,"title":"|| Pauper ||","ispublic":1,"isfriend":0,"isfamily":0,"ownername":"SouvikMetiaPhotography"},{"id":"11356422303","owner":"58076840@N08","secret":"38a90cba92","server":"3759","farm":4,"title":"Pauper","ispublic":1,"isfriend":0,"isfamily":0,"ownername":"Cyril-Rana!!"}]},"stat":"ok"}