{"photos":{"page":1,"pages":1327,"perpage":15,"total":"19894","photo":[{"id":"5087112309","owner":"54912928@N06","secret":"bdf55ca72b","server":"4108","farm":5,"title":"peas","ispublic":1,"isfriend":0,"isfamily":0,"ownername":"issyeyre"},{"id":"5416286093","owner":"29771634@N00","secret":"36bbe96d16","server":"5093","farm":6,"title":"Peas","ispublic":1,"isfriend":0,"isfamily":0,"ownername":"b\u2113air"},{"id":"7757560912","owner":"55043711@N07","secret":"3e65462abb","server":"7132","farm":8,"title":"Peas","ispublic":1,"isfriend":0,"isfamily":0,"ownername":"Samovaari"},{"id":"2172816806","owner":"8850528@N06","secret":"ffce22a036","server":"2390","farm":3,"title":"Peas!","ispublic":1,"isfriend":0,"isfamily":0,"ownername":"technicalpickles"},{"id":"14534766085","owner":"53133240@N00","secret":"e49f9888f6","server":"3907","farm":4,"title":"peas","ispublic":1,"isfriend":0,"isfamily":0,"ownername":"Muffet"},{"id":"5890033033","owner":"8113025@N08","secret":"407aeae4eb","server":"5116","farm":6,"title":"Peas","ispublic":1,"isfriend":0,"isfamily":0,"ownername":"~Roxanne~"},{"id":"4122808844","owner":"30874459@N00","secret":"33319b473e","server":"2678","farm":3,"title":"Peas","ispublic":1,"isfriend":0,"isfamily":0,"ownername":"Fatma Alemadi"},{"id":"32934471235","owner":"145792714@N07","secret":"8983c4b8d2","server":"2885","farm":3,"title":"PEAS","ispublic":1,"isfriend":0,"isfamily":0,"ownername":"zohaib.0335"},{"id":"4937238794","owner":"8256456@N08","secret":"196ecc9f53","server":"4141","farm":5,"title":"peas","ispublic":1,"isfriend":0,"isfamily":0,"ownername":"rustumlongpig"},{"id":"14266197617","owner":"96608070@N02","secret":"aa8c076807","server":"3876","farm":4,"title":"peas","ispublic":1,"isfriend":0,"isfamily":0,"ownername":"ren\u00e1ta.dobr\u00e1nska"},{"id":"119972723","owner":"38263679@N00","secret":"018ff3b489","server":"46","farm":1,"title":"Peas","ispublic":1,"isfriend":0,"isfamily":0,"ownername":"Lara Ferroni"},{"id":"13960799479","owner":"37391441@N00","secret":"c6118fba39","server":"7409","farm":8,"title":"peas","ispublic":1,"isfriend":0,"isfamily":0,"ownername":"Lazy_rider"},{"id":"9125818015","owner":"77212409@N04","secret":"b77223ac9b","server":"7346","farm":8,"title":"Peas","ispublic":1,"isfriend":0,"isfamily":0,"ownername":"Emoke Szabo"},{"id":"3566012286","owner":"29868364@N04","secret":"e54f7ed81e","server":"3634","farm":4,"title":"Peas","ispublic":1,"isfriend":0,"isfamily":0,"ownername":"mamzelle f\u00e7e"},{"id":"3145658704","owner":"29702611@N08","secret":"caf4006503","server":"3259","farm":4,"title":"Green Peas","ispublic":1,"isfriend":0,"isfamily":0,"ownername":"billy sarsam"}]},"stat":"ok"}