{"photos":{"page":1,"pages":3143,"perpage":15,"total":"47143","photo":[{"id":"5242771534","owner":"79417873@N00","secret":"6d9c2ec751","server":"5162","farm":6,"title":"Pedal","ispublic":1,"isfriend":0,"isfamily":0,"ownername":"poisonli"},{"id":"13969867775","owner":"56035891@N04","secret":"fa4f6d62ff","server":"7025","farm":8,"title":"pedal","ispublic":1,"isfriend":0,"isfamily":0,"ownername":"_unfun"},{"id":"11254936273","owner":"89317441@N05","secret":"772334c560","server":"3831","farm":4,"title":"Pedal","ispublic":1,"isfriend":0,"isfamily":0,"ownername":"Archangel's Thunderbird"},{"id":"16731250291","owner":"76709346@N07","secret":"9db91a73df","server":"8663","farm":9,"title":"Pedal","ispublic":1,"isfriend":0,"isfamily":0,"ownername":"graff_g3tr"},{"id":"4683548046","owner":"80546354@N00","secret":"2b981d3944","server":"4012","farm":5,"title":"Pedal","ispublic":1,"isfriend":0,"isfamily":0,"ownername":"Howard Dickins"},{"id":"1547845840","owner":"13290706@N02","secret":"44f51a8af8","server":"2106","farm":3,"title":"Pedal","ispublic":1,"isfriend":0,"isfamily":0,"ownername":"Val's Gallery"},{"id":"13549517354","owner":"115432365@N05","secret":"e8d32aa730","server":"3819","farm":4,"title":"pedal","ispublic":1,"isfriend":0,"isfamily":0,"ownername":"dnparker41"},{"id":"3379266171","owner":"22160655@N08","secret":"9aa2276677","server":"3658","farm":4,"title":"For My Mother On Her Birthday","ispublic":1,"isfriend":0,"isfamily":0,"ownername":"Cyn~"},{"id":"5246408467","owner":"48144213@N06","secret":"558cbb9b8b","server":"5162","farm":6,"title":"pedal","ispublic":1,"isfriend":0,"isfamily":0,"ownername":"SDOT ONE"},{"id":"8722214301","owner":"89317441@N05","secret":"24b6bbbf63","server":"7399","farm":8,"title":"Pedal","ispublic":1,"isfriend":0,"isfamily":0,"ownername":"Archangel's Thunderbird"},{"id":"120981450","owner":"12276773@N00","secret":"3c28872757","server":"42","farm":1,"title":"Pedal","ispublic":1,"isfriend":0,"isfamily":0,"ownername":"Mattman4698"},{"id":"2409273705","owner":"16229483@N00","secret":"9c3ede14af","server":"3198","farm":4,"title":"Pedal","ispublic":1,"isfriend":0,"isfamily":0,"ownername":"IzaD\u2122"},{"id":"8089849251","owner":"7471115@N08","secret":"cdceed8cc9","server":"8052","farm":9,"title":"Pedal","ispublic":1,"isfriend":0,"isfamily":0,"ownername":"Mr.TinDC"},{"id":"14819993834","owner":"63973957@N08","secret":"7dbc4aed2e","server":"2909","farm":3,"title":"ATT Morro da Saibreira - 1","ispublic":1,"isfriend":0,"isfamily":0,"ownername":"daniel_pires"},{"id":"5247010316","owner":"48144213@N06","secret":"d131302bb8","server":"5081","farm":6,"title":"pedal","ispublic":1,"isfriend":0,"isfamily":0,"ownername":"SDOT ONE"}]},"stat":"ok"}