{"photos":{"page":1,"pages":54099,"perpage":15,"total":"811482","photo":[{"id":"5063296341","owner":"23489706@N05","secret":"c1d90962e8","server":"4110","farm":5,"title":"Pet","ispublic":1,"isfriend":0,"isfamily":0,"ownername":"jakza - Jaque Zattera"},{"id":"20443802614","owner":"73422502@N08","secret":"d0b0c0b5c5","server":"5704","farm":6,"title":"Pet","ispublic":1,"isfriend":0,"isfamily":0,"ownername":"Zeeyolq Photography"},{"id":"14097503625","owner":"94495029@N07","secret":"e6a01eedf7","server":"5473","farm":6,"title":"Pet","ispublic":1,"isfriend":0,"isfamily":0,"ownername":"fionaLL*"},{"id":"41711803501","owner":"90690205@N03","secret":"3220078354","server":"966","farm":1,"title":"Pets","ispublic":1,"isfriend":0,"isfamily":0,"ownername":"APT_Allison"},{"id":"8252509842","owner":"78868109@N04","secret":"d7cecb41ac","server":"8343","farm":9,"title":"Pet","ispublic":1,"isfriend":0,"isfamily":0,"ownername":"chanyq320"},{"id":"20918731180","owner":"21680391@N04","secret":"c774932d8a","server":"568","farm":1,"title":"Pet","ispublic":1,"isfriend":0,"isfamily":0,"ownername":"justinclayton99"},{"id":"2964849952","owner":"66706141@N00","secret":"4284aa631b","server":"3047","farm":4,"title":"Pet","ispublic":1,"isfriend":0,"isfamily":0,"ownername":"MorkiRo"},{"id":"38175161476","owner":"139523993@N02","secret":"7c45285349","server":"4454","farm":5,"title":"pet","ispublic":1,"isfriend":0,"isfamily":0,"ownername":"Duc An Nguyen"},{"id":"6383118697","owner":"39567185@N06","secret":"aa2d890275","server":"6059","farm":7,"title":"pet","ispublic":1,"isfriend":0,"isfamily":0,"ownername":"RAM.RAVULA"},{"id":"5313330013","owner":"56474869@N05","secret":"e7e01cafb6","server":"5163","farm":6,"title":"Pets","ispublic":1,"isfriend":0,"isfamily":0,"ownername":"Suzanne Schroeter"},{"id":"4802781160","owner":"48963797@N02","secret":"d044543257","server":"4120","farm":5,"title":"Pet.","ispublic":1,"isfriend":0,"isfamily":0,"ownername":"MTL-PTP"},{"id":"11092082063","owner":"45110194@N08","secret":"7c13575ace","server":"7345","farm":8,"title":"Pets...","ispublic":1,"isfriend":0,"isfamily":0,"ownername":"juliog87"},{"id":"14569577933","owner":"74390674@N08","secret":"c59123897d","server":"3909","farm":4,"title":"Pet","ispublic":1,"isfriend":0,"isfamily":0,"ownername":"nindanindra"},{"id":"3634980163","owner":"39504157@N08","secret":"a9cdf3a5c1","server":"2121","farm":3,"title":"pet","ispublic":1,"isfriend":0,"isfamily":0,"ownername":"nannymoose"},{"id":"5987670287","owner":"63101062@N06","secret":"bbc1716c72","server":"6137","farm":7,"title":"pets","ispublic":1,"isfriend":0,"isfamily":0,"ownername":"laulovejustinb"}]},"stat":"ok"}