{"photos":{"page":1,"pages":2494,"perpage":15,"total":"37409","photo":[{"id":"5677218856","owner":"57784634@N08","secret":"330bc2d4f3","server":"5229","farm":6,"title":"Pi","ispublic":1,"isfriend":0,"isfamily":0,"ownername":"gregheo"},{"id":"4079705044","owner":"95141439@N00","secret":"d27ca8a008","server":"3533","farm":4,"title":"Pi","ispublic":1,"isfriend":0,"isfamily":0,"ownername":"funkandjazz"},{"id":"3033568868","owner":"23749262@N08","secret":"13d6424d7d","server":"3147","farm":4,"title":"PI","ispublic":1,"isfriend":0,"isfamily":0,"ownername":"a_fighter"},{"id":"10370388","owner":"58621100@N00","secret":"9aa4b9dc63","server":"7","farm":1,"title":"Pi","ispublic":1,"isfriend":0,"isfamily":0,"ownername":"Joracate"},{"id":"2371507315","owner":"95141439@N00","secret":"7aaea7aa9b","server":"2348","farm":3,"title":"Pi","ispublic":1,"isfriend":0,"isfamily":0,"ownername":"funkandjazz"},{"id":"6836631032","owner":"51089592@N05","secret":"23b6211928","server":"7063","farm":8,"title":"Pi","ispublic":1,"isfriend":0,"isfamily":0,"ownername":"sallaevilincarnate"},{"id":"6658195381","owner":"38439773@N07","secret":"ba45502fb2","server":"7029","farm":8,"title":"Pi","ispublic":1,"isfriend":0,"isfamily":0,"ownername":"!Get_That_Kash!"},{"id":"2779074185","owner":"22452096@N08","secret":"6b01bd2ae6","server":"3140","farm":4,"title":"Pi","ispublic":1,"isfriend":0,"isfamily":0,"ownername":"jimmyhickey1"},{"id":"4701219935","owner":"47599554@N00","secret":"8b26b4c875","server":"4049","farm":5,"title":"Pi","ispublic":1,"isfriend":0,"isfamily":0,"ownername":"carynsolly"},{"id":"3923032821","owner":"35813619@N02","secret":"51ed4b87f4","server":"3459","farm":4,"title":"Pi","ispublic":1,"isfriend":0,"isfamily":0,"ownername":"johnny myers"},{"id":"2497477596","owner":"7654151@N03","secret":"e7f0a918cf","server":"2302","farm":3,"title":"PI","ispublic":1,"isfriend":0,"isfamily":0,"ownername":"greatfriendsbiz"},{"id":"4296830463","owner":"43466255@N07","secret":"b1cfd85012","server":"2737","farm":3,"title":"Pi","ispublic":1,"isfriend":0,"isfamily":0,"ownername":"Perellinas"},{"id":"5515407065","owner":"60470073@N07","secret":"00f5e6aa0b","server":"5096","farm":6,"title":"PI","ispublic":1,"isfriend":0,"isfamily":0,"ownername":"Alinee Vieira"},{"id":"2088437515","owner":"7654151@N03","secret":"48e3e978c4","server":"2331","farm":3,"title":"PI","ispublic":1,"isfriend":0,"isfamily":0,"ownername":"greatfriendsbiz"},{"id":"38461387236","owner":"136328766@N06","secret":"eb801d010b","server":"4564","farm":5,"title":"EL PI","ispublic":1,"isfriend":0,"isfamily":0,"ownername":"Joan Biarn\u00e9s"}]},"stat":"ok"}