{"photos":{"page":1,"pages":1590,"perpage":15,"total":"23844","photo":[{"id":"2351277451","owner":"9630872@N04","secret":"f234dab317","server":"2141","farm":3,"title":"Pickle","ispublic":1,"isfriend":0,"isfamily":0,"ownername":"I am Ivar!"},{"id":"275647293","owner":"12461202@N00","secret":"ef470a2d04","server":"88","farm":1,"title":"Pickle & Lilly","ispublic":1,"isfriend":0,"isfamily":0,"ownername":"paulbence"},{"id":"4488919509","owner":"48939426@N04","secret":"a5ee2992b7","server":"4044","farm":5,"title":"Pickle","ispublic":1,"isfriend":0,"isfamily":0,"ownername":"mikeyb61"},{"id":"8436731806","owner":"74253075@N05","secret":"ce0e21d45e","server":"8333","farm":9,"title":"Pickle","ispublic":1,"isfriend":0,"isfamily":0,"ownername":"J_Butler"},{"id":"321921908","owner":"31665208@N00","secret":"90affbe7e2","server":"129","farm":1,"title":"Pickles","ispublic":1,"isfriend":0,"isfamily":0,"ownername":"Leonard06"},{"id":"1335977432","owner":"12763366@N02","secret":"bc63c53349","server":"1053","farm":2,"title":"Pickle","ispublic":1,"isfriend":0,"isfamily":0,"ownername":"Melbourne Eyes"},{"id":"5938769715","owner":"18847574@N08","secret":"08eeea69fd","server":"6006","farm":7,"title":"pickle","ispublic":1,"isfriend":0,"isfamily":0,"ownername":"Ry\""},{"id":"2725428631","owner":"61834831@N00","secret":"e436b225c7","server":"3042","farm":4,"title":"pickles","ispublic":1,"isfriend":0,"isfamily":0,"ownername":"jeffnlia"},{"id":"7002355517","owner":"78150048@N04","secret":"6aced9e6d6","server":"7097","farm":8,"title":"Pickle","ispublic":1,"isfriend":0,"isfamily":0,"ownername":"Doily Days"},{"id":"2726253004","owner":"61834831@N00","secret":"d40a5e60e9","server":"3054","farm":4,"title":"pickles","ispublic":1,"isfriend":0,"isfamily":0,"ownername":"jeffnlia"},{"id":"3288851134","owner":"62427029@N00","secret":"af58b7b96b","server":"3299","farm":4,"title":"Pickle","ispublic":1,"isfriend":0,"isfamily":0,"ownername":"megbee"},{"id":"2684922958","owner":"28823569@N08","secret":"735d3568d4","server":"3146","farm":4,"title":"Pickle","ispublic":1,"isfriend":0,"isfamily":0,"ownername":"paul.gridley"},{"id":"5458429155","owner":"38971527@N02","secret":"4411993ba5","server":"5219","farm":6,"title":"Pickle","ispublic":1,"isfriend":0,"isfamily":0,"ownername":"chava2uk"},{"id":"5459035756","owner":"38971527@N02","secret":"bc24685b90","server":"5180","farm":6,"title":"Pickle","ispublic":1,"isfriend":0,"isfamily":0,"ownername":"chava2uk"},{"id":"3803641007","owner":"37269000@N02","secret":"b8e1ea2b5b","server":"3576","farm":4,"title":"pickle","ispublic":1,"isfriend":0,"isfamily":0,"ownername":"z_aurelie"}]},"stat":"ok"}