{"photos":{"page":1,"pages":6429,"perpage":15,"total":"96428","photo":[{"id":"41205822004","owner":"124968591@N07","secret":"2df8ec7f1a","server":"959","farm":1,"title":"Pie","ispublic":1,"isfriend":0,"isfamily":0,"ownername":"Dakysto94"},{"id":"8861488255","owner":"18986011@N00","secret":"8a01f520fb","server":"7392","farm":8,"title":"pie","ispublic":1,"isfriend":0,"isfamily":0,"ownername":"bluematrix (tim deegan)"},{"id":"14050430754","owner":"31186822@N03","secret":"d5508d188d","server":"5520","farm":6,"title":"Pies","ispublic":1,"isfriend":0,"isfamily":0,"ownername":"Portraitsteve"},{"id":"14050430774","owner":"31186822@N03","secret":"ffd910a25b","server":"2934","farm":3,"title":"Pies","ispublic":1,"isfriend":0,"isfamily":0,"ownername":"Portraitsteve"},{"id":"15351152500","owner":"50101784@N00","secret":"242c1d6225","server":"3940","farm":4,"title":"pie","ispublic":1,"isfriend":0,"isfamily":0,"ownername":"cosmicpluto"},{"id":"5754028086","owner":"38712296@N07","secret":"fc4b59bb85","server":"2191","farm":3,"title":"Pies","ispublic":1,"isfriend":0,"isfamily":0,"ownername":"zigazou76"},{"id":"4156399380","owner":"40305843@N02","secret":"f71cf12740","server":"2565","farm":3,"title":"pie","ispublic":1,"isfriend":0,"isfamily":0,"ownername":"juliam21"},{"id":"220272699","owner":"24979496@N00","secret":"c5148f8461","server":"69","farm":1,"title":"pies","ispublic":1,"isfriend":0,"isfamily":0,"ownername":"thedarkdonthideit"},{"id":"4156399372","owner":"40305843@N02","secret":"d1e754d0ac","server":"2705","farm":3,"title":"pie","ispublic":1,"isfriend":0,"isfamily":0,"ownername":"juliam21"},{"id":"24750673170","owner":"67575980@N03","secret":"cd59bac300","server":"1465","farm":2,"title":"Piececito","ispublic":1,"isfriend":0,"isfamily":0,"ownername":"Mar\u00eda Bellet Fotograf\u00eda"},{"id":"31105273891","owner":"125666029@N02","secret":"3ae779a7ae","server":"5787","farm":6,"title":"pie","ispublic":1,"isfriend":0,"isfamily":0,"ownername":"Ihor Hlukhoi - intui.pro"},{"id":"15381765742","owner":"67513657@N05","secret":"d92046c83b","server":"2942","farm":3,"title":"PIE.","ispublic":1,"isfriend":0,"isfamily":0,"ownername":"Carmen Cordero Olivares."},{"id":"5520359617","owner":"42267656@N06","secret":"b433f0e4f0","server":"5017","farm":6,"title":"Pie","ispublic":1,"isfriend":0,"isfamily":0,"ownername":"DW DW"},{"id":"23524750869","owner":"128984961@N05","secret":"4033dace2e","server":"5766","farm":6,"title":"Pie","ispublic":1,"isfriend":0,"isfamily":0,"ownername":"suzukigsxr67700"},{"id":"33725424785","owner":"124968591@N07","secret":"a63822bfb1","server":"3684","farm":4,"title":"Pie","ispublic":1,"isfriend":0,"isfamily":0,"ownername":"Dakysto94"}]},"stat":"ok"}