{"photos":{"page":1,"pages":4396,"perpage":15,"total":"65931","photo":[{"id":"2934174361","owner":"29205966@N07","secret":"07531394c0","server":"3136","farm":4,"title":"Pigs","ispublic":1,"isfriend":0,"isfamily":0,"ownername":"Ole A"},{"id":"3578966261","owner":"38954538@N04","secret":"83a89a5e4d","server":"3556","farm":4,"title":"pigs","ispublic":1,"isfriend":0,"isfamily":0,"ownername":"MarkTwisp"},{"id":"6194350519","owner":"29541320@N06","secret":"ab906a8189","server":"6165","farm":7,"title":"pigs","ispublic":1,"isfriend":0,"isfamily":0,"ownername":"gin!?"},{"id":"7282901500","owner":"64216914@N08","secret":"d20e9ae1b7","server":"7084","farm":8,"title":"pigs","ispublic":1,"isfriend":0,"isfamily":0,"ownername":"Brianne Valentino"},{"id":"2934173897","owner":"29205966@N07","secret":"2406a75f11","server":"3253","farm":4,"title":"Pig","ispublic":1,"isfriend":0,"isfamily":0,"ownername":"Ole A"},{"id":"4894561261","owner":"13797014@N08","secret":"92c5b3974a","server":"4135","farm":5,"title":"pig","ispublic":1,"isfriend":0,"isfamily":0,"ownername":"pamzpix"},{"id":"6774224324","owner":"67512348@N07","secret":"5695b0d819","server":"7184","farm":8,"title":"Pig","ispublic":1,"isfriend":0,"isfamily":0,"ownername":"Abbie Simm"},{"id":"7319907430","owner":"15382330@N00","secret":"7c15f4858e","server":"7103","farm":8,"title":"cuddling pigs","ispublic":1,"isfriend":0,"isfamily":0,"ownername":"snbi71"},{"id":"15431002546","owner":"36116319@N08","secret":"af69cc15ce","server":"3936","farm":4,"title":"Pigs","ispublic":1,"isfriend":0,"isfamily":0,"ownername":"terrabytefarm"},{"id":"5264114856","owner":"16814703@N06","secret":"5305ae8aac","server":"5089","farm":6,"title":"Pig","ispublic":1,"isfriend":0,"isfamily":0,"ownername":"webeyer"},{"id":"16588419007","owner":"30168153@N00","secret":"d737baa85c","server":"8725","farm":9,"title":"Pigs (V)","ispublic":1,"isfriend":0,"isfamily":0,"ownername":"alanaplin"},{"id":"7757895348","owner":"84719572@N03","secret":"87ef34ced1","server":"8438","farm":9,"title":"pigs 4","ispublic":1,"isfriend":0,"isfamily":0,"ownername":"LoxleyValleyCommunityFarm"},{"id":"2349787259","owner":"13797014@N08","secret":"e845bbac5d","server":"2173","farm":3,"title":"two pigs","ispublic":1,"isfriend":0,"isfamily":0,"ownername":"pamzpix"},{"id":"14898204640","owner":"86870500@N07","secret":"7c059c9ac4","server":"5557","farm":6,"title":"Pigs","ispublic":1,"isfriend":0,"isfamily":0,"ownername":"Stefu-san"},{"id":"4424157620","owner":"17003816@N00","secret":"b6dbedaf18","server":"4060","farm":5,"title":"Pigs","ispublic":1,"isfriend":0,"isfamily":0,"ownername":"KansasA"}]},"stat":"ok"}