{"photos":{"page":1,"pages":115782,"perpage":15,"total":"1736720","photo":[{"id":"2822342180","owner":"9852245@N06","secret":"3b7fa8946a","server":"3241","farm":4,"title":"Pink","ispublic":1,"isfriend":0,"isfamily":0,"ownername":"Fiona * lunasdal"},{"id":"8747693830","owner":"93387503@N02","secret":"04f79d97d4","server":"7302","farm":8,"title":"Pink fire","ispublic":1,"isfriend":0,"isfamily":0,"ownername":"ART Moon@Life"},{"id":"169922421","owner":"63102860@N00","secret":"4726e82fce","server":"46","farm":1,"title":"Pink","ispublic":1,"isfriend":0,"isfamily":0,"ownername":"Phil, Hannah, Ethan, Jacob & Thomas"},{"id":"3524371372","owner":"33706090@N02","secret":"9e206ec306","server":"3385","farm":4,"title":"pink","ispublic":1,"isfriend":0,"isfamily":0,"ownername":"ms_shell"},{"id":"4032147704","owner":"43635336@N07","secret":"7823b203c2","server":"2623","farm":3,"title":"pink","ispublic":1,"isfriend":0,"isfamily":0,"ownername":"amodelaviola"},{"id":"6930002670","owner":"27409143@N00","secret":"6e7a69e90f","server":"7066","farm":8,"title":"Pink","ispublic":1,"isfriend":0,"isfamily":0,"ownername":"kb_vaidya"},{"id":"7839760392","owner":"25989588@N06","secret":"7197570021","server":"8291","farm":9,"title":"Pink","ispublic":1,"isfriend":0,"isfamily":0,"ownername":"QuietDelusions"},{"id":"2104052197","owner":"21644167@N04","secret":"b366231ce0","server":"2074","farm":3,"title":"Pink","ispublic":1,"isfriend":0,"isfamily":0,"ownername":"Bahman Farzad"},{"id":"6870866328","owner":"78360303@N07","secret":"e5a1782ffb","server":"7259","farm":8,"title":"Pink","ispublic":1,"isfriend":0,"isfamily":0,"ownername":"Bij Gwen"},{"id":"3790440968","owner":"89073484@N00","secret":"6df7578277","server":"3435","farm":4,"title":"Pink","ispublic":1,"isfriend":0,"isfamily":0,"ownername":"Susie jean"},{"id":"5175187120","owner":"21644167@N04","secret":"d7dfdc18b1","server":"4145","farm":5,"title":"Pink","ispublic":1,"isfriend":0,"isfamily":0,"ownername":"Bahman Farzad"},{"id":"2701267943","owner":"21368216@N04","secret":"3a687a864b","server":"3063","farm":4,"title":"pink","ispublic":1,"isfriend":0,"isfamily":0,"ownername":"jeppe_kumaki"},{"id":"14470599811","owner":"91753462@N07","secret":"868c3c6287","server":"3891","farm":4,"title":"Pink","ispublic":1,"isfriend":0,"isfamily":0,"ownername":"decipherment"},{"id":"5576178809","owner":"10936350@N04","secret":"47fe9a8ea7","server":"5188","farm":6,"title":"Pink","ispublic":1,"isfriend":0,"isfamily":0,"ownername":"magnummavis"},{"id":"5595517699","owner":"10936350@N04","secret":"3f484f7bbf","server":"5029","farm":6,"title":"Pink","ispublic":1,"isfriend":0,"isfamily":0,"ownername":"magnummavis"}]},"stat":"ok"}