{"photos":{"page":1,"pages":5175,"perpage":15,"total":"77622","photo":[{"id":"18876354440","owner":"96885276@N05","secret":"81514723d0","server":"291","farm":1,"title":"Pins","ispublic":1,"isfriend":0,"isfamily":0,"ownername":"Ro Cafe"},{"id":"244698021","owner":"13806903@N00","secret":"fb0aad91d0","server":"93","farm":1,"title":"pins","ispublic":1,"isfriend":0,"isfamily":0,"ownername":"Sergi V\u00e1zquez Anguela"},{"id":"5140242207","owner":"16595765@N05","secret":"ac9c95cf8e","server":"4147","farm":5,"title":"Pins","ispublic":1,"isfriend":0,"isfamily":0,"ownername":"hilikus27"},{"id":"4888601775","owner":"40284594@N07","secret":"7cc5d51416","server":"4076","farm":5,"title":"Pins","ispublic":1,"isfriend":0,"isfamily":0,"ownername":"alexis.j."},{"id":"3015479222","owner":"58872339@N00","secret":"ef945faf94","server":"3136","farm":4,"title":"Pins","ispublic":1,"isfriend":0,"isfamily":0,"ownername":"merialc"},{"id":"5322446926","owner":"36207436@N08","secret":"b46df16e5c","server":"5124","farm":6,"title":"pins","ispublic":1,"isfriend":0,"isfamily":0,"ownername":"pearled"},{"id":"46912240632","owner":"62683210@N00","secret":"a04478d040","server":"4850","farm":5,"title":"Pins","ispublic":1,"isfriend":0,"isfamily":0,"ownername":"shotzy"},{"id":"3230873873","owner":"35781802@N00","secret":"45f4a77914","server":"3098","farm":4,"title":"pins","ispublic":1,"isfriend":0,"isfamily":0,"ownername":"masterview_"},{"id":"5218059133","owner":"50542505@N08","secret":"9c490cd365","server":"5248","farm":6,"title":"pins","ispublic":1,"isfriend":0,"isfamily":0,"ownername":"@SJA Photography"},{"id":"1297826860","owner":"8317397@N07","secret":"2240a818f6","server":"1024","farm":2,"title":"Pins","ispublic":1,"isfriend":0,"isfamily":0,"ownername":"The Intuitive Garden"},{"id":"3085157146","owner":"68099255@N00","secret":"86fc9d40ef","server":"3069","farm":4,"title":"Pins","ispublic":1,"isfriend":0,"isfamily":0,"ownername":"kwik_e_mart"},{"id":"7847018660","owner":"30493186@N03","secret":"08999a8744","server":"7129","farm":8,"title":"Pins","ispublic":1,"isfriend":0,"isfamily":0,"ownername":"d o l f i"},{"id":"163481928","owner":"58078458@N00","secret":"09f1a5956d","server":"65","farm":1,"title":"Pins...","ispublic":1,"isfriend":0,"isfamily":0,"ownername":"Lints"},{"id":"166894120","owner":"64786621@N00","secret":"b7c9ba67b4","server":"66","farm":1,"title":"pins","ispublic":1,"isfriend":0,"isfamily":0,"ownername":"prairie.mouse"},{"id":"5062266232","owner":"26945356@N08","secret":"6cd90a98d1","server":"4112","farm":5,"title":"Pins","ispublic":1,"isfriend":0,"isfamily":0,"ownername":"Ms Purrl"}]},"stat":"ok"}