{"photos":{"page":1,"pages":12861,"perpage":15,"total":"192911","photo":[{"id":"42864782732","owner":"101654934@N08","secret":"97befeb8c1","server":"1763","farm":2,"title":"Pirates","ispublic":1,"isfriend":0,"isfamily":0,"ownername":"mrd1xjr"},{"id":"5048177036","owner":"28534482@N00","secret":"70bdd6ce33","server":"4086","farm":5,"title":"pirates","ispublic":1,"isfriend":0,"isfamily":0,"ownername":"CristinaO"},{"id":"15826816296","owner":"89299268@N08","secret":"f9bf3b8404","server":"7583","farm":8,"title":"#pirates","ispublic":1,"isfriend":0,"isfamily":0,"ownername":"Giulia Dinnocenti"},{"id":"3422209636","owner":"36927891@N05","secret":"8b5c7550cb","server":"3373","farm":4,"title":"Pirates","ispublic":1,"isfriend":0,"isfamily":0,"ownername":"\"Orion Pax\""},{"id":"14630750550","owner":"97429263@N07","secret":"3e09db667e","server":"3849","farm":4,"title":"Pirates","ispublic":1,"isfriend":0,"isfamily":0,"ownername":"wolfsmoon-photography.de"},{"id":"42871378830","owner":"140629689@N06","secret":"1cefe28e1b","server":"1870","farm":2,"title":"Pirates","ispublic":1,"isfriend":0,"isfamily":0,"ownername":"charlie.z1"},{"id":"15116910886","owner":"124282538@N07","secret":"2d2f6305df","server":"3913","farm":4,"title":"Pirates","ispublic":1,"isfriend":0,"isfamily":0,"ownername":"sergeylebedev141"},{"id":"11029691423","owner":"26702228@N06","secret":"9bffe20c86","server":"7296","farm":8,"title":"Pirates !","ispublic":1,"isfriend":0,"isfamily":0,"ownername":"eWan fotografik"},{"id":"5467247337","owner":"23992248@N06","secret":"e4ee586952","server":"5293","farm":6,"title":"Pirates!","ispublic":1,"isfriend":0,"isfamily":0,"ownername":"saerigolo"},{"id":"3087210464","owner":"23844255@N04","secret":"00268483b2","server":"3129","farm":4,"title":"Pirates","ispublic":1,"isfriend":0,"isfamily":0,"ownername":"Serlunar (tks for 6.7 million views)"},{"id":"16231065336","owner":"105247693@N04","secret":"04a4c691af","server":"7543","farm":8,"title":"pirates !","ispublic":1,"isfriend":0,"isfamily":0,"ownername":"chameleon168"},{"id":"4554267216","owner":"71976648@N00","secret":"7b1ce8e466","server":"3524","farm":4,"title":"pirate","ispublic":1,"isfriend":0,"isfamily":0,"ownername":"Pintachan"},{"id":"317442145","owner":"53434152@N00","secret":"5cc1dd32ea","server":"129","farm":1,"title":"pirates","ispublic":1,"isfriend":0,"isfamily":0,"ownername":"Just Jussi"},{"id":"9270003021","owner":"30493186@N03","secret":"c70f56d2b6","server":"5525","farm":6,"title":"Pirates","ispublic":1,"isfriend":0,"isfamily":0,"ownername":"d o l f i"},{"id":"30985938845","owner":"8577960@N05","secret":"4d931545d5","server":"5590","farm":6,"title":"Pirates","ispublic":1,"isfriend":0,"isfamily":0,"ownername":"Renovatio1976"}]},"stat":"ok"}