{"photos":{"page":1,"pages":10059,"perpage":15,"total":"150881","photo":[{"id":"10405891035","owner":"106159974@N02","secret":"4e7955a9fd","server":"3715","farm":4,"title":"Planet","ispublic":1,"isfriend":0,"isfamily":0,"ownername":"Miyem Supriyati"},{"id":"25867444056","owner":"12836528@N00","secret":"e43d97dfe4","server":"1681","farm":2,"title":"Planet","ispublic":1,"isfriend":0,"isfamily":0,"ownername":"kevin dooley"},{"id":"3432922942","owner":"37287646@N03","secret":"4e8a157415","server":"3614","farm":4,"title":"Planet","ispublic":1,"isfriend":0,"isfamily":0,"ownername":"Tom Faber Design"},{"id":"3348161579","owner":"14306062@N05","secret":"bc8e50566e","server":"3653","farm":4,"title":"Planet","ispublic":1,"isfriend":0,"isfamily":0,"ownername":"djnectorr"},{"id":"24433236559","owner":"36017094@N04","secret":"606cd33f89","server":"1561","farm":2,"title":"Planet","ispublic":1,"isfriend":0,"isfamily":0,"ownername":"King Kong 911"},{"id":"1603019445","owner":"20638954@N00","secret":"a7d28a39ca","server":"2196","farm":3,"title":"Planet Wood","ispublic":1,"isfriend":0,"isfamily":0,"ownername":"luvi"},{"id":"2228024404","owner":"22615632@N04","secret":"7de3929384","server":"2347","farm":3,"title":"Planet","ispublic":1,"isfriend":0,"isfamily":0,"ownername":"Sky of the Confused"},{"id":"2053569447","owner":"21114088@N02","secret":"6ff94724af","server":"2145","farm":3,"title":"Planet","ispublic":1,"isfriend":0,"isfamily":0,"ownername":"niconc2"},{"id":"5678592865","owner":"37861977@N03","secret":"7591ec40f8","server":"5063","farm":6,"title":"Planet","ispublic":1,"isfriend":0,"isfamily":0,"ownername":"Mi Mundo 59"},{"id":"2169587347","owner":"21404249@N08","secret":"e101d2b593","server":"2182","farm":3,"title":"Planet Tree v2","ispublic":1,"isfriend":0,"isfamily":0,"ownername":"ClarkePhotography"},{"id":"5165877495","owner":"45733786@N08","secret":"ebfab66e46","server":"1215","farm":2,"title":"Our Planet through my Eyes","ispublic":1,"isfriend":0,"isfamily":0,"ownername":"jean-marc rosseels"},{"id":"17400302510","owner":"95144862@N07","secret":"533dda8082","server":"7711","farm":8,"title":"Cuenca Planet","ispublic":1,"isfriend":0,"isfamily":0,"ownername":"LL Poems"},{"id":"2347960514","owner":"28108706@N00","secret":"cde67c4260","server":"2043","farm":3,"title":"Planet","ispublic":1,"isfriend":0,"isfamily":0,"ownername":"carnadine"},{"id":"2784256415","owner":"94916307@N00","secret":"036ba4325a","server":"3217","farm":4,"title":"planet","ispublic":1,"isfriend":0,"isfamily":0,"ownername":"maxlisi"},{"id":"3162182385","owner":"33973608@N04","secret":"4d066c2fe8","server":"3111","farm":4,"title":"planet","ispublic":1,"isfriend":0,"isfamily":0,"ownername":"Green IT Gang"}]},"stat":"ok"}