{"photos":{"page":1,"pages":50427,"perpage":15,"total":"756392","photo":[{"id":"8569536973","owner":"8999293@N03","secret":"11433aeb21","server":"8249","farm":9,"title":"play","ispublic":1,"isfriend":0,"isfamily":0,"ownername":"barbara carroll"},{"id":"2438065265","owner":"13937854@N00","secret":"a03ae0a20a","server":"2391","farm":3,"title":"Playing","ispublic":1,"isfriend":0,"isfamily":0,"ownername":".Verikoko."},{"id":"5547598435","owner":"43803348@N00","secret":"93ef92e8da","server":"5135","farm":6,"title":"play","ispublic":1,"isfriend":0,"isfamily":0,"ownername":"Pesi"},{"id":"15102889026","owner":"75454452@N03","secret":"6b004dfa19","server":"5571","farm":6,"title":"play","ispublic":1,"isfriend":0,"isfamily":0,"ownername":"ueha nochi"},{"id":"45737078264","owner":"146076459@N03","secret":"f946bc0016","server":"4842","farm":5,"title":"Playing","ispublic":1,"isfriend":0,"isfamily":0,"ownername":"Rusin3s"},{"id":"2778961388","owner":"13294854@N00","secret":"3ab9a97f97","server":"3245","farm":4,"title":"play","ispublic":1,"isfriend":0,"isfamily":0,"ownername":"e.malina"},{"id":"7144517207","owner":"7418246@N05","secret":"3d210dc10c","server":"7043","farm":8,"title":"playing","ispublic":1,"isfriend":0,"isfamily":0,"ownername":"S.Argun"},{"id":"318248687","owner":"23856908@N00","secret":"bc525724a4","server":"139","farm":1,"title":"playing","ispublic":1,"isfriend":0,"isfamily":0,"ownername":"bluefam"},{"id":"44198829475","owner":"155003382@N04","secret":"6d080557bd","server":"1971","farm":2,"title":"#Play","ispublic":1,"isfriend":0,"isfamily":0,"ownername":"2018_scandesign_masterstudio"},{"id":"15559100509","owner":"76676651@N07","secret":"f5ffb16109","server":"3956","farm":4,"title":"Play","ispublic":1,"isfriend":0,"isfamily":0,"ownername":"Joy lens"},{"id":"7879834322","owner":"36521965462@N01","secret":"2a117fde99","server":"8283","farm":9,"title":"playing","ispublic":1,"isfriend":0,"isfamily":0,"ownername":"dasar"},{"id":"2380959017","owner":"12230747@N07","secret":"015662f9d8","server":"3226","farm":4,"title":"PLAY","ispublic":1,"isfriend":0,"isfamily":0,"ownername":"\u2708 {felicia.renee} \u2708"},{"id":"7493251930","owner":"51303048@N05","secret":"665467abc8","server":"8427","farm":9,"title":"Play","ispublic":1,"isfriend":0,"isfamily":0,"ownername":"akib.asad"},{"id":"4552632694","owner":"43207508@N03","secret":"69bf023b5a","server":"3631","farm":4,"title":"Play","ispublic":1,"isfriend":0,"isfamily":0,"ownername":"Hugo.Pereira!"},{"id":"7789403464","owner":"28994453@N02","secret":"30b2975e98","server":"7131","farm":8,"title":"play","ispublic":1,"isfriend":0,"isfamily":0,"ownername":"carla longlegs"}]},"stat":"ok"}