{"photos":{"page":1,"pages":6278,"perpage":15,"total":"94169","photo":[{"id":"6656861949","owner":"8645531@N07","secret":"e801d92dd4","server":"7030","farm":8,"title":"Pocket Watch","ispublic":1,"isfriend":0,"isfamily":0,"ownername":"_jvns"},{"id":"5004383400","owner":"28913262@N03","secret":"21e2445d39","server":"4126","farm":5,"title":"Look no Hand in the pocket - Old Town Alexandria Egypt","ispublic":1,"isfriend":0,"isfamily":0,"ownername":"S@ilor"},{"id":"2701345139","owner":"22257015@N02","secret":"947206b862","server":"3052","farm":4,"title":"pocket full of starlite","ispublic":1,"isfriend":0,"isfamily":0,"ownername":"Little Miss Sunshine."},{"id":"18597700361","owner":"132907608@N05","secret":"85f695c6b3","server":"8869","farm":9,"title":"pocket watch.","ispublic":1,"isfriend":0,"isfamily":0,"ownername":"LichtCatchingToby"},{"id":"15443633811","owner":"40347354@N02","secret":"622244af24","server":"5601","farm":6,"title":"pocket watch","ispublic":1,"isfriend":0,"isfamily":0,"ownername":"xtrahotbandito"},{"id":"12622738125","owner":"36139707@N03","secret":"a85edb8b08","server":"3704","farm":4,"title":"White Pocket Sunset","ispublic":1,"isfriend":0,"isfamily":0,"ownername":"moe chen"},{"id":"2678645362","owner":"15947441@N04","secret":"bf77ea9b17","server":"3044","farm":4,"title":"YETI IN MY POCKET","ispublic":1,"isfriend":0,"isfamily":0,"ownername":"loveandasandwich"},{"id":"5935978220","owner":"25880282@N04","secret":"bb951068e4","server":"6143","farm":7,"title":"Pocket. [almost one month old]","ispublic":1,"isfriend":0,"isfamily":0,"ownername":"Hammonton Photography"},{"id":"8552082404","owner":"45760116@N02","secret":"f5aee46562","server":"8385","farm":9,"title":"Pocket-Katze","ispublic":1,"isfriend":0,"isfamily":0,"ownername":"Rainer Hamburg"},{"id":"894965851","owner":"32399171@N00","secret":"930c9e1de3","server":"1356","farm":2,"title":"The Little Me\u2122 Action Figure; fits in your pocket!","ispublic":1,"isfriend":0,"isfamily":0,"ownername":"wiseacre photo"},{"id":"5804439728","owner":"24781107@N05","secret":"34e0d51e68","server":"2138","farm":3,"title":"White Pocket - Vermilion Cliffs","ispublic":1,"isfriend":0,"isfamily":0,"ownername":"~ Floydian ~ \uf8ff"},{"id":"11744892035","owner":"78098745@N05","secret":"a3ac391f9f","server":"7319","farm":8,"title":"Pocket pets <3","ispublic":1,"isfriend":0,"isfamily":0,"ownername":"Dani @ Birdy\/Foxes\/Alchemy"},{"id":"5926411169","owner":"24781107@N05","secret":"db796a89cb","server":"6136","farm":7,"title":"White Pocket - Vermilion Cliffs","ispublic":1,"isfriend":0,"isfamily":0,"ownername":"~ Floydian ~ \uf8ff"},{"id":"8123272726","owner":"48019979@N05","secret":"b2d3a173bf","server":"8333","farm":9,"title":"Filofax-pocket-holepunch","ispublic":1,"isfriend":0,"isfamily":0,"ownername":"CathrynCook"},{"id":"20784164923","owner":"119509436@N06","secret":"da2c81c419","server":"5685","farm":6,"title":"Pocket Tick","ispublic":1,"isfriend":0,"isfamily":0,"ownername":"Alan FEO2"}]},"stat":"ok"}