{"photos":{"page":1,"pages":6301,"perpage":15,"total":"94511","photo":[{"id":"33107900992","owner":"78322331@N06","secret":"0ed00184dd","server":"3701","farm":4,"title":"pod","ispublic":1,"isfriend":0,"isfamily":0,"ownername":"s_inagaki"},{"id":"2566915681","owner":"26187199@N00","secret":"0aa1273820","server":"3182","farm":4,"title":"pod","ispublic":1,"isfriend":0,"isfamily":0,"ownername":": jules :"},{"id":"44543241311","owner":"30211129@N06","secret":"883f88ff2b","server":"1871","farm":2,"title":"pod","ispublic":1,"isfriend":0,"isfamily":0,"ownername":"annapolis_rose"},{"id":"17775177559","owner":"44417459@N02","secret":"000bb79ef3","server":"7747","farm":8,"title":"POD","ispublic":1,"isfriend":0,"isfamily":0,"ownername":"Igrun"},{"id":"4278776061","owner":"21916265@N05","secret":"c4df3c54ae","server":"2772","farm":3,"title":"Pod","ispublic":1,"isfriend":0,"isfamily":0,"ownername":"trippleduces7"},{"id":"12521638013","owner":"95828824@N02","secret":"ac77c0d383","server":"2805","farm":3,"title":"Pods","ispublic":1,"isfriend":0,"isfamily":0,"ownername":"David Allen's Photostream"},{"id":"2734044936","owner":"24919119@N00","secret":"7248672b9d","server":"3045","farm":4,"title":"Pod","ispublic":1,"isfriend":0,"isfamily":0,"ownername":"Jon Cartwright"},{"id":"4001544616","owner":"87811137@N00","secret":"cfce605cd9","server":"2632","farm":3,"title":"Pod","ispublic":1,"isfriend":0,"isfamily":0,"ownername":"Sue90ca Warming Up...A Great Weekend Ahead"},{"id":"13941947963","owner":"58965306@N05","secret":"a4436cab9f","server":"7340","farm":8,"title":"pod","ispublic":1,"isfriend":0,"isfamily":0,"ownername":"Aimless Clickery"},{"id":"4222174216","owner":"44598330@N00","secret":"f9c4bee738","server":"2739","farm":3,"title":"Pods","ispublic":1,"isfriend":0,"isfamily":0,"ownername":"roadsideattraction"},{"id":"2210895409","owner":"21008552@N06","secret":"614feea691","server":"2019","farm":3,"title":"Pod","ispublic":1,"isfriend":0,"isfamily":0,"ownername":"cyborgelph"},{"id":"14117554214","owner":"31714338@N07","secret":"ff1c4a1af7","server":"7324","farm":8,"title":"pods","ispublic":1,"isfriend":0,"isfamily":0,"ownername":"Jen MacNeill"},{"id":"3578025721","owner":"21491508@N07","secret":"9057635c10","server":"3407","farm":4,"title":"Pod","ispublic":1,"isfriend":0,"isfamily":0,"ownername":"marykpics"},{"id":"9195706901","owner":"25609635@N03","secret":"e5c0d75b17","server":"5342","farm":6,"title":"Pods","ispublic":1,"isfriend":0,"isfamily":0,"ownername":"orchidgalore"},{"id":"15364916419","owner":"35484132@N08","secret":"7693da8f48","server":"5605","farm":6,"title":"Onion pod.","ispublic":1,"isfriend":0,"isfamily":0,"ownername":"mama_eva"}]},"stat":"ok"}