{"photos":{"page":1,"pages":8558,"perpage":15,"total":"128368","photo":[{"id":"2683932406","owner":"28754325@N04","secret":"f1b606e53f","server":"3035","farm":4,"title":"Poker!","ispublic":1,"isfriend":0,"isfamily":0,"ownername":"Viri G"},{"id":"4497538607","owner":"42290173@N05","secret":"a7e34774d7","server":"2766","farm":3,"title":"Poker","ispublic":1,"isfriend":0,"isfamily":0,"ownername":"C\u00e9dric Bambini"},{"id":"1795194452","owner":"94176245@N00","secret":"aa27549807","server":"2042","farm":3,"title":"poker","ispublic":1,"isfriend":0,"isfamily":0,"ownername":"regardez!"},{"id":"272424911","owner":"87959601@N00","secret":"60ad36488d","server":"120","farm":1,"title":"Poker","ispublic":1,"isfriend":0,"isfamily":0,"ownername":"stefanokian73"},{"id":"2866830684","owner":"95141439@N00","secret":"ef94d2187c","server":"3003","farm":4,"title":"Poker","ispublic":1,"isfriend":0,"isfamily":0,"ownername":"funkandjazz"},{"id":"5975865269","owner":"60126690@N03","secret":"f9fe58a2aa","server":"6127","farm":7,"title":"poker","ispublic":1,"isfriend":0,"isfamily":0,"ownername":"sydney graff"},{"id":"7295798128","owner":"79072914@N06","secret":"5bbe3d3044","server":"7071","farm":8,"title":"Poker","ispublic":1,"isfriend":0,"isfamily":0,"ownername":"Aline Grc"},{"id":"7448519570","owner":"81218556@N02","secret":"9b509708d1","server":"7248","farm":8,"title":"poker","ispublic":1,"isfriend":0,"isfamily":0,"ownername":"nahumdg"},{"id":"4129786238","owner":"29154934@N04","secret":"5049ebc8aa","server":"2616","farm":3,"title":"Poker","ispublic":1,"isfriend":0,"isfamily":0,"ownername":"Pedro Martinho"},{"id":"4129786214","owner":"29154934@N04","secret":"7c26836cbd","server":"2786","farm":3,"title":"Poker","ispublic":1,"isfriend":0,"isfamily":0,"ownername":"Pedro Martinho"},{"id":"6563737331","owner":"68256211@N06","secret":"b9e78d22bb","server":"7013","farm":8,"title":"Poker","ispublic":1,"isfriend":0,"isfamily":0,"ownername":"Ludtz"},{"id":"4782984870","owner":"40376056@N02","secret":"02bfbe798e","server":"4099","farm":5,"title":"Poker","ispublic":1,"isfriend":0,"isfamily":0,"ownername":"Aymeric Brisse"},{"id":"6771005601","owner":"67181597@N06","secret":"bcceda29ee","server":"7004","farm":8,"title":"Poker","ispublic":1,"isfriend":0,"isfamily":0,"ownername":"Paul Hesketh1"},{"id":"4497872252","owner":"42290173@N05","secret":"32395bcb73","server":"2770","farm":3,"title":"Poker","ispublic":1,"isfriend":0,"isfamily":0,"ownername":"C\u00e9dric Bambini"},{"id":"4129017993","owner":"29154934@N04","secret":"920b4bb779","server":"2524","farm":3,"title":"Poker","ispublic":1,"isfriend":0,"isfamily":0,"ownername":"Pedro Martinho"}]},"stat":"ok"}