{"photos":{"page":1,"pages":42078,"perpage":15,"total":"631157","photo":[{"id":"29795097587","owner":"98997668@N05","secret":"ea224195a0","server":"1887","farm":2,"title":"Pond","ispublic":1,"isfriend":0,"isfamily":0,"ownername":"JMG Images"},{"id":"15180491749","owner":"7196804@N03","secret":"114f63afc2","server":"3861","farm":4,"title":"Pond","ispublic":1,"isfriend":0,"isfamily":0,"ownername":"Subash BGK"},{"id":"8904634232","owner":"96781125@N06","secret":"3de3815e3c","server":"7460","farm":8,"title":"pond","ispublic":1,"isfriend":0,"isfamily":0,"ownername":"Susan Skylark"},{"id":"8076442983","owner":"51872806@N02","secret":"e939fc63eb","server":"8331","farm":9,"title":"pond","ispublic":1,"isfriend":0,"isfamily":0,"ownername":"sorakaze.so"},{"id":"6833879706","owner":"76084158@N03","secret":"2bfd4f88e0","server":"7066","farm":8,"title":"Pond","ispublic":1,"isfriend":0,"isfamily":0,"ownername":"AliJandro"},{"id":"3436166156","owner":"25897674@N05","secret":"65d2acfe49","server":"3314","farm":4,"title":"pond","ispublic":1,"isfriend":0,"isfamily":0,"ownername":"RedForeman"},{"id":"2932759536","owner":"43671133974@N01","secret":"bea5c68500","server":"3202","farm":4,"title":"Pond","ispublic":1,"isfriend":0,"isfamily":0,"ownername":"Sam Felder"},{"id":"41729132521","owner":"65089906@N00","secret":"0b19e24a07","server":"823","farm":1,"title":"pond","ispublic":1,"isfriend":0,"isfamily":0,"ownername":"PHOTOPHANATIC1"},{"id":"8904642868","owner":"67148569@N00","secret":"70ab94e35f","server":"3689","farm":4,"title":"Pond","ispublic":1,"isfriend":0,"isfamily":0,"ownername":"bookieV"},{"id":"43796663281","owner":"65089906@N00","secret":"44d7034dee","server":"937","farm":1,"title":"pond","ispublic":1,"isfriend":0,"isfamily":0,"ownername":"PHOTOPHANATIC1"},{"id":"5477182850","owner":"59852590@N05","secret":"244befdf4d","server":"5171","farm":6,"title":"Pond","ispublic":1,"isfriend":0,"isfamily":0,"ownername":"vikapst13"},{"id":"814957519","owner":"7263256@N06","secret":"f50a1956c2","server":"1439","farm":2,"title":"pond","ispublic":1,"isfriend":0,"isfamily":0,"ownername":"tnt555"},{"id":"15966584472","owner":"126718904@N03","secret":"e46462b91e","server":"8564","farm":9,"title":"Pond","ispublic":1,"isfriend":0,"isfamily":0,"ownername":"jennyspence1998"},{"id":"4558463641","owner":"49190496@N06","secret":"a8e5b7d29d","server":"3621","farm":4,"title":"Pond","ispublic":1,"isfriend":0,"isfamily":0,"ownername":"Ola.Orion"},{"id":"31685527308","owner":"29638108@N06","secret":"1a2d0f320b","server":"1949","farm":2,"title":"Pond","ispublic":1,"isfriend":0,"isfamily":0,"ownername":"www.metaphoricalplatypus.com"}]},"stat":"ok"}