{"photos":{"page":1,"pages":12017,"perpage":15,"total":"180247","photo":[{"id":"2658990627","owner":"94417932@N00","secret":"50441c7228","server":"3173","farm":4,"title":"Pony","ispublic":1,"isfriend":0,"isfamily":0,"ownername":"spacedman"},{"id":"14253056118","owner":"101846157@N03","secret":"01d527e8eb","server":"5157","farm":6,"title":"Pony","ispublic":1,"isfriend":0,"isfamily":0,"ownername":"Sarah E Coulson"},{"id":"3584527479","owner":"24270033@N06","secret":"02282055f8","server":"2455","farm":3,"title":"pony II","ispublic":1,"isfriend":0,"isfamily":0,"ownername":"beth retro"},{"id":"46522883012","owner":"96533354@N03","secret":"8c8ae55505","server":"4888","farm":5,"title":"Pony","ispublic":1,"isfriend":0,"isfamily":0,"ownername":"Clare_leeloo"},{"id":"3048863084","owner":"93416311@N00","secret":"8ce14d7e6c","server":"3158","farm":4,"title":"Pony","ispublic":1,"isfriend":0,"isfamily":0,"ownername":"Tim Green aka atoach"},{"id":"24048049899","owner":"136233657@N08","secret":"ca2c9489b8","server":"1681","farm":2,"title":"Pony","ispublic":1,"isfriend":0,"isfamily":0,"ownername":"Andy Martin 267"},{"id":"2354003124","owner":"9492725@N04","secret":"5eacf83b8b","server":"3046","farm":4,"title":"Pony","ispublic":1,"isfriend":0,"isfamily":0,"ownername":"craiglkirk"},{"id":"8578231928","owner":"92790156@N05","secret":"0bb286b34c","server":"8384","farm":9,"title":"Pony","ispublic":1,"isfriend":0,"isfamily":0,"ownername":"Wil Teunissen"},{"id":"3795539506","owner":"38170634@N06","secret":"f9f2d9eb0c","server":"2666","farm":3,"title":"PONY","ispublic":1,"isfriend":0,"isfamily":0,"ownername":"GRAVIKA"},{"id":"6886707681","owner":"60125989@N07","secret":"c9f53ee222","server":"7044","farm":8,"title":"Pony","ispublic":1,"isfriend":0,"isfamily":0,"ownername":"Jlhopgood"},{"id":"29064115557","owner":"16557310@N04","secret":"e09091fae7","server":"935","farm":1,"title":"Pony","ispublic":1,"isfriend":0,"isfamily":0,"ownername":"lyndaha"},{"id":"2363692642","owner":"35395389@N00","secret":"e7323a6702","server":"2304","farm":3,"title":"Pony","ispublic":1,"isfriend":0,"isfamily":0,"ownername":"DavidMartynHunt"},{"id":"6166103202","owner":"24270033@N06","secret":"b00f0dab24","server":"6153","farm":7,"title":"pony","ispublic":1,"isfriend":0,"isfamily":0,"ownername":"beth retro"},{"id":"9641571451","owner":"81666575@N04","secret":"1bd4e7e190","server":"3715","farm":4,"title":"Pony","ispublic":1,"isfriend":0,"isfamily":0,"ownername":"Solvemall.com"},{"id":"15621748475","owner":"85701348@N07","secret":"7339086bae","server":"5610","farm":6,"title":"Pony.","ispublic":1,"isfriend":0,"isfamily":0,"ownername":"Seckington Images"}]},"stat":"ok"}