{"photos":{"page":1,"pages":6626,"perpage":15,"total":"99390","photo":[{"id":"38508591","owner":"28473695@N00","secret":"afb26c6dd0","server":"26","farm":1,"title":"Heart potato","ispublic":1,"isfriend":0,"isfamily":0,"ownername":"cuorhome"},{"id":"251601172","owner":"35034355227@N01","secret":"7d827162af","server":"109","farm":1,"title":"Potato Rainbow","ispublic":1,"isfriend":0,"isfamily":0,"ownername":"ranjit"},{"id":"2861871557","owner":"30098550@N00","secret":"53ecc7b6eb","server":"3067","farm":4,"title":"Potato watches interloper","ispublic":1,"isfriend":0,"isfamily":0,"ownername":"rootcrop54"},{"id":"2895259238","owner":"8540516@N06","secret":"6f40e7dcf4","server":"3101","farm":4,"title":"Potato flower","ispublic":1,"isfriend":0,"isfamily":0,"ownername":"Per Foreby"},{"id":"6731901781","owner":"23261649@N04","secret":"785c65be70","server":"7027","farm":8,"title":"Potato attack!!","ispublic":1,"isfriend":0,"isfamily":0,"ownername":"photobsen"},{"id":"4288285242","owner":"23386527@N06","secret":"544904a327","server":"4040","farm":5,"title":"potato, parsnip and watercress Spanish tortilla","ispublic":1,"isfriend":0,"isfamily":0,"ownername":"cannelle-vanille"},{"id":"2268829508","owner":"87718306@N00","secret":"981eb00672","server":"2187","farm":3,"title":"potato on valentine...","ispublic":1,"isfriend":0,"isfamily":0,"ownername":"Nisha A"},{"id":"2908282391","owner":"30098550@N00","secret":"ecd186b41d","server":"3052","farm":4,"title":"Graceful Potato","ispublic":1,"isfriend":0,"isfamily":0,"ownername":"rootcrop54"},{"id":"17361108326","owner":"47748817@N02","secret":"d03bdea35b","server":"5442","farm":6,"title":"potato eaters 2.0","ispublic":1,"isfriend":0,"isfamily":0,"ownername":"vetbonkie"},{"id":"12898968343","owner":"99437032@N04","secret":"6563ceb12b","server":"2855","farm":3,"title":"Potato harvesting","ispublic":1,"isfriend":0,"isfamily":0,"ownername":"Shahriar Elahi"},{"id":"4792638107","owner":"31615320@N00","secret":"7a373d8799","server":"4093","farm":5,"title":"Potato Wednesday: iSpud","ispublic":1,"isfriend":0,"isfamily":0,"ownername":"binkmeisterrick"},{"id":"7637629890","owner":"87453322@N00","secret":"232b5cfedf","server":"7113","farm":8,"title":"Summer White and Green. Solanum tuberosum, Potato, Donderen-Bunne, Drenthe, The Netherlands","ispublic":1,"isfriend":0,"isfamily":0,"ownername":"Rana Pipiens"},{"id":"4080384331","owner":"65673621@N00","secret":"fb9da7a5a0","server":"2650","farm":3,"title":"Potato Pal","ispublic":1,"isfriend":0,"isfamily":0,"ownername":"jaredchapman"},{"id":"331043508","owner":"27997156@N00","secret":"f67d7018d4","server":"133","farm":1,"title":"Potato Roti - inside","ispublic":1,"isfriend":0,"isfamily":0,"ownername":"Chennette"},{"id":"8242566447","owner":"37353273@N05","secret":"e7f49a0275","server":"8344","farm":9,"title":"potatoes galore!","ispublic":1,"isfriend":0,"isfamily":0,"ownername":"Morningdew Photography"}]},"stat":"ok"}