{"photos":{"page":1,"pages":2056,"perpage":15,"total":"30833","photo":[{"id":"271419210","owner":"28396605@N00","secret":"59b4850d29","server":"91","farm":1,"title":"prada","ispublic":1,"isfriend":0,"isfamily":0,"ownername":"paparutzi"},{"id":"2953906781","owner":"21259511@N03","secret":"e41ce92146","server":"3221","farm":4,"title":"PRADA","ispublic":1,"isfriend":0,"isfamily":0,"ownername":"\u03a4chasty \u2665"},{"id":"5421759496","owner":"57214559@N08","secret":"d8ace3e6b3","server":"5219","farm":6,"title":"prada?","ispublic":1,"isfriend":0,"isfamily":0,"ownername":"diana.zurloewen"},{"id":"271419384","owner":"28396605@N00","secret":"94ec5d217e","server":"114","farm":1,"title":"prada","ispublic":1,"isfriend":0,"isfamily":0,"ownername":"paparutzi"},{"id":"270234419","owner":"28396605@N00","secret":"38a8cfb8f7","server":"117","farm":1,"title":"prada","ispublic":1,"isfriend":0,"isfamily":0,"ownername":"paparutzi"},{"id":"1366794094","owner":"28396605@N00","secret":"8e3c54c390","server":"1104","farm":2,"title":"prada","ispublic":1,"isfriend":0,"isfamily":0,"ownername":"paparutzi"},{"id":"357636577","owner":"28396605@N00","secret":"c660eee223","server":"126","farm":1,"title":"prada","ispublic":1,"isfriend":0,"isfamily":0,"ownername":"paparutzi"},{"id":"321917302","owner":"19123352@N00","secret":"c47ce66871","server":"138","farm":1,"title":"PRADA","ispublic":1,"isfriend":0,"isfamily":0,"ownername":"movement_us"},{"id":"357637080","owner":"28396605@N00","secret":"144243d2b2","server":"149","farm":1,"title":"prada","ispublic":1,"isfriend":0,"isfamily":0,"ownername":"paparutzi"},{"id":"2126424740","owner":"28396605@N00","secret":"5b48d00517","server":"2398","farm":3,"title":"prada","ispublic":1,"isfriend":0,"isfamily":0,"ownername":"paparutzi"},{"id":"787637979","owner":"9993214@N02","secret":"43a6de079a","server":"1007","farm":2,"title":"Prada","ispublic":1,"isfriend":0,"isfamily":0,"ownername":"dplusk99"},{"id":"270234833","owner":"28396605@N00","secret":"4b21d7f263","server":"85","farm":1,"title":"prada","ispublic":1,"isfriend":0,"isfamily":0,"ownername":"paparutzi"},{"id":"1365902289","owner":"28396605@N00","secret":"d6bcc97115","server":"1372","farm":2,"title":"prada","ispublic":1,"isfriend":0,"isfamily":0,"ownername":"paparutzi"},{"id":"4256395337","owner":"28447439@N02","secret":"ea18860596","server":"2744","farm":3,"title":"PRADA \u2665\u2665\u2665\u2665","ispublic":1,"isfriend":0,"isfamily":0,"ownername":"F\u03b16m\u03b1 \u2665"},{"id":"4612666879","owner":"39192521@N05","secret":"5de83f2492","server":"4063","farm":5,"title":"Prada","ispublic":1,"isfriend":0,"isfamily":0,"ownername":"Steve 16:9 \uf8ff"}]},"stat":"ok"}