{"photos":{"page":1,"pages":334,"perpage":15,"total":"4999","photo":[{"id":"7388824774","owner":"52946565@N06","secret":"0439f4b7eb","server":"7217","farm":8,"title":"prarie...","ispublic":1,"isfriend":0,"isfamily":0,"ownername":"(rino)"},{"id":"2184709186","owner":"82521475@N00","secret":"ec244f6b31","server":"2385","farm":3,"title":"prarie","ispublic":1,"isfriend":0,"isfamily":0,"ownername":"Squidcake"},{"id":"297708371","owner":"14452426@N00","secret":"f24be7b502","server":"114","farm":1,"title":"Prarie","ispublic":1,"isfriend":0,"isfamily":0,"ownername":"stefanie_s"},{"id":"8287824361","owner":"85758861@N00","secret":"4e335e95da","server":"8338","farm":9,"title":"prarie frost","ispublic":1,"isfriend":0,"isfamily":0,"ownername":"Adrian stoness"},{"id":"6255173368","owner":"13923111@N00","secret":"ae2067300e","server":"6054","farm":7,"title":"prarie","ispublic":1,"isfriend":0,"isfamily":0,"ownername":"miss_kcc"},{"id":"2339860558","owner":"82072056@N00","secret":"471142bc50","server":"3101","farm":4,"title":"PRarie","ispublic":1,"isfriend":0,"isfamily":0,"ownername":"PinkMoose"},{"id":"2617014073","owner":"37718156@N00","secret":"f056f1cef4","server":"3027","farm":4,"title":"Prarie","ispublic":1,"isfriend":0,"isfamily":0,"ownername":"Jim Sneddon"},{"id":"2087917094","owner":"82072056@N00","secret":"a688e4fb0d","server":"2138","farm":3,"title":"Prarie","ispublic":1,"isfriend":0,"isfamily":0,"ownername":"PinkMoose"},{"id":"5917082758","owner":"29857099@N04","secret":"017781c0d5","server":"6127","farm":7,"title":"Prairie view","ispublic":1,"isfriend":0,"isfamily":0,"ownername":"JJD-Photography"},{"id":"33683699024","owner":"128264165@N07","secret":"b91b06525f","server":"4172","farm":5,"title":"Prarie Silos","ispublic":1,"isfriend":0,"isfamily":0,"ownername":"Andrew Cockroft"},{"id":"3774105736","owner":"23795906@N05","secret":"0398ef1d57","server":"3440","farm":4,"title":"Prarie dog","ispublic":1,"isfriend":0,"isfamily":0,"ownername":"Gary McKinney"},{"id":"8005934245","owner":"37314119@N00","secret":"9b8f54853d","server":"8442","farm":9,"title":"Sunrise in the tall grass","ispublic":1,"isfriend":0,"isfamily":0,"ownername":"donmartelca"},{"id":"3322022823","owner":"23194656@N07","secret":"5b13e484d7","server":"3555","farm":4,"title":"West Texas Prarie.1.1","ispublic":1,"isfriend":0,"isfamily":0,"ownername":"mcreedonmcvean"},{"id":"4973234588","owner":"52439630@N08","secret":"c34d362c64","server":"4106","farm":5,"title":"prarie","ispublic":1,"isfriend":0,"isfamily":0,"ownername":"bethabella.kelleher"},{"id":"2999203561","owner":"31830745@N07","secret":"3e10d23412","server":"3037","farm":4,"title":"Prarie Warbler","ispublic":1,"isfriend":0,"isfamily":0,"ownername":"hoganphoto"}]},"stat":"ok"}