{"photos":{"page":1,"pages":17683,"perpage":15,"total":"265231","photo":[{"id":"15940944806","owner":"93269402@N08","secret":"ec06d22485","server":"8567","farm":9,"title":"princess","ispublic":1,"isfriend":0,"isfamily":0,"ownername":"Bhalalhaika"},{"id":"4975014292","owner":"30089456@N05","secret":"c4635a722b","server":"4145","farm":5,"title":"Princess","ispublic":1,"isfriend":0,"isfamily":0,"ownername":"sandragonzalita"},{"id":"7580273680","owner":"12836528@N00","secret":"4c6a417fae","server":"8287","farm":9,"title":"Princess","ispublic":1,"isfriend":0,"isfamily":0,"ownername":"kevin dooley"},{"id":"8718531233","owner":"38066533@N02","secret":"54df3154d1","server":"7445","farm":8,"title":"princess","ispublic":1,"isfriend":0,"isfamily":0,"ownername":"sugarelf"},{"id":"6706577513","owner":"33193190@N02","secret":"b009a1313c","server":"7031","farm":8,"title":"Princess","ispublic":1,"isfriend":0,"isfamily":0,"ownername":"Birdman of El Paso"},{"id":"16273793877","owner":"44970085@N07","secret":"00128e0a73","server":"8585","farm":9,"title":"Princesses","ispublic":1,"isfriend":0,"isfamily":0,"ownername":"Stan de Haas Photography"},{"id":"33504653131","owner":"127641667@N07","secret":"15a60e591e","server":"2810","farm":3,"title":"Princess","ispublic":1,"isfriend":0,"isfamily":0,"ownername":"Antonio Diaz Photography"},{"id":"5524442533","owner":"29859769@N03","secret":"2b9628370b","server":"5253","farm":6,"title":"princess","ispublic":1,"isfriend":0,"isfamily":0,"ownername":"Marissa McPeak"},{"id":"2290608124","owner":"7466945@N07","secret":"770ca92a63","server":"2193","farm":3,"title":"princess","ispublic":1,"isfriend":0,"isfamily":0,"ownername":"~E-v-E~"},{"id":"16458752622","owner":"44970085@N07","secret":"abe7f19b9a","server":"7325","farm":8,"title":"Princesses","ispublic":1,"isfriend":0,"isfamily":0,"ownername":"Stan de Haas Photography"},{"id":"5213394532","owner":"46172188@N05","secret":"101dbe6bd0","server":"4128","farm":5,"title":"princess","ispublic":1,"isfriend":0,"isfamily":0,"ownername":"Jus'Tis"},{"id":"6318210495","owner":"44318213@N02","secret":"4d6e87b795","server":"6058","farm":7,"title":"Princess","ispublic":1,"isfriend":0,"isfamily":0,"ownername":"bbaoni"},{"id":"16433689496","owner":"44970085@N07","secret":"bc3df0efb5","server":"8655","farm":9,"title":"Princesses","ispublic":1,"isfriend":0,"isfamily":0,"ownername":"Stan de Haas Photography"},{"id":"6799292180","owner":"27696704@N08","secret":"71e7f377fc","server":"7036","farm":8,"title":"Princess","ispublic":1,"isfriend":0,"isfamily":0,"ownername":"urbangracephotography"},{"id":"5212800381","owner":"46172188@N05","secret":"b509d5fc81","server":"5126","farm":6,"title":"princess","ispublic":1,"isfriend":0,"isfamily":0,"ownername":"Jus'Tis"}]},"stat":"ok"}