{"photos":{"page":1,"pages":15789,"perpage":15,"total":"236823","photo":[{"id":"1122114012","owner":"22553353@N00","secret":"e99096da82","server":"1343","farm":2,"title":"Prince Charming?","ispublic":1,"isfriend":0,"isfamily":0,"ownername":"Traci\u0450"},{"id":"7334732094","owner":"19167248@N02","secret":"4a04900ebd","server":"7224","farm":8,"title":"Prince and  friends","ispublic":1,"isfriend":0,"isfamily":0,"ownername":"* Cl\u00e1udia Helena * brincadeira de papel *"},{"id":"1292349701","owner":"9693593@N04","secret":"15893874bb","server":"1068","farm":2,"title":"Prince","ispublic":1,"isfriend":0,"isfamily":0,"ownername":"Tomatoskin"},{"id":"3294361889","owner":"29567062@N03","secret":"c56f36f670","server":"3601","farm":4,"title":"Prince Khalid Alfaisal","ispublic":1,"isfriend":0,"isfamily":0,"ownername":"Rayan M."},{"id":"3338631531","owner":"20126271@N02","secret":"b01f618c43","server":"3415","farm":4,"title":"KiSS Me i\u00b4M a PRiNCe","ispublic":1,"isfriend":0,"isfamily":0,"ownername":"Sash\u00b4s Kitchen-Studio Photography"},{"id":"5375423505","owner":"28989083@N08","secret":"11a15261a5","server":"5284","farm":6,"title":"Prince Mooda 's","ispublic":1,"isfriend":0,"isfamily":0,"ownername":"Lornss AlNaimi"},{"id":"3269557481","owner":"29567062@N03","secret":"5350aff73e","server":"1034","farm":2,"title":"Prince Saud Bin Abdullah Al Saud","ispublic":1,"isfriend":0,"isfamily":0,"ownername":"Rayan M."},{"id":"5409960191","owner":"28989083@N08","secret":"27f801638c","server":"4128","farm":5,"title":"# The Prince'","ispublic":1,"isfriend":0,"isfamily":0,"ownername":"Lornss AlNaimi"},{"id":"6335123086","owner":"31568240@N04","secret":"37e7f17bf8","server":"6037","farm":7,"title":"Prince Of Wales Hotel","ispublic":1,"isfriend":0,"isfamily":0,"ownername":"pDOTeter"},{"id":"5489727421","owner":"9122795@N06","secret":"1d0daa9d93","server":"5255","farm":6,"title":"Prince Rupert (British Columbia, Canada)","ispublic":1,"isfriend":0,"isfamily":0,"ownername":"Juan C Ruiz"},{"id":"5448716105","owner":"28989083@N08","secret":"b77c84e9a1","server":"4077","farm":5,"title":"# The Prince'","ispublic":1,"isfriend":0,"isfamily":0,"ownername":"Lornss AlNaimi"},{"id":"4772336703","owner":"51872421@N06","secret":"5be35168d7","server":"4080","farm":5,"title":"Prince Poppycock","ispublic":1,"isfriend":0,"isfamily":0,"ownername":"Prince Poppycock Official"},{"id":"14462506744","owner":"44564171@N07","secret":"f3e46cdc61","server":"2933","farm":3,"title":"Prince street","ispublic":1,"isfriend":0,"isfamily":0,"ownername":"Vladimir Shibanov"},{"id":"13470058855","owner":"94848665@N07","secret":"ef4cd6d3d7","server":"3762","farm":4,"title":"The Happy Prince","ispublic":1,"isfriend":0,"isfamily":0,"ownername":"Juan Figueirido"},{"id":"12569276924","owner":"35240543@N02","secret":"89a80e9f50","server":"7294","farm":8,"title":"Prince Ahmed Suleiman Mera","ispublic":1,"isfriend":0,"isfamily":0,"ownername":"Irene Becker"}]},"stat":"ok"}