{"photos":{"page":1,"pages":39032,"perpage":15,"total":"585471","photo":[{"id":"32961846556","owner":"49331131@N04","secret":"29fd798e3f","server":"669","farm":1,"title":"#puppy","ispublic":1,"isfriend":0,"isfamily":0,"ownername":"caroline.jenna.koah"},{"id":"23890023590","owner":"128214337@N03","secret":"de9d579366","server":"1685","farm":2,"title":"puppy","ispublic":1,"isfriend":0,"isfamily":0,"ownername":"dmunro100"},{"id":"5170590074","owner":"27587002@N07","secret":"714d36db83","server":"4112","farm":5,"title":"Puppy","ispublic":1,"isfriend":0,"isfamily":0,"ownername":"jonkriz"},{"id":"8534394214","owner":"47759511@N05","secret":"23d143d7b1","server":"8386","farm":9,"title":"Puppy!","ispublic":1,"isfriend":0,"isfamily":0,"ownername":"fallsvetclinic"},{"id":"8165540518","owner":"83328170@N06","secret":"6cfd96e041","server":"8209","farm":9,"title":"puppy","ispublic":1,"isfriend":0,"isfamily":0,"ownername":"Lisa L Wiedmeier"},{"id":"10311134805","owner":"47759511@N05","secret":"311137674b","server":"3684","farm":4,"title":"Puppy","ispublic":1,"isfriend":0,"isfamily":0,"ownername":"fallsvetclinic"},{"id":"7401888434","owner":"47759511@N05","secret":"ede41ffe6c","server":"8156","farm":9,"title":"Puppy","ispublic":1,"isfriend":0,"isfamily":0,"ownername":"fallsvetclinic"},{"id":"45921552094","owner":"33618837@N02","secret":"b018bc78a9","server":"7807","farm":8,"title":"Puppy","ispublic":1,"isfriend":0,"isfamily":0,"ownername":"jackfre 2"},{"id":"5342853821","owner":"36326716@N07","secret":"3e64121606","server":"5081","farm":6,"title":"Puppy","ispublic":1,"isfriend":0,"isfamily":0,"ownername":"Jesicalegria"},{"id":"8165497065","owner":"83328170@N06","secret":"c7f34f00d0","server":"8068","farm":9,"title":"puppy","ispublic":1,"isfriend":0,"isfamily":0,"ownername":"Lisa L Wiedmeier"},{"id":"7252012964","owner":"54650189@N03","secret":"f24af6f542","server":"7103","farm":8,"title":"Puppy","ispublic":1,"isfriend":0,"isfamily":0,"ownername":"Amanda de Souza Albuquerque"},{"id":"6810496891","owner":"74745714@N04","secret":"f96beb1113","server":"7012","farm":8,"title":"puppy","ispublic":1,"isfriend":0,"isfamily":0,"ownername":"Jap Veloso"},{"id":"5441941084","owner":"59411915@N07","secret":"2e7e1ea756","server":"4082","farm":5,"title":"Puppy","ispublic":1,"isfriend":0,"isfamily":0,"ownername":"Dawn Iverson"},{"id":"10311091284","owner":"47759511@N05","secret":"415336353e","server":"7458","farm":8,"title":"Puppy","ispublic":1,"isfriend":0,"isfamily":0,"ownername":"fallsvetclinic"},{"id":"7015785149","owner":"64216914@N08","secret":"b335535805","server":"6034","farm":7,"title":"puppy","ispublic":1,"isfriend":0,"isfamily":0,"ownername":"Brianne Valentino"}]},"stat":"ok"}