{"photos":{"page":1,"pages":69012,"perpage":15,"total":"1035179","photo":[{"id":"8381201998","owner":"61486510@N05","secret":"d088c14c29","server":"8054","farm":9,"title":"Purple","ispublic":1,"isfriend":0,"isfamily":0,"ownername":"~~Heavenxxx89 Art & Photography"},{"id":"7076081591","owner":"27409143@N00","secret":"69ede2427b","server":"5115","farm":6,"title":"Purple","ispublic":1,"isfriend":0,"isfamily":0,"ownername":"kb_vaidya"},{"id":"5879601219","owner":"64295720@N04","secret":"cf5349e4e8","server":"6036","farm":7,"title":"purple","ispublic":1,"isfriend":0,"isfamily":0,"ownername":"Kor@y"},{"id":"5456421276","owner":"27409143@N00","secret":"35460e8027","server":"5094","farm":6,"title":"Purple","ispublic":1,"isfriend":0,"isfamily":0,"ownername":"kb_vaidya"},{"id":"3197007215","owner":"29771634@N00","secret":"fa3982e4ec","server":"3078","farm":4,"title":"Purples","ispublic":1,"isfriend":0,"isfamily":0,"ownername":"b\u2113air"},{"id":"436293840","owner":"70664388@N00","secret":"5eba38e986","server":"163","farm":1,"title":"purple","ispublic":1,"isfriend":0,"isfamily":0,"ownername":"ahmed (John)"},{"id":"8219955994","owner":"93293707@N00","secret":"58eb356083","server":"8205","farm":9,"title":"Purple","ispublic":1,"isfriend":0,"isfamily":0,"ownername":"Earthly Image Photography"},{"id":"3480156700","owner":"23965822@N06","secret":"d9599f3535","server":"3655","farm":4,"title":"purple cheeks","ispublic":1,"isfriend":0,"isfamily":0,"ownername":"Sky-Genta"},{"id":"3184301560","owner":"48600098077@N01","secret":"85f5cd3b3b","server":"3108","farm":4,"title":"Purple","ispublic":1,"isfriend":0,"isfamily":0,"ownername":"orijinal"},{"id":"3794816303","owner":"32515359@N07","secret":"00a258afdc","server":"2557","farm":3,"title":"Purple","ispublic":1,"isfriend":0,"isfamily":0,"ownername":"mrniallgreen"},{"id":"14815426354","owner":"107543316@N05","secret":"6c7789644f","server":"5577","farm":6,"title":"purple","ispublic":1,"isfriend":0,"isfamily":0,"ownername":"michaelboylan146"},{"id":"3861159194","owner":"21910570@N03","secret":"1b607aca1c","server":"3579","farm":4,"title":"Purple!!!","ispublic":1,"isfriend":0,"isfamily":0,"ownername":"wash52121"},{"id":"368926118","owner":"85712049@N00","secret":"86d4b4d987","server":"143","farm":1,"title":"purple","ispublic":1,"isfriend":0,"isfamily":0,"ownername":"matthewvenn"},{"id":"5730852074","owner":"10936350@N04","secret":"9472326db5","server":"2022","farm":3,"title":"Purple","ispublic":1,"isfriend":0,"isfamily":0,"ownername":"magnummavis"},{"id":"2299253628","owner":"22745996@N02","secret":"180281cc9b","server":"3267","farm":4,"title":"Purples","ispublic":1,"isfriend":0,"isfamily":0,"ownername":"The New Me! (aka Tiff)"}]},"stat":"ok"}