{"photos":{"page":1,"pages":17558,"perpage":15,"total":"263358","photo":[{"id":"2645826110","owner":"24604208@N06","secret":"3467564fd3","server":"3137","farm":4,"title":"RABBIT","ispublic":1,"isfriend":0,"isfamily":0,"ownername":"Sam Smith Photography"},{"id":"8737837401","owner":"66070376@N06","secret":"7ea0758fcd","server":"7285","farm":8,"title":"Rabbit","ispublic":1,"isfriend":0,"isfamily":0,"ownername":"Chris Sorge"},{"id":"17298823096","owner":"119622168@N03","secret":"9b4e0dc728","server":"7679","farm":8,"title":"Rabbit","ispublic":1,"isfriend":0,"isfamily":0,"ownername":"mnorris5257"},{"id":"4551456285","owner":"12398580@N04","secret":"5d84e71f7a","server":"3521","farm":4,"title":"Rabbit","ispublic":1,"isfriend":0,"isfamily":0,"ownername":"tifosichris"},{"id":"3520094319","owner":"7563364@N07","secret":"3979007bff","server":"3644","farm":4,"title":"rabbit","ispublic":1,"isfriend":0,"isfamily":0,"ownername":"steeleman204"},{"id":"7158902181","owner":"61560144@N04","secret":"f00030c62e","server":"7074","farm":8,"title":"Rabbit","ispublic":1,"isfriend":0,"isfamily":0,"ownername":"richardblackburn1974"},{"id":"2675344021","owner":"12305978@N08","secret":"443093615b","server":"3089","farm":4,"title":"Rabbit","ispublic":1,"isfriend":0,"isfamily":0,"ownername":"PrincessSandrine"},{"id":"3520910820","owner":"7563364@N07","secret":"79c5fdaffc","server":"3584","farm":4,"title":"rabbit","ispublic":1,"isfriend":0,"isfamily":0,"ownername":"steeleman204"},{"id":"9321961625","owner":"47966757@N02","secret":"7c984fe9e3","server":"2848","farm":3,"title":"Rabbit","ispublic":1,"isfriend":0,"isfamily":0,"ownername":"Paul West ( pwest.me )"},{"id":"3821157141","owner":"23032103@N06","secret":"15020b3f65","server":"2438","farm":3,"title":"Rabbit","ispublic":1,"isfriend":0,"isfamily":0,"ownername":"Essex Explorer"},{"id":"14382629006","owner":"113045803@N05","secret":"892acf6251","server":"5515","farm":6,"title":"Rabbit","ispublic":1,"isfriend":0,"isfamily":0,"ownername":"larkdufresne"},{"id":"4511998074","owner":"22541812@N03","secret":"3cf5c38c70","server":"2032","farm":3,"title":"rabbit","ispublic":1,"isfriend":0,"isfamily":0,"ownername":"Mostly Dans"},{"id":"3706445364","owner":"27519540@N04","secret":"5fcb625894","server":"2487","farm":3,"title":"Rabbit","ispublic":1,"isfriend":0,"isfamily":0,"ownername":"Marit & Toomas Hinnosaar"},{"id":"45839575782","owner":"135027495@N03","secret":"e6dda11b79","server":"4810","farm":5,"title":"Rabbit","ispublic":1,"isfriend":0,"isfamily":0,"ownername":"Bob Silver \u263a"}]},"stat":"ok"}