{"photos":{"page":1,"pages":76960,"perpage":15,"total":"1154388","photo":[{"id":"10231500336","owner":"80226011@N06","secret":"4b8d106e0c","server":"7388","farm":8,"title":"railroad","ispublic":1,"isfriend":0,"isfamily":0,"ownername":"Blueocean64"},{"id":"4549941926","owner":"49605081@N07","secret":"390434fe58","server":"4013","farm":5,"title":"railroad","ispublic":1,"isfriend":0,"isfamily":0,"ownername":"4forever4"},{"id":"6736769453","owner":"33089029@N05","secret":"3a2d2cd7f5","server":"7165","farm":8,"title":"railroad","ispublic":1,"isfriend":0,"isfamily":0,"ownername":"Giorgio Quassi"},{"id":"16806357504","owner":"111747620@N03","secret":"446e2a52d0","server":"5454","farm":6,"title":"railroad","ispublic":1,"isfriend":0,"isfamily":0,"ownername":"Isabella A"},{"id":"6780694632","owner":"69523495@N08","secret":"ac0d6a6ed7","server":"7184","farm":8,"title":"Railroad","ispublic":1,"isfriend":0,"isfamily":0,"ownername":"Alberto Piernas"},{"id":"3838441455","owner":"40383565@N06","secret":"4163356be7","server":"2481","farm":3,"title":"Railroad","ispublic":1,"isfriend":0,"isfamily":0,"ownername":"iccsports"},{"id":"7967028488","owner":"81087004@N00","secret":"690a9bd269","server":"8307","farm":9,"title":"Railroad","ispublic":1,"isfriend":0,"isfamily":0,"ownername":"Tetyana Kovyrina"},{"id":"233126144","owner":"98549631@N00","secret":"5a9255b7ca","server":"95","farm":1,"title":"railroad","ispublic":1,"isfriend":0,"isfamily":0,"ownername":"Oenihss"},{"id":"14898709902","owner":"95466172@N03","secret":"8347825c87","server":"3913","farm":4,"title":"Railroad","ispublic":1,"isfriend":0,"isfamily":0,"ownername":"v.Haramustek"},{"id":"8958706574","owner":"28591802@N08","secret":"e87c2b769d","server":"3668","farm":4,"title":"Railroad","ispublic":1,"isfriend":0,"isfamily":0,"ownername":"may.viktor"},{"id":"6259193184","owner":"59075427@N08","secret":"6c72787550","server":"6223","farm":7,"title":"railroad","ispublic":1,"isfriend":0,"isfamily":0,"ownername":"-marisssa"},{"id":"12092507005","owner":"115288376@N08","secret":"29e8892783","server":"7444","farm":8,"title":"Railroad","ispublic":1,"isfriend":0,"isfamily":0,"ownername":"Tony Toys"},{"id":"5597826679","owner":"59849771@N03","secret":"c82e7f8e69","server":"5182","farm":6,"title":"Railroad","ispublic":1,"isfriend":0,"isfamily":0,"ownername":"Tom Sattler"},{"id":"9602400769","owner":"80123898@N03","secret":"27c7c524cf","server":"7409","farm":8,"title":"Railroad","ispublic":1,"isfriend":0,"isfamily":0,"ownername":"FeistyTortilla"},{"id":"1169169918","owner":"11495607@N06","secret":"cf7c452a99","server":"1048","farm":2,"title":"Railroad","ispublic":1,"isfriend":0,"isfamily":0,"ownername":"sh_shadian"}]},"stat":"ok"}