{"photos":{"page":1,"pages":3420,"perpage":15,"total":"51290","photo":[{"id":"6024677968","owner":"34295600@N04","secret":"7e019b7bcd","server":"6146","farm":7,"title":"Rain","ispublic":1,"isfriend":0,"isfamily":0,"ownername":"Xishan Muhammad Tariq"},{"id":"36164113831","owner":"78322331@N06","secret":"df3b955b9f","server":"4317","farm":5,"title":"raining","ispublic":1,"isfriend":0,"isfamily":0,"ownername":"s_inagaki"},{"id":"6716066075","owner":"49514408@N05","secret":"9a1203dd28","server":"7032","farm":8,"title":"Rain?","ispublic":1,"isfriend":0,"isfamily":0,"ownername":"Sarah Beresford"},{"id":"4191401627","owner":"33727204@N06","secret":"9a18197578","server":"2621","farm":3,"title":"raining","ispublic":1,"isfriend":0,"isfamily":0,"ownername":"Ana Paula M."},{"id":"5856683638","owner":"12572477@N07","secret":"2ae888f436","server":"5145","farm":6,"title":"rain......","ispublic":1,"isfriend":0,"isfamily":0,"ownername":"Ike06~"},{"id":"15203835067","owner":"126698699@N02","secret":"c7464b0d95","server":"2947","farm":3,"title":"rain","ispublic":1,"isfriend":0,"isfamily":0,"ownername":"http:\/\/annafineart.net\/"},{"id":"3440201085","owner":"26838002@N07","secret":"a7ef5cc911","server":"3611","farm":4,"title":"Raining...","ispublic":1,"isfriend":0,"isfamily":0,"ownername":"Captured by Alex..."},{"id":"4902675277","owner":"63085988@N00","secret":"12ed05801b","server":"4094","farm":5,"title":"raining","ispublic":1,"isfriend":0,"isfamily":0,"ownername":"subjectivexperience"},{"id":"10982575226","owner":"51172148@N05","secret":"74091e3d64","server":"5486","farm":6,"title":"Rain...","ispublic":1,"isfriend":0,"isfamily":0,"ownername":"Sruthis Photography"},{"id":"4530113717","owner":"55712212@N00","secret":"9cf442a7fe","server":"4053","farm":5,"title":"Raining","ispublic":1,"isfriend":0,"isfamily":0,"ownername":"Muratodentro [ Luca Renoldi ]"},{"id":"35628770132","owner":"147768063@N06","secret":"562526e8ab","server":"4116","farm":5,"title":"#raining","ispublic":1,"isfriend":0,"isfamily":0,"ownername":"\u57ce\u4e2d\u8a18\u4e8b\u651d\u3002"},{"id":"240072589","owner":"61754544@N00","secret":"6cad1a3717","server":"96","farm":1,"title":"Rain","ispublic":1,"isfriend":0,"isfamily":0,"ownername":"Ryanesque"},{"id":"7056879395","owner":"54692197@N05","secret":"9fc1bef2ce","server":"7068","farm":8,"title":"Raining","ispublic":1,"isfriend":0,"isfamily":0,"ownername":"Nauman Thanvi"},{"id":"11205607055","owner":"73331227@N05","secret":"acd60d76ac","server":"7299","farm":8,"title":"Raining","ispublic":1,"isfriend":0,"isfamily":0,"ownername":"michael.veltman"},{"id":"278101005","owner":"58971759@N00","secret":"4a039d6827","server":"116","farm":1,"title":"Rain","ispublic":1,"isfriend":0,"isfamily":0,"ownername":"Sara Petagna | apesara"}]},"stat":"ok"}