{"photos":{"page":1,"pages":83998,"perpage":15,"total":"1259963","photo":[{"id":"46391080515","owner":"168208625@N07","secret":"f8063e6c0f","server":"7867","farm":8,"title":"rain","ispublic":1,"isfriend":0,"isfamily":0,"ownername":"PJ Photo Studio"},{"id":"46391081475","owner":"168208625@N07","secret":"0744b908a2","server":"7815","farm":8,"title":"rain","ispublic":1,"isfriend":0,"isfamily":0,"ownername":"PJ Photo Studio"},{"id":"47253604802","owner":"168208625@N07","secret":"7afcd04182","server":"7891","farm":8,"title":"rain","ispublic":1,"isfriend":0,"isfamily":0,"ownername":"PJ Photo Studio"},{"id":"47306003381","owner":"168208625@N07","secret":"77ffefa701","server":"7830","farm":8,"title":"rain","ispublic":1,"isfriend":0,"isfamily":0,"ownername":"PJ Photo Studio"},{"id":"47306001461","owner":"168208625@N07","secret":"e156979bf0","server":"7923","farm":8,"title":"rain","ispublic":1,"isfriend":0,"isfamily":0,"ownername":"PJ Photo Studio"},{"id":"33430309598","owner":"168208625@N07","secret":"0db354afde","server":"7831","farm":8,"title":"rain","ispublic":1,"isfriend":0,"isfamily":0,"ownername":"PJ Photo Studio"},{"id":"47253605072","owner":"168208625@N07","secret":"827d4a6d8f","server":"7847","farm":8,"title":"rain","ispublic":1,"isfriend":0,"isfamily":0,"ownername":"PJ Photo Studio"},{"id":"46582776684","owner":"168208625@N07","secret":"0aed74ddb3","server":"7858","farm":8,"title":"rain","ispublic":1,"isfriend":0,"isfamily":0,"ownername":"PJ Photo Studio"},{"id":"40341190033","owner":"168208625@N07","secret":"a95b7b8ba9","server":"7924","farm":8,"title":"rain","ispublic":1,"isfriend":0,"isfamily":0,"ownername":"PJ Photo Studio"},{"id":"40341194193","owner":"168208625@N07","secret":"892fc964ab","server":"7876","farm":8,"title":"rain","ispublic":1,"isfriend":0,"isfamily":0,"ownername":"PJ Photo Studio"},{"id":"46391081195","owner":"168208625@N07","secret":"76432e05b8","server":"7915","farm":8,"title":"rain","ispublic":1,"isfriend":0,"isfamily":0,"ownername":"PJ Photo Studio"},{"id":"47253605152","owner":"168208625@N07","secret":"5d65713611","server":"7843","farm":8,"title":"rain","ispublic":1,"isfriend":0,"isfamily":0,"ownername":"PJ Photo Studio"},{"id":"46391081325","owner":"168208625@N07","secret":"fcaf57f251","server":"7924","farm":8,"title":"rain","ispublic":1,"isfriend":0,"isfamily":0,"ownername":"PJ Photo Studio"},{"id":"47253605012","owner":"168208625@N07","secret":"63d398dc9e","server":"7871","farm":8,"title":"rain","ispublic":1,"isfriend":0,"isfamily":0,"ownername":"PJ Photo Studio"},{"id":"46391081165","owner":"168208625@N07","secret":"c9a8e161c3","server":"7884","farm":8,"title":"rain","ispublic":1,"isfriend":0,"isfamily":0,"ownername":"PJ Photo Studio"}]},"stat":"ok"}