{"photos":{"page":1,"pages":244445,"perpage":15,"total":"3666666","photo":[{"id":"15905906733","owner":"84935187@N04","secret":"f8203db4a3","server":"7307","farm":8,"title":"Red","ispublic":1,"isfriend":0,"isfamily":0,"ownername":"Sunny M5"},{"id":"7978985440","owner":"40421323@N00","secret":"02eb0d7b88","server":"8440","farm":9,"title":"[RED]","ispublic":1,"isfriend":0,"isfamily":0,"ownername":"una cierta mirada"},{"id":"6255024094","owner":"22781037@N02","secret":"ef871657c4","server":"6112","farm":7,"title":"red","ispublic":1,"isfriend":0,"isfamily":0,"ownername":"Fabio Sartori"},{"id":"5473620670","owner":"55558729@N03","secret":"c2b87f45ba","server":"5136","farm":6,"title":"Red.","ispublic":1,"isfriend":0,"isfamily":0,"ownername":"Rapunzel new (on and off)"},{"id":"7076080387","owner":"27409143@N00","secret":"398f52033e","server":"7115","farm":8,"title":"Red","ispublic":1,"isfriend":0,"isfamily":0,"ownername":"kb_vaidya"},{"id":"5364061519","owner":"49460206@N03","secret":"c4a0105577","server":"5208","farm":6,"title":"Red","ispublic":1,"isfriend":0,"isfamily":0,"ownername":"Francesca Cappa"},{"id":"16271024421","owner":"74080603@N07","secret":"8887b51069","server":"7461","farm":8,"title":"red","ispublic":1,"isfriend":0,"isfamily":0,"ownername":"Hayashina"},{"id":"2539681103","owner":"72093892@N00","secret":"9893815936","server":"2138","farm":3,"title":"Red","ispublic":1,"isfriend":0,"isfamily":0,"ownername":"aftab."},{"id":"8066630982","owner":"23548946@N06","secret":"7947445bb5","server":"8173","farm":9,"title":"Red","ispublic":1,"isfriend":0,"isfamily":0,"ownername":"mariag."},{"id":"14365502287","owner":"92430094@N02","secret":"2535efe3de","server":"2897","farm":3,"title":"#red","ispublic":1,"isfriend":0,"isfamily":0,"ownername":"Jeevz Philip"},{"id":"4239814089","owner":"25102254@N03","secret":"451ec60e8f","server":"2750","farm":3,"title":"red","ispublic":1,"isfriend":0,"isfamily":0,"ownername":"Asja."},{"id":"15743750009","owner":"125664238@N07","secret":"0e0f823b4a","server":"8629","farm":9,"title":"Red","ispublic":1,"isfriend":0,"isfamily":0,"ownername":"Dziunka (an amatour photographer)"},{"id":"6502698533","owner":"30041656@N04","secret":"3afb7db06f","server":"7153","farm":8,"title":"Red.","ispublic":1,"isfriend":0,"isfamily":0,"ownername":"bdgomes"},{"id":"4603256350","owner":"88798390@N00","secret":"3f3b1f9d3a","server":"4058","farm":5,"title":"Red","ispublic":1,"isfriend":0,"isfamily":0,"ownername":"_nestor_"},{"id":"7507607922","owner":"22895884@N07","secret":"4765bb907c","server":"8421","farm":9,"title":"Red","ispublic":1,"isfriend":0,"isfamily":0,"ownername":"Al Abbasi"}]},"stat":"ok"}