{"photos":{"page":1,"pages":15186,"perpage":15,"total":"227777","photo":[{"id":"14850979981","owner":"61020729@N04","secret":"0b2477d532","server":"3915","farm":4,"title":"Fierza Reservoir, Albania","ispublic":1,"isfriend":0,"isfamily":0,"ownername":"Ferry Vermeer"},{"id":"5433709807","owner":"27307454@N02","secret":"48c35ed121","server":"5298","farm":6,"title":"Outerwards Reservoir","ispublic":1,"isfriend":0,"isfamily":0,"ownername":"Aldo 36 : Back Again"},{"id":"23384466834","owner":"96100496@N05","secret":"13fe279930","server":"5687","farm":6,"title":"Susqueda Reservoir","ispublic":1,"isfriend":0,"isfamily":0,"ownername":"Jordi Corbilla Photography"},{"id":"8486069224","owner":"66442742@N08","secret":"b3070ba753","server":"8102","farm":9,"title":"~Reservoir~","ispublic":1,"isfriend":0,"isfamily":0,"ownername":"Lenzmaan"},{"id":"2885755958","owner":"33561635@N00","secret":"cda0e34719","server":"3286","farm":4,"title":"Ladybower Reservoir","ispublic":1,"isfriend":0,"isfamily":0,"ownername":"**Anik Messier**"},{"id":"9917058476","owner":"49135225@N02","secret":"b111c87530","server":"3809","farm":4,"title":"Howden Reservoir","ispublic":1,"isfriend":0,"isfamily":0,"ownername":"High Peak and Lowland"},{"id":"9350733658","owner":"50551693@N08","secret":"5d22211cc6","server":"5525","farm":6,"title":"Claerwen Reservoir Reflections [Explored]","ispublic":1,"isfriend":0,"isfamily":0,"ownername":"JennTurner"},{"id":"15909572642","owner":"25509772@N00","secret":"cdf89f2948","server":"7510","farm":8,"title":"MacRitchie Reservoir - 129","ispublic":1,"isfriend":0,"isfamily":0,"ownername":"Eustaquio Santimano"},{"id":"4388727156","owner":"42439898@N04","secret":"c3397c09f6","server":"4010","farm":5,"title":"Embalse de El Atazar - Atazar Reservoir","ispublic":1,"isfriend":0,"isfamily":0,"ownername":"Marco Antonio Losas"},{"id":"8672098613","owner":"41561086@N04","secret":"07e6d283e3","server":"8535","farm":9,"title":"Kennick Reservoir","ispublic":1,"isfriend":0,"isfamily":0,"ownername":"jedlangdon"},{"id":"15642058942","owner":"34121831@N00","secret":"89bd85bf91","server":"3949","farm":4,"title":"palisades reservoir Idaho","ispublic":1,"isfriend":0,"isfamily":0,"ownername":"Pattys-photos"},{"id":"14420764043","owner":"49511688@N04","secret":"89493d5e4a","server":"3855","farm":4,"title":"NEUADD RESERVOIR REFLECTIONS","ispublic":1,"isfriend":0,"isfamily":0,"ownername":"henrhyde (gill)"},{"id":"6502035627","owner":"15960147@N06","secret":"dfa301e650","server":"7014","farm":8,"title":"Reservoir Run","ispublic":1,"isfriend":0,"isfamily":0,"ownername":"Ben Kimball"},{"id":"8390225936","owner":"42014801@N04","secret":"8405c51e71","server":"8475","farm":9,"title":"Koberbach Reservoir, Saxony, Germany","ispublic":1,"isfriend":0,"isfamily":0,"ownername":"Caledoniafan (Astrid)"},{"id":"8119175651","owner":"64724719@N03","secret":"a0c4615888","server":"8476","farm":9,"title":"Walnut Canyon Reservoir","ispublic":1,"isfriend":0,"isfamily":0,"ownername":"TheJudge310"}]},"stat":"ok"}