{"photos":{"page":1,"pages":3332,"perpage":15,"total":"49979","photo":[{"id":"12120848245","owner":"53083152@N06","secret":"967b51a1d4","server":"3749","farm":4,"title":"the return","ispublic":1,"isfriend":0,"isfamily":0,"ownername":"Feldklipp"},{"id":"16747987410","owner":"21692577@N02","secret":"e9e30919e4","server":"8730","farm":9,"title":"Returning home after a hard day of work.","ispublic":1,"isfriend":0,"isfamily":0,"ownername":"Danny VB"},{"id":"15212523531","owner":"16489371@N00","secret":"3d37b24b38","server":"3867","farm":4,"title":"Return","ispublic":1,"isfriend":0,"isfamily":0,"ownername":"Charles Opper"},{"id":"8536428300","owner":"41890366@N03","secret":"ea30e9fe9e","server":"8367","farm":9,"title":"Return of Spring.","ispublic":1,"isfriend":0,"isfamily":0,"ownername":"Esther Spektor - Thanks for 10+ millions views.."},{"id":"4299317289","owner":"24948101@N08","secret":"87f318c3d2","server":"2701","farm":3,"title":"\u09ab\u09c7\u09b0\u09be\/ the return","ispublic":1,"isfriend":0,"isfamily":0,"ownername":"A\u042f\u03afF | Md. Arifur Rahman"},{"id":"9639475170","owner":"51038094@N04","secret":"976d7dc582","server":"3776","farm":4,"title":"Return To Oz","ispublic":1,"isfriend":0,"isfamily":0,"ownername":"ORIONSM"},{"id":"9578392599","owner":"92322722@N03","secret":"4c011bcedd","server":"7364","farm":8,"title":"Returning from Wonderland - 2 : Tight world","ispublic":1,"isfriend":0,"isfamily":0,"ownername":"Fayek Tasneem Khan"},{"id":"11148540376","owner":"47668102@N04","secret":"456857b8c9","server":"7295","farm":8,"title":"Returning home","ispublic":1,"isfriend":0,"isfamily":0,"ownername":"A. adnan"},{"id":"5493811733","owner":"59962238@N02","secret":"88534417cf","server":"5172","farm":6,"title":"RTB (Return To Base)","ispublic":1,"isfriend":0,"isfamily":0,"ownername":"storm TK431"},{"id":"8581664067","owner":"31094611@N02","secret":"7c0720e023","server":"8104","farm":9,"title":"Sweet Return","ispublic":1,"isfriend":0,"isfamily":0,"ownername":"CResende"},{"id":"6393597847","owner":"41856376@N03","secret":"beb8bb6372","server":"6238","farm":7,"title":"Return To Base!!     (Kingfisher)","ispublic":1,"isfriend":0,"isfamily":0,"ownername":"marsch1962"},{"id":"9891727264","owner":"23665057@N02","secret":"5b7a22b621","server":"3774","farm":4,"title":"Return","ispublic":1,"isfriend":0,"isfamily":0,"ownername":"Mara ~earth light~"},{"id":"20721237221","owner":"56189318@N02","secret":"534e9cb571","server":"731","farm":1,"title":"Return","ispublic":1,"isfriend":0,"isfamily":0,"ownername":"Noro8"},{"id":"11223312066","owner":"78399474@N08","secret":"02e77ff5d0","server":"5478","farm":6,"title":"Return to Field...","ispublic":1,"isfriend":0,"isfamily":0,"ownername":"Sanhita Bhattacharjee"},{"id":"5887148980","owner":"56682015@N02","secret":"b87ec167a9","server":"5319","farm":6,"title":"No return (24\/365)","ispublic":1,"isfriend":0,"isfamily":0,"ownername":"Fang Tong"}]},"stat":"ok"}