{"photos":{"page":1,"pages":7403,"perpage":15,"total":"111035","photo":[{"id":"9338346997","owner":"98794605@N03","secret":"f5e5cde01b","server":"7407","farm":8,"title":"Rings","ispublic":1,"isfriend":0,"isfamily":0,"ownername":"Leopold.Terence"},{"id":"4207497769","owner":"47424075@N00","secret":"cc89da9eb0","server":"2682","farm":3,"title":"Rings","ispublic":1,"isfriend":0,"isfamily":0,"ownername":"Megan Burgess"},{"id":"9421711602","owner":"98794605@N03","secret":"05f1c4c830","server":"7348","farm":8,"title":"Rings","ispublic":1,"isfriend":0,"isfamily":0,"ownername":"Leopold.Terence"},{"id":"4863784470","owner":"52753817@N03","secret":"37fd0ae379","server":"4116","farm":5,"title":"rings","ispublic":1,"isfriend":0,"isfamily":0,"ownername":"Amanda Inasaki"},{"id":"2421861155","owner":"25747016@N05","secret":"bf034118ba","server":"3138","farm":4,"title":"Rings GJHT0030","ispublic":1,"isfriend":0,"isfamily":0,"ownername":"gingersoup"},{"id":"3225491724","owner":"13634125@N02","secret":"79bc13c3cf","server":"3081","farm":4,"title":"The Rings","ispublic":1,"isfriend":0,"isfamily":0,"ownername":"Larry the Amateur"},{"id":"18743397","owner":"88266962@N00","secret":"0a78377799","server":"12","farm":1,"title":"IMG_3071","ispublic":1,"isfriend":0,"isfamily":0,"ownername":"imagesbyk2 Photography"},{"id":"12064932295","owner":"115072327@N06","secret":"666ce934d8","server":"3807","farm":4,"title":"Engagement rings","ispublic":1,"isfriend":0,"isfamily":0,"ownername":"gkdiamonds123"},{"id":"8558222233","owner":"67111078@N05","secret":"de23bd009e","server":"8229","farm":9,"title":"rings from my darling))","ispublic":1,"isfriend":0,"isfamily":0,"ownername":"Violetemon"},{"id":"1916364405","owner":"92296135@N00","secret":"d416d56a2a","server":"2298","farm":3,"title":"beaded ring","ispublic":1,"isfriend":0,"isfamily":0,"ownername":"gamzeerkan12"},{"id":"6952852929","owner":"54717628@N02","secret":"bc49a3ef93","server":"7045","farm":8,"title":"Rings","ispublic":1,"isfriend":0,"isfamily":0,"ownername":"dry3210"},{"id":"3945910290","owner":"7727276@N06","secret":"0b7279191a","server":"3497","farm":4,"title":"Our Rings","ispublic":1,"isfriend":0,"isfamily":0,"ownername":"rfayoumi"},{"id":"7130100295","owner":"67092517@N02","secret":"3f225e3ac4","server":"8001","farm":9,"title":"Gold ring and pearl","ispublic":1,"isfriend":0,"isfamily":0,"ownername":"CraftyDayDreams"},{"id":"5746937344","owner":"49140926@N07","secret":"32aaf595ab","server":"3233","farm":4,"title":"Wedding rings","ispublic":1,"isfriend":0,"isfamily":0,"ownername":"Robo Android"},{"id":"5917718104","owner":"64415795@N02","secret":"c79e753375","server":"6018","farm":7,"title":"Wedding_Rings_1","ispublic":1,"isfriend":0,"isfamily":0,"ownername":"Kiwicanary"}]},"stat":"ok"}