{"photos":{"page":1,"pages":435,"perpage":15,"total":"6515","photo":[{"id":"11922755145","owner":"60027837@N00","secret":"ed422b261d","server":"5511","farm":6,"title":"Jupiter Rising - Yosemite National Park","ispublic":1,"isfriend":0,"isfamily":0,"ownername":"Darvin Atkeson"},{"id":"14322866476","owner":"27365066@N02","secret":"0dca513b5f","server":"3878","farm":4,"title":"From somewhere closeby, rises the warmth of your breath.","ispublic":1,"isfriend":0,"isfamily":0,"ownername":"-Reji"},{"id":"7577514188","owner":"45463918@N02","secret":"3557908171","server":"8290","farm":9,"title":"The Dark Knight Rises","ispublic":1,"isfriend":0,"isfamily":0,"ownername":"Condor."},{"id":"7605873400","owner":"40704019@N05","secret":"4f76146da7","server":"8152","farm":9,"title":"The Dark Knight Rises Launches TONIGHT!!","ispublic":1,"isfriend":0,"isfamily":0,"ownername":"MGF Customs\/Reviews"},{"id":"14603895994","owner":"102567866@N06","secret":"a1e9fcdc82","server":"3844","farm":4,"title":"The Dark Knight Rises","ispublic":1,"isfriend":0,"isfamily":0,"ownername":"Merc4Hire."},{"id":"7618437750","owner":"40704019@N05","secret":"af242e9398","server":"7266","farm":8,"title":"The Dark Knight Rises - A Journey's Conclusion","ispublic":1,"isfriend":0,"isfamily":0,"ownername":"MGF Customs\/Reviews"},{"id":"7587793784","owner":"40704019@N05","secret":"a631bc784c","server":"8010","farm":9,"title":"The Dark Knight Rises - Recreational Movie Still #7","ispublic":1,"isfriend":0,"isfamily":0,"ownername":"MGF Customs\/Reviews"},{"id":"8189592678","owner":"40704019@N05","secret":"0c3dd4f53b","server":"8489","farm":9,"title":"The Dark Knight Rises - Bane Mini Figure by Christo","ispublic":1,"isfriend":0,"isfamily":0,"ownername":"MGF Customs\/Reviews"},{"id":"7586306880","owner":"40704019@N05","secret":"28d7d55b22","server":"8012","farm":9,"title":"The Dark Knight Rises IMAX Poster in LEGO","ispublic":1,"isfriend":0,"isfamily":0,"ownername":"MGF Customs\/Reviews"},{"id":"7575734212","owner":"40704019@N05","secret":"03bc8cc8b9","server":"7116","farm":8,"title":"The Dark Knight Rises - Batman and Catwoman Wallpaper Recreation","ispublic":1,"isfriend":0,"isfamily":0,"ownername":"MGF Customs\/Reviews"},{"id":"5633654671","owner":"16275864@N07","secret":"0e001fc5a6","server":"5142","farm":6,"title":"Slammed Honda Civic Type R Light Painted As The Moon Rises","ispublic":1,"isfriend":0,"isfamily":0,"ownername":"NWVT.co.uk"},{"id":"7629624340","owner":"46562088@N05","secret":"c131cc6e74","server":"8144","farm":9,"title":"\"Mr. Wayne...\" - Lego Dark Knight Rises","ispublic":1,"isfriend":0,"isfamily":0,"ownername":"Bryant."},{"id":"7909441228","owner":"50764322@N04","secret":"38135f252c","server":"8304","farm":9,"title":"Bane 2025 (The Dark Knight Rises)","ispublic":1,"isfriend":0,"isfamily":0,"ownername":"Gilc\u00e9lio"},{"id":"6859509088","owner":"70720631@N07","secret":"b22b84ede4","server":"7248","farm":8,"title":"bane The Dark Night Rises","ispublic":1,"isfriend":0,"isfamily":0,"ownername":"Logan Fulford"},{"id":"7611257364","owner":"40704019@N05","secret":"62ac8f433d","server":"8293","farm":9,"title":"Aurora Colorado Shooting at The Dark Knight Rises","ispublic":1,"isfriend":0,"isfamily":0,"ownername":"MGF Customs\/Reviews"}]},"stat":"ok"}