{"photos":{"page":1,"pages":158826,"perpage":15,"total":"2382383","photo":[{"id":"44472029681","owner":"55959716@N08","secret":"7c826b4358","server":"1855","farm":2,"title":"road","ispublic":1,"isfriend":0,"isfamily":0,"ownername":"Philocycler"},{"id":"16121246609","owner":"73422502@N08","secret":"e93237be3d","server":"7465","farm":8,"title":"Road","ispublic":1,"isfriend":0,"isfamily":0,"ownername":"Zeeyolq Photography"},{"id":"2201977014","owner":"21692577@N02","secret":"16c46092f2","server":"2333","farm":3,"title":"road","ispublic":1,"isfriend":0,"isfamily":0,"ownername":"Danny VB"},{"id":"6280220250","owner":"21692577@N02","secret":"0ca304862b","server":"6211","farm":7,"title":"road","ispublic":1,"isfriend":0,"isfamily":0,"ownername":"Danny VB"},{"id":"23495401933","owner":"73422502@N08","secret":"9aba70fca5","server":"5704","farm":6,"title":"road","ispublic":1,"isfriend":0,"isfamily":0,"ownername":"Zeeyolq Photography"},{"id":"4163208316","owner":"21692577@N02","secret":"f355379f7b","server":"2525","farm":3,"title":"road","ispublic":1,"isfriend":0,"isfamily":0,"ownername":"Danny VB"},{"id":"2115637584","owner":"21692577@N02","secret":"b28abb8612","server":"2282","farm":3,"title":"road","ispublic":1,"isfriend":0,"isfamily":0,"ownername":"Danny VB"},{"id":"37744022874","owner":"28596055@N02","secret":"d50ec79c85","server":"4564","farm":5,"title":"Road","ispublic":1,"isfriend":0,"isfamily":0,"ownername":"dorinser"},{"id":"33412420998","owner":"160009022@N05","secret":"22768b470d","server":"7877","farm":8,"title":"road","ispublic":1,"isfriend":0,"isfamily":0,"ownername":"adenkis"},{"id":"5172247578","owner":"21692577@N02","secret":"a908e7f844","server":"4085","farm":5,"title":"road","ispublic":1,"isfriend":0,"isfamily":0,"ownername":"Danny VB"},{"id":"16394604701","owner":"98891995@N05","secret":"cc41ddf7fe","server":"7453","farm":8,"title":"Road","ispublic":1,"isfriend":0,"isfamily":0,"ownername":"H\u0435l\u0435n"},{"id":"30347177728","owner":"73422502@N08","secret":"69325aa365","server":"1888","farm":2,"title":"Road","ispublic":1,"isfriend":0,"isfamily":0,"ownername":"Zeeyolq Photography"},{"id":"31430666161","owner":"142409708@N08","secret":"7c71954e5d","server":"42","farm":1,"title":"Road","ispublic":1,"isfriend":0,"isfamily":0,"ownername":"PokemonaDeChroma"},{"id":"44870634205","owner":"152233521@N07","secret":"34fee51919","server":"4823","farm":5,"title":"Road","ispublic":1,"isfriend":0,"isfamily":0,"ownername":"Vak Photos"},{"id":"7162912889","owner":"21692577@N02","secret":"e586f9f8e6","server":"8167","farm":9,"title":"road","ispublic":1,"isfriend":0,"isfamily":0,"ownername":"Danny VB"}]},"stat":"ok"}