{"photos":{"page":1,"pages":228479,"perpage":15,"total":"3427175","photo":[{"id":"16333007775","owner":"21692577@N02","secret":"71c038120f","server":"7572","farm":8,"title":"rock","ispublic":1,"isfriend":0,"isfamily":0,"ownername":"Danny VB"},{"id":"5063131410","owner":"69017177@N00","secret":"c932ec80b7","server":"4154","farm":5,"title":"rocks","ispublic":1,"isfriend":0,"isfamily":0,"ownername":"stebulus"},{"id":"3922970674","owner":"21692577@N02","secret":"eed753c003","server":"3462","farm":4,"title":"Rock","ispublic":1,"isfriend":0,"isfamily":0,"ownername":"Danny VB"},{"id":"4133088597","owner":"44912907@N05","secret":"90cae9cfb0","server":"2737","farm":3,"title":"Rock","ispublic":1,"isfriend":0,"isfamily":0,"ownername":"Sunsword & Moonsabre"},{"id":"16601078348","owner":"99740192@N03","secret":"c8ecbc985c","server":"7595","farm":8,"title":"rock","ispublic":1,"isfriend":0,"isfamily":0,"ownername":"davidparenteau"},{"id":"14668986874","owner":"80226011@N06","secret":"a852c156b1","server":"3854","farm":4,"title":"rock","ispublic":1,"isfriend":0,"isfamily":0,"ownername":"Blueocean64"},{"id":"6672213105","owner":"53107343@N04","secret":"a059b7bdb9","server":"7142","farm":8,"title":"Rock","ispublic":1,"isfriend":0,"isfamily":0,"ownername":"Hamdan AlAdheed."},{"id":"6442709333","owner":"47615091@N04","secret":"a72b979b64","server":"7168","farm":8,"title":"Rocks","ispublic":1,"isfriend":0,"isfamily":0,"ownername":"Verian Mancina"},{"id":"26804798344","owner":"80226011@N06","secret":"dfffa941a3","server":"7283","farm":8,"title":"rock","ispublic":1,"isfriend":0,"isfamily":0,"ownername":"Blueocean64"},{"id":"4557155821","owner":"8068581@N02","secret":"c7c794bc5e","server":"3108","farm":4,"title":"Rock","ispublic":1,"isfriend":0,"isfamily":0,"ownername":"ThrasherDave"},{"id":"14574107110","owner":"61299848@N06","secret":"da23df531e","server":"2924","farm":3,"title":"Rock","ispublic":1,"isfriend":0,"isfamily":0,"ownername":"RAW.hu"},{"id":"4995777274","owner":"48949326@N05","secret":"18cc89fd51","server":"4146","farm":5,"title":"ROCK!","ispublic":1,"isfriend":0,"isfamily":0,"ownername":"Naj A \u00a9"},{"id":"27342393680","owner":"80226011@N06","secret":"a57e4fc96e","server":"7317","farm":8,"title":"rock","ispublic":1,"isfriend":0,"isfamily":0,"ownername":"Blueocean64"},{"id":"45726885091","owner":"65089906@N00","secret":"641e999418","server":"1975","farm":2,"title":"rock","ispublic":1,"isfriend":0,"isfamily":0,"ownername":"PHOTOPHANATIC1"},{"id":"6804992166","owner":"75323238@N04","secret":"cfa777779e","server":"7061","farm":8,"title":"Pacific ocean rock.","ispublic":1,"isfriend":0,"isfamily":0,"ownername":"Cheshire cat 2012"}]},"stat":"ok"}