{"photos":{"page":1,"pages":116139,"perpage":15,"total":"1742078","photo":[{"id":"15640020988","owner":"39870654@N04","secret":"8c2522349b","server":"5603","farm":6,"title":"Rome","ispublic":1,"isfriend":0,"isfamily":0,"ownername":"Ant\u00f3nio Alfarroba"},{"id":"9954048554","owner":"40832502@N06","secret":"6fe7a04689","server":"3763","farm":4,"title":"Rome","ispublic":1,"isfriend":0,"isfamily":0,"ownername":"galletto marco"},{"id":"6776941596","owner":"40832502@N06","secret":"ce66ff8b7c","server":"7188","farm":8,"title":"Rome","ispublic":1,"isfriend":0,"isfamily":0,"ownername":"galletto marco"},{"id":"6367996771","owner":"40832502@N06","secret":"0dc2e23918","server":"6032","farm":7,"title":"Rome","ispublic":1,"isfriend":0,"isfamily":0,"ownername":"galletto marco"},{"id":"15178453974","owner":"39870654@N04","secret":"55b5d90380","server":"5604","farm":6,"title":"Rome","ispublic":1,"isfriend":0,"isfamily":0,"ownername":"Ant\u00f3nio Alfarroba"},{"id":"6395369349","owner":"40832502@N06","secret":"a4df68d214","server":"7170","farm":8,"title":"Rome","ispublic":1,"isfriend":0,"isfamily":0,"ownername":"galletto marco"},{"id":"6887580149","owner":"40832502@N06","secret":"2c932beab8","server":"7064","farm":8,"title":"Rome","ispublic":1,"isfriend":0,"isfamily":0,"ownername":"galletto marco"},{"id":"6395337713","owner":"40832502@N06","secret":"cdcee3a062","server":"7034","farm":8,"title":"Rome","ispublic":1,"isfriend":0,"isfamily":0,"ownername":"galletto marco"},{"id":"25526184446","owner":"28596055@N02","secret":"e1816356fb","server":"1664","farm":2,"title":"rome","ispublic":1,"isfriend":0,"isfamily":0,"ownername":"dorinser"},{"id":"27132056619","owner":"28596055@N02","secret":"0018a42df0","server":"4547","farm":5,"title":"Rome","ispublic":1,"isfriend":0,"isfamily":0,"ownername":"dorinser"},{"id":"15292886660","owner":"73422502@N08","secret":"8336abb4c9","server":"3956","farm":4,"title":"Rome","ispublic":1,"isfriend":0,"isfamily":0,"ownername":"Zeeyolq Photography"},{"id":"4679635947","owner":"42708842@N00","secret":"d91befc5a7","server":"4043","farm":5,"title":"Rome","ispublic":1,"isfriend":0,"isfamily":0,"ownername":"George*50"},{"id":"8167948698","owner":"62188839@N08","secret":"8790b4df7b","server":"7250","farm":8,"title":"Rome","ispublic":1,"isfriend":0,"isfamily":0,"ownername":"Luca.Pietrobono"},{"id":"24962720985","owner":"28596055@N02","secret":"97abf848cf","server":"1576","farm":2,"title":"rome","ispublic":1,"isfriend":0,"isfamily":0,"ownername":"dorinser"},{"id":"8570600895","owner":"29199076@N06","secret":"1ce52df1dd","server":"8241","farm":9,"title":"rome","ispublic":1,"isfriend":0,"isfamily":0,"ownername":"vittorio del capriolo"}]},"stat":"ok"}