{"photos":{"page":1,"pages":7146,"perpage":15,"total":"107183","photo":[{"id":"44371323414","owner":"137295277@N07","secret":"e8e6457385","server":"1966","farm":2,"title":"Rope","ispublic":1,"isfriend":0,"isfamily":0,"ownername":"svpnoxy"},{"id":"31628705668","owner":"79915086@N08","secret":"e890008a40","server":"1905","farm":2,"title":"rope","ispublic":1,"isfriend":0,"isfamily":0,"ownername":"hbk1955"},{"id":"15612407231","owner":"9524771@N06","secret":"00d8a2d258","server":"3944","farm":4,"title":"Ropes","ispublic":1,"isfriend":0,"isfamily":0,"ownername":"pienw"},{"id":"4521214686","owner":"44693848@N03","secret":"2537fccfe2","server":"2755","farm":3,"title":"rope","ispublic":1,"isfriend":0,"isfamily":0,"ownername":"TheLondonHorrorShow"},{"id":"30045313717","owner":"137319556@N08","secret":"df64530cbf","server":"1944","farm":2,"title":"Rope","ispublic":1,"isfriend":0,"isfamily":0,"ownername":"patrick_milan"},{"id":"32625194648","owner":"145751808@N06","secret":"e4245a0cfe","server":"7871","farm":8,"title":"Rope","ispublic":1,"isfriend":0,"isfamily":0,"ownername":"patricsahl\u00e9n"},{"id":"6042565706","owner":"52803654@N02","secret":"802af6b962","server":"6181","farm":7,"title":"Jump Rope","ispublic":1,"isfriend":0,"isfamily":0,"ownername":"EmilyGray & HenryPoole"},{"id":"5503165546","owner":"7611195@N06","secret":"dc8b29ccf3","server":"5172","farm":6,"title":"Roped","ispublic":1,"isfriend":0,"isfamily":0,"ownername":"zphds"},{"id":"7556670464","owner":"36521965462@N01","secret":"55ee72f0ed","server":"7134","farm":8,"title":"ropes","ispublic":1,"isfriend":0,"isfamily":0,"ownername":"dasar"},{"id":"13089613834","owner":"57949897@N00","secret":"77100ee6ed","server":"3146","farm":4,"title":"Rope","ispublic":1,"isfriend":0,"isfamily":0,"ownername":"Jerzy Durczak"},{"id":"2675297342","owner":"50787654@N00","secret":"4fb458a40d","server":"3054","farm":4,"title":"rope","ispublic":1,"isfriend":0,"isfamily":0,"ownername":"unexpected bacon"},{"id":"6871081777","owner":"36522716@N06","secret":"5ba3dfece9","server":"7043","farm":8,"title":"Rope","ispublic":1,"isfriend":0,"isfamily":0,"ownername":"fxdx"},{"id":"9624286820","owner":"45637228@N05","secret":"fe16c8e2e1","server":"2890","farm":3,"title":"rope","ispublic":1,"isfriend":0,"isfamily":0,"ownername":"M.J.H. photography"},{"id":"45423809485","owner":"161289323@N02","secret":"04ca730b55","server":"4910","farm":5,"title":"Rope","ispublic":1,"isfriend":0,"isfamily":0,"ownername":"ghostisme87"},{"id":"3166831737","owner":"93416311@N00","secret":"2a2a79d6eb","server":"1022","farm":2,"title":"Rope","ispublic":1,"isfriend":0,"isfamily":0,"ownername":"Tim Green aka atoach"}]},"stat":"ok"}