{"photos":{"page":1,"pages":22632,"perpage":15,"total":"339479","photo":[{"id":"14364607508","owner":"99352947@N00","secret":"f835cfb54d","server":"3918","farm":4,"title":"roses","ispublic":1,"isfriend":0,"isfamily":0,"ownername":"Sunnyvaledave"},{"id":"18745726351","owner":"36543276@N02","secret":"7711cc54e3","server":"356","farm":1,"title":"Roses.","ispublic":1,"isfriend":0,"isfamily":0,"ownername":"Paul Hillman."},{"id":"12604529235","owner":"7889906@N04","secret":"ddce9effd8","server":"5487","farm":6,"title":"Roses","ispublic":1,"isfriend":0,"isfamily":0,"ownername":"pholl000"},{"id":"8704925514","owner":"18284386@N02","secret":"eb0e912385","server":"8126","farm":9,"title":"roses","ispublic":1,"isfriend":0,"isfamily":0,"ownername":"Andrew Penney Photography"},{"id":"7738562658","owner":"75432915@N02","secret":"664468a572","server":"7248","farm":8,"title":"Roses","ispublic":1,"isfriend":0,"isfamily":0,"ownername":"Benjamin Ballande"},{"id":"15274080847","owner":"59428785@N04","secret":"4e222705a5","server":"3929","farm":4,"title":"Roses","ispublic":1,"isfriend":0,"isfamily":0,"ownername":"subotica2011"},{"id":"2601867670","owner":"13286453@N00","secret":"8720c28b51","server":"2307","farm":3,"title":"Roses","ispublic":1,"isfriend":0,"isfamily":0,"ownername":"zoetnet"},{"id":"1585475934","owner":"12859363@N04","secret":"15c8fa2208","server":"2309","farm":3,"title":"Roses","ispublic":1,"isfriend":0,"isfamily":0,"ownername":"Serdar Gurbuz Photography"},{"id":"16945508092","owner":"17537005@N00","secret":"5e75cf576c","server":"8729","farm":9,"title":"roses","ispublic":1,"isfriend":0,"isfamily":0,"ownername":"aa4on"},{"id":"7938612008","owner":"62821289@N08","secret":"cb0e383493","server":"8451","farm":9,"title":"Roses","ispublic":1,"isfriend":0,"isfamily":0,"ownername":"freaks of nature1"},{"id":"41056739901","owner":"106705450@N03","secret":"4d80697cb9","server":"880","farm":1,"title":"Roses","ispublic":1,"isfriend":0,"isfamily":0,"ownername":"Caulker"},{"id":"2465326729","owner":"71046792@N00","secret":"4d5b0142cc","server":"3226","farm":4,"title":"Roses","ispublic":1,"isfriend":0,"isfamily":0,"ownername":"Kohn.Rebecca"},{"id":"15482418589","owner":"56293888@N02","secret":"2d07115626","server":"7540","farm":8,"title":"Roses","ispublic":1,"isfriend":0,"isfamily":0,"ownername":"mani_bhaskar23"},{"id":"1743996065","owner":"14778641@N02","secret":"f96ff48eed","server":"2248","farm":3,"title":"roses","ispublic":1,"isfriend":0,"isfamily":0,"ownername":"lesley v"},{"id":"33185528242","owner":"94617183@N06","secret":"418a86378c","server":"3895","farm":4,"title":"roses","ispublic":1,"isfriend":0,"isfamily":0,"ownername":"s\u00efgismund"}]},"stat":"ok"}