{"photos":{"page":1,"pages":106496,"perpage":15,"total":"1597429","photo":[{"id":"3187092145","owner":"82318851@N00","secret":"aee92a0691","server":"3342","farm":4,"title":"running","ispublic":1,"isfriend":0,"isfamily":0,"ownername":"Lyubov"},{"id":"6235476416","owner":"10163934@N03","secret":"118c914541","server":"6236","farm":7,"title":"run","ispublic":1,"isfriend":0,"isfamily":0,"ownername":"brennerpeter"},{"id":"39768997720","owner":"75309441@N02","secret":"61557f98d0","server":"862","farm":1,"title":"Run","ispublic":1,"isfriend":0,"isfamily":0,"ownername":"minoru karamatsu\uff08\u67c4\u677e\u7a14\uff09"},{"id":"9428341699","owner":"68623153@N00","secret":"f8b7fb42fc","server":"7287","farm":8,"title":"Run !","ispublic":1,"isfriend":0,"isfamily":0,"ownername":"Luis V\u00e1squez [ Luis3D ]"},{"id":"4504385103","owner":"49105987@N03","secret":"e6a1e46e45","server":"2799","farm":3,"title":"Running","ispublic":1,"isfriend":0,"isfamily":0,"ownername":"koveda"},{"id":"13930402315","owner":"21692577@N02","secret":"1a30a31f9f","server":"2913","farm":3,"title":"run","ispublic":1,"isfriend":0,"isfamily":0,"ownername":"Danny VB"},{"id":"32935350205","owner":"146898574@N05","secret":"306876dcd1","server":"3709","farm":4,"title":"#run","ispublic":1,"isfriend":0,"isfamily":0,"ownername":"konstireichel"},{"id":"12882427743","owner":"116435774@N07","secret":"5e03868824","server":"7419","farm":8,"title":"running","ispublic":1,"isfriend":0,"isfamily":0,"ownername":"renoleon"},{"id":"7679089468","owner":"63875342@N06","secret":"9b77b782e8","server":"7252","farm":8,"title":"run","ispublic":1,"isfriend":0,"isfamily":0,"ownername":"Petra Wendt"},{"id":"6086627890","owner":"44827474@N04","secret":"3663a6d398","server":"6182","farm":7,"title":"run","ispublic":1,"isfriend":0,"isfamily":0,"ownername":"torobala"},{"id":"8719262027","owner":"62188839@N08","secret":"e8c4c4bed2","server":"7385","farm":8,"title":"Run","ispublic":1,"isfriend":0,"isfamily":0,"ownername":"Luca.Pietrobono"},{"id":"3827952124","owner":"33731422@N05","secret":"0d2fbf08fd","server":"2570","farm":3,"title":"Run","ispublic":1,"isfriend":0,"isfamily":0,"ownername":"Luk83"},{"id":"15311275314","owner":"87269366@N02","secret":"b4969b4ccf","server":"7478","farm":8,"title":"Running..","ispublic":1,"isfriend":0,"isfamily":0,"ownername":"Sfynx"},{"id":"5342550783","owner":"27944101@N08","secret":"b44e6e92e3","server":"5041","farm":6,"title":"run","ispublic":1,"isfriend":0,"isfamily":0,"ownername":"khuntu2001"},{"id":"2999502243","owner":"8081658@N07","secret":"5905bc2da3","server":"3252","farm":4,"title":"running...","ispublic":1,"isfriend":0,"isfamily":0,"ownername":"- Ariful H Bhuiyan -"}]},"stat":"ok"}