{"photos":{"page":1,"pages":23875,"perpage":15,"total":"358125","photo":[{"id":"157302065","owner":"21414007@N00","secret":"42fb3f76cb","server":"70","farm":1,"title":"Runner","ispublic":1,"isfriend":0,"isfamily":0,"ownername":"slagheap"},{"id":"14719289213","owner":"14913305@N00","secret":"12e761bf42","server":"3896","farm":4,"title":"Casual Runner","ispublic":1,"isfriend":0,"isfamily":0,"ownername":"Chris Hunkeler"},{"id":"755304515","owner":"69922275@N00","secret":"154c2c6ba8","server":"1134","farm":2,"title":"Runner","ispublic":1,"isfriend":0,"isfamily":0,"ownername":"JaredWJ"},{"id":"19852998130","owner":"66308198@N07","secret":"04b0c729be","server":"270","farm":1,"title":"runners jogging","ispublic":1,"isfriend":0,"isfamily":0,"ownername":"movieboke"},{"id":"5628386846","owner":"59475728@N04","secret":"cda4d27692","server":"5148","farm":6,"title":"Runners","ispublic":1,"isfriend":0,"isfamily":0,"ownername":"Shaun Hurst"},{"id":"5138352022","owner":"28191099@N05","secret":"c380aa4626","server":"1328","farm":2,"title":"...","ispublic":1,"isfriend":0,"isfamily":0,"ownername":"a.gogarty"},{"id":"130575698","owner":"90715018@N00","secret":"cbf7261056","server":"48","farm":1,"title":"Runners","ispublic":1,"isfriend":0,"isfamily":0,"ownername":"AzyxA"},{"id":"34778921432","owner":"98460635@N08","secret":"7c68c99229","server":"4252","farm":5,"title":"27.05.17-233","ispublic":1,"isfriend":0,"isfamily":0,"ownername":"wallithewalrus"},{"id":"6931951734","owner":"83825421@N00","secret":"fe3a822f5f","server":"7103","farm":8,"title":"Smile","ispublic":1,"isfriend":0,"isfamily":0,"ownername":"DriveByShutter"},{"id":"5081918645","owner":"28191099@N05","secret":"80f1a5c36c","server":"4071","farm":5,"title":"...","ispublic":1,"isfriend":0,"isfamily":0,"ownername":"a.gogarty"},{"id":"4286822724","owner":"47143655@N00","secret":"8055fb5948","server":"4059","farm":5,"title":"runners @washington\/studemont","ispublic":1,"isfriend":0,"isfamily":0,"ownername":"solcookie"},{"id":"6329445537","owner":"28191099@N05","secret":"0d9a745501","server":"6118","farm":7,"title":"...","ispublic":1,"isfriend":0,"isfamily":0,"ownername":"a.gogarty"},{"id":"8717703691","owner":"55178708@N08","secret":"eb660a4700","server":"7425","farm":8,"title":"Some runners in the sun","ispublic":1,"isfriend":0,"isfamily":0,"ownername":"Tymtoi"},{"id":"3559825580","owner":"79117779@N00","secret":"e4f004f3a1","server":"3592","farm":4,"title":"look right","ispublic":1,"isfriend":0,"isfamily":0,"ownername":"stosh26"},{"id":"8336132630","owner":"45580910@N04","secret":"fe86310a1c","server":"8211","farm":9,"title":"Flying runner","ispublic":1,"isfriend":0,"isfamily":0,"ownername":"pckelkins"}]},"stat":"ok"}