{"photos":{"page":1,"pages":94769,"perpage":15,"total":"1421529","photo":[{"id":"6161898804","owner":"22918294@N04","secret":"71218cc6e7","server":"6172","farm":7,"title":"Russia.","ispublic":1,"isfriend":0,"isfamily":0,"ownername":"richard.mcmanus."},{"id":"40055620933","owner":"150636614@N05","secret":"b7a6529d2b","server":"7862","farm":8,"title":"Russia","ispublic":1,"isfriend":0,"isfamily":0,"ownername":"gubanov77"},{"id":"11770667995","owner":"22918294@N04","secret":"11ab99f848","server":"5479","farm":6,"title":"Russia.","ispublic":1,"isfriend":0,"isfamily":0,"ownername":"richard.mcmanus."},{"id":"8719805389","owner":"45495368@N07","secret":"8a57de3bd2","server":"7438","farm":8,"title":"Russia","ispublic":1,"isfriend":0,"isfamily":0,"ownername":"Anton Novoselov"},{"id":"21563750178","owner":"28440678@N03","secret":"d6cd8550c6","server":"771","farm":1,"title":"Russia","ispublic":1,"isfriend":0,"isfamily":0,"ownername":"kizeme"},{"id":"11870991266","owner":"22918294@N04","secret":"b0c7e8bbbe","server":"7340","farm":8,"title":"Russia.","ispublic":1,"isfriend":0,"isfamily":0,"ownername":"richard.mcmanus."},{"id":"25416849194","owner":"28440678@N03","secret":"a1158f5c7d","server":"1463","farm":2,"title":"Russia","ispublic":1,"isfriend":0,"isfamily":0,"ownername":"kizeme"},{"id":"24609514185","owner":"28440678@N03","secret":"7d4e000fcc","server":"1560","farm":2,"title":"Russia","ispublic":1,"isfriend":0,"isfamily":0,"ownername":"kizeme"},{"id":"4835281546","owner":"52837732@N00","secret":"054c4e3db7","server":"4148","farm":5,"title":"Russia","ispublic":1,"isfriend":0,"isfamily":0,"ownername":"Genevg"},{"id":"24754248320","owner":"28440678@N03","secret":"6a4f32293a","server":"1627","farm":2,"title":"Russia","ispublic":1,"isfriend":0,"isfamily":0,"ownername":"kizeme"},{"id":"5388181822","owner":"31912353@N06","secret":"bb3341c1b7","server":"5095","farm":6,"title":"Russia","ispublic":1,"isfriend":0,"isfamily":0,"ownername":"zo_ya"},{"id":"20119042943","owner":"28440678@N03","secret":"734772865d","server":"5787","farm":6,"title":"Russia","ispublic":1,"isfriend":0,"isfamily":0,"ownername":"kizeme"},{"id":"26716247043","owner":"28440678@N03","secret":"98c78a124c","server":"7516","farm":8,"title":"Russia","ispublic":1,"isfriend":0,"isfamily":0,"ownername":"kizeme"},{"id":"5981298813","owner":"40685807@N08","secret":"ceb7bfddb8","server":"6016","farm":7,"title":"Russia","ispublic":1,"isfriend":0,"isfamily":0,"ownername":"Audrey A Jackson"},{"id":"20746781631","owner":"28440678@N03","secret":"a5743418a7","server":"768","farm":1,"title":"Russia","ispublic":1,"isfriend":0,"isfamily":0,"ownername":"kizeme"}]},"stat":"ok"}