{"photos":{"page":1,"pages":3866,"perpage":15,"total":"57990","photo":[{"id":"47400738001","owner":"147017892@N02","secret":"070ec0acdf","server":"7875","farm":8,"title":"rye","ispublic":1,"isfriend":0,"isfamily":0,"ownername":"Anna Grimsey"},{"id":"15105031582","owner":"33794274@N03","secret":"3cbcc9ac23","server":"5573","farm":6,"title":"rye","ispublic":1,"isfriend":0,"isfamily":0,"ownername":"Ann Lindstr\u00f6m"},{"id":"14684326250","owner":"61491636@N03","secret":"d739960429","server":"3918","farm":4,"title":"Rye","ispublic":1,"isfriend":0,"isfamily":0,"ownername":"K. Haagestad"},{"id":"34815705624","owner":"124210351@N05","secret":"a6dee853f1","server":"4237","farm":5,"title":"Rye","ispublic":1,"isfriend":0,"isfamily":0,"ownername":"NoisySquirrel"},{"id":"25614782805","owner":"96117376@N03","secret":"9205bb4651","server":"1629","farm":2,"title":"Rye","ispublic":1,"isfriend":0,"isfamily":0,"ownername":"Mark Dickens"},{"id":"34677509773","owner":"90013175@N00","secret":"f078bcec46","server":"4280","farm":5,"title":"Rye","ispublic":1,"isfriend":0,"isfamily":0,"ownername":"edtenny"},{"id":"5911671309","owner":"27502935@N03","secret":"b3974cb611","server":"6003","farm":7,"title":"Rye","ispublic":1,"isfriend":0,"isfamily":0,"ownername":"jackiesjottings"},{"id":"5911670773","owner":"27502935@N03","secret":"4affcf99f8","server":"5320","farm":6,"title":"Rye","ispublic":1,"isfriend":0,"isfamily":0,"ownername":"jackiesjottings"},{"id":"5912229184","owner":"27502935@N03","secret":"8c5cf3425a","server":"5079","farm":6,"title":"Rye","ispublic":1,"isfriend":0,"isfamily":0,"ownername":"jackiesjottings"},{"id":"9617352990","owner":"99212574@N08","secret":"62d0a3afef","server":"3752","farm":4,"title":"Rye","ispublic":1,"isfriend":0,"isfamily":0,"ownername":"petraostgard"},{"id":"5911670373","owner":"27502935@N03","secret":"7d90378cd7","server":"5159","farm":6,"title":"Rye","ispublic":1,"isfriend":0,"isfamily":0,"ownername":"jackiesjottings"},{"id":"3799453305","owner":"34838729@N06","secret":"612f3b870b","server":"3484","farm":4,"title":"rye","ispublic":1,"isfriend":0,"isfamily":0,"ownername":"eye jay tea"},{"id":"5912226756","owner":"27502935@N03","secret":"2e0d11e731","server":"6039","farm":7,"title":"Rye","ispublic":1,"isfriend":0,"isfamily":0,"ownername":"jackiesjottings"},{"id":"4640055606","owner":"31053663@N07","secret":"3188536060","server":"4053","farm":5,"title":"Rye","ispublic":1,"isfriend":0,"isfamily":0,"ownername":"ManDanBear"},{"id":"4639450035","owner":"31053663@N07","secret":"68fa17f6b4","server":"4042","farm":5,"title":"Rye","ispublic":1,"isfriend":0,"isfamily":0,"ownername":"ManDanBear"}]},"stat":"ok"}