{"photos":{"page":1,"pages":1995,"perpage":15,"total":"29914","photo":[{"id":"4480506085","owner":"75412498@N00","secret":"4039531cd3","server":"2703","farm":3,"title":"Scarlet","ispublic":1,"isfriend":0,"isfamily":0,"ownername":"polly :)"},{"id":"4011430592","owner":"14028823@N02","secret":"ce8c7d1b73","server":"3501","farm":4,"title":"~Scarlet~","ispublic":1,"isfriend":0,"isfamily":0,"ownername":"mikenpo"},{"id":"14600003556","owner":"88683001@N06","secret":"4c86b848c3","server":"2903","farm":3,"title":"Scarlet","ispublic":1,"isfriend":0,"isfamily":0,"ownername":"Arron Strutt"},{"id":"2474454976","owner":"19135291@N00","secret":"74999261ef","server":"2189","farm":3,"title":"Scarlet","ispublic":1,"isfriend":0,"isfamily":0,"ownername":"Pacificat Ragdolls"},{"id":"2441525275","owner":"15165945@N00","secret":"4611dcfa36","server":"3091","farm":4,"title":"Scarlet","ispublic":1,"isfriend":0,"isfamily":0,"ownername":"nyomee wallen"},{"id":"55541392","owner":"36887518@N00","secret":"9c3333133c","server":"32","farm":1,"title":"Scarlet","ispublic":1,"isfriend":0,"isfamily":0,"ownername":"Lida Rose"},{"id":"4073844059","owner":"37990321@N05","secret":"b274d7610c","server":"2629","farm":3,"title":"Scarlet","ispublic":1,"isfriend":0,"isfamily":0,"ownername":"Jbunn2001"},{"id":"14510435448","owner":"36522981@N00","secret":"4ce1e19682","server":"5567","farm":6,"title":"scarlet","ispublic":1,"isfriend":0,"isfamily":0,"ownername":"overthemoon"},{"id":"371684127","owner":"72969606@N00","secret":"796265bfec","server":"173","farm":1,"title":"Scarlet","ispublic":1,"isfriend":0,"isfamily":0,"ownername":"Tortie&Blythe"},{"id":"8514183664","owner":"76593694@N03","secret":"457dae156e","server":"8093","farm":9,"title":"Scarlet","ispublic":1,"isfriend":0,"isfamily":0,"ownername":"Glenda Hall"},{"id":"33162058621","owner":"24182052@N00","secret":"2d650d5b1d","server":"2942","farm":3,"title":"Scarlet","ispublic":1,"isfriend":0,"isfamily":0,"ownername":"isolano."},{"id":"5095016870","owner":"43707459@N07","secret":"b1fa04ab51","server":"4110","farm":5,"title":"Scarlet","ispublic":1,"isfriend":0,"isfamily":0,"ownername":"Suzanne~Graves"},{"id":"44616988130","owner":"149228545@N07","secret":"2c2b8540a2","server":"4808","farm":5,"title":"Scarlet","ispublic":1,"isfriend":0,"isfamily":0,"ownername":"Alise_semantic"},{"id":"454275107","owner":"38146962@N00","secret":"1310cb5adf","server":"171","farm":1,"title":"Scarlet","ispublic":1,"isfriend":0,"isfamily":0,"ownername":"Chor Ip"},{"id":"3713151101","owner":"29692536@N00","secret":"0b78ec27e8","server":"2639","farm":3,"title":"Scarlet","ispublic":1,"isfriend":0,"isfamily":0,"ownername":"Robbie Howell"}]},"stat":"ok"}