{"photos":{"page":1,"pages":162656,"perpage":15,"total":"2439828","photo":[{"id":"2994071064","owner":"24731317@N02","secret":"871d99da9f","server":"3140","farm":4,"title":"school","ispublic":1,"isfriend":0,"isfamily":0,"ownername":"kat-attack"},{"id":"2314841429","owner":"62027995@N00","secret":"64c735fef5","server":"2153","farm":3,"title":"School","ispublic":1,"isfriend":0,"isfamily":0,"ownername":"kezwan"},{"id":"14332034669","owner":"125792637@N03","secret":"55fd84e995","server":"5477","farm":6,"title":"School","ispublic":1,"isfriend":0,"isfamily":0,"ownername":"Mariana V. Ara\u00fajo"},{"id":"3255796377","owner":"35162925@N08","secret":"fe29129aa6","server":"3351","farm":4,"title":"School","ispublic":1,"isfriend":0,"isfamily":0,"ownername":"charlottedoherty91"},{"id":"3944887679","owner":"42802485@N02","secret":"1c83efb3ba","server":"2575","farm":3,"title":"School","ispublic":1,"isfriend":0,"isfamily":0,"ownername":"(dgdraws) Instagram @dongore50"},{"id":"3849987533","owner":"40999618@N05","secret":"81067ee6e9","server":"2553","farm":3,"title":"School","ispublic":1,"isfriend":0,"isfamily":0,"ownername":"CameliaTWU"},{"id":"15093261879","owner":"125943707@N03","secret":"453672e78a","server":"5584","farm":6,"title":"#school","ispublic":1,"isfriend":0,"isfamily":0,"ownername":"ainomirtti"},{"id":"16139457077","owner":"21692577@N02","secret":"8ff4aaac20","server":"7475","farm":8,"title":"School","ispublic":1,"isfriend":0,"isfamily":0,"ownername":"Danny VB"},{"id":"3079331805","owner":"33021784@N04","secret":"6e46c6b86d","server":"3011","farm":4,"title":"School","ispublic":1,"isfriend":0,"isfamily":0,"ownername":"Paradox 56"},{"id":"9557596228","owner":"91753462@N07","secret":"fa8f68188c","server":"7405","farm":8,"title":"school","ispublic":1,"isfriend":0,"isfamily":0,"ownername":"decipherment"},{"id":"14960939906","owner":"38242913@N00","secret":"a4ff90e8c8","server":"3890","farm":4,"title":"School","ispublic":1,"isfriend":0,"isfamily":0,"ownername":"Paris Breakfast"},{"id":"14983941045","owner":"38242913@N00","secret":"89264b12d4","server":"5567","farm":6,"title":"School","ispublic":1,"isfriend":0,"isfamily":0,"ownername":"Paris Breakfast"},{"id":"31986572664","owner":"151958969@N03","secret":"e2004cc29f","server":"2690","farm":3,"title":"#School","ispublic":1,"isfriend":0,"isfamily":0,"ownername":"Mariana Chowell"},{"id":"409244205","owner":"66304423@N00","secret":"360f01cfd3","server":"158","farm":1,"title":"School","ispublic":1,"isfriend":0,"isfamily":0,"ownername":"Char.Q"},{"id":"2451264036","owner":"26135417@N06","secret":"eccc50e07d","server":"3030","farm":4,"title":"school","ispublic":1,"isfriend":0,"isfamily":0,"ownername":"\u96f2\u540c\u6770"}]},"stat":"ok"}