{"photos":{"page":1,"pages":304806,"perpage":15,"total":"4572081","photo":[{"id":"7070116175","owner":"36587311@N08","secret":"b8d20eae92","server":"5191","farm":6,"title":"sea","ispublic":1,"isfriend":0,"isfamily":0,"ownername":"\u25baCubaGallery"},{"id":"5775150179","owner":"36587311@N08","secret":"483532d814","server":"5066","farm":6,"title":"sea","ispublic":1,"isfriend":0,"isfamily":0,"ownername":"\u25baCubaGallery"},{"id":"7056525387","owner":"36587311@N08","secret":"4d596d9008","server":"5319","farm":6,"title":"sea","ispublic":1,"isfriend":0,"isfamily":0,"ownername":"\u25baCubaGallery"},{"id":"4308150757","owner":"36587311@N08","secret":"aaca14b028","server":"4018","farm":5,"title":"sea","ispublic":1,"isfriend":0,"isfamily":0,"ownername":"\u25baCubaGallery"},{"id":"5847874716","owner":"36587311@N08","secret":"461a272715","server":"5184","farm":6,"title":"sea","ispublic":1,"isfriend":0,"isfamily":0,"ownername":"\u25baCubaGallery"},{"id":"5362604713","owner":"36587311@N08","secret":"57d8ab635d","server":"5167","farm":6,"title":"sea","ispublic":1,"isfriend":0,"isfamily":0,"ownername":"\u25baCubaGallery"},{"id":"5169045248","owner":"36587311@N08","secret":"4e7793d0ea","server":"4129","farm":5,"title":"sea","ispublic":1,"isfriend":0,"isfamily":0,"ownername":"\u25baCubaGallery"},{"id":"4281054814","owner":"36587311@N08","secret":"bb8e71c817","server":"4036","farm":5,"title":"sea","ispublic":1,"isfriend":0,"isfamily":0,"ownername":"\u25baCubaGallery"},{"id":"14703137326","owner":"73422502@N08","secret":"6ccc7fd74c","server":"5579","farm":6,"title":"Sea","ispublic":1,"isfriend":0,"isfamily":0,"ownername":"Zeeyolq Photography"},{"id":"5409475201","owner":"36587311@N08","secret":"fa4933d193","server":"4143","farm":5,"title":"sea","ispublic":1,"isfriend":0,"isfamily":0,"ownername":"\u25baCubaGallery"},{"id":"6547995559","owner":"36587311@N08","secret":"b3907646e9","server":"7160","farm":8,"title":"sea","ispublic":1,"isfriend":0,"isfamily":0,"ownername":"\u25baCubaGallery"},{"id":"5236981841","owner":"36587311@N08","secret":"b52b54ffde","server":"5249","farm":6,"title":"sea","ispublic":1,"isfriend":0,"isfamily":0,"ownername":"\u25baCubaGallery"},{"id":"5351028945","owner":"36587311@N08","secret":"224d3b611a","server":"5244","farm":6,"title":"sea","ispublic":1,"isfriend":0,"isfamily":0,"ownername":"\u25baCubaGallery"},{"id":"14499517289","owner":"73422502@N08","secret":"ab6723c4f1","server":"3836","farm":4,"title":"Sea","ispublic":1,"isfriend":0,"isfamily":0,"ownername":"Zeeyolq Photography"},{"id":"10096627625","owner":"36587311@N08","secret":"0482e12ba5","server":"5534","farm":6,"title":"sea","ispublic":1,"isfriend":0,"isfamily":0,"ownername":"\u25baCubaGallery"}]},"stat":"ok"}