{"photos":{"page":1,"pages":5482,"perpage":15,"total":"82225","photo":[{"id":"7338874212","owner":"30493186@N03","secret":"b42eea6482","server":"8157","farm":9,"title":"shack \/ cabin","ispublic":1,"isfriend":0,"isfamily":0,"ownername":"d o l f i"},{"id":"14099066435","owner":"75184456@N04","secret":"c008c35ab8","server":"7339","farm":8,"title":"SHACK UP ~","ispublic":1,"isfriend":0,"isfamily":0,"ownername":"Shein Die"},{"id":"16169785816","owner":"30493186@N03","secret":"7b3ba5bae1","server":"7579","farm":8,"title":"Shack","ispublic":1,"isfriend":0,"isfamily":0,"ownername":"d o l f i"},{"id":"22661430688","owner":"132689743@N03","secret":"5dda8a7cec","server":"656","farm":1,"title":"The Shack","ispublic":1,"isfriend":0,"isfamily":0,"ownername":"Main & Cross"},{"id":"3222515590","owner":"13547802@N05","secret":"b529b979bc","server":"3480","farm":4,"title":"Rusty Old Shack","ispublic":1,"isfriend":0,"isfamily":0,"ownername":"orvaratli"},{"id":"21167660022","owner":"58965306@N05","secret":"8e96bec0f6","server":"5767","farm":6,"title":"Swamplands-Shack","ispublic":1,"isfriend":0,"isfamily":0,"ownername":"Aimless Clickery"},{"id":"352854747","owner":"59514628@N00","secret":"122fca2086","server":"131","farm":1,"title":"Snow shack","ispublic":1,"isfriend":0,"isfamily":0,"ownername":"James Neeley"},{"id":"17320812891","owner":"76941450@N02","secret":"b79a570041","server":"7707","farm":8,"title":"Driftwood shack","ispublic":1,"isfriend":0,"isfamily":0,"ownername":"Bent Velling"},{"id":"15106984305","owner":"12836528@N00","secret":"dd4bc4c598","server":"5590","farm":6,"title":"Google Street View - Pan-American Trek - Fireworks shack","ispublic":1,"isfriend":0,"isfamily":0,"ownername":"kevin dooley"},{"id":"9817489014","owner":"30493186@N03","secret":"0347644854","server":"7451","farm":8,"title":"Shack","ispublic":1,"isfriend":0,"isfamily":0,"ownername":"d o l f i"},{"id":"14787095627","owner":"30493186@N03","secret":"ce5cdd66ae","server":"3863","farm":4,"title":"Shack","ispublic":1,"isfriend":0,"isfamily":0,"ownername":"d o l f i"},{"id":"21293245482","owner":"30493186@N03","secret":"e3ab0a326b","server":"5720","farm":6,"title":"Shack","ispublic":1,"isfriend":0,"isfamily":0,"ownername":"d o l f i"},{"id":"396159003","owner":"68334885@N00","secret":"c3e7fcddea","server":"185","farm":1,"title":"shack","ispublic":1,"isfriend":0,"isfamily":0,"ownername":"~Tina Louise~"},{"id":"6140891781","owner":"10359714@N03","secret":"b2db2dd4ff","server":"6154","farm":7,"title":"Yermo Shack","ispublic":1,"isfriend":0,"isfamily":0,"ownername":"Noel Kerns"},{"id":"8391855976","owner":"21743740@N03","secret":"cde121de54","server":"8356","farm":9,"title":"Shack","ispublic":1,"isfriend":0,"isfamily":0,"ownername":"shottwokill"}]},"stat":"ok"}