{"photos":{"page":1,"pages":7349,"perpage":15,"total":"110226","photo":[{"id":"4176504914","owner":"37369621@N00","secret":"1845216c56","server":"2666","farm":3,"title":"shakespeare","ispublic":1,"isfriend":0,"isfamily":0,"ownername":"Kris Kros"},{"id":"4399455196","owner":"7972462@N02","secret":"143990874b","server":"2757","farm":3,"title":"Shakespeare","ispublic":1,"isfriend":0,"isfamily":0,"ownername":"MEDIODESCOCIDO"},{"id":"14622561836","owner":"7182087@N07","secret":"fb007ea1c9","server":"3907","farm":4,"title":"#shakespeare","ispublic":1,"isfriend":0,"isfamily":0,"ownername":"Hasan Tayyar BE\u015e\u0130K"},{"id":"7783446484","owner":"54986553@N05","secret":"11c75be839","server":"7129","farm":8,"title":"Shakespeare","ispublic":1,"isfriend":0,"isfamily":0,"ownername":"The Real FROG"},{"id":"14788185721","owner":"126432641@N05","secret":"396f6841f3","server":"3919","farm":4,"title":"Shakespeare","ispublic":1,"isfriend":0,"isfamily":0,"ownername":"anne_s5"},{"id":"3211616890","owner":"34541023@N03","secret":"f94356abe6","server":"3465","farm":4,"title":"Shakespeare","ispublic":1,"isfriend":0,"isfamily":0,"ownername":"joewcampbell"},{"id":"4694050846","owner":"13242172@N04","secret":"5faeb9ce0e","server":"4028","farm":5,"title":"Shakespeare","ispublic":1,"isfriend":0,"isfamily":0,"ownername":"njj4"},{"id":"42237369112","owner":"34427470616@N01","secret":"11667ea7b4","server":"889","farm":1,"title":"Shakespeare","ispublic":1,"isfriend":0,"isfamily":0,"ownername":"duncan"},{"id":"470053977","owner":"80782163@N00","secret":"0ec0275e90","server":"230","farm":1,"title":"Shakespeare","ispublic":1,"isfriend":0,"isfamily":0,"ownername":"erinbellavia27"},{"id":"8151168956","owner":"89042615@N04","secret":"7738446c87","server":"7270","farm":8,"title":"Shakespeare","ispublic":1,"isfriend":0,"isfamily":0,"ownername":"Pikakoko"},{"id":"1348949850","owner":"11180225@N03","secret":"0a50aecff5","server":"1226","farm":2,"title":"SHAKESPEARE & co","ispublic":1,"isfriend":0,"isfamily":0,"ownername":"giovdim"},{"id":"28352645546","owner":"29835831@N02","secret":"c690f1747a","server":"7581","farm":8,"title":"Shakespeare","ispublic":1,"isfriend":0,"isfamily":0,"ownername":"3OPAHA"},{"id":"26056753","owner":"28955251@N00","secret":"05b061dee4","server":"22","farm":1,"title":"Shakespeare","ispublic":1,"isfriend":0,"isfamily":0,"ownername":"Allisona"},{"id":"420905351","owner":"35804257@N00","secret":"287c1b0ed0","server":"132","farm":1,"title":"Shakespeare","ispublic":1,"isfriend":0,"isfamily":0,"ownername":"Craiggerm"},{"id":"3526490060","owner":"25127681@N05","secret":"9054335ef1","server":"3619","farm":4,"title":"shakespeare","ispublic":1,"isfriend":0,"isfamily":0,"ownername":"jaysimons"}]},"stat":"ok"}