{"photos":{"page":1,"pages":19641,"perpage":15,"total":"294606","photo":[{"id":"4021220439","owner":"25154279@N06","secret":"da7394514e","server":"3507","farm":4,"title":"sheep","ispublic":1,"isfriend":0,"isfamily":0,"ownername":"suzie-anne"},{"id":"14147447209","owner":"117611583@N07","secret":"2b6c935687","server":"3856","farm":4,"title":"Sheep","ispublic":1,"isfriend":0,"isfamily":0,"ownername":"dew drop157"},{"id":"2384355305","owner":"24542061@N07","secret":"7c1ff9702d","server":"2158","farm":3,"title":"Sheep","ispublic":1,"isfriend":0,"isfamily":0,"ownername":"mattbroomer2000"},{"id":"33271230041","owner":"25402137@N05","secret":"a802ed47eb","server":"3819","farm":4,"title":"Sheep","ispublic":1,"isfriend":0,"isfamily":0,"ownername":"Shastajak"},{"id":"5721508094","owner":"27741123@N05","secret":"4c6a7ab6b8","server":"3590","farm":4,"title":"sheep","ispublic":1,"isfriend":0,"isfamily":0,"ownername":"jan bijker"},{"id":"3279031617","owner":"30230615@N07","secret":"9a6b7fd7ea","server":"3434","farm":4,"title":"Sheep","ispublic":1,"isfriend":0,"isfamily":0,"ownername":"chippy1920"},{"id":"3060552560","owner":"80849230@N00","secret":"7d6e42e159","server":"3162","farm":4,"title":"Sheep","ispublic":1,"isfriend":0,"isfamily":0,"ownername":"ASPatrick"},{"id":"2148876547","owner":"97132437@N00","secret":"005c1057cb","server":"2048","farm":3,"title":"Sheep","ispublic":1,"isfriend":0,"isfamily":0,"ownername":"classic vehicles"},{"id":"2148862163","owner":"97132437@N00","secret":"47971cdefe","server":"2103","farm":3,"title":"Sheep","ispublic":1,"isfriend":0,"isfamily":0,"ownername":"classic vehicles"},{"id":"8723065411","owner":"54230143@N08","secret":"d7294da65b","server":"7283","farm":8,"title":"Sheep.","ispublic":1,"isfriend":0,"isfamily":0,"ownername":"markranger"},{"id":"16324732537","owner":"30328544@N03","secret":"f16bfe1a9d","server":"7354","farm":8,"title":"Sheep","ispublic":1,"isfriend":0,"isfamily":0,"ownername":"Jason Connolly"},{"id":"10069418025","owner":"56886766@N08","secret":"8ccb8d43de","server":"7350","farm":8,"title":"Sheep","ispublic":1,"isfriend":0,"isfamily":0,"ownername":"Buckles Photos"},{"id":"4992118612","owner":"53939618@N03","secret":"b722fc7263","server":"4149","farm":5,"title":"Sheep.","ispublic":1,"isfriend":0,"isfamily":0,"ownername":"Josh Thomas."},{"id":"116975436","owner":"38505798@N00","secret":"48de18287d","server":"39","farm":1,"title":"sheep","ispublic":1,"isfriend":0,"isfamily":0,"ownername":"Vincent0923"},{"id":"15147804867","owner":"77368509@N04","secret":"3fb65c33b3","server":"2942","farm":3,"title":"sheeps","ispublic":1,"isfriend":0,"isfamily":0,"ownername":"radvydas"}]},"stat":"ok"}