{"photos":{"page":1,"pages":30982,"perpage":15,"total":"464718","photo":[{"id":"4599267735","owner":"29780691@N06","secret":"088d71ac63","server":"4069","farm":5,"title":"shoes","ispublic":1,"isfriend":0,"isfamily":0,"ownername":"barry_g_m"},{"id":"6538470797","owner":"72443365@N06","secret":"ef883c77ea","server":"7007","farm":8,"title":"shoes","ispublic":1,"isfriend":0,"isfamily":0,"ownername":"kscook1"},{"id":"3330160405","owner":"12602352@N06","secret":"a5e50953e2","server":"3542","farm":4,"title":"Shoes!","ispublic":1,"isfriend":0,"isfamily":0,"ownername":"Sunflowerhorn"},{"id":"5992328108","owner":"94213609@N00","secret":"179b6fa204","server":"6023","farm":7,"title":"shoes","ispublic":1,"isfriend":0,"isfamily":0,"ownername":"Rachel Tapley"},{"id":"7849932908","owner":"81483578@N05","secret":"9dde090fd6","server":"8307","farm":9,"title":"Shoes","ispublic":1,"isfriend":0,"isfamily":0,"ownername":"YellowBecky"},{"id":"6669571221","owner":"74039524@N08","secret":"397975df9e","server":"7168","farm":8,"title":"Dirty Shoes","ispublic":1,"isfriend":0,"isfamily":0,"ownername":"Best Clean Shoes"},{"id":"6248776852","owner":"68766709@N08","secret":"4377fbf37d","server":"6228","farm":7,"title":"Shoes","ispublic":1,"isfriend":0,"isfamily":0,"ownername":"YadavThyagaraj"},{"id":"7575011704","owner":"35783194@N05","secret":"cd555e6157","server":"8148","farm":9,"title":"shoes","ispublic":1,"isfriend":0,"isfamily":0,"ownername":"some of rebecca's photos"},{"id":"254521933","owner":"83332636@N00","secret":"6a22085dbc","server":"97","farm":1,"title":"shoes","ispublic":1,"isfriend":0,"isfamily":0,"ownername":"Mafafa Musguito"},{"id":"6036427744","owner":"66310217@N07","secret":"05f710f865","server":"6072","farm":7,"title":"Shoes","ispublic":1,"isfriend":0,"isfamily":0,"ownername":"Itty Bitty Bella Baby Boutique"},{"id":"3067475725","owner":"32561659@N08","secret":"d151c6735a","server":"3181","farm":4,"title":"shoes","ispublic":1,"isfriend":0,"isfamily":0,"ownername":"by Janine"},{"id":"9493653612","owner":"98794605@N03","secret":"7ca6c73a83","server":"7338","farm":8,"title":"Shoes","ispublic":1,"isfriend":0,"isfamily":0,"ownername":"Leopold.Terence"},{"id":"4430617435","owner":"31805036@N00","secret":"6a35e26f83","server":"4014","farm":5,"title":"shoes","ispublic":1,"isfriend":0,"isfamily":0,"ownername":"strangeasanjles"},{"id":"8017107823","owner":"21708545@N06","secret":"0e7a48b4d2","server":"8033","farm":9,"title":"Shoes","ispublic":1,"isfriend":0,"isfamily":0,"ownername":"elizabeth's*whimsies"},{"id":"2478420533","owner":"17216347@N00","secret":"a085403f7b","server":"2246","farm":3,"title":"Shoes","ispublic":1,"isfriend":0,"isfamily":0,"ownername":"cw3283"}]},"stat":"ok"}