{"photos":{"page":1,"pages":17853,"perpage":15,"total":"267789","photo":[{"id":"8489534426","owner":"80204529@N04","secret":"5aca1fdd81","server":"8098","farm":9,"title":"Shooting","ispublic":1,"isfriend":0,"isfamily":0,"ownername":"MORGANOMANIA"},{"id":"4575137659","owner":"21440079@N06","secret":"7729c66a78","server":"4042","farm":5,"title":"shooting","ispublic":1,"isfriend":0,"isfamily":0,"ownername":"hrishikeshpanvel"},{"id":"5303969852","owner":"42308233@N08","secret":"c039c0dc21","server":"5085","farm":6,"title":"Shooting","ispublic":1,"isfriend":0,"isfamily":0,"ownername":"callum16"},{"id":"33868831053","owner":"141095501@N07","secret":"0632e7b52d","server":"4163","farm":5,"title":"#Shooting \u2661","ispublic":1,"isfriend":0,"isfamily":0,"ownername":"virginiebesneux"},{"id":"8689987188","owner":"65394650@N08","secret":"462fa22cfe","server":"7052","farm":8,"title":"Shooting","ispublic":1,"isfriend":0,"isfamily":0,"ownername":"Cheong2011"},{"id":"15136147427","owner":"58889385@N04","secret":"d6c36f7327","server":"3905","farm":4,"title":"Shooting...","ispublic":1,"isfriend":0,"isfamily":0,"ownername":"https:\/\/lucasantorophotography.com"},{"id":"14380910313","owner":"46385378@N08","secret":"4f9dd875d5","server":"2935","farm":3,"title":"shooting","ispublic":1,"isfriend":0,"isfamily":0,"ownername":"Studio IMMAGINI di Marco PUGLIESE"},{"id":"2168212189","owner":"15435129@N07","secret":"e23477dbbc","server":"2419","farm":3,"title":"shooting","ispublic":1,"isfriend":0,"isfamily":0,"ownername":"perivleptos"},{"id":"14380910233","owner":"46385378@N08","secret":"031fe46581","server":"3849","farm":4,"title":"shooting","ispublic":1,"isfriend":0,"isfamily":0,"ownername":"Studio IMMAGINI di Marco PUGLIESE"},{"id":"8184787064","owner":"50132554@N07","secret":"89c5653b41","server":"8348","farm":9,"title":"Shooting","ispublic":1,"isfriend":0,"isfamily":0,"ownername":"captaincaverne"},{"id":"5465407294","owner":"34377918@N06","secret":"a9792d88d4","server":"5017","farm":6,"title":"Shooting","ispublic":1,"isfriend":0,"isfamily":0,"ownername":"Kel :3"},{"id":"2401484881","owner":"25486029@N05","secret":"7329bf98ae","server":"3127","farm":4,"title":"shooting","ispublic":1,"isfriend":0,"isfamily":0,"ownername":"sayakaXXX"},{"id":"16385712519","owner":"129536436@N08","secret":"9373c6fba6","server":"8586","farm":9,"title":"shooting","ispublic":1,"isfriend":0,"isfamily":0,"ownername":"Danna Paola Sitio"},{"id":"8012871448","owner":"54604461@N08","secret":"c68d6ea380","server":"8308","farm":9,"title":"Shooting","ispublic":1,"isfriend":0,"isfamily":0,"ownername":"mayfay1"},{"id":"8462994341","owner":"46385378@N08","secret":"d0ce21528e","server":"8377","farm":9,"title":"Shooting","ispublic":1,"isfriend":0,"isfamily":0,"ownername":"Studio IMMAGINI di Marco PUGLIESE"}]},"stat":"ok"}