{"photos":{"page":1,"pages":56716,"perpage":15,"total":"850734","photo":[{"id":"15161705625","owner":"28726735@N08","secret":"66b34dabe5","server":"5556","farm":6,"title":"shoot anything fence","ispublic":1,"isfriend":0,"isfamily":0,"ownername":"auntneecey"},{"id":"9900058496","owner":"36179172@N02","secret":"63f15a0cde","server":"5446","farm":6,"title":"Shooting Fashion","ispublic":1,"isfriend":0,"isfamily":0,"ownername":"Bong Tongol Photography 'Explore' Life!"},{"id":"6868297256","owner":"68562669@N06","secret":"b4289d8055","server":"6055","farm":7,"title":"Shoot the Shooter","ispublic":1,"isfriend":0,"isfamily":0,"ownername":"Ken Came"},{"id":"15001890503","owner":"42062795@N03","secret":"68bff9c45d","server":"5605","farm":6,"title":"Imogen's first shoot","ispublic":1,"isfriend":0,"isfamily":0,"ownername":"unexpectedtales"},{"id":"6485620199","owner":"33000705@N02","secret":"b549af293f","server":"7010","farm":8,"title":"Shooting the fire in the sky","ispublic":1,"isfriend":0,"isfamily":0,"ownername":"Colin_Bates"},{"id":"2519511617","owner":"82798194@N00","secret":"bc7400607f","server":"3260","farm":4,"title":"Shoot from the Hip!","ispublic":1,"isfriend":0,"isfamily":0,"ownername":"Greg Cee"},{"id":"5217579086","owner":"45009789@N08","secret":"93223706d4","server":"4091","farm":5,"title":"Shoot !","ispublic":1,"isfriend":0,"isfamily":0,"ownername":"Jerry2000_be (@ hotmail.com)"},{"id":"3768498938","owner":"52821721@N00","secret":"2b3775d99f","server":"3434","farm":4,"title":"Point & Shoot Strobist","ispublic":1,"isfriend":0,"isfamily":0,"ownername":"isayx3"},{"id":"8692358229","owner":"92697490@N08","secret":"94645fc588","server":"8396","farm":9,"title":"photo shooting","ispublic":1,"isfriend":0,"isfamily":0,"ownername":"kerstin_meyer"},{"id":"7558965346","owner":"45821961@N08","secret":"a3fbca7617","server":"7113","farm":8,"title":"shoot 1123","ispublic":1,"isfriend":0,"isfamily":0,"ownername":"cb good"},{"id":"7547253160","owner":"45821961@N08","secret":"5e1f65571a","server":"7274","farm":8,"title":"shoot 822","ispublic":1,"isfriend":0,"isfamily":0,"ownername":"cb good"},{"id":"14511693466","owner":"40499097@N05","secret":"8fc8bf8b12","server":"2908","farm":3,"title":"I Shoot Therefore I Am - Art Gallery XT0665e","ispublic":1,"isfriend":0,"isfamily":0,"ownername":"Harris Hui (in search of light)"},{"id":"3715650678","owner":"21644167@N04","secret":"5e0938928e","server":"3534","farm":4,"title":"natural light portrait - NYC Shoot: Alex Young - Alex-IMG_4425","ispublic":1,"isfriend":0,"isfamily":0,"ownername":"Bahman Farzad"},{"id":"5829875886","owner":"27942212@N00","secret":"c80647fac5","server":"2479","farm":3,"title":"Band shoot","ispublic":1,"isfriend":0,"isfamily":0,"ownername":"Joep R."},{"id":"10875803406","owner":"38400107@N04","secret":"bc170d2885","server":"3690","farm":4,"title":"Myzeil Shoot","ispublic":1,"isfriend":0,"isfamily":0,"ownername":"Vicco Gallo"}]},"stat":"ok"}