{"photos":{"page":1,"pages":37901,"perpage":15,"total":"568508","photo":[{"id":"4361297705","owner":"36587311@N08","secret":"3b0b7e0754","server":"2715","farm":3,"title":"shop","ispublic":1,"isfriend":0,"isfamily":0,"ownername":"\u25baCubaGallery"},{"id":"21539887158","owner":"73422502@N08","secret":"069f0e2c15","server":"759","farm":1,"title":"Shop","ispublic":1,"isfriend":0,"isfamily":0,"ownername":"Zeeyolq Photography"},{"id":"6077633884","owner":"15164743@N05","secret":"7751f7b713","server":"6065","farm":7,"title":"Shop","ispublic":1,"isfriend":0,"isfamily":0,"ownername":"zolakoma"},{"id":"39689457473","owner":"107498869@N08","secret":"017d9b1768","server":"7843","farm":8,"title":"shop","ispublic":1,"isfriend":0,"isfamily":0,"ownername":"gvlachos"},{"id":"4160632046","owner":"75186244@N00","secret":"58b6fdb9bc","server":"2777","farm":3,"title":"Wool shop","ispublic":1,"isfriend":0,"isfamily":0,"ownername":"Roya Zamiri"},{"id":"5378478786","owner":"99352947@N00","secret":"986d6aa75d","server":"5285","farm":6,"title":"smoke shop","ispublic":1,"isfriend":0,"isfamily":0,"ownername":"Sunnyvaledave"},{"id":"46311936194","owner":"50939860@N00","secret":"63884636f6","server":"7883","farm":8,"title":"Shopping","ispublic":1,"isfriend":0,"isfamily":0,"ownername":"Claire Fun"},{"id":"5864501806","owner":"18651845@N00","secret":"1b7524dbd3","server":"5111","farm":6,"title":"Shop","ispublic":1,"isfriend":0,"isfamily":0,"ownername":"katsommers"},{"id":"5046133357","owner":"36587311@N08","secret":"76e12cfb11","server":"4111","farm":5,"title":"shop","ispublic":1,"isfriend":0,"isfamily":0,"ownername":"\u25baCubaGallery"},{"id":"2201971238","owner":"21692577@N02","secret":"5ec36de1d7","server":"2357","farm":3,"title":"Shop","ispublic":1,"isfriend":0,"isfamily":0,"ownername":"Danny VB"},{"id":"25935217620","owner":"44958735@N08","secret":"4a9efa906c","server":"1538","farm":2,"title":"#shop","ispublic":1,"isfriend":0,"isfamily":0,"ownername":"Renzo_67"},{"id":"6889246596","owner":"32227035@N00","secret":"e5fff5852e","server":"7220","farm":8,"title":"Shop","ispublic":1,"isfriend":0,"isfamily":0,"ownername":"Christo_Mck"},{"id":"5204324825","owner":"56161262@N02","secret":"ddf65c8ae6","server":"5169","farm":6,"title":"Shops","ispublic":1,"isfriend":0,"isfamily":0,"ownername":"Madsheep2010"},{"id":"6225105714","owner":"64038025@N05","secret":"9b1c63d55c","server":"6049","farm":7,"title":"shop","ispublic":1,"isfriend":0,"isfamily":0,"ownername":"semccoy21"},{"id":"3375835932","owner":"35794635@N08","secret":"8b1ea831a6","server":"3475","farm":4,"title":"Shop","ispublic":1,"isfriend":0,"isfamily":0,"ownername":"Mo777fav"}]},"stat":"ok"}