{"photos":{"page":1,"pages":6151,"perpage":15,"total":"92260","photo":[{"id":"35330794412","owner":"131748936@N05","secret":"bddbc04603","server":"4262","farm":5,"title":"Against the light","ispublic":1,"isfriend":0,"isfamily":0,"ownername":"Peter Hungerford"},{"id":"16281316192","owner":"84161520@N00","secret":"3263c906b1","server":"8585","farm":9,"title":"shutter-eye","ispublic":1,"isfriend":0,"isfamily":0,"ownername":"one_man's_life"},{"id":"249204771","owner":"48098353@N00","secret":"fd82908363","server":"81","farm":1,"title":"Shutter","ispublic":1,"isfriend":0,"isfamily":0,"ownername":"Cinencuentro"},{"id":"2451511336","owner":"73376053@N00","secret":"c2a8a12c62","server":"3021","farm":4,"title":"Shutter","ispublic":1,"isfriend":0,"isfamily":0,"ownername":"colleenbaptista"},{"id":"4546240571","owner":"48948020@N08","secret":"464e32b9f4","server":"4057","farm":5,"title":"Shutter","ispublic":1,"isfriend":0,"isfamily":0,"ownername":"XSOF"},{"id":"3620035420","owner":"48488208@N00","secret":"3f8506239d","server":"3375","farm":4,"title":"shutter","ispublic":1,"isfriend":0,"isfamily":0,"ownername":"the-father"},{"id":"37754379116","owner":"152224654@N04","secret":"022bca36fe","server":"4454","farm":5,"title":"shutter","ispublic":1,"isfriend":0,"isfamily":0,"ownername":"frenchvalve"},{"id":"12345104055","owner":"44521523@N00","secret":"7e6eb87c5e","server":"7428","farm":8,"title":"shutter","ispublic":1,"isfriend":0,"isfamily":0,"ownername":"leonghong_loo"},{"id":"39794757784","owner":"155007253@N07","secret":"48e93e4810","server":"4668","farm":5,"title":"#shutter","ispublic":1,"isfriend":0,"isfamily":0,"ownername":"derekrowe1"},{"id":"249208936","owner":"48098353@N00","secret":"c600913492","server":"91","farm":1,"title":"Shutter","ispublic":1,"isfriend":0,"isfamily":0,"ownername":"Cinencuentro"},{"id":"8621261737","owner":"22411199@N06","secret":"1e89b7fd62","server":"8530","farm":9,"title":"shutter","ispublic":1,"isfriend":0,"isfamily":0,"ownername":"a.dalshe"},{"id":"5937148383","owner":"65223300@N04","secret":"27b8cb7ec9","server":"6023","farm":7,"title":"shutter","ispublic":1,"isfriend":0,"isfamily":0,"ownername":"SUZUKO di Ferrara"},{"id":"3782904037","owner":"41083820@N06","secret":"27b01f950d","server":"3428","farm":4,"title":"shutter","ispublic":1,"isfriend":0,"isfamily":0,"ownername":"gohgun"},{"id":"6502708665","owner":"60268072@N08","secret":"3d4c10603f","server":"7168","farm":8,"title":"A single breaker may recede; but the tide is evidently coming in ~Thomas B. Macaulay","ispublic":1,"isfriend":0,"isfamily":0,"ownername":"Chez C - nice to be back :)"},{"id":"16105546989","owner":"97464216@N00","secret":"b2eb82f4c1","server":"8641","farm":9,"title":"Galvanised Shutter","ispublic":1,"isfriend":0,"isfamily":0,"ownername":"only lines"}]},"stat":"ok"}