{"photos":{"page":1,"pages":4386,"perpage":15,"total":"65783","photo":[{"id":"16559090645","owner":"57146460@N07","secret":"27e58ec7eb","server":"8609","farm":9,"title":"silence","ispublic":1,"isfriend":0,"isfamily":0,"ownername":"marco.riminucci"},{"id":"8217230165","owner":"23583121@N00","secret":"395518bc08","server":"8338","farm":9,"title":"Silence","ispublic":1,"isfriend":0,"isfamily":0,"ownername":"requiemm"},{"id":"26291585818","owner":"91619997@N04","secret":"7b1f63d1ab","server":"4659","farm":5,"title":"Silence","ispublic":1,"isfriend":0,"isfamily":0,"ownername":"De Rode Olifant"},{"id":"11970271414","owner":"44912907@N05","secret":"a373c10d5b","server":"3827","farm":4,"title":"Silence","ispublic":1,"isfriend":0,"isfamily":0,"ownername":"Sunsword & Moonsabre"},{"id":"24493183688","owner":"50654575@N03","secret":"7d42b725ef","server":"4517","farm":5,"title":"SILENCE","ispublic":1,"isfriend":0,"isfamily":0,"ownername":"StockCarPete"},{"id":"11358458224","owner":"97410951@N06","secret":"c255eba3a3","server":"5496","farm":6,"title":"Silence","ispublic":1,"isfriend":0,"isfamily":0,"ownername":"Alexander Ponick"},{"id":"16023369974","owner":"71300943@N03","secret":"725e14e6ea","server":"8577","farm":9,"title":"Silence","ispublic":1,"isfriend":0,"isfamily":0,"ownername":"R\u00fcdigerF"},{"id":"32612681","owner":"14773095@N00","secret":"1edb5f896f","server":"21","farm":1,"title":"silence","ispublic":1,"isfriend":0,"isfamily":0,"ownername":"soft_star"},{"id":"6557994649","owner":"36257861@N08","secret":"4dec47597e","server":"7154","farm":8,"title":"Silence","ispublic":1,"isfriend":0,"isfamily":0,"ownername":"L-A-U-R-A \u266a\u266b"},{"id":"2650582854","owner":"99889279@N00","secret":"3c7bb39084","server":"3283","farm":4,"title":"silence","ispublic":1,"isfriend":0,"isfamily":0,"ownername":"M.*"},{"id":"6001939973","owner":"38354750@N05","secret":"6aa1cce8f5","server":"6023","farm":7,"title":"Silence","ispublic":1,"isfriend":0,"isfamily":0,"ownername":"kani polat"},{"id":"13568261595","owner":"92803345@N00","secret":"c5660f3555","server":"7007","farm":8,"title":"Silence","ispublic":1,"isfriend":0,"isfamily":0,"ownername":"Carlo Columba"},{"id":"42240962115","owner":"164906957@N06","secret":"f48db19468","server":"836","farm":1,"title":"#silence","ispublic":1,"isfriend":0,"isfamily":0,"ownername":"minhazhossainmusa"},{"id":"4636522155","owner":"15435847@N04","secret":"0ff4a1c2e5","server":"3351","farm":4,"title":"Silence","ispublic":1,"isfriend":0,"isfamily":0,"ownername":"eye vomitski!!"},{"id":"4871210994","owner":"25679283@N04","secret":"b0faaf3af5","server":"4095","farm":5,"title":"silence","ispublic":1,"isfriend":0,"isfamily":0,"ownername":"ganletters"}]},"stat":"ok"}