{"photos":{"page":1,"pages":3089,"perpage":15,"total":"46326","photo":[{"id":"46186188861","owner":"116832424@N04","secret":"6e136fdf89","server":"4887","farm":5,"title":"Sink","ispublic":1,"isfriend":0,"isfamily":0,"ownername":"johanw8um"},{"id":"14449265159","owner":"124193358@N02","secret":"143bd01551","server":"2913","farm":3,"title":"#sink","ispublic":1,"isfriend":0,"isfamily":0,"ownername":"raskolmihin"},{"id":"140300099","owner":"56058793@N00","secret":"a89c114fea","server":"51","farm":1,"title":"sink","ispublic":1,"isfriend":0,"isfamily":0,"ownername":"snapfocus"},{"id":"7113445487","owner":"59701212@N05","secret":"cedb03f6e5","server":"8162","farm":9,"title":"Sink.","ispublic":1,"isfriend":0,"isfamily":0,"ownername":"oribonks"},{"id":"4142058832","owner":"11161285@N00","secret":"314bf7b4a4","server":"2698","farm":3,"title":"Sink","ispublic":1,"isfriend":0,"isfamily":0,"ownername":"mikecreighton"},{"id":"4772829075","owner":"49882498@N02","secret":"6eac9a93bc","server":"4078","farm":5,"title":"sink","ispublic":1,"isfriend":0,"isfamily":0,"ownername":"paint_stains"},{"id":"3457822104","owner":"37570677@N02","secret":"2a1a230416","server":"3604","farm":4,"title":"sink","ispublic":1,"isfriend":0,"isfamily":0,"ownername":"escobarconstruction"},{"id":"2350531431","owner":"69354091@N00","secret":"e0a6616815","server":"3141","farm":4,"title":"Sink","ispublic":1,"isfriend":0,"isfamily":0,"ownername":"Jeremi76"},{"id":"14205268340","owner":"99484035@N00","secret":"8024039d6f","server":"2913","farm":3,"title":"SINK","ispublic":1,"isfriend":0,"isfamily":0,"ownername":"Cooney-Hughes"},{"id":"14147919696","owner":"99484035@N00","secret":"1c6beea712","server":"2926","farm":3,"title":"SINK","ispublic":1,"isfriend":0,"isfamily":0,"ownername":"Cooney-Hughes"},{"id":"34348832921","owner":"150210028@N03","secret":"49fe9d1658","server":"4177","farm":5,"title":"Sink","ispublic":1,"isfriend":0,"isfamily":0,"ownername":"zjiab"},{"id":"9143094377","owner":"90986326@N03","secret":"18c2fdae17","server":"2806","farm":3,"title":"Sink","ispublic":1,"isfriend":0,"isfamily":0,"ownername":"MonikaRozanska.com"},{"id":"7090436775","owner":"75826012@N03","secret":"9a40103b40","server":"5442","farm":6,"title":"Sink","ispublic":1,"isfriend":0,"isfamily":0,"ownername":"LaurenGoodsmith"},{"id":"2332872952","owner":"24620297@N05","secret":"a06361e2d1","server":"2220","farm":3,"title":"Sink...","ispublic":1,"isfriend":0,"isfamily":0,"ownername":"-kriminal-"},{"id":"4595690164","owner":"30817984@N05","secret":"b7320e2527","server":"1270","farm":2,"title":"Sinks","ispublic":1,"isfriend":0,"isfamily":0,"ownername":"Brianna Hall"}]},"stat":"ok"}