{"photos":{"page":1,"pages":1036,"perpage":15,"total":"15530","photo":[{"id":"2469717519","owner":"8330645@N08","secret":"9966d3f8d6","server":"2034","farm":3,"title":"Skeletons","ispublic":1,"isfriend":0,"isfamily":0,"ownername":"Riff55"},{"id":"2988593808","owner":"23675751@N05","secret":"4cd9fa3abb","server":"3034","farm":4,"title":"Skeleton","ispublic":1,"isfriend":0,"isfamily":0,"ownername":"Brooke Bettencourt"},{"id":"3960516730","owner":"82351836@N00","secret":"2b67d17865","server":"3469","farm":4,"title":"Skeletons","ispublic":1,"isfriend":0,"isfamily":0,"ownername":"Jollyboy"},{"id":"3959745911","owner":"82351836@N00","secret":"04953d36b7","server":"2457","farm":3,"title":"Skeletons","ispublic":1,"isfriend":0,"isfamily":0,"ownername":"Jollyboy"},{"id":"3789882307","owner":"22824364@N04","secret":"d1319f027c","server":"2587","farm":3,"title":"skeletons","ispublic":1,"isfriend":0,"isfamily":0,"ownername":"galendara"},{"id":"16387350108","owner":"80874050@N00","secret":"8284e72275","server":"7427","farm":8,"title":"CHINESE LANTERN SKELETONS","ispublic":1,"isfriend":0,"isfamily":0,"ownername":"NDAV"},{"id":"106843044","owner":"53627666@N00","secret":"d27026225c","server":"49","farm":1,"title":"Skeletons","ispublic":1,"isfriend":0,"isfamily":0,"ownername":"Norma Desmond"},{"id":"5441463455","owner":"59519757@N08","secret":"414eb560f8","server":"4076","farm":5,"title":"Skeletons","ispublic":1,"isfriend":0,"isfamily":0,"ownername":"Emily May Illustration"},{"id":"2943816368","owner":"38666351@N00","secret":"0757f80bfb","server":"3235","farm":4,"title":"skeletons","ispublic":1,"isfriend":0,"isfamily":0,"ownername":"catherinewitherell"},{"id":"10506530466","owner":"106824356@N08","secret":"08f60af000","server":"7411","farm":8,"title":"Skeletons","ispublic":1,"isfriend":0,"isfamily":0,"ownername":"ramona-bird"},{"id":"7980847636","owner":"35111962@N07","secret":"9ec020c7c2","server":"8032","farm":9,"title":"Skeletons","ispublic":1,"isfriend":0,"isfamily":0,"ownername":"Lisa Drake"},{"id":"954088742","owner":"37587967@N00","secret":"fc6258cb1c","server":"1370","farm":2,"title":"MOUSE SKELETONS","ispublic":1,"isfriend":0,"isfamily":0,"ownername":"the_moog"},{"id":"1812165313","owner":"75923199@N00","secret":"2a6de1881d","server":"2420","farm":3,"title":"Skeletons","ispublic":1,"isfriend":0,"isfamily":0,"ownername":"forty-onecrush"},{"id":"5174292750","owner":"77206396@N00","secret":"a760e091ef","server":"4132","farm":5,"title":"Skeletons","ispublic":1,"isfriend":0,"isfamily":0,"ownername":"JenniferConway"},{"id":"3218370058","owner":"34422174@N05","secret":"f21d1e51be","server":"3471","farm":4,"title":"skeletons","ispublic":1,"isfriend":0,"isfamily":0,"ownername":"lady_hatter"}]},"stat":"ok"}