{"photos":{"page":1,"pages":15843,"perpage":15,"total":"237632","photo":[{"id":"8311764100","owner":"39443800@N06","secret":"e82e8d8bd6","server":"8077","farm":9,"title":"Skin","ispublic":1,"isfriend":0,"isfamily":0,"ownername":"WillyWilly13"},{"id":"25354865346","owner":"131011554@N03","secret":"4fae20628a","server":"1705","farm":2,"title":"Skin","ispublic":1,"isfriend":0,"isfamily":0,"ownername":"Luther Roseman Dease, II"},{"id":"7454872946","owner":"55088298@N08","secret":"62180ebbb2","server":"8153","farm":9,"title":"skin","ispublic":1,"isfriend":0,"isfamily":0,"ownername":"carolinezenkerphotography"},{"id":"45991843351","owner":"81898310@N07","secret":"26825d7ac5","server":"4873","farm":5,"title":"Skin","ispublic":1,"isfriend":0,"isfamily":0,"ownername":"sensdessusdessous"},{"id":"5559729070","owner":"50777853@N07","secret":"84e614bcea","server":"5293","farm":6,"title":"Skin.","ispublic":1,"isfriend":0,"isfamily":0,"ownername":"Teteel"},{"id":"36336725595","owner":"152896983@N07","secret":"89c27fb656","server":"4298","farm":5,"title":"skin","ispublic":1,"isfriend":0,"isfamily":0,"ownername":"Gata de Negro"},{"id":"12348896154","owner":"46798029@N06","secret":"968a953245","server":"5530","farm":6,"title":"Skin","ispublic":1,"isfriend":0,"isfamily":0,"ownername":"Restless little Soul"},{"id":"14438293705","owner":"61929320@N04","secret":"5d9b491fd2","server":"5553","farm":6,"title":"skin","ispublic":1,"isfriend":0,"isfamily":0,"ownername":"sofiadelmare"},{"id":"45721227375","owner":"146983524@N02","secret":"87c716763d","server":"7910","farm":8,"title":"Skin","ispublic":1,"isfriend":0,"isfamily":0,"ownername":"Eleni Maitou"},{"id":"6275827035","owner":"22294215@N06","secret":"72bfee0e65","server":"6218","farm":7,"title":"skin","ispublic":1,"isfriend":0,"isfamily":0,"ownername":"michael pollak"},{"id":"7230870576","owner":"53545281@N07","secret":"3818d2e21a","server":"5448","farm":6,"title":"Skin.","ispublic":1,"isfriend":0,"isfamily":0,"ownername":"Anna K. Photography"},{"id":"15063633016","owner":"23062294@N03","secret":"bcacf28aa0","server":"5576","farm":6,"title":"Skin","ispublic":1,"isfriend":0,"isfamily":0,"ownername":"medu74"},{"id":"3684943746","owner":"88438746@N00","secret":"4ce71c55ba","server":"2632","farm":3,"title":"Skin.","ispublic":1,"isfriend":0,"isfamily":0,"ownername":"DJ Bass"},{"id":"6135558668","owner":"60026198@N08","secret":"2cf5aee72d","server":"6088","farm":7,"title":"Skin","ispublic":1,"isfriend":0,"isfamily":0,"ownername":"Tara Nissl"},{"id":"10810197375","owner":"100580374@N03","secret":"8179ff1a75","server":"5487","farm":6,"title":"skin","ispublic":1,"isfriend":0,"isfamily":0,"ownername":"armisticed"}]},"stat":"ok"}