{"photos":{"page":1,"pages":5876,"perpage":15,"total":"88127","photo":[{"id":"2226891241","owner":"90594837@N00","secret":"953da26af9","server":"2182","farm":3,"title":"skinny?","ispublic":1,"isfriend":0,"isfamily":0,"ownername":"!Emily"},{"id":"946225216","owner":"10717627@N06","secret":"50e38ac46a","server":"1157","farm":2,"title":"Skinny bikini","ispublic":1,"isfriend":0,"isfamily":0,"ownername":"skgrls"},{"id":"3907053135","owner":"8733375@N05","secret":"3cd693e5d3","server":"2655","farm":3,"title":"zetti skinny book page","ispublic":1,"isfriend":0,"isfamily":0,"ownername":"crazyfish_666"},{"id":"8595039439","owner":"65249201@N07","secret":"0035ef0879","server":"8228","farm":9,"title":"super skinny","ispublic":1,"isfriend":0,"isfamily":0,"ownername":"be'mine"},{"id":"8937721037","owner":"40212451@N03","secret":"f6d6103682","server":"7308","farm":8,"title":"Spray On Skinny jeans in London","ispublic":1,"isfriend":0,"isfamily":0,"ownername":"skintightboy"},{"id":"4115154854","owner":"35459470@N00","secret":"6f92873f65","server":"2766","farm":3,"title":"Skinny Love","ispublic":1,"isfriend":0,"isfamily":0,"ownername":"Marina Chaccur"},{"id":"246971990","owner":"36521984990@N01","secret":"18454673be","server":"92","farm":1,"title":"Skinny","ispublic":1,"isfriend":0,"isfamily":0,"ownername":"jon.bell"},{"id":"3551355843","owner":"9301758@N02","secret":"d9f5fc50f3","server":"3542","farm":4,"title":"skinny dipped in the full moonlight! IMG_1267","ispublic":1,"isfriend":0,"isfamily":0,"ownername":"larksimmons"},{"id":"7270189886","owner":"27318805@N04","secret":"29a69ba386","server":"7222","farm":8,"title":"Skinny Jeans & High Heels","ispublic":1,"isfriend":0,"isfamily":0,"ownername":"Veronica Mendes (formerly Toni Richards)"},{"id":"8573399748","owner":"33475490@N00","secret":"2161f42568","server":"8249","farm":9,"title":"Skinny Love.","ispublic":1,"isfriend":0,"isfamily":0,"ownername":"Pagan Poetry"},{"id":"5251874025","owner":"48943308@N03","secret":"c242f437c8","server":"5205","farm":6,"title":"Skinny Boy","ispublic":1,"isfriend":0,"isfamily":0,"ownername":"Ethan Coverstone"},{"id":"3069549288","owner":"32886293@N04","secret":"2035b525bb","server":"3035","farm":4,"title":"Skinny.","ispublic":1,"isfriend":0,"isfamily":0,"ownername":"star of the seaa"},{"id":"2713199734","owner":"50318388@N00","secret":"000756ff36","server":"3018","farm":4,"title":"Skinny letters","ispublic":1,"isfriend":0,"isfamily":0,"ownername":"mag3737"},{"id":"4068936376","owner":"25102254@N03","secret":"9bd856678d","server":"2647","farm":3,"title":"illustration friday:skinny","ispublic":1,"isfriend":0,"isfamily":0,"ownername":"Asja."},{"id":"19161861033","owner":"39671112@N08","secret":"528bbba829","server":"3819","farm":4,"title":"Skinny Love","ispublic":1,"isfriend":0,"isfamily":0,"ownername":"\u0192ame Kill\u0161\/shayw"}]},"stat":"ok"}