{"photos":{"page":1,"pages":21137,"perpage":15,"total":"317053","photo":[{"id":"8623167457","owner":"11541098@N06","secret":"63e7ca5108","server":"8115","farm":9,"title":"i'm only sleeping (explore)","ispublic":1,"isfriend":0,"isfamily":0,"ownername":"DOLCEVITALUX"},{"id":"5721060393","owner":"46647102@N05","secret":"6c18a711a2","server":"2453","farm":3,"title":"sleeping beauty.","ispublic":1,"isfriend":0,"isfamily":0,"ownername":"Jenny K\u00f6hler \u2013 blue.sky photography"},{"id":"4863569572","owner":"51612746@N06","secret":"e6255116fd","server":"4142","farm":5,"title":"Sleeping my day away!","ispublic":1,"isfriend":0,"isfamily":0,"ownername":"thomasloevring.dk"},{"id":"8657091937","owner":"12248978@N07","secret":"86382fcc12","server":"8119","farm":9,"title":"sleep #7","ispublic":1,"isfriend":0,"isfamily":0,"ownername":"chrisfriel"},{"id":"5616063780","owner":"29021441@N05","secret":"0a481a15ed","server":"5307","farm":6,"title":"SLEEP","ispublic":1,"isfriend":0,"isfamily":0,"ownername":"davies.thom"},{"id":"2914885421","owner":"43862911@N00","secret":"3fc4b3c2af","server":"3154","farm":4,"title":"Sleeping Habits II","ispublic":1,"isfriend":0,"isfamily":0,"ownername":"PrettyOkay"},{"id":"4415289722","owner":"16230215@N08","secret":"448273b59a","server":"2723","farm":3,"title":"Sleeping Buddha","ispublic":1,"isfriend":0,"isfamily":0,"ownername":"h.koppdelaney"},{"id":"385452159","owner":"12192905@N00","secret":"4fdd6b506d","server":"128","farm":1,"title":"SLEEP....","ispublic":1,"isfriend":0,"isfamily":0,"ownername":"Azli Jamil Photography"},{"id":"8654094793","owner":"69657417@N05","secret":"4c188a3a3a","server":"8101","farm":9,"title":"Sleeping","ispublic":1,"isfriend":0,"isfamily":0,"ownername":"Nanoow"},{"id":"22491017026","owner":"52725579@N05","secret":"5de4c16177","server":"5816","farm":6,"title":"Just Sleeping","ispublic":1,"isfriend":0,"isfamily":0,"ownername":"creativegaz"},{"id":"4341921360","owner":"40501877@N04","secret":"6e9986689c","server":"4008","farm":5,"title":"sleep","ispublic":1,"isfriend":0,"isfamily":0,"ownername":"alshepmcr"},{"id":"8420602240","owner":"47667279@N05","secret":"eb154632fe","server":"8507","farm":9,"title":"Sleeping beauty","ispublic":1,"isfriend":0,"isfamily":0,"ownername":"Ana Guisado"},{"id":"2281371413","owner":"51268340@N00","secret":"c6372beb72","server":"3141","farm":4,"title":"Sleeping Beauty","ispublic":1,"isfriend":0,"isfamily":0,"ownername":"Rajiv Ashrafi"},{"id":"11878890763","owner":"22825606@N06","secret":"914235e917","server":"3669","farm":4,"title":"Sleep.....","ispublic":1,"isfriend":0,"isfamily":0,"ownername":"Dr. Farhan"},{"id":"4914110063","owner":"22841153@N02","secret":"235a890abd","server":"4079","farm":5,"title":"\"Sleeping Beauty\"","ispublic":1,"isfriend":0,"isfamily":0,"ownername":"ellenc995"}]},"stat":"ok"}