{"photos":{"page":1,"pages":25801,"perpage":15,"total":"387001","photo":[{"id":"530159454","owner":"34013728@N00","secret":"d9d2604376","server":"1354","farm":2,"title":"smoke","ispublic":1,"isfriend":0,"isfamily":0,"ownername":"Dr Pho"},{"id":"43025538565","owner":"42440178@N04","secret":"a9436b9858","server":"1795","farm":2,"title":"smoking","ispublic":1,"isfriend":0,"isfamily":0,"ownername":"Mark Rigler -"},{"id":"3311165364","owner":"85473033@N00","secret":"9456e8c59a","server":"3657","farm":4,"title":"Smoke","ispublic":1,"isfriend":0,"isfamily":0,"ownername":"AMagill"},{"id":"6688157459","owner":"74224187@N07","secret":"2b363a7b4a","server":"7162","farm":8,"title":"smoke","ispublic":1,"isfriend":0,"isfamily":0,"ownername":"CarterM166"},{"id":"9445700670","owner":"40832502@N06","secret":"0dc5f36a12","server":"5515","farm":6,"title":"Smoke","ispublic":1,"isfriend":0,"isfamily":0,"ownername":"galletto marco"},{"id":"5348952516","owner":"14180011@N04","secret":"b0ed3931c1","server":"5242","farm":6,"title":"Smoke","ispublic":1,"isfriend":0,"isfamily":0,"ownername":"alain.dalle"},{"id":"9366839466","owner":"40832502@N06","secret":"30a900b83f","server":"5532","farm":6,"title":"Smoke","ispublic":1,"isfriend":0,"isfamily":0,"ownername":"galletto marco"},{"id":"16324834852","owner":"57949897@N00","secret":"82582a0d81","server":"7499","farm":8,"title":"Smoke","ispublic":1,"isfriend":0,"isfamily":0,"ownername":"Jerzy Durczak"},{"id":"44427995290","owner":"123860072@N07","secret":"a30ac5c90e","server":"4868","farm":5,"title":"Smoke","ispublic":1,"isfriend":0,"isfamily":0,"ownername":"multifaceted_m"},{"id":"5830719892","owner":"55235680@N07","secret":"048b2e76a5","server":"5104","farm":6,"title":"smoke","ispublic":1,"isfriend":0,"isfamily":0,"ownername":"olga.polyakh"},{"id":"10673412214","owner":"40832502@N06","secret":"12f207c755","server":"3721","farm":4,"title":"Smoke","ispublic":1,"isfriend":0,"isfamily":0,"ownername":"galletto marco"},{"id":"7655071446","owner":"30493186@N03","secret":"22392a9318","server":"8424","farm":9,"title":"Smoke","ispublic":1,"isfriend":0,"isfamily":0,"ownername":"d o l f i"},{"id":"9442882575","owner":"40832502@N06","secret":"e365ea5610","server":"7394","farm":8,"title":"Smoke","ispublic":1,"isfriend":0,"isfamily":0,"ownername":"galletto marco"},{"id":"8229864846","owner":"48564133@N02","secret":"020856a092","server":"8484","farm":9,"title":"Smoke","ispublic":1,"isfriend":0,"isfamily":0,"ownername":"Am\u00e9ni | insta:queen_amanich \u2665"},{"id":"5605749224","owner":"37118364@N05","secret":"f9c0a10a9a","server":"5104","farm":6,"title":"Smoke","ispublic":1,"isfriend":0,"isfamily":0,"ownername":"Claudio Marchiori"}]},"stat":"ok"}