{"photos":{"page":1,"pages":253714,"perpage":15,"total":"3805701","photo":[{"id":"8521533806","owner":"21692577@N02","secret":"fbe2b2cf40","server":"8085","farm":9,"title":"snow","ispublic":1,"isfriend":0,"isfamily":0,"ownername":"Danny VB"},{"id":"8518722644","owner":"21692577@N02","secret":"87ff1398fd","server":"8087","farm":9,"title":"snow","ispublic":1,"isfriend":0,"isfamily":0,"ownername":"Danny VB"},{"id":"8574178063","owner":"69148745@N02","secret":"7785e8aef2","server":"8235","farm":9,"title":"snow","ispublic":1,"isfriend":0,"isfamily":0,"ownername":"land[e]scape"},{"id":"8563707905","owner":"69148745@N02","secret":"e4deffb21f","server":"8093","farm":9,"title":"Snow","ispublic":1,"isfriend":0,"isfamily":0,"ownername":"land[e]scape"},{"id":"25128581505","owner":"55959716@N08","secret":"8c050dea6e","server":"1678","farm":2,"title":"snow","ispublic":1,"isfriend":0,"isfamily":0,"ownername":"Philocycler"},{"id":"8264503034","owner":"69148745@N02","secret":"10310b189b","server":"8072","farm":9,"title":"Snow","ispublic":1,"isfriend":0,"isfamily":0,"ownername":"land[e]scape"},{"id":"6972891933","owner":"21692577@N02","secret":"d10fdaafd7","server":"7041","farm":8,"title":"snow","ispublic":1,"isfriend":0,"isfamily":0,"ownername":"Danny VB"},{"id":"8407843863","owner":"69148745@N02","secret":"af0c29f21d","server":"8375","farm":9,"title":"Snow","ispublic":1,"isfriend":0,"isfamily":0,"ownername":"land[e]scape"},{"id":"8534237340","owner":"21692577@N02","secret":"b929e4f93f","server":"8508","farm":9,"title":"snow","ispublic":1,"isfriend":0,"isfamily":0,"ownername":"Danny VB"},{"id":"8294150848","owner":"69148745@N02","secret":"b1286defe1","server":"8081","farm":9,"title":"Snow","ispublic":1,"isfriend":0,"isfamily":0,"ownername":"land[e]scape"},{"id":"6710548285","owner":"61022165@N07","secret":"7f5a8e6471","server":"7009","farm":8,"title":"Snow","ispublic":1,"isfriend":0,"isfamily":0,"ownername":"nutzk"},{"id":"25396432968","owner":"69785727@N00","secret":"2086c067bd","server":"4729","farm":5,"title":"snow","ispublic":1,"isfriend":0,"isfamily":0,"ownername":"icarium.imagery"},{"id":"40422745235","owner":"55959716@N08","secret":"27f2b2b11d","server":"885","farm":1,"title":"snow","ispublic":1,"isfriend":0,"isfamily":0,"ownername":"Philocycler"},{"id":"39862432301","owner":"55959716@N08","secret":"c32c6cd5ce","server":"4678","farm":5,"title":"snow","ispublic":1,"isfriend":0,"isfamily":0,"ownername":"Philocycler"},{"id":"8283317745","owner":"69148745@N02","secret":"884be183fb","server":"8221","farm":9,"title":"Snow","ispublic":1,"isfriend":0,"isfamily":0,"ownername":"land[e]scape"}]},"stat":"ok"}