{"photos":{"page":1,"pages":16354,"perpage":15,"total":"245296","photo":[{"id":"3131147332","owner":"31976059@N08","secret":"1ce6ff6c3e","server":"3208","farm":4,"title":"bangla song","ispublic":1,"isfriend":0,"isfamily":0,"ownername":"james_rh103"},{"id":"2799453320","owner":"16833670@N00","secret":"177e034de3","server":"3107","farm":4,"title":"song","ispublic":1,"isfriend":0,"isfamily":0,"ownername":"Cinzia A. Rizzo \/ fataetoile"},{"id":"3193806968","owner":"24306062@N02","secret":"c709ca9359","server":"3336","farm":4,"title":"Song...","ispublic":1,"isfriend":0,"isfamily":0,"ownername":"Syed Azaharul"},{"id":"2223445097","owner":"23160026@N07","secret":"2de8d9b826","server":"2419","farm":3,"title":"song","ispublic":1,"isfriend":0,"isfamily":0,"ownername":"Vintage60s"},{"id":"3210393746","owner":"10944839@N02","secret":"5e58e4296d","server":"3530","farm":4,"title":"Song...","ispublic":1,"isfriend":0,"isfamily":0,"ownername":"rolli22"},{"id":"5887210518","owner":"64425454@N05","secret":"dc7d0c2bed","server":"5112","farm":6,"title":"SonG","ispublic":1,"isfriend":0,"isfamily":0,"ownername":"SonG Liew"},{"id":"17091887597","owner":"127187961@N07","secret":"d26614055a","server":"7702","farm":8,"title":"Song","ispublic":1,"isfriend":0,"isfamily":0,"ownername":"tomskpilot"},{"id":"33169638743","owner":"28493015@N05","secret":"9b20a3d1ab","server":"3933","farm":4,"title":"Song Sparrow","ispublic":1,"isfriend":0,"isfamily":0,"ownername":"Daniel Taieb"},{"id":"40814782190","owner":"23016207@N05","secret":"8e3a7819c3","server":"1728","farm":2,"title":"Song in the woods","ispublic":1,"isfriend":0,"isfamily":0,"ownername":"long.fanger"},{"id":"40993601510","owner":"150984307@N06","secret":"c4b4a0751d","server":"1734","farm":2,"title":"whisper a song..","ispublic":1,"isfriend":0,"isfamily":0,"ownername":"salihseviner"},{"id":"5456906315","owner":"40216021@N02","secret":"0239d82cf5","server":"5139","farm":6,"title":"Song","ispublic":1,"isfriend":0,"isfamily":0,"ownername":"Alternacja"},{"id":"4179676636","owner":"34636922@N08","secret":"54942467f9","server":"2779","farm":3,"title":"Songs","ispublic":1,"isfriend":0,"isfamily":0,"ownername":"Thugocracy"},{"id":"32855827322","owner":"146008783@N08","secret":"c2f8402f54","server":"3868","farm":4,"title":"Song","ispublic":1,"isfriend":0,"isfamily":0,"ownername":"jesse112270"},{"id":"32973229138","owner":"65163352@N06","secret":"31955405ca","server":"7814","farm":8,"title":"Song Thrush.","ispublic":1,"isfriend":0,"isfamily":0,"ownername":"mick revell"},{"id":"16964772471","owner":"129063666@N07","secret":"27b362fb9e","server":"8706","farm":9,"title":"song","ispublic":1,"isfriend":0,"isfamily":0,"ownername":"jennie20_00"}]},"stat":"ok"}