{"photos":{"page":1,"pages":5639,"perpage":15,"total":"84574","photo":[{"id":"3129934357","owner":"54359128@N00","secret":"7469b1188b","server":"3242","farm":4,"title":"soup","ispublic":1,"isfriend":0,"isfamily":0,"ownername":"Geoff Peters 604"},{"id":"4363811072","owner":"14738242@N00","secret":"46b10e7227","server":"4064","farm":5,"title":"Soup","ispublic":1,"isfriend":0,"isfamily":0,"ownername":"Jonas B"},{"id":"5476390546","owner":"12173213@N00","secret":"198bff39ae","server":"5135","farm":6,"title":"Soup","ispublic":1,"isfriend":0,"isfamily":0,"ownername":"matsuyuki"},{"id":"5045331552","owner":"27614238@N00","secret":"439bb7dfd7","server":"4103","farm":5,"title":"soup","ispublic":1,"isfriend":0,"isfamily":0,"ownername":"annina_hey"},{"id":"859789404","owner":"94464290@N00","secret":"b644e63adb","server":"1130","farm":2,"title":"Soup","ispublic":1,"isfriend":0,"isfamily":0,"ownername":"crayolarabbit"},{"id":"5040828929","owner":"37772559@N03","secret":"fe37018632","server":"4146","farm":5,"title":"soup","ispublic":1,"isfriend":0,"isfamily":0,"ownername":"wonko101010"},{"id":"2207270079","owner":"74105777@N00","secret":"e086f149b9","server":"2021","farm":3,"title":"Soup","ispublic":1,"isfriend":0,"isfamily":0,"ownername":"adactio"},{"id":"31007467368","owner":"144023568@N05","secret":"e635f43454","server":"1958","farm":2,"title":"soup","ispublic":1,"isfriend":0,"isfamily":0,"ownername":"xebigesul"},{"id":"3271105278","owner":"30908588@N07","secret":"92479e9f67","server":"3415","farm":4,"title":"Soup","ispublic":1,"isfriend":0,"isfamily":0,"ownername":"HC's Foodventure"},{"id":"5139220059","owner":"42842042@N08","secret":"a97e2f84d8","server":"4133","farm":5,"title":"Soup","ispublic":1,"isfriend":0,"isfamily":0,"ownername":"Viktorija_k"},{"id":"5972339502","owner":"35034346243@N01","secret":"1c9c29ed96","server":"6142","farm":7,"title":"soup","ispublic":1,"isfriend":0,"isfamily":0,"ownername":"stu_spivack"},{"id":"4594685954","owner":"82384303@N00","secret":"2c9099820d","server":"3300","farm":4,"title":"soup","ispublic":1,"isfriend":0,"isfamily":0,"ownername":"etherealprey"},{"id":"4436795184","owner":"35034346243@N01","secret":"e5b1ffa106","server":"2774","farm":3,"title":"soup","ispublic":1,"isfriend":0,"isfamily":0,"ownername":"stu_spivack"},{"id":"305448853","owner":"35034346243@N01","secret":"86269ec341","server":"115","farm":1,"title":"soup","ispublic":1,"isfriend":0,"isfamily":0,"ownername":"stu_spivack"},{"id":"26163295795","owner":"90458625@N00","secret":"67c146444e","server":"1512","farm":2,"title":"Soup","ispublic":1,"isfriend":0,"isfamily":0,"ownername":"DigiPub"}]},"stat":"ok"}