{"photos":{"page":1,"pages":4507,"perpage":15,"total":"67598","photo":[{"id":"32282921480","owner":"89015790@N04","secret":"e8e0180985","server":"745","farm":1,"title":"speech","ispublic":1,"isfriend":0,"isfamily":0,"ownername":"Alla Romanova"},{"id":"10983346904","owner":"51107398@N06","secret":"bd84b3903d","server":"5531","farm":6,"title":"Speech","ispublic":1,"isfriend":0,"isfamily":0,"ownername":"\u00a9 Agnes PERROT"},{"id":"7322145","owner":"18921251@N00","secret":"d1b7e0f727","server":"6","farm":1,"title":"speech","ispublic":1,"isfriend":0,"isfamily":0,"ownername":"cbrow35"},{"id":"3533236247","owner":"34101234@N05","secret":"e66f2a2e84","server":"3383","farm":4,"title":"Speech!","ispublic":1,"isfriend":0,"isfamily":0,"ownername":"stickypop"},{"id":"24083042822","owner":"57949897@N00","secret":"77477608f3","server":"1624","farm":2,"title":"Speech","ispublic":1,"isfriend":0,"isfamily":0,"ownername":"Jerzy Durczak"},{"id":"5731424173","owner":"55145718@N04","secret":"cacaf8abd4","server":"3414","farm":4,"title":"Speeches","ispublic":1,"isfriend":0,"isfamily":0,"ownername":"jake1770"},{"id":"5860456498","owner":"53082922@N03","secret":"c91a5e30a9","server":"5153","farm":6,"title":"Speech!","ispublic":1,"isfriend":0,"isfamily":0,"ownername":"DebbieinLondon"},{"id":"3488792312","owner":"33610040@N05","secret":"a3c4e6f3e7","server":"3661","farm":4,"title":"Speech","ispublic":1,"isfriend":0,"isfamily":0,"ownername":"AIESEC Juiz de Fora"},{"id":"3488792500","owner":"33610040@N05","secret":"3ae27bf6ae","server":"3376","farm":4,"title":"Speech","ispublic":1,"isfriend":0,"isfamily":0,"ownername":"AIESEC Juiz de Fora"},{"id":"3487978491","owner":"33610040@N05","secret":"464d6c6445","server":"3596","farm":4,"title":"Speech","ispublic":1,"isfriend":0,"isfamily":0,"ownername":"AIESEC Juiz de Fora"},{"id":"3487979953","owner":"33610040@N05","secret":"9d6cf3941a","server":"3649","farm":4,"title":"Speech","ispublic":1,"isfriend":0,"isfamily":0,"ownername":"AIESEC Juiz de Fora"},{"id":"1354190136","owner":"42325296@N00","secret":"93cab74315","server":"1182","farm":2,"title":"speech","ispublic":1,"isfriend":0,"isfamily":0,"ownername":"stevenhooi"},{"id":"100870752","owner":"92366302@N00","secret":"b4b07d8989","server":"32","farm":1,"title":"speech","ispublic":1,"isfriend":0,"isfamily":0,"ownername":"Angela~~~"},{"id":"3894715458","owner":"78758580@N00","secret":"da3ce88b60","server":"2431","farm":3,"title":"Speech","ispublic":1,"isfriend":0,"isfamily":0,"ownername":"joellybaby"},{"id":"4923461636","owner":"77385582@N00","secret":"a23740a395","server":"4074","farm":5,"title":"speech","ispublic":1,"isfriend":0,"isfamily":0,"ownername":"chameleonic"}]},"stat":"ok"}