{"photos":{"page":1,"pages":29824,"perpage":15,"total":"447355","photo":[{"id":"37384404862","owner":"146712530@N04","secret":"8889cccde2","server":"4415","farm":5,"title":"spider","ispublic":1,"isfriend":0,"isfamily":0,"ownername":"J. Schouten"},{"id":"469101974","owner":"7356810@N07","secret":"dcce0a4087","server":"223","farm":1,"title":"Spider","ispublic":1,"isfriend":0,"isfamily":0,"ownername":"Rick Slater"},{"id":"43731822000","owner":"63421182@N02","secret":"3ac892dcf1","server":"1917","farm":2,"title":"spider","ispublic":1,"isfriend":0,"isfamily":0,"ownername":"Hayseed52"},{"id":"1358182912","owner":"27277576@N00","secret":"398ff80311","server":"1183","farm":2,"title":"Spider","ispublic":1,"isfriend":0,"isfamily":0,"ownername":"catsoff2you"},{"id":"13736381714","owner":"41724788@N00","secret":"09f1f3ae19","server":"5285","farm":6,"title":"sPidEr","ispublic":1,"isfriend":0,"isfamily":0,"ownername":"notnA"},{"id":"4629311294","owner":"35878458@N08","secret":"78d9ee59d2","server":"4032","farm":5,"title":"Spider","ispublic":1,"isfriend":0,"isfamily":0,"ownername":"kevinkpc"},{"id":"559737164","owner":"14319383@N00","secret":"cbb3cc7998","server":"1335","farm":2,"title":"Spider","ispublic":1,"isfriend":0,"isfamily":0,"ownername":"CitiXen"},{"id":"42898910280","owner":"141068045@N02","secret":"080b5a404f","server":"1858","farm":2,"title":"Spider","ispublic":1,"isfriend":0,"isfamily":0,"ownername":"ronaldort1311"},{"id":"2853090057","owner":"17482722@N00","secret":"c945afb445","server":"3159","farm":4,"title":"Spider","ispublic":1,"isfriend":0,"isfamily":0,"ownername":"johannesfleitner"},{"id":"4687454364","owner":"7942071@N02","secret":"4457031273","server":"4047","farm":5,"title":"Spider","ispublic":1,"isfriend":0,"isfamily":0,"ownername":"kampang"},{"id":"15068378162","owner":"90189924@N08","secret":"bb0b24b4a0","server":"3891","farm":4,"title":"Spider","ispublic":1,"isfriend":0,"isfamily":0,"ownername":"Guilherme GMP"},{"id":"6172088828","owner":"30834299@N06","secret":"63a51fcd95","server":"6164","farm":7,"title":"Spider","ispublic":1,"isfriend":0,"isfamily":0,"ownername":"patcollingwood"},{"id":"43981432942","owner":"63421182@N02","secret":"92dd98d120","server":"1820","farm":2,"title":"Spider","ispublic":1,"isfriend":0,"isfamily":0,"ownername":"Hayseed52"},{"id":"3953919412","owner":"41254310@N04","secret":"88c30a2298","server":"3483","farm":4,"title":"Spider","ispublic":1,"isfriend":0,"isfamily":0,"ownername":"Andyvalver"},{"id":"14400221830","owner":"30016529@N02","secret":"7823b551b7","server":"2916","farm":3,"title":"Spider","ispublic":1,"isfriend":0,"isfamily":0,"ownername":"ddarno"}]},"stat":"ok"}