{"photos":{"page":1,"pages":1107,"perpage":15,"total":"16604","photo":[{"id":"5116460610","owner":"30451035@N02","secret":"d8e30f13fc","server":"1336","farm":2,"title":"spill.","ispublic":1,"isfriend":0,"isfamily":0,"ownername":"Lex Miller"},{"id":"10902785","owner":"44466030@N00","secret":"974e133723","server":"5","farm":1,"title":"spill","ispublic":1,"isfriend":0,"isfamily":0,"ownername":"Josh Parrish"},{"id":"3149473817","owner":"96638746@N00","secret":"1f86d10281","server":"3252","farm":4,"title":"Spill","ispublic":1,"isfriend":0,"isfamily":0,"ownername":"the owls go"},{"id":"4588851210","owner":"28881624@N02","secret":"503daba72d","server":"4001","farm":5,"title":"spill","ispublic":1,"isfriend":0,"isfamily":0,"ownername":"kabalyerongkuba"},{"id":"16169061826","owner":"32546988@N00","secret":"916eb38ca8","server":"7538","farm":8,"title":"Spill","ispublic":1,"isfriend":0,"isfamily":0,"ownername":"Lenny&Meriel"},{"id":"6804179521","owner":"69082156@N06","secret":"8a22b997d6","server":"7154","farm":8,"title":"SPILL","ispublic":1,"isfriend":0,"isfamily":0,"ownername":"EaterDenver"},{"id":"6804180321","owner":"69082156@N06","secret":"5826c42dbc","server":"7019","farm":8,"title":"SPILL","ispublic":1,"isfriend":0,"isfamily":0,"ownername":"EaterDenver"},{"id":"4625837512","owner":"7214188@N03","secret":"ce75ef5619","server":"4027","farm":5,"title":"Spill","ispublic":1,"isfriend":0,"isfamily":0,"ownername":"catheadsix"},{"id":"4580855108","owner":"7214188@N03","secret":"18b950d188","server":"4028","farm":5,"title":"Spill","ispublic":1,"isfriend":0,"isfamily":0,"ownername":"catheadsix"},{"id":"1517587144","owner":"38807515@N00","secret":"bad7f308df","server":"2065","farm":3,"title":"spill","ispublic":1,"isfriend":0,"isfamily":0,"ownername":"Lorien!"},{"id":"9081201558","owner":"94588001@N08","secret":"888d5a2cd6","server":"2852","farm":3,"title":"Spill","ispublic":1,"isfriend":0,"isfamily":0,"ownername":"GaliciaPhoto"},{"id":"3795245397","owner":"65776694@N00","secret":"9f7a9cc0a5","server":"2663","farm":3,"title":"Spill","ispublic":1,"isfriend":0,"isfamily":0,"ownername":"mikemdk"},{"id":"6334652683","owner":"63943874@N08","secret":"d7fdbb77f9","server":"6236","farm":7,"title":"spill","ispublic":1,"isfriend":0,"isfamily":0,"ownername":"Peter Trott"},{"id":"10177840624","owner":"31105675@N08","secret":"02d9e5f28c","server":"5488","farm":6,"title":"spill","ispublic":1,"isfriend":0,"isfamily":0,"ownername":"romamar76"},{"id":"5967136796","owner":"58386009@N02","secret":"1bbb4124ff","server":"6143","farm":7,"title":"Spill","ispublic":1,"isfriend":0,"isfamily":0,"ownername":"VeHagen"}]},"stat":"ok"}