{"photos":{"page":1,"pages":1676,"perpage":15,"total":"25132","photo":[{"id":"4704346413","owner":"42915120@N00","secret":"3a161c19ed","server":"4058","farm":5,"title":"SQUID","ispublic":1,"isfriend":0,"isfamily":0,"ownername":"willandbeyond"},{"id":"4293488766","owner":"14566027@N07","secret":"aa90272321","server":"2735","farm":3,"title":"Squid","ispublic":1,"isfriend":0,"isfamily":0,"ownername":"AnsiG"},{"id":"8931091674","owner":"87704784@N00","secret":"7f70b97b00","server":"5347","farm":6,"title":"squid","ispublic":1,"isfriend":0,"isfamily":0,"ownername":"tatianaalisova"},{"id":"2874910441","owner":"7741046@N06","secret":"1066db5900","server":"3113","farm":4,"title":"Squid","ispublic":1,"isfriend":0,"isfamily":0,"ownername":"watchsmart"},{"id":"3288560156","owner":"33987907@N07","secret":"4bf8c8c40d","server":"3443","farm":4,"title":"SQUID.","ispublic":1,"isfriend":0,"isfamily":0,"ownername":"blood IV lube"},{"id":"4155209034","owner":"22341206@N02","secret":"a9fbae6f94","server":"2550","farm":3,"title":"squid","ispublic":1,"isfriend":0,"isfamily":0,"ownername":"\u843d\u66f8\u304d"},{"id":"229626630","owner":"77562208@N00","secret":"5062477225","server":"64","farm":1,"title":"squid","ispublic":1,"isfriend":0,"isfamily":0,"ownername":"fins'n'feathers"},{"id":"4060665439","owner":"14177274@N07","secret":"a93867a8a5","server":"3510","farm":4,"title":"squid!","ispublic":1,"isfriend":0,"isfamily":0,"ownername":"caffaknitted"},{"id":"7753845254","owner":"18231692@N07","secret":"12fd929991","server":"8300","farm":9,"title":"Squid","ispublic":1,"isfriend":0,"isfamily":0,"ownername":"fabioeh"},{"id":"4704345379","owner":"42915120@N00","secret":"629688e56f","server":"1286","farm":2,"title":"SQUID","ispublic":1,"isfriend":0,"isfamily":0,"ownername":"willandbeyond"},{"id":"8021908477","owner":"72841285@N00","secret":"c3aba1ceb6","server":"8035","farm":9,"title":"Squids","ispublic":1,"isfriend":0,"isfamily":0,"ownername":"nathanmac87"},{"id":"7981483225","owner":"18231692@N07","secret":"112817384e","server":"8314","farm":9,"title":"Squid","ispublic":1,"isfriend":0,"isfamily":0,"ownername":"fabioeh"},{"id":"486600649","owner":"82506769@N00","secret":"ecd385033b","server":"212","farm":1,"title":"Squid","ispublic":1,"isfriend":0,"isfamily":0,"ownername":"peyume"},{"id":"2638748629","owner":"12986809@N06","secret":"506e78744f","server":"3133","farm":4,"title":"squid","ispublic":1,"isfriend":0,"isfamily":0,"ownername":"Rodzillaaaaa"},{"id":"8755794","owner":"10559879@N00","secret":"b4b2c5e76f","server":"4","farm":1,"title":"Squid","ispublic":1,"isfriend":0,"isfamily":0,"ownername":"avlxyz"}]},"stat":"ok"}