{"photos":{"page":1,"pages":2635,"perpage":15,"total":"39524","photo":[{"id":"35734061426","owner":"27515010@N04","secret":"b2ca14f718","server":"4145","farm":5,"title":"Stairway Of Life","ispublic":1,"isfriend":0,"isfamily":0,"ownername":"jade2k"},{"id":"35892945590","owner":"43545301@N03","secret":"28748ab3a8","server":"4310","farm":5,"title":"Stairway","ispublic":1,"isfriend":0,"isfamily":0,"ownername":"DRC - THANKS 3.3 Million Views"},{"id":"7522920084","owner":"63105276@N07","secret":"bf9f2e3b0c","server":"7126","farm":8,"title":"Stairways -","ispublic":1,"isfriend":0,"isfamily":0,"ownername":"keinidyll"},{"id":"3493221628","owner":"37927875@N05","secret":"46ddda54bb","server":"3367","farm":4,"title":"Stairway","ispublic":1,"isfriend":0,"isfamily":0,"ownername":"sbernadette65"},{"id":"12522622283","owner":"8180889@N05","secret":"ffb793b466","server":"3710","farm":4,"title":"Stairway","ispublic":1,"isfriend":0,"isfamily":0,"ownername":"Dubic (ABC Photography)"},{"id":"2116515571","owner":"70618949@N00","secret":"755bc3a25d","server":"2131","farm":3,"title":"Stairway","ispublic":1,"isfriend":0,"isfamily":0,"ownername":"Leon Jacobs"},{"id":"6141545124","owner":"29387403@N04","secret":"158f4c2c3f","server":"6180","farm":7,"title":"Stairway","ispublic":1,"isfriend":0,"isfamily":0,"ownername":"Jeven Dovey"},{"id":"3176293288","owner":"10052132@N03","secret":"2b8648f6e5","server":"3115","farm":4,"title":"Stairway","ispublic":1,"isfriend":0,"isfamily":0,"ownername":"tracie.forward"},{"id":"8485908931","owner":"93322488@N02","secret":"e1da6b6520","server":"8090","farm":9,"title":"Stairway","ispublic":1,"isfriend":0,"isfamily":0,"ownername":"robolingua"},{"id":"33747343110","owner":"46430981@N02","secret":"caf3edcd10","server":"2949","farm":3,"title":"Stairway","ispublic":1,"isfriend":0,"isfamily":0,"ownername":"Mick Tursky"},{"id":"7870257978","owner":"58045816@N07","secret":"d2e05d671a","server":"7272","farm":8,"title":"Stairway","ispublic":1,"isfriend":0,"isfamily":0,"ownername":"Jeremy J Saunders"},{"id":"27413799127","owner":"156660125@N03","secret":"67f07e58b2","server":"968","farm":1,"title":"stairway","ispublic":1,"isfriend":0,"isfamily":0,"ownername":"Toon De Backer"},{"id":"35571857392","owner":"34216935@N06","secret":"a09eb3f021","server":"4266","farm":5,"title":"Stairway to ........","ispublic":1,"isfriend":0,"isfamily":0,"ownername":"pav65"},{"id":"30134197977","owner":"133753822@N06","secret":"ccee84d6f6","server":"1964","farm":2,"title":"stairway","ispublic":1,"isfriend":0,"isfamily":0,"ownername":"gunnar kjaeer"},{"id":"7064029425","owner":"61849376@N05","secret":"8c66fdd930","server":"7182","farm":8,"title":"Stairway","ispublic":1,"isfriend":0,"isfamily":0,"ownername":"doganiyice"}]},"stat":"ok"}