{"photos":{"page":1,"pages":86996,"perpage":15,"total":"1304933","photo":[{"id":"17317951241","owner":"127665714@N08","secret":"0bf17f8253","server":"7794","farm":8,"title":"star","ispublic":1,"isfriend":0,"isfamily":0,"ownername":"Kiwi Tom"},{"id":"17004434418","owner":"127665714@N08","secret":"f3c3a4688e","server":"8686","farm":9,"title":"star","ispublic":1,"isfriend":0,"isfamily":0,"ownername":"Kiwi Tom"},{"id":"17210849885","owner":"127665714@N08","secret":"bda04bf6e3","server":"7619","farm":8,"title":"star","ispublic":1,"isfriend":0,"isfamily":0,"ownername":"Kiwi Tom"},{"id":"9010251505","owner":"44912907@N05","secret":"9a53a77526","server":"8116","farm":9,"title":"Star","ispublic":1,"isfriend":0,"isfamily":0,"ownername":"Sunsword & Moonsabre"},{"id":"15459954198","owner":"44912907@N05","secret":"25943c4242","server":"5601","farm":6,"title":"Star","ispublic":1,"isfriend":0,"isfamily":0,"ownername":"Sunsword & Moonsabre"},{"id":"14993052203","owner":"127665714@N08","secret":"7225664712","server":"5613","farm":6,"title":"Star","ispublic":1,"isfriend":0,"isfamily":0,"ownername":"Kiwi Tom"},{"id":"8328873089","owner":"69148745@N02","secret":"4f068a8733","server":"8078","farm":9,"title":"star wars 2013 - may the force be with you! :))","ispublic":1,"isfriend":0,"isfamily":0,"ownername":"land[e]scape"},{"id":"3591792920","owner":"32594277@N04","secret":"9f470f2f6c","server":"3414","farm":4,"title":"Jet Star","ispublic":1,"isfriend":0,"isfamily":0,"ownername":"Kenny Teo (zoompict)"},{"id":"4038502403","owner":"41701386@N08","secret":"36abc69ebe","server":"2460","farm":3,"title":"Star Trails & Ripple Marks","ispublic":1,"isfriend":0,"isfamily":0,"ownername":"Ebrahim Jaber"},{"id":"3835535875","owner":"22475539@N07","secret":"281e538d89","server":"3552","farm":4,"title":"Star Trails","ispublic":1,"isfriend":0,"isfamily":0,"ownername":"Alex Stoen"},{"id":"909594448","owner":"8095819@N06","secret":"d89e5b1279","server":"1017","farm":2,"title":"STAR","ispublic":1,"isfriend":0,"isfamily":0,"ownername":"SigmaOrion"},{"id":"15628951211","owner":"127614610@N07","secret":"65eb02840e","server":"5604","farm":6,"title":"#star","ispublic":1,"isfriend":0,"isfamily":0,"ownername":"ajankurjain"},{"id":"6207043441","owner":"51642560@N02","secret":"7b24994d98","server":"6170","farm":7,"title":"Stars","ispublic":1,"isfriend":0,"isfamily":0,"ownername":"Maria Sinayskaya"},{"id":"2849798887","owner":"28119014@N06","secret":"40a4233f47","server":"3225","farm":4,"title":"Star","ispublic":1,"isfriend":0,"isfamily":0,"ownername":"nolnet"},{"id":"8648456423","owner":"34654941@N02","secret":"a347cbdb29","server":"8102","farm":9,"title":"Star","ispublic":1,"isfriend":0,"isfamily":0,"ownername":"\u0639\u0644\u064a \u0627\u0644\u062d\u0633\u064a\u0646"}]},"stat":"ok"}