{"photos":{"page":1,"pages":24082,"perpage":15,"total":"361221","photo":[{"id":"2835807548","owner":"95141439@N00","secret":"732e249741","server":"3024","farm":4,"title":"Steel","ispublic":1,"isfriend":0,"isfamily":0,"ownername":"funkandjazz"},{"id":"42991024915","owner":"127916163@N05","secret":"f44481f85b","server":"854","farm":1,"title":"Steel","ispublic":1,"isfriend":0,"isfamily":0,"ownername":"meeekn"},{"id":"7564954308","owner":"95141439@N00","secret":"bbc0d447cf","server":"7124","farm":8,"title":"Steel","ispublic":1,"isfriend":0,"isfamily":0,"ownername":"funkandjazz"},{"id":"6170126909","owner":"25399030@N00","secret":"cbcedfbef1","server":"6158","farm":7,"title":"Steel","ispublic":1,"isfriend":0,"isfamily":0,"ownername":"TheHarshTruthOfTheCameraEye"},{"id":"2501157588","owner":"95141439@N00","secret":"6efcaf010a","server":"2313","farm":3,"title":"Steel","ispublic":1,"isfriend":0,"isfamily":0,"ownername":"funkandjazz"},{"id":"35886687743","owner":"37355742@N08","secret":"823220516c","server":"4371","farm":5,"title":"steel","ispublic":1,"isfriend":0,"isfamily":0,"ownername":"Rambynas"},{"id":"582617365","owner":"28396605@N00","secret":"feebd540ec","server":"1264","farm":2,"title":"steel","ispublic":1,"isfriend":0,"isfamily":0,"ownername":"paparutzi"},{"id":"731597747","owner":"95745910@N00","secret":"c0c44b3b95","server":"1108","farm":2,"title":"Steel","ispublic":1,"isfriend":0,"isfamily":0,"ownername":"davydubbit"},{"id":"2893059721","owner":"28396605@N00","secret":"e016d66d07","server":"3203","farm":4,"title":"steel","ispublic":1,"isfriend":0,"isfamily":0,"ownername":"paparutzi"},{"id":"5038314418","owner":"24187172@N06","secret":"8c82928596","server":"4147","farm":5,"title":"steel","ispublic":1,"isfriend":0,"isfamily":0,"ownername":"~novus ordo seclorum~"},{"id":"194031727","owner":"28396605@N00","secret":"5acea6a365","server":"62","farm":1,"title":"steel","ispublic":1,"isfriend":0,"isfamily":0,"ownername":"paparutzi"},{"id":"102416295","owner":"95141439@N00","secret":"e8357e35ba","server":"26","farm":1,"title":"Steel","ispublic":1,"isfriend":0,"isfamily":0,"ownername":"funkandjazz"},{"id":"5284579230","owner":"23185552@N04","secret":"05503d8615","server":"5125","farm":6,"title":"steel","ispublic":1,"isfriend":0,"isfamily":0,"ownername":"gordon gekkoh"},{"id":"2117593865","owner":"28396605@N00","secret":"0c1379c4b6","server":"2101","farm":3,"title":"steel","ispublic":1,"isfriend":0,"isfamily":0,"ownername":"paparutzi"},{"id":"3121058239","owner":"28396605@N00","secret":"a5041dfeb2","server":"3234","farm":4,"title":"steel","ispublic":1,"isfriend":0,"isfamily":0,"ownername":"paparutzi"}]},"stat":"ok"}