{"photos":{"page":1,"pages":1272,"perpage":15,"total":"19066","photo":[{"id":"310255050","owner":"79092780@N00","secret":"278808d3bf","server":"101","farm":1,"title":"Stomach","ispublic":1,"isfriend":0,"isfamily":0,"ownername":"Chris Scales"},{"id":"2723543040","owner":"25922279@N08","secret":"42644e583d","server":"3232","farm":4,"title":"Stomach","ispublic":1,"isfriend":0,"isfamily":0,"ownername":"BlackenedBoy"},{"id":"310257118","owner":"79092780@N00","secret":"c2a379a1dc","server":"108","farm":1,"title":"Stomach","ispublic":1,"isfriend":0,"isfamily":0,"ownername":"Chris Scales"},{"id":"2232150468","owner":"75125403@N00","secret":"ec44abd40f","server":"2121","farm":3,"title":"stomach","ispublic":1,"isfriend":0,"isfamily":0,"ownername":"Divine Harvester"},{"id":"310255643","owner":"79092780@N00","secret":"439bcf1abc","server":"115","farm":1,"title":"Stomach","ispublic":1,"isfriend":0,"isfamily":0,"ownername":"Chris Scales"},{"id":"310255051","owner":"79092780@N00","secret":"7d6655c1ca","server":"99","farm":1,"title":"Stomach","ispublic":1,"isfriend":0,"isfamily":0,"ownername":"Chris Scales"},{"id":"8549045515","owner":"94037151@N08","secret":"5f118eac4e","server":"8096","farm":9,"title":"Stomach","ispublic":1,"isfriend":0,"isfamily":0,"ownername":"Ben Urban"},{"id":"4843549012","owner":"46953839@N08","secret":"8616cbb3d3","server":"4154","farm":5,"title":"flat stomach","ispublic":1,"isfriend":0,"isfamily":0,"ownername":"wellunwell"},{"id":"2724935283","owner":"29172184@N07","secret":"7f2d494f68","server":"3112","farm":4,"title":"sexy-stomach","ispublic":1,"isfriend":0,"isfamily":0,"ownername":"sandrabb"},{"id":"289288836","owner":"78421630@N00","secret":"40a5ddd836","server":"101","farm":1,"title":"Stomach","ispublic":1,"isfriend":0,"isfamily":0,"ownername":"Lilly Popp"},{"id":"4708160637","owner":"51111966@N07","secret":"b8d5114235","server":"1282","farm":2,"title":"stomach piercing","ispublic":1,"isfriend":0,"isfamily":0,"ownername":"TeApoT SeamStrEsS"},{"id":"4137962353","owner":"43226222@N04","secret":"dc0c399ab0","server":"2727","farm":3,"title":"bodyscape: stomach","ispublic":1,"isfriend":0,"isfamily":0,"ownername":"Ajlin91"},{"id":"310159893","owner":"79092780@N00","secret":"23146d7308","server":"115","farm":1,"title":"Stomach @ Attik","ispublic":1,"isfriend":0,"isfamily":0,"ownername":"Chris Scales"},{"id":"310159905","owner":"79092780@N00","secret":"8e2b0bf1a6","server":"105","farm":1,"title":"Stomach @ Attik","ispublic":1,"isfriend":0,"isfamily":0,"ownername":"Chris Scales"},{"id":"371080772","owner":"36879300@N00","secret":"1ef391e42f","server":"175","farm":1,"title":"My Stomach","ispublic":1,"isfriend":0,"isfamily":0,"ownername":"rocket00001"}]},"stat":"ok"}