{"photos":{"page":1,"pages":54734,"perpage":15,"total":"821009","photo":[{"id":"9470572286","owner":"69148745@N02","secret":"11934142e3","server":"7364","farm":8,"title":"stone","ispublic":1,"isfriend":0,"isfamily":0,"ownername":"land[e]scape"},{"id":"8164497699","owner":"69148745@N02","secret":"afbbffcbde","server":"8207","farm":9,"title":"stone","ispublic":1,"isfriend":0,"isfamily":0,"ownername":"land[e]scape"},{"id":"6426488339","owner":"49401900@N03","secret":"c5c89a8c75","server":"6059","farm":7,"title":"Stones","ispublic":1,"isfriend":0,"isfamily":0,"ownername":"Daniel Krausz"},{"id":"6101283396","owner":"47875353@N06","secret":"0bb1f2da9a","server":"6204","farm":7,"title":"Stone","ispublic":1,"isfriend":0,"isfamily":0,"ownername":"uiethma"},{"id":"4815022709","owner":"48637787@N05","secret":"1d31b250f4","server":"4100","farm":5,"title":"Stone","ispublic":1,"isfriend":0,"isfamily":0,"ownername":"Tham3r"},{"id":"45741375402","owner":"85314460@N02","secret":"c54ea75a39","server":"4915","farm":5,"title":"Stones","ispublic":1,"isfriend":0,"isfamily":0,"ownername":"Kari Siren"},{"id":"2547450181","owner":"59191143@N00","secret":"ba1647102f","server":"3266","farm":4,"title":"Stone","ispublic":1,"isfriend":0,"isfamily":0,"ownername":"knightraz0r"},{"id":"24501580358","owner":"137863909@N03","secret":"379e34ba04","server":"4536","farm":5,"title":"Stone","ispublic":1,"isfriend":0,"isfamily":0,"ownername":"askomsoy"},{"id":"4588595328","owner":"24704400@N02","secret":"f17deeb647","server":"4033","farm":5,"title":"stoned","ispublic":1,"isfriend":0,"isfamily":0,"ownername":"! d r a M"},{"id":"7893059194","owner":"61702987@N07","secret":"538e0170fa","server":"8457","farm":9,"title":"Stones","ispublic":1,"isfriend":0,"isfamily":0,"ownername":"Rafee Mizan Khan Chowdhury Niloy"},{"id":"15564187484","owner":"49994169@N06","secret":"262cc81c29","server":"7498","farm":8,"title":"stone","ispublic":1,"isfriend":0,"isfamily":0,"ownername":"www.eurodomen.com"},{"id":"3641031672","owner":"25757100@N08","secret":"370146e18d","server":"3571","farm":4,"title":"stone","ispublic":1,"isfriend":0,"isfamily":0,"ownername":"livanich"},{"id":"8439796413","owner":"28684074@N08","secret":"82ce6c6fe1","server":"8475","farm":9,"title":"Stone","ispublic":1,"isfriend":0,"isfamily":0,"ownername":"xLuzX"},{"id":"6103107777","owner":"80127051@N00","secret":"9252cdb346","server":"6186","farm":7,"title":"Stone","ispublic":1,"isfriend":0,"isfamily":0,"ownername":"patflana"},{"id":"8593623735","owner":"22260062@N07","secret":"c1f449ccd2","server":"8513","farm":9,"title":"Stone","ispublic":1,"isfriend":0,"isfamily":0,"ownername":"Licht & Laune"}]},"stat":"ok"}