{"photos":{"page":1,"pages":26981,"perpage":15,"total":"404704","photo":[{"id":"14277702525","owner":"21692577@N02","secret":"9fb4200562","server":"3819","farm":4,"title":"Store","ispublic":1,"isfriend":0,"isfamily":0,"ownername":"Danny VB"},{"id":"8586873269","owner":"91248320@N04","secret":"c4593630ca","server":"8093","farm":9,"title":"Store","ispublic":1,"isfriend":0,"isfamily":0,"ownername":"Jekurantodistaja"},{"id":"6789863621","owner":"8945641@N02","secret":"1b8d232855","server":"7028","farm":8,"title":"Store","ispublic":1,"isfriend":0,"isfamily":0,"ownername":"MelindaChan ^..^"},{"id":"6789881417","owner":"8945641@N02","secret":"33e31fe76d","server":"7034","farm":8,"title":"Store","ispublic":1,"isfriend":0,"isfamily":0,"ownername":"MelindaChan ^..^"},{"id":"8857399584","owner":"95094679@N03","secret":"87f7f3dec0","server":"8536","farm":9,"title":"Store","ispublic":1,"isfriend":0,"isfamily":0,"ownername":"Patx11"},{"id":"8435855223","owner":"73502260@N04","secret":"3da6639c86","server":"8071","farm":9,"title":"store","ispublic":1,"isfriend":0,"isfamily":0,"ownername":"My corner of the world and beyond"},{"id":"9362912207","owner":"12173213@N00","secret":"b44cffcae9","server":"5467","farm":6,"title":"Store","ispublic":1,"isfriend":0,"isfamily":0,"ownername":"matsuyuki"},{"id":"14495593373","owner":"82924248@N00","secret":"902e702ca2","server":"3902","farm":4,"title":"Le store d\u00e9chir\u00e9","ispublic":1,"isfriend":0,"isfamily":0,"ownername":"BrigitteChanson"},{"id":"16526629459","owner":"130595142@N03","secret":"2dd14e2359","server":"8616","farm":9,"title":"store","ispublic":1,"isfriend":0,"isfamily":0,"ownername":"bennygiant"},{"id":"681265011","owner":"9532520@N03","secret":"85c3063295","server":"1092","farm":2,"title":"STORE","ispublic":1,"isfriend":0,"isfamily":0,"ownername":"nectaria1972"},{"id":"67221491","owner":"54086227@N00","secret":"f85e175ff5","server":"32","farm":1,"title":"store","ispublic":1,"isfriend":0,"isfamily":0,"ownername":"Bernardo Ca\u00fa"},{"id":"5458983090","owner":"58603750@N05","secret":"a38f813217","server":"5255","farm":6,"title":"Store","ispublic":1,"isfriend":0,"isfamily":0,"ownername":"Luca Vagnini"},{"id":"30323920108","owner":"150951795@N04","secret":"a001bd3fb0","server":"1873","farm":2,"title":"store","ispublic":1,"isfriend":0,"isfamily":0,"ownername":"M\u00e9moire2cit\u00e9"},{"id":"4203695934","owner":"64163542@N00","secret":"394c8bc549","server":"2642","farm":3,"title":"Store","ispublic":1,"isfriend":0,"isfamily":0,"ownername":"samirbitt"},{"id":"411671568","owner":"7212420@N07","secret":"a94dcc1cbd","server":"124","farm":1,"title":"store","ispublic":1,"isfriend":0,"isfamily":0,"ownername":"tam09566"}]},"stat":"ok"}