{"photos":{"page":1,"pages":8480,"perpage":15,"total":"127193","photo":[{"id":"5076898576","owner":"7325282@N02","secret":"2a9350d493","server":"4012","farm":5,"title":"strawberry","ispublic":1,"isfriend":0,"isfamily":0,"ownername":"Denim Dave"},{"id":"3886085057","owner":"42118402@N05","secret":"e865130785","server":"3477","farm":4,"title":"Strawberry","ispublic":1,"isfriend":0,"isfamily":0,"ownername":"ceroale"},{"id":"27258895","owner":"41786947@N00","secret":"6b24851a02","server":"22","farm":1,"title":"Strawberry","ispublic":1,"isfriend":0,"isfamily":0,"ownername":"Steven Pam"},{"id":"4226556068","owner":"44355445@N05","secret":"48c276f6da","server":"2673","farm":3,"title":"Strawberry......","ispublic":1,"isfriend":0,"isfamily":0,"ownername":"Nada ..\u2022\u00b0\u00a8 \u2764"},{"id":"11007097824","owner":"102590103@N05","secret":"ee5243e56a","server":"2847","farm":3,"title":"Strawberry","ispublic":1,"isfriend":0,"isfamily":0,"ownername":"Artelsat"},{"id":"6831289010","owner":"76008516@N07","secret":"81817d3770","server":"7191","farm":8,"title":"Strawberry","ispublic":1,"isfriend":0,"isfamily":0,"ownername":"asma_m7md"},{"id":"14347638988","owner":"94902477@N05","secret":"75345ec31e","server":"2933","farm":3,"title":"Strawberry!","ispublic":1,"isfriend":0,"isfamily":0,"ownername":"shannon4462"},{"id":"8443930090","owner":"86381995@N04","secret":"a8fd1bbb1b","server":"8074","farm":9,"title":"Strawberry","ispublic":1,"isfriend":0,"isfamily":0,"ownername":"MKG Photography1"},{"id":"208828045","owner":"17472742@N00","secret":"11c0c32659","server":"71","farm":1,"title":"strawberry","ispublic":1,"isfriend":0,"isfamily":0,"ownername":"Svetlan\u0430Gorlova"},{"id":"8416526174","owner":"62382074@N06","secret":"6b1b19ee1f","server":"8363","farm":9,"title":"Strawberry","ispublic":1,"isfriend":0,"isfamily":0,"ownername":"Julicious"},{"id":"6314577815","owner":"28384182@N08","secret":"a468958881","server":"6227","farm":7,"title":"strawberries....","ispublic":1,"isfriend":0,"isfamily":0,"ownername":"meina lanisy"},{"id":"3453868071","owner":"28306504@N05","secret":"4b82dc96db","server":"3603","farm":4,"title":"Strawberries","ispublic":1,"isfriend":0,"isfamily":0,"ownername":"TimAlosi.com"},{"id":"14097413316","owner":"54864787@N06","secret":"668bbedde5","server":"7392","farm":8,"title":"Strawberry","ispublic":1,"isfriend":0,"isfamily":0,"ownername":"tat.aks"},{"id":"14525271980","owner":"29904651@N07","secret":"2ae3cdecc1","server":"2929","farm":3,"title":"Strawberries","ispublic":1,"isfriend":0,"isfamily":0,"ownername":"Crisp-13"},{"id":"9206700777","owner":"34139186@N04","secret":"ef3398717f","server":"2837","farm":3,"title":"strawberry","ispublic":1,"isfriend":0,"isfamily":0,"ownername":"Bearseye"}]},"stat":"ok"}