{"photos":{"page":1,"pages":4690,"perpage":15,"total":"70349","photo":[{"id":"4751589370","owner":"79673034@N00","secret":"b74767b684","server":"4143","farm":5,"title":"submarine","ispublic":1,"isfriend":0,"isfamily":0,"ownername":"Analog Weapon"},{"id":"17315276891","owner":"65398120@N02","secret":"d0584a6c64","server":"7656","farm":8,"title":"Yellow Submarine","ispublic":1,"isfriend":0,"isfamily":0,"ownername":"Lemon~art"},{"id":"4750949571","owner":"79673034@N00","secret":"e3256f6a43","server":"4100","farm":5,"title":"submarine","ispublic":1,"isfriend":0,"isfamily":0,"ownername":"Analog Weapon"},{"id":"8544110195","owner":"34127415@N07","secret":"91be5ef8bd","server":"8228","farm":9,"title":"Submarine","ispublic":1,"isfriend":0,"isfamily":0,"ownername":"captmolo"},{"id":"6974429762","owner":"72909571@N07","secret":"362b791944","server":"7221","farm":8,"title":"Submarine","ispublic":1,"isfriend":0,"isfamily":0,"ownername":"ed-ingle"},{"id":"5986557942","owner":"55986693@N06","secret":"4116fb068c","server":"6145","farm":7,"title":"Submarine","ispublic":1,"isfriend":0,"isfamily":0,"ownername":"mike skarvinko"},{"id":"6638179135","owner":"28728348@N06","secret":"3cfffc1ecd","server":"7148","farm":8,"title":"submarine","ispublic":1,"isfriend":0,"isfamily":0,"ownername":"tout_moi"},{"id":"4269671254","owner":"45359665@N02","secret":"271940f896","server":"4014","farm":5,"title":"submarine","ispublic":1,"isfriend":0,"isfamily":0,"ownername":"cookiemonster48"},{"id":"4751590958","owner":"79673034@N00","secret":"32e9a5ecd5","server":"4101","farm":5,"title":"submarine","ispublic":1,"isfriend":0,"isfamily":0,"ownername":"Analog Weapon"},{"id":"4751591102","owner":"79673034@N00","secret":"d9ca798698","server":"4080","farm":5,"title":"submarine","ispublic":1,"isfriend":0,"isfamily":0,"ownername":"Analog Weapon"},{"id":"4751589254","owner":"79673034@N00","secret":"797bffe7ce","server":"4094","farm":5,"title":"submarine","ispublic":1,"isfriend":0,"isfamily":0,"ownername":"Analog Weapon"},{"id":"4751589520","owner":"79673034@N00","secret":"b12d4aac8f","server":"4082","farm":5,"title":"submarine","ispublic":1,"isfriend":0,"isfamily":0,"ownername":"Analog Weapon"},{"id":"4750949855","owner":"79673034@N00","secret":"4dd63bac86","server":"4081","farm":5,"title":"submarine","ispublic":1,"isfriend":0,"isfamily":0,"ownername":"Analog Weapon"},{"id":"4231282690","owner":"36310906@N05","secret":"77a4b278b2","server":"2735","farm":3,"title":"submarine","ispublic":1,"isfriend":0,"isfamily":0,"ownername":"My Utopia"},{"id":"762579488","owner":"52869530@N00","secret":"18ed83ccbf","server":"1073","farm":2,"title":"submarine","ispublic":1,"isfriend":0,"isfamily":0,"ownername":"clinton grobler"}]},"stat":"ok"}