{"photos":{"page":1,"pages":227,"perpage":15,"total":"3393","photo":[{"id":"8971964329","owner":"33718942@N07","secret":"b24e8a37ff","server":"2860","farm":3,"title":"Submarine","ispublic":1,"isfriend":0,"isfamily":0,"ownername":"Luke McKernan"},{"id":"4733472041","owner":"51453428@N02","secret":"5ffb23da55","server":"1258","farm":2,"title":"Subs","ispublic":1,"isfriend":0,"isfamily":0,"ownername":"ZooTZbaby"},{"id":"3541283578","owner":"36276159@N04","secret":"1f44d686c4","server":"2058","farm":3,"title":"Submarines","ispublic":1,"isfriend":0,"isfamily":0,"ownername":"ianu88"},{"id":"4138901304","owner":"26712039@N03","secret":"5b1c04b3a9","server":"2624","farm":3,"title":"Russian submarine","ispublic":1,"isfriend":0,"isfamily":0,"ownername":"Plaum"},{"id":"3670937677","owner":"23180324@N03","secret":"f1c3a606a2","server":"3388","farm":4,"title":"lego sub","ispublic":1,"isfriend":0,"isfamily":0,"ownername":"taralees"},{"id":"12762704205","owner":"77267134@N00","secret":"a4a8f97f5b","server":"2870","farm":3,"title":"Ocean Guards , Submarines","ispublic":1,"isfriend":0,"isfamily":0,"ownername":"Grantsviews"},{"id":"7391944138","owner":"69874156@N00","secret":"e396f950ab","server":"7097","farm":8,"title":"Submarines","ispublic":1,"isfriend":0,"isfamily":0,"ownername":"sumrtime"},{"id":"5460285888","owner":"12152135@N07","secret":"6899abc075","server":"5014","farm":6,"title":"The Submarines","ispublic":1,"isfriend":0,"isfamily":0,"ownername":"picksysticks"},{"id":"9013919629","owner":"95436021@N05","secret":"f978ed16fb","server":"2886","farm":3,"title":"2454264240034701087","ispublic":1,"isfriend":0,"isfamily":0,"ownername":"Stevonway"},{"id":"83074066","owner":"95492523@N00","secret":"422978c492","server":"39","farm":1,"title":"submarine reactor compartments","ispublic":1,"isfriend":0,"isfamily":0,"ownername":"Fred Dawson"},{"id":"23537277290","owner":"61580017@N06","secret":"366c70d547","server":"671","farm":1,"title":"Blowing Her Tanks","ispublic":1,"isfriend":0,"isfamily":0,"ownername":"vern Ri"},{"id":"3848416805","owner":"8391678@N07","secret":"304d5bde8a","server":"3539","farm":4,"title":"The Wreck","ispublic":1,"isfriend":0,"isfamily":0,"ownername":"DecoByDesign"},{"id":"6079358559","owner":"24029425@N06","secret":"0472d67372","server":"6068","farm":7,"title":"Submarine","ispublic":1,"isfriend":0,"isfamily":0,"ownername":"Boston Public Library"},{"id":"3527735504","owner":"36998442@N02","secret":"b641a44c1e","server":"2220","farm":3,"title":"Building a submarine","ispublic":1,"isfriend":0,"isfamily":0,"ownername":"tth91702"},{"id":"3284937427","owner":"43835651@N00","secret":"c31b6bfedd","server":"3321","farm":4,"title":"submarines_0112","ispublic":1,"isfriend":0,"isfamily":0,"ownername":"Jonny Leather"}]},"stat":"ok"}