{"photos":{"page":1,"pages":2996,"perpage":15,"total":"44939","photo":[{"id":"43376304335","owner":"110954160@N03","secret":"ddee1f8f13","server":"1872","farm":2,"title":"SUEDE 5","ispublic":1,"isfriend":0,"isfamily":0,"ownername":"Armando ALVES"},{"id":"14684135112","owner":"107461140@N03","secret":"9a84474b09","server":"2895","farm":3,"title":"Chateau de Kalmar- Su\u00e8de-Sweden","ispublic":1,"isfriend":0,"isfamily":0,"ownername":"Trevi971"},{"id":"31622820690","owner":"59591573@N03","secret":"c6a972ac4a","server":"680","farm":1,"title":"Stockholm","ispublic":1,"isfriend":0,"isfamily":0,"ownername":"Arnaud D..."},{"id":"16744081749","owner":"60509750@N08","secret":"df6a330c63","server":"8710","farm":9,"title":"Inside the Stockholm Public Library","ispublic":1,"isfriend":0,"isfamily":0,"ownername":"Maria_Globetrotter"},{"id":"3502059098","owner":"15133799@N02","secret":"d32c0fcf7c","server":"3569","farm":4,"title":"Stureplansgrillen","ispublic":1,"isfriend":0,"isfamily":0,"ownername":"*Kicki*"},{"id":"3600404628","owner":"8320630@N05","secret":"157d590f09","server":"3416","farm":4,"title":"Dalarna - Twilight time at river","ispublic":1,"isfriend":0,"isfamily":0,"ownername":"Olof S"},{"id":"11269156564","owner":"11832221@N00","secret":"9c50c79e2b","server":"3706","farm":4,"title":"Foxterrier on snowy walk","ispublic":1,"isfriend":0,"isfamily":0,"ownername":"T S\u00f6derlund 1.2M views"},{"id":"6335252559","owner":"45816263@N00","secret":"362981708b","server":"6223","farm":7,"title":"Stockholm City Hall, Sweden - Stockholms Stadshus, Sverige","ispublic":1,"isfriend":0,"isfamily":0,"ownername":"Purchase from my Getty Images catalog at best rate"},{"id":"6882093609","owner":"28316736@N03","secret":"f30df013c0","server":"7066","farm":8,"title":"Malmo Castle","ispublic":1,"isfriend":0,"isfamily":0,"ownername":"Colorado Sands"},{"id":"27931601679","owner":"39667036@N02","secret":"43b9b81f13","server":"4668","farm":5,"title":"Stockholm Noir","ispublic":1,"isfriend":0,"isfamily":0,"ownername":"Haf3z"},{"id":"5654713329","owner":"28316736@N03","secret":"1431268871","server":"5026","farm":6,"title":"Springtime in Sweden","ispublic":1,"isfriend":0,"isfamily":0,"ownername":"Colorado Sands"},{"id":"7401824468","owner":"28316736@N03","secret":"f8a7dcdac5","server":"5316","farm":6,"title":"Aquilegia","ispublic":1,"isfriend":0,"isfamily":0,"ownername":"Colorado Sands"},{"id":"2310658722","owner":"11832221@N00","secret":"d46273a214","server":"2010","farm":3,"title":"Swedish forest lake","ispublic":1,"isfriend":0,"isfamily":0,"ownername":"T S\u00f6derlund 1.2M views"},{"id":"6882495663","owner":"28316736@N03","secret":"fca3cb931c","server":"7186","farm":8,"title":"Spring flowers in Sweden","ispublic":1,"isfriend":0,"isfamily":0,"ownername":"Colorado Sands"},{"id":"2114945368","owner":"11832221@N00","secret":"5b3047234a","server":"2280","farm":3,"title":"Winter morning","ispublic":1,"isfriend":0,"isfamily":0,"ownername":"T S\u00f6derlund 1.2M views"}]},"stat":"ok"}