{"photos":{"page":1,"pages":204720,"perpage":15,"total":"3070794","photo":[{"id":"7669499616","owner":"69148745@N02","secret":"c142b5667a","server":"7124","farm":8,"title":"sun","ispublic":1,"isfriend":0,"isfamily":0,"ownername":"land[e]scape"},{"id":"6127002144","owner":"53223004@N04","secret":"256029086f","server":"6078","farm":7,"title":"Sun","ispublic":1,"isfriend":0,"isfamily":0,"ownername":"PAM photography's"},{"id":"7574139810","owner":"69148745@N02","secret":"73ef996691","server":"7139","farm":8,"title":"sun","ispublic":1,"isfriend":0,"isfamily":0,"ownername":"land[e]scape"},{"id":"7153154355","owner":"69148745@N02","secret":"9969049b51","server":"8162","farm":9,"title":"sun","ispublic":1,"isfriend":0,"isfamily":0,"ownername":"land[e]scape"},{"id":"8161055752","owner":"80226011@N06","secret":"4a99d560fb","server":"8208","farm":9,"title":"sun","ispublic":1,"isfriend":0,"isfamily":0,"ownername":"Blueocean64"},{"id":"5724709161","owner":"62752127@N03","secret":"90542a91f3","server":"3562","farm":4,"title":"sun","ispublic":1,"isfriend":0,"isfamily":0,"ownername":"yta2"},{"id":"8019458574","owner":"69148745@N02","secret":"9f15bcc994","server":"8303","farm":9,"title":"sun","ispublic":1,"isfriend":0,"isfamily":0,"ownername":"land[e]scape"},{"id":"7751064120","owner":"69148745@N02","secret":"7bd1e01560","server":"8426","farm":9,"title":"sun","ispublic":1,"isfriend":0,"isfamily":0,"ownername":"land[e]scape"},{"id":"7689299906","owner":"69148745@N02","secret":"ba08c98929","server":"8009","farm":9,"title":"sun","ispublic":1,"isfriend":0,"isfamily":0,"ownername":"land[e]scape"},{"id":"16299121659","owner":"130505573@N08","secret":"08dd8ef2b1","server":"8634","farm":9,"title":"Sun","ispublic":1,"isfriend":0,"isfamily":0,"ownername":"Robert \u0106wikli\u0144ski"},{"id":"5531537339","owner":"24252031@N08","secret":"f504b84815","server":"5137","farm":6,"title":"SUN","ispublic":1,"isfriend":0,"isfamily":0,"ownername":"*..AC.Reb..*"},{"id":"5795192960","owner":"32698481@N02","secret":"b783a252cb","server":"2679","farm":3,"title":"Sun","ispublic":1,"isfriend":0,"isfamily":0,"ownername":"BrunoAmaru"},{"id":"2570946831","owner":"25056884@N04","secret":"0aa04f32d7","server":"3075","farm":4,"title":"sun","ispublic":1,"isfriend":0,"isfamily":0,"ownername":"angelfoster2000"},{"id":"423569806","owner":"7107327@N05","secret":"1ecb858556","server":"169","farm":1,"title":"Sun","ispublic":1,"isfriend":0,"isfamily":0,"ownername":"J-Fish"},{"id":"27692453376","owner":"80226011@N06","secret":"bb40ba37c9","server":"7733","farm":8,"title":"sun","ispublic":1,"isfriend":0,"isfamily":0,"ownername":"Blueocean64"}]},"stat":"ok"}