{"photos":{"page":1,"pages":307436,"perpage":15,"total":"4611533","photo":[{"id":"6276153988","owner":"24500807@N04","secret":"085bbff331","server":"6031","farm":7,"title":"Sunset","ispublic":1,"isfriend":0,"isfamily":0,"ownername":"-yury-"},{"id":"13950009560","owner":"80226011@N06","secret":"ab3b899f0e","server":"7313","farm":8,"title":"sunset","ispublic":1,"isfriend":0,"isfamily":0,"ownername":"Blueocean64"},{"id":"16259804256","owner":"21692577@N02","secret":"c79a34126a","server":"7486","farm":8,"title":"sunset","ispublic":1,"isfriend":0,"isfamily":0,"ownername":"Danny VB"},{"id":"16091166320","owner":"21692577@N02","secret":"05ee928683","server":"7471","farm":8,"title":"sunset","ispublic":1,"isfriend":0,"isfamily":0,"ownername":"Danny VB"},{"id":"8460662647","owner":"21692577@N02","secret":"faef6c2d13","server":"8521","farm":9,"title":"sunset","ispublic":1,"isfriend":0,"isfamily":0,"ownername":"Danny VB"},{"id":"9954054955","owner":"80226011@N06","secret":"0d3d6f9946","server":"3779","farm":4,"title":"sunset","ispublic":1,"isfriend":0,"isfamily":0,"ownername":"Blueocean64"},{"id":"14742434716","owner":"62118446@N03","secret":"fb77f5a3be","server":"3878","farm":4,"title":"sunset","ispublic":1,"isfriend":0,"isfamily":0,"ownername":"cbrutel"},{"id":"5358433081","owner":"54475674@N04","secret":"40d8cea388","server":"5209","farm":6,"title":"sunset","ispublic":1,"isfriend":0,"isfamily":0,"ownername":"teewee93"},{"id":"6231928332","owner":"31383131@N07","secret":"49101fac40","server":"6109","farm":7,"title":"Sunset","ispublic":1,"isfriend":0,"isfamily":0,"ownername":"tnekralc"},{"id":"6208837708","owner":"21692577@N02","secret":"2f3e6435bf","server":"6119","farm":7,"title":"sunset","ispublic":1,"isfriend":0,"isfamily":0,"ownername":"Danny VB"},{"id":"7347536150","owner":"32594277@N04","secret":"5f0985f9bd","server":"7220","farm":8,"title":"sunset","ispublic":1,"isfriend":0,"isfamily":0,"ownername":"Kenny Teo (zoompict)"},{"id":"14483653836","owner":"76505842@N05","secret":"48db8e45a4","server":"2924","farm":3,"title":"sunset","ispublic":1,"isfriend":0,"isfamily":0,"ownername":"Paul_Forsyth"},{"id":"14348956216","owner":"121789109@N03","secret":"1325d4130c","server":"3879","farm":4,"title":"Sunset","ispublic":1,"isfriend":0,"isfamily":0,"ownername":"nesnetsirhc"},{"id":"5564419916","owner":"21692577@N02","secret":"545bd981a9","server":"5093","farm":6,"title":"sunset","ispublic":1,"isfriend":0,"isfamily":0,"ownername":"Danny VB"},{"id":"5576002841","owner":"54119344@N08","secret":"7c425e9d8a","server":"5092","farm":6,"title":"SUNSET","ispublic":1,"isfriend":0,"isfamily":0,"ownername":"Parsstudio"}]},"stat":"ok"}