{"photos":{"page":1,"pages":18714,"perpage":15,"total":"280709","photo":[{"id":"6806071644","owner":"54196590@N04","secret":"b40991d543","server":"7201","farm":8,"title":"Swan","ispublic":1,"isfriend":0,"isfamily":0,"ownername":"trev.pix"},{"id":"7464844876","owner":"69148745@N02","secret":"a7299635ec","server":"8010","farm":9,"title":"swans","ispublic":1,"isfriend":0,"isfamily":0,"ownername":"land[e]scape"},{"id":"6522877647","owner":"21644167@N04","secret":"394688e8f3","server":"7146","farm":8,"title":"Swan","ispublic":1,"isfriend":0,"isfamily":0,"ownername":"Bahman Farzad"},{"id":"6365247875","owner":"21644167@N04","secret":"58b7422156","server":"6035","farm":7,"title":"Swan","ispublic":1,"isfriend":0,"isfamily":0,"ownername":"Bahman Farzad"},{"id":"9231084694","owner":"39270801@N06","secret":"f4a8ded2b5","server":"2882","farm":3,"title":"swan","ispublic":1,"isfriend":0,"isfamily":0,"ownername":"Yagosan"},{"id":"6989730758","owner":"69148745@N02","secret":"def63abe99","server":"8015","farm":9,"title":"swans","ispublic":1,"isfriend":0,"isfamily":0,"ownername":"land[e]scape"},{"id":"39385529024","owner":"108382282@N04","secret":"54be9d5f1f","server":"4723","farm":5,"title":"swan","ispublic":1,"isfriend":0,"isfamily":0,"ownername":"maj-lis photo"},{"id":"6322894005","owner":"69148745@N02","secret":"95b1cf6d82","server":"6240","farm":7,"title":"swans","ispublic":1,"isfriend":0,"isfamily":0,"ownername":"land[e]scape"},{"id":"6892502258","owner":"78114851@N05","secret":"aacc91a2e6","server":"7210","farm":8,"title":"swan.","ispublic":1,"isfriend":0,"isfamily":0,"ownername":"Tony2035"},{"id":"6886140156","owner":"69148745@N02","secret":"a316f3420c","server":"7276","farm":8,"title":"swans","ispublic":1,"isfriend":0,"isfamily":0,"ownername":"land[e]scape"},{"id":"6798401024","owner":"69148745@N02","secret":"f961811acf","server":"7062","farm":8,"title":"swans","ispublic":1,"isfriend":0,"isfamily":0,"ownername":"land[e]scape"},{"id":"9427308654","owner":"69148745@N02","secret":"47f3cdd2a9","server":"7374","farm":8,"title":"swan","ispublic":1,"isfriend":0,"isfamily":0,"ownername":"land[e]scape"},{"id":"3455064719","owner":"21644167@N04","secret":"fa7fe8b2ff","server":"3404","farm":4,"title":"Swan","ispublic":1,"isfriend":0,"isfamily":0,"ownername":"Bahman Farzad"},{"id":"7221887360","owner":"69148745@N02","secret":"6305546b02","server":"5038","farm":6,"title":"swans","ispublic":1,"isfriend":0,"isfamily":0,"ownername":"land[e]scape"},{"id":"14659544698","owner":"61071597@N06","secret":"1a2985135f","server":"5562","farm":6,"title":"Swan","ispublic":1,"isfriend":0,"isfamily":0,"ownername":"Nina \u221e"}]},"stat":"ok"}