{"photos":{"page":1,"pages":39931,"perpage":15,"total":"598960","photo":[{"id":"5464342385","owner":"29248158@N06","secret":"20044f6aa5","server":"5017","farm":6,"title":"Sweet","ispublic":1,"isfriend":0,"isfamily":0,"ownername":"Soledad Garcia Salas"},{"id":"2690100154","owner":"14107738@N07","secret":"f8f30f3c71","server":"3011","farm":4,"title":"Sweet","ispublic":1,"isfriend":0,"isfamily":0,"ownername":"marcmo"},{"id":"38041933375","owner":"138515866@N07","secret":"5a3ecf0319","server":"4561","farm":5,"title":"Sweet","ispublic":1,"isfriend":0,"isfamily":0,"ownername":"photalena"},{"id":"6322960285","owner":"8103329@N06","secret":"db3db95194","server":"6054","farm":7,"title":"sweet","ispublic":1,"isfriend":0,"isfamily":0,"ownername":"Reyes Arribas"},{"id":"3727969063","owner":"38022168@N03","secret":"7be7b4358e","server":"3529","farm":4,"title":"sweet","ispublic":1,"isfriend":0,"isfamily":0,"ownername":"\u00b0\u00a4*(\u00af`\u00b0Colombita\u00b0\u00b4\u00af)*\u00a4\u00b0"},{"id":"5941516463","owner":"44299493@N07","secret":"3a2ea64525","server":"6150","farm":7,"title":"sweet","ispublic":1,"isfriend":0,"isfamily":0,"ownername":"eldiablo.coffee"},{"id":"5240984428","owner":"68242587@N00","secret":"8901b9799d","server":"5082","farm":6,"title":"sweet december","ispublic":1,"isfriend":0,"isfamily":0,"ownername":"e.kristina"},{"id":"6720548891","owner":"64159303@N05","secret":"2cae8876de","server":"7009","farm":8,"title":"sweet","ispublic":1,"isfriend":0,"isfamily":0,"ownername":"da3doo3a"},{"id":"7805338628","owner":"12246329@N02","secret":"83d628be84","server":"8446","farm":9,"title":"Sweet","ispublic":1,"isfriend":0,"isfamily":0,"ownername":"*Caity*"},{"id":"4767391209","owner":"86454609@N00","secret":"d7a12902f7","server":"4102","farm":5,"title":"Sweet","ispublic":1,"isfriend":0,"isfamily":0,"ownername":"!.Keesssss.!"},{"id":"33537294431","owner":"60741990@N02","secret":"dbcbae92ca","server":"2839","farm":3,"title":"Sweet","ispublic":1,"isfriend":0,"isfamily":0,"ownername":"TaziAnneHolly"},{"id":"33721571911","owner":"32602501@N08","secret":"53441c3838","server":"2896","farm":3,"title":"Sweet","ispublic":1,"isfriend":0,"isfamily":0,"ownername":"K@tte"},{"id":"26251150753","owner":"29835831@N02","secret":"77cbd68632","server":"7594","farm":8,"title":"sweet","ispublic":1,"isfriend":0,"isfamily":0,"ownername":"3OPAHA"},{"id":"14031035316","owner":"74181341@N02","secret":"701a4c632b","server":"7080","farm":8,"title":"So Sweet","ispublic":1,"isfriend":0,"isfamily":0,"ownername":"Daisyd80"},{"id":"3813866039","owner":"28288969@N03","secret":"db264a5911","server":"3500","farm":4,"title":"sweety","ispublic":1,"isfriend":0,"isfamily":0,"ownername":"\u00a9 GunTS 2"}]},"stat":"ok"}