{"photos":{"page":1,"pages":797,"perpage":15,"total":"11954","photo":[{"id":"1688636909","owner":"11940845@N06","secret":"6466ea6dfa","server":"2034","farm":3,"title":"Sweep","ispublic":1,"isfriend":0,"isfamily":0,"ownername":"papageno2236"},{"id":"8287266559","owner":"11994036@N00","secret":"ee872a2a79","server":"8067","farm":9,"title":"Sweeps!","ispublic":1,"isfriend":0,"isfamily":0,"ownername":"co-ophistorian"},{"id":"5088111367","owner":"28852600@N03","secret":"811f86098f","server":"4149","farm":5,"title":"Sweep","ispublic":1,"isfriend":0,"isfamily":0,"ownername":"Ellen Soohoo"},{"id":"8933693400","owner":"70923971@N00","secret":"ec035d061d","server":"3798","farm":4,"title":"Sweep","ispublic":1,"isfriend":0,"isfamily":0,"ownername":"alistairh"},{"id":"5239570238","owner":"56743389@N04","secret":"b8da776a3c","server":"5203","farm":6,"title":"Sweep","ispublic":1,"isfriend":0,"isfamily":0,"ownername":"charlie.esclapez"},{"id":"7748204064","owner":"84589280@N05","secret":"19229b0198","server":"8447","farm":9,"title":"Sweep","ispublic":1,"isfriend":0,"isfamily":0,"ownername":"Anastasija Sokola"},{"id":"14800755032","owner":"83073875@N00","secret":"bd83385ab0","server":"2912","farm":3,"title":"Sweep","ispublic":1,"isfriend":0,"isfamily":0,"ownername":"Siyah Kedi Photography"},{"id":"4431907977","owner":"48383581@N02","secret":"15c287cd66","server":"4057","farm":5,"title":"Sweep","ispublic":1,"isfriend":0,"isfamily":0,"ownername":"Hayley Milky"},{"id":"6817334449","owner":"70923689@N03","secret":"b35bc6a68b","server":"7145","farm":8,"title":"Sweep","ispublic":1,"isfriend":0,"isfamily":0,"ownername":"ourdisneydays"},{"id":"15884508525","owner":"82189279@N04","secret":"10dfa18b98","server":"8593","farm":9,"title":"sweep","ispublic":1,"isfriend":0,"isfamily":0,"ownername":"mjwpix"},{"id":"33505980432","owner":"129875695@N02","secret":"bf9d6991e8","server":"3952","farm":4,"title":"Clean Sweep","ispublic":1,"isfriend":0,"isfamily":0,"ownername":"larry_shone"},{"id":"3248686754","owner":"22414033@N02","secret":"ac67023739","server":"3266","farm":4,"title":"Sweep","ispublic":1,"isfriend":0,"isfamily":0,"ownername":"Ling H"},{"id":"32369760906","owner":"90334959@N06","secret":"5a12f1605e","server":"566","farm":1,"title":"#sweep","ispublic":1,"isfriend":0,"isfamily":0,"ownername":"Scopello4"},{"id":"7882068744","owner":"11003832@N04","secret":"3d49eefc0d","server":"7108","farm":8,"title":"sweep","ispublic":1,"isfriend":0,"isfamily":0,"ownername":"simonlowephoto"},{"id":"5172499263","owner":"22312769@N07","secret":"f086fb6c87","server":"4111","farm":5,"title":"Sweep","ispublic":1,"isfriend":0,"isfamily":0,"ownername":"sadeik"}]},"stat":"ok"}