{"photos":{"page":1,"pages":2888,"perpage":15,"total":"43306","photo":[{"id":"34091479","owner":"14328978@N00","secret":"f811d291bb","server":"21","farm":1,"title":"Talking","ispublic":1,"isfriend":0,"isfamily":0,"ownername":"CedricHound"},{"id":"104033969","owner":"88702714@N00","secret":"af82838a81","server":"38","farm":1,"title":"talking","ispublic":1,"isfriend":0,"isfamily":0,"ownername":"H3CT02"},{"id":"10425854753","owner":"104994276@N08","secret":"7b70261276","server":"7402","farm":8,"title":"Talking","ispublic":1,"isfriend":0,"isfamily":0,"ownername":"jordanalyse18"},{"id":"3943073417","owner":"23892873@N03","secret":"d5ddc2c5d3","server":"2648","farm":3,"title":"Talking","ispublic":1,"isfriend":0,"isfamily":0,"ownername":"lah vee en rose"},{"id":"5193910733","owner":"55565425@N05","secret":"d0bbf1ca70","server":"4152","farm":5,"title":"Talking","ispublic":1,"isfriend":0,"isfamily":0,"ownername":"_Wolf Photos"},{"id":"7861760830","owner":"36598456@N03","secret":"8743007035","server":"8443","farm":9,"title":"Talking","ispublic":1,"isfriend":0,"isfamily":0,"ownername":"kana hata"},{"id":"6261395141","owner":"68691521@N03","secret":"a5c52dc093","server":"6228","farm":7,"title":"talking","ispublic":1,"isfriend":0,"isfamily":0,"ownername":"Plainstar"},{"id":"4166913180","owner":"56514775@N00","secret":"2fe7d9678c","server":"2564","farm":3,"title":"Talking","ispublic":1,"isfriend":0,"isfamily":0,"ownername":"reesedixon"},{"id":"2688173341","owner":"21822319@N00","secret":"cc5d7cd7e1","server":"3054","farm":4,"title":"Talking.","ispublic":1,"isfriend":0,"isfamily":0,"ownername":"benessere"},{"id":"1470141190","owner":"8322872@N02","secret":"18c853479e","server":"1057","farm":2,"title":"Talking","ispublic":1,"isfriend":0,"isfamily":0,"ownername":"rick.alarcon"},{"id":"6668770725","owner":"73980569@N06","secret":"43cf834434","server":"7168","farm":8,"title":"talking...","ispublic":1,"isfriend":0,"isfamily":0,"ownername":"Vobramshi"},{"id":"2609033356","owner":"27349472@N00","secret":"0dbdccf0c8","server":"3212","farm":4,"title":"Talking","ispublic":1,"isfriend":0,"isfamily":0,"ownername":"Alli Rense"},{"id":"5375475418","owner":"54139535@N02","secret":"4e557d2cf9","server":"5081","farm":6,"title":"talking","ispublic":1,"isfriend":0,"isfamily":0,"ownername":"RummanAhmed"},{"id":"9114289879","owner":"12288280@N05","secret":"e771dc5262","server":"5338","farm":6,"title":"Talking","ispublic":1,"isfriend":0,"isfamily":0,"ownername":"ftwentytwo"},{"id":"8715209194","owner":"94139901@N08","secret":"9f5d3fa3b6","server":"7413","farm":8,"title":"Talking","ispublic":1,"isfriend":0,"isfamily":0,"ownername":"mekrecenlosenanos"}]},"stat":"ok"}