{"photos":{"page":1,"pages":1284,"perpage":15,"total":"19254","photo":[{"id":"35826270","owner":"75424716@N00","secret":"6beb2a259e","server":"29","farm":1,"title":"Tangle","ispublic":1,"isfriend":0,"isfamily":0,"ownername":"publicenergy"},{"id":"10850022073","owner":"28409144@N06","secret":"c3d83aafe6","server":"3824","farm":4,"title":"Tangle","ispublic":1,"isfriend":0,"isfamily":0,"ownername":"Paul J Chapman Photography"},{"id":"6089643903","owner":"66886148@N03","secret":"c776f54fce","server":"6183","farm":7,"title":"Tangled","ispublic":1,"isfriend":0,"isfamily":0,"ownername":"MyLoveStoryBegins"},{"id":"5150033139","owner":"50924114@N02","secret":"96c0975cf5","server":"1147","farm":2,"title":"Tangled","ispublic":1,"isfriend":0,"isfamily":0,"ownername":"mattandjax"},{"id":"4265207645","owner":"40467641@N08","secret":"a25b6a3df5","server":"4065","farm":5,"title":"Tangled","ispublic":1,"isfriend":0,"isfamily":0,"ownername":"alexjlockwood"},{"id":"35828761080","owner":"81950116@N07","secret":"82535684fd","server":"4319","farm":5,"title":"Tangled two","ispublic":1,"isfriend":0,"isfamily":0,"ownername":"JossieK"},{"id":"8334131811","owner":"43837330@N04","secret":"7145b07ed2","server":"8498","farm":9,"title":"Tangled","ispublic":1,"isfriend":0,"isfamily":0,"ownername":"dragosisters"},{"id":"34740839830","owner":"150869313@N04","secret":"5d3768d84f","server":"4279","farm":5,"title":"Tangled tower","ispublic":1,"isfriend":0,"isfamily":0,"ownername":"shellfish152"},{"id":"6280895881","owner":"64785834@N08","secret":"38f117e621","server":"6040","farm":7,"title":"Tangled","ispublic":1,"isfriend":0,"isfamily":0,"ownername":"lindseyoneil-"},{"id":"5235654332","owner":"56700169@N04","secret":"bd7ef7f863","server":"5088","farm":6,"title":"Tangled!","ispublic":1,"isfriend":0,"isfamily":0,"ownername":"tuziitahmonster"},{"id":"8921029120","owner":"22459634@N03","secret":"baccac5d3d","server":"7382","farm":8,"title":"Tangled","ispublic":1,"isfriend":0,"isfamily":0,"ownername":"K's fondant Cakes"},{"id":"5491149726","owner":"50705340@N00","secret":"2a4433fc5e","server":"5213","farm":6,"title":"Tangled","ispublic":1,"isfriend":0,"isfamily":0,"ownername":"littleclara"},{"id":"6027844229","owner":"66183964@N02","secret":"27b91121ff","server":"6132","farm":7,"title":"Tangled","ispublic":1,"isfriend":0,"isfamily":0,"ownername":"amberleegochoel"},{"id":"5387808313","owner":"46332129@N06","secret":"24d70acb3a","server":"5174","farm":6,"title":"tangled.","ispublic":1,"isfriend":0,"isfamily":0,"ownername":"Phillip Schumacher"},{"id":"46799665142","owner":"159755598@N08","secret":"41b73d36c4","server":"4896","farm":5,"title":"Tangled Trees","ispublic":1,"isfriend":0,"isfamily":0,"ownername":"PIXTOART"}]},"stat":"ok"}