{"photos":{"page":1,"pages":33560,"perpage":15,"total":"503395","photo":[{"id":"10290808645","owner":"104306873@N02","secret":"d9d517bf47","server":"2884","farm":3,"title":"Tattoo","ispublic":1,"isfriend":0,"isfamily":0,"ownername":"govedaricalazar"},{"id":"8723743983","owner":"87169779@N05","secret":"5103c78c81","server":"7333","farm":8,"title":"Tattoo","ispublic":1,"isfriend":0,"isfamily":0,"ownername":"Krystal Holly"},{"id":"3910329934","owner":"36144813@N05","secret":"b36cb04ae2","server":"2541","farm":3,"title":"Tattoo","ispublic":1,"isfriend":0,"isfamily":0,"ownername":"gabybell"},{"id":"3139539380","owner":"17784390@N00","secret":"8644e7f415","server":"3221","farm":4,"title":"Tattoo","ispublic":1,"isfriend":0,"isfamily":0,"ownername":"Christine Mitchell Photography"},{"id":"10290820575","owner":"104306873@N02","secret":"7b66599823","server":"2870","farm":3,"title":"Tattoo","ispublic":1,"isfriend":0,"isfamily":0,"ownername":"govedaricalazar"},{"id":"2580202984","owner":"24439990@N03","secret":"f944d1cb17","server":"3159","farm":4,"title":"Tattoo","ispublic":1,"isfriend":0,"isfamily":0,"ownername":"P_mod"},{"id":"10290720224","owner":"104306873@N02","secret":"c218c2487d","server":"7303","farm":8,"title":"Tattoo","ispublic":1,"isfriend":0,"isfamily":0,"ownername":"govedaricalazar"},{"id":"2321324762","owner":"14502591@N08","secret":"7c79049aa9","server":"3135","farm":4,"title":"Tattoo","ispublic":1,"isfriend":0,"isfamily":0,"ownername":"Evalula"},{"id":"10290922873","owner":"104306873@N02","secret":"679cdf9c1e","server":"5549","farm":6,"title":"Tattoo","ispublic":1,"isfriend":0,"isfamily":0,"ownername":"govedaricalazar"},{"id":"7009119579","owner":"76461575@N08","secret":"e64db441aa","server":"7064","farm":8,"title":"Tattoo","ispublic":1,"isfriend":0,"isfamily":0,"ownername":"lauraxxx2012"},{"id":"4277116241","owner":"65854853@N00","secret":"4dfd21bb9f","server":"4012","farm":5,"title":"Tattoo","ispublic":1,"isfriend":0,"isfamily":0,"ownername":"wavingtoanimals"},{"id":"3839424447","owner":"41643409@N05","secret":"0fe7ea5314","server":"2603","farm":3,"title":"tattoo","ispublic":1,"isfriend":0,"isfamily":0,"ownername":"bodyshoptattoo"},{"id":"5061423119","owner":"28009724@N04","secret":"7a4ae1166b","server":"4109","farm":5,"title":"Tattoo","ispublic":1,"isfriend":0,"isfamily":0,"ownername":"FedeTattoo"},{"id":"3787386884","owner":"26646917@N03","secret":"f6c979e8fc","server":"3562","farm":4,"title":"Tattoo","ispublic":1,"isfriend":0,"isfamily":0,"ownername":"swampsboy"},{"id":"6825716731","owner":"76053590@N08","secret":"59d188562a","server":"7018","farm":8,"title":"tattoo","ispublic":1,"isfriend":0,"isfamily":0,"ownername":"G-Dev"}]},"stat":"ok"}