{"photos":{"page":1,"pages":10967,"perpage":15,"total":"164505","photo":[{"id":"11494388146","owner":"92836273@N03","secret":"bee20f0dd9","server":"5505","farm":6,"title":"TAXIS","ispublic":1,"isfriend":0,"isfamily":0,"ownername":"VITE007"},{"id":"34800316043","owner":"78322331@N06","secret":"4f68a4c194","server":"4131","farm":5,"title":"taxi","ispublic":1,"isfriend":0,"isfamily":0,"ownername":"s_inagaki"},{"id":"4601175932","owner":"21692577@N02","secret":"a0e3b636d2","server":"1321","farm":2,"title":"Taxi","ispublic":1,"isfriend":0,"isfamily":0,"ownername":"Danny VB"},{"id":"15881359324","owner":"51186242@N00","secret":"788fd50e89","server":"8602","farm":9,"title":"TAXI","ispublic":1,"isfriend":0,"isfamily":0,"ownername":"Arimm"},{"id":"3614018400","owner":"89541519@N00","secret":"4c162525ea","server":"3561","farm":4,"title":"TaXi ...!","ispublic":1,"isfriend":0,"isfamily":0,"ownername":"bortac"},{"id":"3563260873","owner":"16447874@N02","secret":"a70f90da24","server":"3341","farm":4,"title":"TAXI","ispublic":1,"isfriend":0,"isfamily":0,"ownername":"kate053 (peu pr\u00e9sente)"},{"id":"21011791","owner":"30179211@N00","secret":"438787f8a7","server":"16","farm":1,"title":"TAXI","ispublic":1,"isfriend":0,"isfamily":0,"ownername":"_rugoso"},{"id":"2532343396","owner":"53977130@N00","secret":"0d5ca18ae3","server":"2241","farm":3,"title":"T\u00e1xi!","ispublic":1,"isfriend":0,"isfamily":0,"ownername":"cristinavsilva"},{"id":"13668375654","owner":"35229854@N05","secret":"8d95848b41","server":"3807","farm":4,"title":"Taxi","ispublic":1,"isfriend":0,"isfamily":0,"ownername":"haingoniony"},{"id":"5386221554","owner":"21692577@N02","secret":"a892ca9d21","server":"5213","farm":6,"title":"Taxi","ispublic":1,"isfriend":0,"isfamily":0,"ownername":"Danny VB"},{"id":"5343559631","owner":"49146869@N07","secret":"1086a6c82b","server":"5162","farm":6,"title":"Taxi","ispublic":1,"isfriend":0,"isfamily":0,"ownername":"wadea yamani PHOTOGRAPHY\u200e"},{"id":"15062543027","owner":"116928554@N07","secret":"4247f905e5","server":"3845","farm":4,"title":"Taxi....","ispublic":1,"isfriend":0,"isfamily":0,"ownername":"Captain Dibbles Pace Stick"},{"id":"5457342162","owner":"11684058@N03","secret":"645e34574d","server":"5295","farm":6,"title":"taxi","ispublic":1,"isfriend":0,"isfamily":0,"ownername":"Massimo Fabrizio"},{"id":"32016639518","owner":"28745391@N05","secret":"f2b1db1aa5","server":"4855","farm":5,"title":"TAXI !!!!!!","ispublic":1,"isfriend":0,"isfamily":0,"ownername":"miss gecko"},{"id":"7166365161","owner":"54227123@N04","secret":"af22e9a227","server":"7234","farm":8,"title":"TAXI","ispublic":1,"isfriend":0,"isfamily":0,"ownername":"glorygg"}]},"stat":"ok"}