{"photos":{"page":1,"pages":22891,"perpage":15,"total":"343361","photo":[{"id":"5660143060","owner":"7302840@N04","secret":"c3b384d1cf","server":"5025","farm":6,"title":"Tea","ispublic":1,"isfriend":0,"isfamily":0,"ownername":"beautysmuse"},{"id":"6641775787","owner":"64650448@N06","secret":"eae4049944","server":"7025","farm":8,"title":"Tea","ispublic":1,"isfriend":0,"isfamily":0,"ownername":"Aimeecurrantbun"},{"id":"7493104346","owner":"42842042@N08","secret":"726ee0b6e0","server":"8142","farm":9,"title":"tea","ispublic":1,"isfriend":0,"isfamily":0,"ownername":"Viktorija_k"},{"id":"46005560","owner":"18295242@N00","secret":"8d3e17e569","server":"31","farm":1,"title":"Tea","ispublic":1,"isfriend":0,"isfamily":0,"ownername":"Laurel Fan"},{"id":"5923570747","owner":"64619110@N05","secret":"14b9fa1c0c","server":"6134","farm":7,"title":"Tea","ispublic":1,"isfriend":0,"isfamily":0,"ownername":"ningyuc"},{"id":"6942792644","owner":"33204163@N00","secret":"02272b52dc","server":"5200","farm":6,"title":"tea","ispublic":1,"isfriend":0,"isfamily":0,"ownername":"mitayuu"},{"id":"5288109885","owner":"41444917@N07","secret":"c5ecc255f7","server":"5049","farm":6,"title":"Tea","ispublic":1,"isfriend":0,"isfamily":0,"ownername":"Jared Hatch"},{"id":"4425864169","owner":"7194536@N02","secret":"b0b03e674b","server":"4038","farm":5,"title":"tea","ispublic":1,"isfriend":0,"isfamily":0,"ownername":"Julia Manzerova"},{"id":"1689802946","owner":"74192429@N00","secret":"f8373fd3eb","server":"2049","farm":3,"title":"Tea","ispublic":1,"isfriend":0,"isfamily":0,"ownername":"Jo_Blogs"},{"id":"6911703420","owner":"23360851@N04","secret":"cb6b5921b6","server":"5336","farm":6,"title":"Tea!","ispublic":1,"isfriend":0,"isfamily":0,"ownername":"soosee."},{"id":"5330498453","owner":"94101511@N00","secret":"e85910f510","server":"5282","farm":6,"title":"Tea","ispublic":1,"isfriend":0,"isfamily":0,"ownername":"wildolive"},{"id":"11637619966","owner":"106979740@N03","secret":"b78474095d","server":"2894","farm":3,"title":"Tea","ispublic":1,"isfriend":0,"isfamily":0,"ownername":"Cooper LeComp Photography"},{"id":"13713859935","owner":"82676507@N08","secret":"68d858ccae","server":"7056","farm":8,"title":"tea","ispublic":1,"isfriend":0,"isfamily":0,"ownername":"surya8310"},{"id":"5766052002","owner":"53357840@N02","secret":"4f221e1472","server":"5226","farm":6,"title":"tea","ispublic":1,"isfriend":0,"isfamily":0,"ownername":"found and sewn"},{"id":"24780517535","owner":"46842345@N07","secret":"7409b10d4c","server":"1559","farm":2,"title":"Tea","ispublic":1,"isfriend":0,"isfamily":0,"ownername":"Elisue's world..."}]},"stat":"ok"}