{"photos":{"page":1,"pages":6048,"perpage":15,"total":"90708","photo":[{"id":"2018663891","owner":"12836528@N00","secret":"882b3ff7f1","server":"2287","farm":3,"title":"Teacher","ispublic":1,"isfriend":0,"isfamily":0,"ownername":"kevin dooley"},{"id":"6214494451","owner":"61929320@N04","secret":"5e4a42b5ee","server":"6216","farm":7,"title":"teacher","ispublic":1,"isfriend":0,"isfamily":0,"ownername":"sofiadelmare"},{"id":"943677949","owner":"15828127@N00","secret":"9ddb60cab4","server":"1247","farm":2,"title":"teacher","ispublic":1,"isfriend":0,"isfamily":0,"ownername":"Contra Costa Times"},{"id":"2156311993","owner":"22400207@N06","secret":"b5186b980d","server":"2199","farm":3,"title":"Teacher","ispublic":1,"isfriend":0,"isfamily":0,"ownername":"tuberling"},{"id":"5849117570","owner":"37179281@N07","secret":"6d14e31236","server":"5156","farm":6,"title":"Teacher...","ispublic":1,"isfriend":0,"isfamily":0,"ownername":"The french secretaire"},{"id":"5849121470","owner":"37179281@N07","secret":"3817fa47a2","server":"2671","farm":3,"title":"Teacher...","ispublic":1,"isfriend":0,"isfamily":0,"ownername":"The french secretaire"},{"id":"45252154672","owner":"156654338@N06","secret":"d7c77279c1","server":"1978","farm":2,"title":"Substitute teacher","ispublic":1,"isfriend":0,"isfamily":0,"ownername":"KhaosRepublic"},{"id":"2809416765","owner":"7737844@N05","secret":"9c146ba28f","server":"3137","farm":4,"title":"teacher","ispublic":1,"isfriend":0,"isfamily":0,"ownername":"ziteng's"},{"id":"44725665610","owner":"168898215@N07","secret":"97a94c99f1","server":"7895","farm":8,"title":"Teacher","ispublic":1,"isfriend":0,"isfamily":0,"ownername":"French-cords"},{"id":"145582913","owner":"14113765@N00","secret":"1ba53e2dbd","server":"50","farm":1,"title":"Teacher","ispublic":1,"isfriend":0,"isfamily":0,"ownername":"tim ellis"},{"id":"6632343527","owner":"66193617@N07","secret":"0d3c7f047c","server":"7009","farm":8,"title":"teacher","ispublic":1,"isfriend":0,"isfamily":0,"ownername":"ralucaadrian"},{"id":"6246129466","owner":"65549767@N03","secret":"f51c70a1a7","server":"6240","farm":7,"title":"teacher","ispublic":1,"isfriend":0,"isfamily":0,"ownername":"Tasniim Fudzaili"},{"id":"8616330975","owner":"54942754@N02","secret":"33def59437","server":"8520","farm":9,"title":"Teacher","ispublic":1,"isfriend":0,"isfamily":0,"ownername":"eltpics"},{"id":"6099369485","owner":"59480233@N08","secret":"e78428d18d","server":"6086","farm":7,"title":"teacher","ispublic":1,"isfriend":0,"isfamily":0,"ownername":"bataco3"},{"id":"6358537121","owner":"67457924@N03","secret":"85a648fb89","server":"6231","farm":7,"title":"teachers","ispublic":1,"isfriend":0,"isfamily":0,"ownername":"hyeninjas"}]},"stat":"ok"}