{"photos":{"page":1,"pages":1492,"perpage":15,"total":"22373","photo":[{"id":"35320092201","owner":"10775460@N08","secret":"94386a4286","server":"4276","farm":5,"title":"Tears","ispublic":1,"isfriend":0,"isfamily":0,"ownername":"heller_dk"},{"id":"4367130091","owner":"32108243@N05","secret":"77786423f6","server":"4071","farm":5,"title":"tears","ispublic":1,"isfriend":0,"isfamily":0,"ownername":"@Fips"},{"id":"27183050414","owner":"130415070@N02","secret":"55e7554ab9","server":"7354","farm":8,"title":"Tears","ispublic":1,"isfriend":0,"isfamily":0,"ownername":"\u2740Janey Song"},{"id":"9001823127","owner":"20174657@N00","secret":"5ea9dac0d5","server":"2877","farm":3,"title":"Tears","ispublic":1,"isfriend":0,"isfamily":0,"ownername":"Bomm Green"},{"id":"2513588182","owner":"25403242@N07","secret":"c2493702c3","server":"3017","farm":4,"title":"Tears","ispublic":1,"isfriend":0,"isfamily":0,"ownername":"Anki Rocks!!"},{"id":"9761087931","owner":"93089078@N03","secret":"d91fe4332d","server":"7456","farm":8,"title":"Tears","ispublic":1,"isfriend":0,"isfamily":0,"ownername":"RezaCerna"},{"id":"3819363365","owner":"39781277@N07","secret":"c61df5de64","server":"2437","farm":3,"title":"tears","ispublic":1,"isfriend":0,"isfamily":0,"ownername":"huyendothanh"},{"id":"1244224465","owner":"8704569@N02","secret":"3cba9f0859","server":"1148","farm":2,"title":"tears","ispublic":1,"isfriend":0,"isfamily":0,"ownername":"r__a__r__o"},{"id":"4360571267","owner":"46195758@N07","secret":"f36d7746ce","server":"4026","farm":5,"title":"Tears","ispublic":1,"isfriend":0,"isfamily":0,"ownername":"Matt\/\/Skies"},{"id":"2931364863","owner":"27828538@N03","secret":"54e028c63b","server":"3172","farm":4,"title":"tears","ispublic":1,"isfriend":0,"isfamily":0,"ownername":"naniani99"},{"id":"7743971994","owner":"22970579@N06","secret":"fabc66fcaa","server":"7277","farm":8,"title":"tears","ispublic":1,"isfriend":0,"isfamily":0,"ownername":"one woman's hands"},{"id":"7658176994","owner":"49998135@N07","secret":"4766f40dc0","server":"8431","farm":9,"title":"tear","ispublic":1,"isfriend":0,"isfamily":0,"ownername":"amona s...is ill"},{"id":"11890458794","owner":"12652268@N06","secret":"b39647ca93","server":"3740","farm":4,"title":".....tears.....","ispublic":1,"isfriend":0,"isfamily":0,"ownername":"xandram"},{"id":"8532350872","owner":"93797748@N03","secret":"5ebb408d6b","server":"8510","farm":9,"title":"tears","ispublic":1,"isfriend":0,"isfamily":0,"ownername":"Megsssso!"},{"id":"32435871565","owner":"131159122@N05","secret":"b791706a79","server":"677","farm":1,"title":"Tears...","ispublic":1,"isfriend":0,"isfamily":0,"ownername":"**Karin**"}]},"stat":"ok"}