{"photos":{"page":1,"pages":6581,"perpage":15,"total":"98710","photo":[{"id":"94479436","owner":"80166809@N00","secret":"ba1cbccc53","server":"35","farm":1,"title":"teeth","ispublic":1,"isfriend":0,"isfamily":0,"ownername":"mamcgrouther"},{"id":"3202975132","owner":"84597875@N00","secret":"de8d9880e5","server":"3372","farm":4,"title":"Teeth","ispublic":1,"isfriend":0,"isfamily":0,"ownername":"jtfmulder"},{"id":"3598878152","owner":"39218588@N08","secret":"297f6aaaf7","server":"3600","farm":4,"title":"Teeth","ispublic":1,"isfriend":0,"isfamily":0,"ownername":"dafine21"},{"id":"8140856537","owner":"49504854@N00","secret":"2ede14ffa3","server":"8332","farm":9,"title":"teeth","ispublic":1,"isfriend":0,"isfamily":0,"ownername":"crafty_dame"},{"id":"3852898504","owner":"37738908@N00","secret":"5a4c65e869","server":"3538","farm":4,"title":"teeth","ispublic":1,"isfriend":0,"isfamily":0,"ownername":"amy_buthod"},{"id":"6534541903","owner":"37299941@N08","secret":"3df4f11bbe","server":"7171","farm":8,"title":"Teeth","ispublic":1,"isfriend":0,"isfamily":0,"ownername":"amandagibbs"},{"id":"2888596434","owner":"28796637@N00","secret":"39c5f0c066","server":"3117","farm":4,"title":"Teeth","ispublic":1,"isfriend":0,"isfamily":0,"ownername":"autowitch"},{"id":"17866268638","owner":"95639599@N02","secret":"d2ea28d450","server":"7718","farm":8,"title":"Tooth","ispublic":1,"isfriend":0,"isfamily":0,"ownername":"S.G.J"},{"id":"6172781812","owner":"67462594@N05","secret":"f2b4eb2396","server":"6152","farm":7,"title":"teeth","ispublic":1,"isfriend":0,"isfamily":0,"ownername":"harriet ogden"},{"id":"4558991007","owner":"46643832@N08","secret":"1e85999bb1","server":"3133","farm":4,"title":"Teeth","ispublic":1,"isfriend":0,"isfamily":0,"ownername":"The Voice Of Nothing 365"},{"id":"6158620255","owner":"38605734@N03","secret":"8b057a9956","server":"6162","farm":7,"title":"Teeth","ispublic":1,"isfriend":0,"isfamily":0,"ownername":"Olivier_G44"},{"id":"18435589505","owner":"95639599@N02","secret":"9d98f69425","server":"8891","farm":9,"title":"Tooth","ispublic":1,"isfriend":0,"isfamily":0,"ownername":"S.G.J"},{"id":"17866280898","owner":"95639599@N02","secret":"474165e57b","server":"8775","farm":9,"title":"Tooth","ispublic":1,"isfriend":0,"isfamily":0,"ownername":"S.G.J"},{"id":"3646540","owner":"37996589754@N01","secret":"809feea0fb","server":"2","farm":1,"title":"teeth","ispublic":1,"isfriend":0,"isfamily":0,"ownername":"fo.ol"},{"id":"3284524248","owner":"34550248@N07","secret":"6e0a18b845","server":"3504","farm":4,"title":"Teeth","ispublic":1,"isfriend":0,"isfamily":0,"ownername":"p.j.k."}]},"stat":"ok"}