{"photos":{"page":1,"pages":697,"perpage":15,"total":"10446","photo":[{"id":"12865717954","owner":"89059744@N08","secret":"f1e284fbe2","server":"3677","farm":4,"title":"Thief","ispublic":1,"isfriend":0,"isfamily":0,"ownername":"Wake Up Freeman"},{"id":"6087528902","owner":"54457724@N05","secret":"46377167cf","server":"6072","farm":7,"title":"Thief","ispublic":1,"isfriend":0,"isfamily":0,"ownername":"HotShitHuh??"},{"id":"14473531273","owner":"124302286@N05","secret":"e890f3c091","server":"3903","farm":4,"title":"Thief","ispublic":1,"isfriend":0,"isfamily":0,"ownername":"Kloptus"},{"id":"8616050653","owner":"52946565@N06","secret":"196d114794","server":"8394","farm":9,"title":"thief...","ispublic":1,"isfriend":0,"isfamily":0,"ownername":"(rino)"},{"id":"2331847516","owner":"20844979@N06","secret":"0f1a4febeb","server":"2128","farm":3,"title":"thief","ispublic":1,"isfriend":0,"isfamily":0,"ownername":"Fivemiles"},{"id":"5689534185","owner":"64424109@N00","secret":"8ec2aa16a8","server":"5304","farm":6,"title":"THiEF","ispublic":1,"isfriend":0,"isfamily":0,"ownername":"illpig"},{"id":"10839852534","owner":"60895525@N07","secret":"197c820673","server":"3715","farm":4,"title":"Thief","ispublic":1,"isfriend":0,"isfamily":0,"ownername":"gamesforpublic.de"},{"id":"3529742316","owner":"10105793@N05","secret":"7c6d62ae2f","server":"3611","farm":4,"title":"THIEF","ispublic":1,"isfriend":0,"isfamily":0,"ownername":"GhoDilated"},{"id":"15915094054","owner":"45290787@N06","secret":"e91029b423","server":"7311","farm":8,"title":"thief","ispublic":1,"isfriend":0,"isfamily":0,"ownername":"Young's Lego"},{"id":"5456867699","owner":"54457724@N05","secret":"996eaa78d2","server":"5220","farm":6,"title":"Thief","ispublic":1,"isfriend":0,"isfamily":0,"ownername":"HotShitHuh??"},{"id":"3276005837","owner":"26691751@N04","secret":"060c1c9777","server":"3385","farm":4,"title":"THIEF!!!","ispublic":1,"isfriend":0,"isfamily":0,"ownername":"~mirka~"},{"id":"5879796364","owner":"54457724@N05","secret":"b15b4cba62","server":"6025","farm":7,"title":"Thief","ispublic":1,"isfriend":0,"isfamily":0,"ownername":"HotShitHuh??"},{"id":"6047229029","owner":"54457724@N05","secret":"40a9dc68b2","server":"6065","farm":7,"title":"Thief","ispublic":1,"isfriend":0,"isfamily":0,"ownername":"HotShitHuh??"},{"id":"12177483894","owner":"67743149@N04","secret":"5893f27e31","server":"7395","farm":8,"title":"Thief","ispublic":1,"isfriend":0,"isfamily":0,"ownername":"PSMANIA"},{"id":"8619597712","owner":"60895525@N07","secret":"13f8a986a5","server":"8383","farm":9,"title":"Thief","ispublic":1,"isfriend":0,"isfamily":0,"ownername":"gamesforpublic.de"}]},"stat":"ok"}