{"photos":{"page":1,"pages":762,"perpage":15,"total":"11426","photo":[{"id":"2314824117","owner":"15423866@N08","secret":"64b31a94c9","server":"2171","farm":3,"title":"Throat 05","ispublic":1,"isfriend":0,"isfamily":0,"ownername":"conhieloporfavor"},{"id":"36084934981","owner":"39871363@N04","secret":"53d820daeb","server":"4292","farm":5,"title":"Ruby-throat Hummingbird","ispublic":1,"isfriend":0,"isfamily":0,"ownername":"snooker2009"},{"id":"2314823725","owner":"15423866@N08","secret":"b5362f8370","server":"3214","farm":4,"title":"Throat 07","ispublic":1,"isfriend":0,"isfamily":0,"ownername":"conhieloporfavor"},{"id":"4441252484","owner":"10274265@N02","secret":"8e8af36f2e","server":"2772","farm":3,"title":"00260f1jx","ispublic":1,"isfriend":0,"isfamily":0,"ownername":"Igor1985"},{"id":"78349196","owner":"36768221@N00","secret":"bad66cf936","server":"40","farm":1,"title":"deep throat","ispublic":1,"isfriend":0,"isfamily":0,"ownername":"chatte"},{"id":"178338897","owner":"36166632@N00","secret":"78bc46d785","server":"58","farm":1,"title":"Sore Throat","ispublic":1,"isfriend":0,"isfamily":0,"ownername":"Breigh.com"},{"id":"4943060290","owner":"29767221@N00","secret":"0f5485a23a","server":"4116","farm":5,"title":"Throat","ispublic":1,"isfriend":0,"isfamily":0,"ownername":"Natasha Klimchuk"},{"id":"6860839366","owner":"7664041@N07","secret":"2765c2365d","server":"7248","farm":8,"title":"Lizard Throat","ispublic":1,"isfriend":0,"isfamily":0,"ownername":"ngramly"},{"id":"3586645695","owner":"10274265@N02","secret":"681f14dec3","server":"3402","farm":4,"title":"2021712790101813398pSYYec_ph","ispublic":1,"isfriend":0,"isfamily":0,"ownername":"Igor1985"},{"id":"35048279253","owner":"124061045@N04","secret":"29c23c923d","server":"4256","farm":5,"title":"Hummingbird on the wing","ispublic":1,"isfriend":0,"isfamily":0,"ownername":"joebrantleyjr"},{"id":"13967661300","owner":"120246446@N06","secret":"23be7eec29","server":"7426","farm":8,"title":"Throat","ispublic":1,"isfriend":0,"isfamily":0,"ownername":"morenofrulla"},{"id":"2465413943","owner":"15271858@N08","secret":"9c02c449b2","server":"2107","farm":3,"title":"red throat","ispublic":1,"isfriend":0,"isfamily":0,"ownername":"wpjenn18"},{"id":"39060745002","owner":"65499584@N05","secret":"d5542c3f1c","server":"4551","farm":5,"title":"Rouge Gorge","ispublic":1,"isfriend":0,"isfamily":0,"ownername":"ludovic lauret"},{"id":"4348742426","owner":"11989524@N04","secret":"ffcc453b19","server":"4015","farm":5,"title":"Best place","ispublic":1,"isfriend":0,"isfamily":0,"ownername":"Neckyno"},{"id":"2467421893","owner":"53696000@N00","secret":"79d2c3ec51","server":"3170","farm":4,"title":"Throat","ispublic":1,"isfriend":0,"isfamily":0,"ownername":"thepowerout"}]},"stat":"ok"}