{"photos":{"page":1,"pages":1786,"perpage":15,"total":"26778","photo":[{"id":"2311081138","owner":"13257231@N05","secret":"4a95f11717","server":"3154","farm":4,"title":"thumb","ispublic":1,"isfriend":0,"isfamily":0,"ownername":"tricksterboy69"},{"id":"5357064234","owner":"55531548@N02","secret":"7f566d57f8","server":"5042","farm":6,"title":"thumb","ispublic":1,"isfriend":0,"isfamily":0,"ownername":"abdulnishad12"},{"id":"6237755959","owner":"68432253@N04","secret":"ddb0f329f1","server":"6218","farm":7,"title":"Thumb","ispublic":1,"isfriend":0,"isfamily":0,"ownername":"Lawrence Chard"},{"id":"5562155085","owner":"54443909@N08","secret":"14ba70f4a0","server":"5062","farm":6,"title":"Thumb","ispublic":1,"isfriend":0,"isfamily":0,"ownername":"Cross Cat"},{"id":"5344923773","owner":"58158815@N03","secret":"78aab466a1","server":"5206","farm":6,"title":"thumb","ispublic":1,"isfriend":0,"isfamily":0,"ownername":"rathinam.mturk"},{"id":"6856612192","owner":"72096958@N04","secret":"eb81eaeca2","server":"7251","farm":8,"title":"thumb","ispublic":1,"isfriend":0,"isfamily":0,"ownername":"Toe.knee"},{"id":"116940075","owner":"86632365@N00","secret":"f8c5198abe","server":"32","farm":1,"title":"Thumb","ispublic":1,"isfriend":0,"isfamily":0,"ownername":"Laura Hagen"},{"id":"429718705","owner":"28745163@N00","secret":"11bd872b19","server":"163","farm":1,"title":"Thumb","ispublic":1,"isfriend":0,"isfamily":0,"ownername":"diongillard"},{"id":"6017105261","owner":"54084532@N06","secret":"46f371e5e7","server":"6140","farm":7,"title":"Thumb","ispublic":1,"isfriend":0,"isfamily":0,"ownername":"Nico Chiapperini"},{"id":"2865945576","owner":"30568962@N07","secret":"40ffb543b3","server":"3238","farm":4,"title":"thumb","ispublic":1,"isfriend":0,"isfamily":0,"ownername":"usaattachments"},{"id":"2930041851","owner":"31301516@N06","secret":"a322de2790","server":"3244","farm":4,"title":"Thumb","ispublic":1,"isfriend":0,"isfamily":0,"ownername":"sundaysunset.images"},{"id":"6875197","owner":"74671132@N00","secret":"67d07b4030","server":"4","farm":1,"title":"thumbs","ispublic":1,"isfriend":0,"isfamily":0,"ownername":"yew jin"},{"id":"197145740","owner":"93226524@N00","secret":"3841889744","server":"76","farm":1,"title":"Thumb","ispublic":1,"isfriend":0,"isfamily":0,"ownername":"Factory Method"},{"id":"1271995547","owner":"48857074@N00","secret":"d4138d413e","server":"1356","farm":2,"title":"Thumb","ispublic":1,"isfriend":0,"isfamily":0,"ownername":"kirikiri"},{"id":"3437032998","owner":"27906886@N04","secret":"7a7fb9d208","server":"3584","farm":4,"title":"thumb","ispublic":1,"isfriend":0,"isfamily":0,"ownername":"blossomdawes"}]},"stat":"ok"}