{"photos":{"page":1,"pages":12389,"perpage":15,"total":"185827","photo":[{"id":"7642730824","owner":"46911051@N05","secret":"b7742a5b50","server":"8154","farm":9,"title":"THUNDER!!!","ispublic":1,"isfriend":0,"isfamily":0,"ownername":"Szpisj\u00e1k Attila (Cintu)"},{"id":"6101012465","owner":"48536371@N07","secret":"21eb348fc3","server":"6075","farm":7,"title":"Thunder","ispublic":1,"isfriend":0,"isfamily":0,"ownername":"EI-AMD Aviation Photography"},{"id":"14267509890","owner":"99900211@N02","secret":"83258861fe","server":"3892","farm":4,"title":"Thunders","ispublic":1,"isfriend":0,"isfamily":0,"ownername":"Federico Dell'Orso"},{"id":"2060827510","owner":"21141755@N03","secret":"b915f112ec","server":"2187","farm":3,"title":"Thunder","ispublic":1,"isfriend":0,"isfamily":0,"ownername":"raceer"},{"id":"6995035170","owner":"54460293@N05","secret":"b7d46ed113","server":"7080","farm":8,"title":"thunder","ispublic":1,"isfriend":0,"isfamily":0,"ownername":"Igor Kar\u010de"},{"id":"1614565974","owner":"8839767@N03","secret":"d70b662e32","server":"2127","farm":3,"title":"Thunder","ispublic":1,"isfriend":0,"isfamily":0,"ownername":"kerayuzun"},{"id":"6043036423","owner":"46981269@N00","secret":"e8303885a0","server":"6187","farm":7,"title":"Thunder","ispublic":1,"isfriend":0,"isfamily":0,"ownername":"baruchova"},{"id":"9510502117","owner":"99744825@N04","secret":"c863b54c88","server":"3722","farm":4,"title":"Thunder","ispublic":1,"isfriend":0,"isfamily":0,"ownername":"pacerko"},{"id":"34907694606","owner":"149792252@N04","secret":"e2e3ffc0af","server":"4202","farm":5,"title":"Thunder","ispublic":1,"isfriend":0,"isfamily":0,"ownername":"Frank KR"},{"id":"6043037421","owner":"46981269@N00","secret":"c99a45c830","server":"6081","farm":7,"title":"Thunders","ispublic":1,"isfriend":0,"isfamily":0,"ownername":"baruchova"},{"id":"14420559745","owner":"125299023@N04","secret":"a27cbcc48b","server":"3888","farm":4,"title":"\"Thunder\"","ispublic":1,"isfriend":0,"isfamily":0,"ownername":"edoguerra1"},{"id":"7611795932","owner":"81179088@N05","secret":"b4a54ee324","server":"7279","farm":8,"title":"Thunder","ispublic":1,"isfriend":0,"isfamily":0,"ownername":"GianlucaLimongelli"},{"id":"10363662703","owner":"101076876@N05","secret":"585e961e53","server":"7455","farm":8,"title":"thunder","ispublic":1,"isfriend":0,"isfamily":0,"ownername":"pcw9478"},{"id":"15137242598","owner":"127310195@N07","secret":"41d01e3f60","server":"5587","farm":6,"title":"Thunder","ispublic":1,"isfriend":0,"isfamily":0,"ownername":"Mr.gastaldo"},{"id":"15727216667","owner":"128950161@N03","secret":"25d734996f","server":"8630","farm":9,"title":"Thunder","ispublic":1,"isfriend":0,"isfamily":0,"ownername":"marco.servalli92"}]},"stat":"ok"}