{"photos":{"page":1,"pages":11244,"perpage":15,"total":"168650","photo":[{"id":"12584976815","owner":"91324182@N00","secret":"51ee386ff2","server":"3767","farm":4,"title":"Tie","ispublic":1,"isfriend":0,"isfamily":0,"ownername":"ingrid eulenfan"},{"id":"12589038175","owner":"56636237@N03","secret":"b903f97eba","server":"5516","farm":6,"title":"Tied","ispublic":1,"isfriend":0,"isfamily":0,"ownername":"ashperkins"},{"id":"12588455255","owner":"91324182@N00","secret":"53146f0b8f","server":"5496","farm":6,"title":"Tie - Bindung f\u00fcr immer","ispublic":1,"isfriend":0,"isfamily":0,"ownername":"ingrid eulenfan"},{"id":"55397325","owner":"96732146@N00","secret":"5f23e68381","server":"28","farm":1,"title":"shirt and tie kiss","ispublic":1,"isfriend":0,"isfamily":0,"ownername":"manolo3"},{"id":"10488327054","owner":"73422502@N08","secret":"e49668cfa1","server":"3680","farm":4,"title":"Tie","ispublic":1,"isfriend":0,"isfamily":0,"ownername":"Zeeyolq Photography"},{"id":"59686647","owner":"96732146@N00","secret":"23f962a1bb","server":"26","farm":1,"title":"tied","ispublic":1,"isfriend":0,"isfamily":0,"ownername":"manolo3"},{"id":"5517697322","owner":"31071425@N08","secret":"6d34d51f0f","server":"5139","farm":6,"title":"Tie","ispublic":1,"isfriend":0,"isfamily":0,"ownername":"Daryan Dornelles\/Fotonauta"},{"id":"5516177286","owner":"31071425@N08","secret":"ac190c7a9c","server":"5097","farm":6,"title":"Tie","ispublic":1,"isfriend":0,"isfamily":0,"ownername":"Daryan Dornelles\/Fotonauta"},{"id":"4830786115","owner":"31071425@N08","secret":"c14ca1a0cd","server":"4131","farm":5,"title":"Tie","ispublic":1,"isfriend":0,"isfamily":0,"ownername":"Daryan Dornelles\/Fotonauta"},{"id":"12582789594","owner":"62554838@N00","secret":"25fee37e8a","server":"2839","farm":3,"title":"all tied up","ispublic":1,"isfriend":0,"isfamily":0,"ownername":"1ManWAC"},{"id":"512016556","owner":"7504867@N03","secret":"c2747458c6","server":"215","farm":1,"title":"tied up","ispublic":1,"isfriend":0,"isfamily":0,"ownername":"cambiodefractal"},{"id":"4639515918","owner":"52082099@N00","secret":"0f209933e6","server":"3410","farm":4,"title":"Tie Tuesday","ispublic":1,"isfriend":0,"isfamily":0,"ownername":"buck_in_va"},{"id":"4801036055","owner":"37418790@N05","secret":"855acdb8df","server":"4115","farm":5,"title":"Bow tie quilt","ispublic":1,"isfriend":0,"isfamily":0,"ownername":"flossyblossy"},{"id":"3125554117","owner":"33457990@N05","secret":"e238c16939","server":"3097","farm":4,"title":"Tie.","ispublic":1,"isfriend":0,"isfamily":0,"ownername":"dagmaronasis"},{"id":"12585930224","owner":"30458788@N08","secret":"c1cb0cd24f","server":"5522","farm":6,"title":"Tied","ispublic":1,"isfriend":0,"isfamily":0,"ownername":"olydemon"}]},"stat":"ok"}