{"photos":{"page":1,"pages":21742,"perpage":15,"total":"326126","photo":[{"id":"8389456987","owner":"29468339@N02","secret":"8c15ec272f","server":"8373","farm":9,"title":"Tiger","ispublic":1,"isfriend":0,"isfamily":0,"ownername":"@Doug88888"},{"id":"4443360450","owner":"28990463@N06","secret":"af9595970c","server":"2703","farm":3,"title":"Tiger","ispublic":1,"isfriend":0,"isfamily":0,"ownername":"fortunai"},{"id":"9641035181","owner":"21680391@N04","secret":"0bcbdebc1a","server":"3737","farm":4,"title":"Tiger","ispublic":1,"isfriend":0,"isfamily":0,"ownername":"justinclayton99"},{"id":"9641034089","owner":"21680391@N04","secret":"4de68c9489","server":"3817","farm":4,"title":"Tiger","ispublic":1,"isfriend":0,"isfamily":0,"ownername":"justinclayton99"},{"id":"9641031199","owner":"21680391@N04","secret":"ea7460e902","server":"7377","farm":8,"title":"Tiger","ispublic":1,"isfriend":0,"isfamily":0,"ownername":"justinclayton99"},{"id":"2988799601","owner":"20259408@N00","secret":"2f187a7bb8","server":"3169","farm":4,"title":"tiger","ispublic":1,"isfriend":0,"isfamily":0,"ownername":"bee happy123"},{"id":"44173010334","owner":"16682267@N03","secret":"12491cc97c","server":"1954","farm":2,"title":"Tiger","ispublic":1,"isfriend":0,"isfamily":0,"ownername":"_ _steven.kemp_ _"},{"id":"7124758781","owner":"41898676@N06","secret":"1129a3ec0d","server":"8009","farm":9,"title":"tiger","ispublic":1,"isfriend":0,"isfamily":0,"ownername":"wwmike"},{"id":"7214622640","owner":"55626262@N06","secret":"674e7640dd","server":"5159","farm":6,"title":"Tiger","ispublic":1,"isfriend":0,"isfamily":0,"ownername":"petercflickr2010"},{"id":"4563003356","owner":"8568197@N06","secret":"3053e30b3a","server":"4015","farm":5,"title":"Tiger","ispublic":1,"isfriend":0,"isfamily":0,"ownername":"agnes hjelm"},{"id":"402742912","owner":"50302019@N00","secret":"3a4ab3bf7c","server":"136","farm":1,"title":"Tiger","ispublic":1,"isfriend":0,"isfamily":0,"ownername":"tiggerinakilt"},{"id":"4672210375","owner":"22371906@N06","secret":"e234c92a67","server":"4037","farm":5,"title":"Tiger","ispublic":1,"isfriend":0,"isfamily":0,"ownername":"Brian Aitkenhead [PHOTOGRAPHY]"},{"id":"223986829","owner":"40966969@N00","secret":"1233abc6e5","server":"60","farm":1,"title":"Tiger","ispublic":1,"isfriend":0,"isfamily":0,"ownername":"Rich Tinsley"},{"id":"6100772267","owner":"57630529@N02","secret":"735e57882a","server":"6193","farm":7,"title":"Tiger","ispublic":1,"isfriend":0,"isfamily":0,"ownername":"nick_warde"},{"id":"26398615576","owner":"91501748@N07","secret":"e765e018ce","server":"1474","farm":2,"title":"tiger","ispublic":1,"isfriend":0,"isfamily":0,"ownername":"Mathias Appel"}]},"stat":"ok"}