{"photos":{"page":1,"pages":34132,"perpage":15,"total":"511973","photo":[{"id":"16704483331","owner":"126915310@N08","secret":"3b7eb54582","server":"8641","farm":9,"title":"time","ispublic":1,"isfriend":0,"isfamily":0,"ownername":"udithawix"},{"id":"17260898362","owner":"31123271@N04","secret":"d845fed12a","server":"8737","farm":9,"title":"Time!","ispublic":1,"isfriend":0,"isfamily":0,"ownername":"Gr\u2299f: \u2299f the p\u2299p"},{"id":"40441281503","owner":"164160874@N08","secret":"63414ef5b2","server":"7840","farm":8,"title":"#time","ispublic":1,"isfriend":0,"isfamily":0,"ownername":"jidoria182"},{"id":"4715766172","owner":"27376687@N05","secret":"5e512e7fbe","server":"4071","farm":5,"title":"time","ispublic":1,"isfriend":0,"isfamily":0,"ownername":"raffacama"},{"id":"6766631091","owner":"73422502@N08","secret":"9df6f2683b","server":"7029","farm":8,"title":"Time","ispublic":1,"isfriend":0,"isfamily":0,"ownername":"Zeeyolq Photography"},{"id":"6196917853","owner":"27524110@N07","secret":"d569ba8698","server":"6157","farm":7,"title":"Times","ispublic":1,"isfriend":0,"isfamily":0,"ownername":"Giantenshi - DayDreamer"},{"id":"5231985186","owner":"42512773@N07","secret":"36a5286836","server":"5206","farm":6,"title":"Time","ispublic":1,"isfriend":0,"isfamily":0,"ownername":"Ale Bujj"},{"id":"24973620603","owner":"46424308@N03","secret":"394c73c9da","server":"1698","farm":2,"title":"time...","ispublic":1,"isfriend":0,"isfamily":0,"ownername":"Eggii"},{"id":"33307049175","owner":"31123271@N04","secret":"0fcae3487f","server":"3753","farm":4,"title":"Timed.","ispublic":1,"isfriend":0,"isfamily":0,"ownername":"Gr\u2299f: \u2299f the p\u2299p"},{"id":"16578010972","owner":"32935695@N02","secret":"fa9d0ae14f","server":"7309","farm":8,"title":"Time","ispublic":1,"isfriend":0,"isfamily":0,"ownername":"Anthoptic Photography"},{"id":"42587270431","owner":"110169041@N02","secret":"27091d5342","server":"1754","farm":2,"title":"Time","ispublic":1,"isfriend":0,"isfamily":0,"ownername":"EUgenG_"},{"id":"10013278374","owner":"76676651@N07","secret":"d5b8fac444","server":"2868","farm":3,"title":"Time","ispublic":1,"isfriend":0,"isfamily":0,"ownername":"Joy lens"},{"id":"2864865757","owner":"8425462@N07","secret":"227b4dae5f","server":"3074","farm":4,"title":"time","ispublic":1,"isfriend":0,"isfamily":0,"ownername":"none of them;"},{"id":"2348655","owner":"38487317@N00","secret":"0342690589","server":"1","farm":1,"title":"time","ispublic":1,"isfriend":0,"isfamily":0,"ownername":"fubuki"}]},"stat":"ok"}