{"photos":{"page":1,"pages":5049,"perpage":15,"total":"75721","photo":[{"id":"16205763127","owner":"62847025@N07","secret":"6ff500468f","server":"7320","farm":8,"title":"Camel's Tongue","ispublic":1,"isfriend":0,"isfamily":0,"ownername":"Rackelh"},{"id":"3795710937","owner":"41198189@N05","secret":"def97dec0b","server":"2572","farm":3,"title":"tongues","ispublic":1,"isfriend":0,"isfamily":0,"ownername":"misscai132"},{"id":"4674203183","owner":"10141102@N08","secret":"550fee58b9","server":"4002","farm":5,"title":"\" TONGUE TIRED \"","ispublic":1,"isfriend":0,"isfamily":0,"ownername":"Wiffsmiff23"},{"id":"17729066","owner":"96982647@N00","secret":"9970a4308b","server":"12","farm":1,"title":"tongue","ispublic":1,"isfriend":0,"isfamily":0,"ownername":"senorita petals"},{"id":"16305018747","owner":"55488409@N04","secret":"d87f856586","server":"7412","farm":8,"title":"Tongue","ispublic":1,"isfriend":0,"isfamily":0,"ownername":"@pigstagram"},{"id":"2341643346","owner":"7240224@N04","secret":"fd2896c8fe","server":"2012","farm":3,"title":"tongue","ispublic":1,"isfriend":0,"isfamily":0,"ownername":"stinparagym"},{"id":"3093007364","owner":"29936163@N02","secret":"4f69af533f","server":"3144","farm":4,"title":"tongue","ispublic":1,"isfriend":0,"isfamily":0,"ownername":"deejayhoudek1"},{"id":"5554941000","owner":"28565940@N02","secret":"09471bdc9b","server":"5172","farm":6,"title":"Weetie tongue","ispublic":1,"isfriend":0,"isfamily":0,"ownername":"livingglassart home of oddballs and oddities"},{"id":"3705882116","owner":"95022547@N00","secret":"e300cc0f6d","server":"2562","farm":3,"title":"tongue","ispublic":1,"isfriend":0,"isfamily":0,"ownername":"nafy."},{"id":"6025983825","owner":"29468339@N02","secret":"fd7c308d70","server":"6201","farm":7,"title":"Seal tongue","ispublic":1,"isfriend":0,"isfamily":0,"ownername":"@Doug88888"},{"id":"2184071874","owner":"22650124@N04","secret":"21d96586be","server":"2165","farm":3,"title":"tongues","ispublic":1,"isfriend":0,"isfamily":0,"ownername":"stronglantern"},{"id":"5536158114","owner":"49114357@N08","secret":"a7c5e41a2e","server":"5257","farm":6,"title":"Tiger tongue","ispublic":1,"isfriend":0,"isfamily":0,"ownername":"jt893x"},{"id":"4962479695","owner":"32196314@N07","secret":"8a0c00a4ab","server":"4132","farm":5,"title":"Horse Tongue","ispublic":1,"isfriend":0,"isfamily":0,"ownername":"Ricca_M"},{"id":"8256495779","owner":"16964259@N00","secret":"c271d8b44a","server":"8222","farm":9,"title":"tongues!","ispublic":1,"isfriend":0,"isfamily":0,"ownername":"dickdotcom"},{"id":"7332489476","owner":"19005001@N00","secret":"036310236e","server":"7212","farm":8,"title":"tongue","ispublic":1,"isfriend":0,"isfamily":0,"ownername":"peterHDK"}]},"stat":"ok"}