{"photos":{"page":1,"pages":3146,"perpage":15,"total":"47180","photo":[{"id":"3380298134","owner":"24046098@N05","secret":"e1d684eb76","server":"3436","farm":4,"title":"Tooth","ispublic":1,"isfriend":0,"isfamily":0,"ownername":"LolliePatchouli"},{"id":"11338789863","owner":"101198402@N07","secret":"b29a192c91","server":"7327","farm":8,"title":"Tooth","ispublic":1,"isfriend":0,"isfamily":0,"ownername":"ICHI.Y"},{"id":"11338720366","owner":"101198402@N07","secret":"43c77fb51b","server":"2848","farm":3,"title":"Tooth","ispublic":1,"isfriend":0,"isfamily":0,"ownername":"ICHI.Y"},{"id":"2453448461","owner":"10693387@N05","secret":"9edf3e1936","server":"3178","farm":4,"title":"Tooth","ispublic":1,"isfriend":0,"isfamily":0,"ownername":"paulofierro"},{"id":"14389388676","owner":"101198402@N07","secret":"992ec34926","server":"3855","farm":4,"title":"Tooth","ispublic":1,"isfriend":0,"isfamily":0,"ownername":"ICHI.Y"},{"id":"11338668005","owner":"101198402@N07","secret":"047073e203","server":"7381","farm":8,"title":"Tooth","ispublic":1,"isfriend":0,"isfamily":0,"ownername":"ICHI.Y"},{"id":"5675940651","owner":"79936200@N00","secret":"c389334209","server":"5029","farm":6,"title":"Tooth","ispublic":1,"isfriend":0,"isfamily":0,"ownername":"roberthest"},{"id":"5737429743","owner":"21900679@N04","secret":"d47a418c13","server":"5070","farm":6,"title":"Tooth","ispublic":1,"isfriend":0,"isfamily":0,"ownername":"Kostelo"},{"id":"11338753224","owner":"101198402@N07","secret":"2a28262c9f","server":"7406","farm":8,"title":"Tooth","ispublic":1,"isfriend":0,"isfamily":0,"ownername":"ICHI.Y"},{"id":"3138411367","owner":"79552295@N00","secret":"61897d0323","server":"3084","farm":4,"title":"Tooth","ispublic":1,"isfriend":0,"isfamily":0,"ownername":"Landandwater.ca"},{"id":"4883687805","owner":"33379539@N06","secret":"034bfb6373","server":"4118","farm":5,"title":"tooth","ispublic":1,"isfriend":0,"isfamily":0,"ownername":"tina2000tx"},{"id":"8757866583","owner":"51548705@N03","secret":"1615c9df3d","server":"2875","farm":3,"title":"tooth","ispublic":1,"isfriend":0,"isfamily":0,"ownername":"75kombi"},{"id":"4092093875","owner":"48147596@N00","secret":"b598e14964","server":"2577","farm":3,"title":"tooth","ispublic":1,"isfriend":0,"isfamily":0,"ownername":"mrdaveyoung"},{"id":"16151604264","owner":"51548705@N03","secret":"1352eeaf9b","server":"8752","farm":9,"title":"tooth","ispublic":1,"isfriend":0,"isfamily":0,"ownername":"75kombi"},{"id":"1203785367","owner":"32223887@N00","secret":"a992745ef7","server":"1184","farm":2,"title":"tooth !","ispublic":1,"isfriend":0,"isfamily":0,"ownername":"pinkhare"}]},"stat":"ok"}