{"photos":{"page":1,"pages":72972,"perpage":15,"total":"1094567","photo":[{"id":"6834627152","owner":"44912907@N05","secret":"411f998f12","server":"7061","farm":8,"title":"Tower","ispublic":1,"isfriend":0,"isfamily":0,"ownername":"Sunsword & Moonsabre"},{"id":"376846159","owner":"83125219@N00","secret":"dd5a0359da","server":"154","farm":1,"title":"Tower","ispublic":1,"isfriend":0,"isfamily":0,"ownername":"arleighgreenwald"},{"id":"8492565678","owner":"69148745@N02","secret":"8ab430a2f6","server":"8513","farm":9,"title":"tower","ispublic":1,"isfriend":0,"isfamily":0,"ownername":"land[e]scape"},{"id":"2985327056","owner":"21692577@N02","secret":"fb7fd7dea2","server":"3225","farm":4,"title":"Tower","ispublic":1,"isfriend":0,"isfamily":0,"ownername":"Danny VB"},{"id":"10256831184","owner":"91248320@N04","secret":"4dbd1974cf","server":"3788","farm":4,"title":"Tower","ispublic":1,"isfriend":0,"isfamily":0,"ownername":"Jekurantodistaja"},{"id":"16555202297","owner":"21680391@N04","secret":"b090d25b1f","server":"8715","farm":9,"title":"Tower","ispublic":1,"isfriend":0,"isfamily":0,"ownername":"justinclayton99"},{"id":"345876885","owner":"78173544@N00","secret":"2c040b1feb","server":"161","farm":1,"title":"tower","ispublic":1,"isfriend":0,"isfamily":0,"ownername":"besides"},{"id":"2142253531","owner":"21692577@N02","secret":"fd3aab2659","server":"2204","farm":3,"title":"Tower","ispublic":1,"isfriend":0,"isfamily":0,"ownername":"Danny VB"},{"id":"4909178825","owner":"29061555@N03","secret":"20616cffe2","server":"4141","farm":5,"title":"tower","ispublic":1,"isfriend":0,"isfamily":0,"ownername":"cyberjani"},{"id":"6178064219","owner":"67134089@N06","secret":"1afd46d93a","server":"6177","farm":7,"title":"tower","ispublic":1,"isfriend":0,"isfamily":0,"ownername":"Al Heeley"},{"id":"40421250032","owner":"98426722@N05","secret":"09bb4f0693","server":"4628","farm":5,"title":"tower","ispublic":1,"isfriend":0,"isfamily":0,"ownername":"bialobrody"},{"id":"1064240238","owner":"11193925@N07","secret":"ec4c561843","server":"1202","farm":2,"title":"tower","ispublic":1,"isfriend":0,"isfamily":0,"ownername":"dnbsets"},{"id":"4460147654","owner":"10890532@N03","secret":"3ce621221a","server":"2728","farm":3,"title":"Tower","ispublic":1,"isfriend":0,"isfamily":0,"ownername":"donmledresjr"},{"id":"124052506","owner":"69512017@N00","secret":"dd5b385545","server":"56","farm":1,"title":"Tower","ispublic":1,"isfriend":0,"isfamily":0,"ownername":"Loa Photography"},{"id":"35016052710","owner":"98007286@N08","secret":"3be48f751c","server":"4251","farm":5,"title":"Tower","ispublic":1,"isfriend":0,"isfamily":0,"ownername":"Scior"}]},"stat":"ok"}