{"photos":{"page":1,"pages":163791,"perpage":15,"total":"2456859","photo":[{"id":"5953963608","owner":"36587311@N08","secret":"55dc1af5da","server":"6016","farm":7,"title":"train","ispublic":1,"isfriend":0,"isfamily":0,"ownername":"\u25baCubaGallery"},{"id":"6902660166","owner":"30801973@N04","secret":"b36eb76963","server":"7119","farm":8,"title":"Train","ispublic":1,"isfriend":0,"isfamily":0,"ownername":"tejvanphotos"},{"id":"11332705554","owner":"78956710@N08","secret":"10770481db","server":"3670","farm":4,"title":"Train","ispublic":1,"isfriend":0,"isfamily":0,"ownername":"Gary DB"},{"id":"4884391111","owner":"46866979@N04","secret":"44e6039f63","server":"4076","farm":5,"title":"Train","ispublic":1,"isfriend":0,"isfamily":0,"ownername":"Fredrik Pettersson2010"},{"id":"12147753353","owner":"99144971@N08","secret":"2e78d463b0","server":"5490","farm":6,"title":"Train","ispublic":1,"isfriend":0,"isfamily":0,"ownername":"Neve Peter"},{"id":"6741048705","owner":"36522716@N06","secret":"ee058a23d1","server":"7005","farm":8,"title":"Train","ispublic":1,"isfriend":0,"isfamily":0,"ownername":"fxdx"},{"id":"5551223105","owner":"59375340@N04","secret":"5745c06e0e","server":"5268","farm":6,"title":"train","ispublic":1,"isfriend":0,"isfamily":0,"ownername":"Banda73"},{"id":"2833966047","owner":"73215818@N00","secret":"cfdeb71d97","server":"3137","farm":4,"title":"train","ispublic":1,"isfriend":0,"isfamily":0,"ownername":"hamilmarker"},{"id":"12147497695","owner":"99144971@N08","secret":"0ea04e897c","server":"5496","farm":6,"title":"Train","ispublic":1,"isfriend":0,"isfamily":0,"ownername":"Neve Peter"},{"id":"12147903484","owner":"99144971@N08","secret":"6bc828a882","server":"3714","farm":4,"title":"Train","ispublic":1,"isfriend":0,"isfamily":0,"ownername":"Neve Peter"},{"id":"47329281891","owner":"106017715@N05","secret":"79ff59db97","server":"7823","farm":8,"title":"Train","ispublic":1,"isfriend":0,"isfamily":0,"ownername":"marcmqss"},{"id":"6938906474","owner":"68157112@N06","secret":"903d659a9b","server":"7097","farm":8,"title":"Train","ispublic":1,"isfriend":0,"isfamily":0,"ownername":"Vasoko"},{"id":"150690441","owner":"38722562@N00","secret":"87984b2cec","server":"49","farm":1,"title":"Train","ispublic":1,"isfriend":0,"isfamily":0,"ownername":"neepster"},{"id":"9961851613","owner":"99731991@N05","secret":"69365ef3b0","server":"7339","farm":8,"title":"Train","ispublic":1,"isfriend":0,"isfamily":0,"ownername":"GhosterzArts"},{"id":"16346200740","owner":"127470007@N05","secret":"f88fb60529","server":"8676","farm":9,"title":"Train","ispublic":1,"isfriend":0,"isfamily":0,"ownername":"alecnicekick"}]},"stat":"ok"}