{"photos":{"page":1,"pages":3445,"perpage":15,"total":"51664","photo":[{"id":"323155759","owner":"75776328@N00","secret":"35571705aa","server":"124","farm":1,"title":"Treasure","ispublic":1,"isfriend":0,"isfamily":0,"ownername":"shotam"},{"id":"8109050044","owner":"28025058@N06","secret":"6d9b32384e","server":"8046","farm":9,"title":"Treasure","ispublic":1,"isfriend":0,"isfamily":0,"ownername":"fbako"},{"id":"1236337117","owner":"11697560@N04","secret":"ca724ebb21","server":"1199","farm":2,"title":"Treasure","ispublic":1,"isfriend":0,"isfamily":0,"ownername":"Eccentric Jenna"},{"id":"2974580709","owner":"85768115@N00","secret":"d9d8c4bd62","server":"3202","farm":4,"title":"Treasure","ispublic":1,"isfriend":0,"isfamily":0,"ownername":"stalkingfiction"},{"id":"15271695910","owner":"93877181@N00","secret":"57d1ed3f4f","server":"5600","farm":6,"title":"Treasure","ispublic":1,"isfriend":0,"isfamily":0,"ownername":"A Princess"},{"id":"2595424222","owner":"21607171@N05","secret":"c182a35062","server":"3038","farm":4,"title":"treasure..","ispublic":1,"isfriend":0,"isfamily":0,"ownername":"Henrietje"},{"id":"2364315357","owner":"22067944@N04","secret":"e0d4550720","server":"3190","farm":4,"title":"TREASURES","ispublic":1,"isfriend":0,"isfamily":0,"ownername":"red zongbyrd"},{"id":"14951053215","owner":"101048949@N05","secret":"6a728fa09d","server":"3840","farm":4,"title":"treasure","ispublic":1,"isfriend":0,"isfamily":0,"ownername":"c\u00f6lgin"},{"id":"8558985440","owner":"92717844@N08","secret":"102dc37c5a","server":"8090","farm":9,"title":"Treasure","ispublic":1,"isfriend":0,"isfamily":0,"ownername":"Leki13"},{"id":"27983485638","owner":"47633122@N08","secret":"12f8878af1","server":"908","farm":1,"title":"Petra. The Treasure. Jordan.","ispublic":1,"isfriend":0,"isfamily":0,"ownername":"Ra\u00fal Barrero fotograf\u00eda"},{"id":"4340532129","owner":"46118234@N08","secret":"daf5fbcecc","server":"2730","farm":3,"title":"Treasure","ispublic":1,"isfriend":0,"isfamily":0,"ownername":"Abhinayah"},{"id":"275508248","owner":"49186504@N00","secret":"5c93dcb2e6","server":"79","farm":1,"title":"Treasure","ispublic":1,"isfriend":0,"isfamily":0,"ownername":"Y\u00c1RRET"},{"id":"1379720137","owner":"93304091@N00","secret":"b4407a9a9d","server":"1247","farm":2,"title":"found treasures","ispublic":1,"isfriend":0,"isfamily":0,"ownername":"Irina Troitskaya"},{"id":"6008550890","owner":"33478551@N05","secret":"61bf4f818e","server":"6127","farm":7,"title":"Treasure.","ispublic":1,"isfriend":0,"isfamily":0,"ownername":"caballosblancos"},{"id":"3778722089","owner":"36439465@N03","secret":"389c09edf7","server":"2657","farm":3,"title":"My Treasure!!!!","ispublic":1,"isfriend":0,"isfamily":0,"ownername":"leoberenstam"}]},"stat":"ok"}