{"photos":{"page":1,"pages":219414,"perpage":15,"total":"3291205","photo":[{"id":"6041119566","owner":"36587311@N08","secret":"0e45314305","server":"6210","farm":7,"title":"Tree","ispublic":1,"isfriend":0,"isfamily":0,"ownername":"\u25baCubaGallery"},{"id":"3855736232","owner":"36587311@N08","secret":"c7a964c4b9","server":"3432","farm":4,"title":"tree","ispublic":1,"isfriend":0,"isfamily":0,"ownername":"\u25baCubaGallery"},{"id":"11373503955","owner":"80226011@N06","secret":"79d8338480","server":"7324","farm":8,"title":"tree","ispublic":1,"isfriend":0,"isfamily":0,"ownername":"Blueocean64"},{"id":"7738680002","owner":"75432915@N02","secret":"483d8f2b22","server":"7263","farm":8,"title":"Tree","ispublic":1,"isfriend":0,"isfamily":0,"ownername":"Benjamin Ballande"},{"id":"10645459834","owner":"44912907@N05","secret":"ceae8e63d0","server":"2865","farm":3,"title":"Trees","ispublic":1,"isfriend":0,"isfamily":0,"ownername":"Sunsword & Moonsabre"},{"id":"5159880592","owner":"44912907@N05","secret":"233941a7dd","server":"1338","farm":2,"title":"Tree","ispublic":1,"isfriend":0,"isfamily":0,"ownername":"Sunsword & Moonsabre"},{"id":"15490865417","owner":"54196590@N04","secret":"d2fc479195","server":"3948","farm":4,"title":"Tree","ispublic":1,"isfriend":0,"isfamily":0,"ownername":"trev.pix"},{"id":"6448707123","owner":"54196590@N04","secret":"33f4624a43","server":"7001","farm":8,"title":"Tree","ispublic":1,"isfriend":0,"isfamily":0,"ownername":"trev.pix"},{"id":"8358045135","owner":"54196590@N04","secret":"a79b56b426","server":"8372","farm":9,"title":"Tree","ispublic":1,"isfriend":0,"isfamily":0,"ownername":"trev.pix"},{"id":"8079921017","owner":"30493186@N03","secret":"db8b1ea3fd","server":"8186","farm":9,"title":"Tree","ispublic":1,"isfriend":0,"isfamily":0,"ownername":"d o l f i"},{"id":"5255396335","owner":"44912907@N05","secret":"7182f77a5e","server":"5087","farm":6,"title":"Tree","ispublic":1,"isfriend":0,"isfamily":0,"ownername":"Sunsword & Moonsabre"},{"id":"8719343763","owner":"34139186@N04","secret":"50855b79f1","server":"7459","farm":8,"title":"tree","ispublic":1,"isfriend":0,"isfamily":0,"ownername":"Bearseye"},{"id":"14317448659","owner":"36587311@N08","secret":"c2fb71d79f","server":"2897","farm":3,"title":"tree","ispublic":1,"isfriend":0,"isfamily":0,"ownername":"\u25baCubaGallery"},{"id":"5999332742","owner":"54196590@N04","secret":"29b1b1590f","server":"6150","farm":7,"title":"Tree","ispublic":1,"isfriend":0,"isfamily":0,"ownername":"trev.pix"},{"id":"15989573986","owner":"36587311@N08","secret":"44781ef645","server":"7501","farm":8,"title":"tree","ispublic":1,"isfriend":0,"isfamily":0,"ownername":"\u25baCubaGallery"}]},"stat":"ok"}