{"photos":{"page":1,"pages":71,"perpage":15,"total":"1058","photo":[{"id":"4697888473","owner":"33471727@N03","secret":"6614955fbd","server":"4018","farm":5,"title":"Troubled","ispublic":1,"isfriend":0,"isfamily":0,"ownername":"deepchi1"},{"id":"12273361074","owner":"79193776@N03","secret":"abf04e3384","server":"5481","farm":6,"title":"Under troubled skies","ispublic":1,"isfriend":0,"isfamily":0,"ownername":"Ker Kaya"},{"id":"38790286774","owner":"90170209@N05","secret":"a4e68f8262","server":"4639","farm":5,"title":"Troubled","ispublic":1,"isfriend":0,"isfamily":0,"ownername":"Bob RDX Davies"},{"id":"8015400494","owner":"50949097@N00","secret":"9cd97f40ed","server":"8315","farm":9,"title":"Bridge Under Troubled Skies","ispublic":1,"isfriend":0,"isfamily":0,"ownername":"parkerbernd"},{"id":"382936224","owner":"92755299@N00","secret":"38d123139c","server":"188","farm":1,"title":"troubled","ispublic":1,"isfriend":0,"isfamily":0,"ownername":"SaucePaper"},{"id":"253342784","owner":"92755299@N00","secret":"cef91483de","server":"116","farm":1,"title":"troubled","ispublic":1,"isfriend":0,"isfamily":0,"ownername":"SaucePaper"},{"id":"371263269","owner":"92755299@N00","secret":"4fae88deb4","server":"158","farm":1,"title":"troubled","ispublic":1,"isfriend":0,"isfamily":0,"ownername":"SaucePaper"},{"id":"2481053716","owner":"42563502@N00","secret":"120ddf251e","server":"3052","farm":4,"title":"TROUBLED","ispublic":1,"isfriend":0,"isfamily":0,"ownername":"innoko"},{"id":"7171001470","owner":"31944693@N08","secret":"5dbef013db","server":"7090","farm":8,"title":"Troubled Sky","ispublic":1,"isfriend":0,"isfamily":0,"ownername":"DaveinFrance"},{"id":"3456205806","owner":"20389640@N02","secret":"f5f5ca7ac1","server":"3556","farm":4,"title":"TROUBLED","ispublic":1,"isfriend":0,"isfamily":0,"ownername":"JaM\u8cc8\u65af\u6c40"},{"id":"1448745811","owner":"11668330@N05","secret":"a1ad9d46f0","server":"1018","farm":2,"title":"troubled waters","ispublic":1,"isfriend":0,"isfamily":0,"ownername":"suesstud69"},{"id":"6340598389","owner":"34522729@N06","secret":"39733d90ff","server":"6033","farm":7,"title":"Troubled","ispublic":1,"isfriend":0,"isfamily":0,"ownername":"ALP Images"},{"id":"2816561749","owner":"89375044@N00","secret":"7cdc4db80d","server":"3229","farm":4,"title":"troubled water","ispublic":1,"isfriend":0,"isfamily":0,"ownername":"Captain Catan"},{"id":"870763329","owner":"79984970@N00","secret":"c7238dae1b","server":"1142","farm":2,"title":"troubled","ispublic":1,"isfriend":0,"isfamily":0,"ownername":"swissrolli"},{"id":"303467338","owner":"24613755@N00","secret":"b1e17a08ca","server":"120","farm":1,"title":"Eau trouble","ispublic":1,"isfriend":0,"isfamily":0,"ownername":"Gerard Hermand"}]},"stat":"ok"}