{"photos":{"page":1,"pages":101470,"perpage":15,"total":"1522044","photo":[{"id":"5843227886","owner":"63551188@N04","secret":"dd4373df75","server":"3187","farm":4,"title":"Turkey","ispublic":1,"isfriend":0,"isfamily":0,"ownername":"glad2b3"},{"id":"11380677594","owner":"71862791@N03","secret":"c76cb1bdaa","server":"5481","farm":6,"title":"TURKEY","ispublic":1,"isfriend":0,"isfamily":0,"ownername":"Ibrahim Anouti"},{"id":"33110872904","owner":"141099325@N08","secret":"8a46081975","server":"3953","farm":4,"title":"Turkey","ispublic":1,"isfriend":0,"isfamily":0,"ownername":"gladiusil"},{"id":"12497137133","owner":"115822922@N04","secret":"eee302dd3d","server":"3778","farm":4,"title":"Turkey","ispublic":1,"isfriend":0,"isfamily":0,"ownername":"Kathy Horniblow"},{"id":"7089260215","owner":"50708465@N00","secret":"9c90ff28b9","server":"7184","farm":8,"title":"Turkey","ispublic":1,"isfriend":0,"isfamily":0,"ownername":"billy3001"},{"id":"7095832785","owner":"36852309@N04","secret":"e251e5ac69","server":"5464","farm":6,"title":"Turkey","ispublic":1,"isfriend":0,"isfamily":0,"ownername":"Simon Montgomery"},{"id":"3226776737","owner":"66532947@N00","secret":"72525bdb7f","server":"3318","farm":4,"title":"turkey","ispublic":1,"isfriend":0,"isfamily":0,"ownername":"Will Kimeria"},{"id":"12497518744","owner":"115822922@N04","secret":"1fc72d9aa7","server":"2863","farm":3,"title":"Turkey","ispublic":1,"isfriend":0,"isfamily":0,"ownername":"Kathy Horniblow"},{"id":"6943196700","owner":"50708465@N00","secret":"79162601d2","server":"5072","farm":6,"title":"Turkey","ispublic":1,"isfriend":0,"isfamily":0,"ownername":"billy3001"},{"id":"7267395806","owner":"29615102@N06","secret":"89b73dae47","server":"7244","farm":8,"title":"Turkey","ispublic":1,"isfriend":0,"isfamily":0,"ownername":"David and Sarah's Adventures"},{"id":"8685774873","owner":"87338661@N08","secret":"79f81888e2","server":"8546","farm":9,"title":"Turkey","ispublic":1,"isfriend":0,"isfamily":0,"ownername":"PRodriguez-"},{"id":"12497369725","owner":"93033352@N05","secret":"55fddd2b4e","server":"5471","farm":6,"title":"Turkey","ispublic":1,"isfriend":0,"isfamily":0,"ownername":"KC Horniblow"},{"id":"12497481374","owner":"115822922@N04","secret":"98f28d818e","server":"3753","farm":4,"title":"Turkey","ispublic":1,"isfriend":0,"isfamily":0,"ownername":"Kathy Horniblow"},{"id":"288289632","owner":"65463322@N00","secret":"49e91cc4b0","server":"107","farm":1,"title":"Turkey","ispublic":1,"isfriend":0,"isfamily":0,"ownername":"paul oomen"},{"id":"12497430783","owner":"93033352@N05","secret":"6145ae5185","server":"3832","farm":4,"title":"Turkey","ispublic":1,"isfriend":0,"isfamily":0,"ownername":"KC Horniblow"}]},"stat":"ok"}