{"photos":{"page":1,"pages":208,"perpage":15,"total":"3109","photo":[{"id":"3837820719","owner":"40687679@N00","secret":"490bc6e2b2","server":"2551","farm":3,"title":"Underpants!","ispublic":1,"isfriend":0,"isfamily":0,"ownername":"keyinherpocket"},{"id":"26944755687","owner":"124960926@N03","secret":"b70111d1ba","server":"979","farm":1,"title":"Nonsense Volkswagen Underpants","ispublic":1,"isfriend":0,"isfamily":0,"ownername":"Tiago Lourenco"},{"id":"74714254","owner":"49503108469@N01","secret":"33a2c084b1","server":"37","farm":1,"title":"underpants","ispublic":1,"isfriend":0,"isfamily":0,"ownername":"kosabe"},{"id":"2273413333","owner":"46213556@N00","secret":"28813d0dbe","server":"2322","farm":3,"title":"Underpants","ispublic":1,"isfriend":0,"isfamily":0,"ownername":"richardoyork"},{"id":"30384108277","owner":"65837114@N00","secret":"982e8cb0c9","server":"1965","farm":2,"title":"Underpants","ispublic":1,"isfriend":0,"isfamily":0,"ownername":"Mandy_moon"},{"id":"10341296","owner":"10263367@N00","secret":"1610e7010f","server":"8","farm":1,"title":"underpants","ispublic":1,"isfriend":0,"isfamily":0,"ownername":"heeeraldo"},{"id":"45274982472","owner":"65837114@N00","secret":"988f90068d","server":"1959","farm":2,"title":"Underpants","ispublic":1,"isfriend":0,"isfamily":0,"ownername":"Mandy_moon"},{"id":"7479410936","owner":"75348687@N07","secret":"7e34cd53f8","server":"8006","farm":9,"title":"Nice Underpants","ispublic":1,"isfriend":0,"isfamily":0,"ownername":"Turner.Classic.Crafts"},{"id":"5303487092","owner":"92219165@N00","secret":"7ea124461f","server":"5201","farm":6,"title":"Underpants","ispublic":1,"isfriend":0,"isfamily":0,"ownername":"Buckbut"},{"id":"6932216","owner":"47241502@N00","secret":"72691c8aba","server":"6","farm":1,"title":"Giant Underpants","ispublic":1,"isfriend":0,"isfamily":0,"ownername":"fennelgrl"},{"id":"5653023625","owner":"40419641@N04","secret":"51030c985b","server":"5150","farm":6,"title":"\u0442\u0440\u0443\u0441\u0435\u043b\u044f","ispublic":1,"isfriend":0,"isfamily":0,"ownername":"matveeva"},{"id":"149183401","owner":"63831962@N00","secret":"d490658fca","server":"52","farm":1,"title":"P1010395","ispublic":1,"isfriend":0,"isfamily":0,"ownername":"lunameztli"},{"id":"6357711399","owner":"55636478@N06","secret":"6465b862a2","server":"6055","farm":7,"title":"Underpants","ispublic":1,"isfriend":0,"isfamily":0,"ownername":"empty-eye"}]},"stat":"ok"}