{"photos":{"page":1,"pages":28399,"perpage":15,"total":"425971","photo":[{"id":"13239992693","owner":"42622020@N02","secret":"038fc32443","server":"7168","farm":8,"title":"underground","ispublic":1,"isfriend":0,"isfamily":0,"ownername":"*MODERN LIFE"},{"id":"31070779398","owner":"137002384@N07","secret":"bea1d1cf08","server":"1943","farm":2,"title":"Underground","ispublic":1,"isfriend":0,"isfamily":0,"ownername":"RotFuks"},{"id":"17135455577","owner":"79145132@N06","secret":"4a891b8403","server":"7761","farm":8,"title":"UNDERGROUND","ispublic":1,"isfriend":0,"isfamily":0,"ownername":"LEGOMINDED"},{"id":"14450458350","owner":"76239630@N07","secret":"8d03ea210a","server":"2904","farm":3,"title":"Underground","ispublic":1,"isfriend":0,"isfamily":0,"ownername":"Riccardo Lavezzo"},{"id":"17155445260","owner":"79145132@N06","secret":"f381ac57b8","server":"7742","farm":8,"title":"\" underground\"","ispublic":1,"isfriend":0,"isfamily":0,"ownername":"LEGOMINDED"},{"id":"15027592951","owner":"124110904@N02","secret":"43cf39bf76","server":"5595","farm":6,"title":"underground","ispublic":1,"isfriend":0,"isfamily":0,"ownername":"aliz_p"},{"id":"44497015530","owner":"153780492@N02","secret":"2762493e76","server":"4831","farm":5,"title":"Underground","ispublic":1,"isfriend":0,"isfamily":0,"ownername":"pastadimama"},{"id":"27543988608","owner":"153055993@N07","secret":"1ca3f0075c","server":"865","farm":1,"title":"Underground","ispublic":1,"isfriend":0,"isfamily":0,"ownername":"Renate R"},{"id":"7659459658","owner":"28578376@N03","secret":"147e5afeb0","server":"8151","farm":9,"title":"Underground","ispublic":1,"isfriend":0,"isfamily":0,"ownername":"The Wright Way (Liane Wright Photography)"},{"id":"3480288758","owner":"72211441@N00","secret":"5f02ebcb73","server":"3340","farm":4,"title":"underground","ispublic":1,"isfriend":0,"isfamily":0,"ownername":"laclauz"},{"id":"32913093933","owner":"62188839@N08","secret":"a70315870a","server":"2873","farm":3,"title":"Underground","ispublic":1,"isfriend":0,"isfamily":0,"ownername":"Luca.Pietrobono"},{"id":"7163764740","owner":"49839046@N07","secret":"21c49b4515","server":"8167","farm":9,"title":"Underground","ispublic":1,"isfriend":0,"isfamily":0,"ownername":"Olga Palinchak"},{"id":"14725620361","owner":"68740575@N05","secret":"91e13dc6f8","server":"3922","farm":4,"title":"Underground","ispublic":1,"isfriend":0,"isfamily":0,"ownername":"Goretty Guti\u00e9rrez"},{"id":"7170423908","owner":"33284937@N04","secret":"e18d72bb4c","server":"7097","farm":8,"title":"Underground","ispublic":1,"isfriend":0,"isfamily":0,"ownername":"Nick-K (Nikos Koutoulas)"},{"id":"1774862997","owner":"7859554@N05","secret":"062f49f936","server":"2395","farm":3,"title":"underground","ispublic":1,"isfriend":0,"isfamily":0,"ownername":"HerRingA"}]},"stat":"ok"}