{"photos":{"page":1,"pages":111297,"perpage":15,"total":"1669448","photo":[{"id":"38436298991","owner":"75487768@N04","secret":"053da5b934","server":"4534","farm":5,"title":"university","ispublic":1,"isfriend":0,"isfamily":0,"ownername":"barnyz"},{"id":"26704334719","owner":"75487768@N04","secret":"fbe992c1dc","server":"4537","farm":5,"title":"university","ispublic":1,"isfriend":0,"isfamily":0,"ownername":"barnyz"},{"id":"6269163560","owner":"68945417@N07","secret":"646628aa8b","server":"6043","farm":7,"title":"University","ispublic":1,"isfriend":0,"isfamily":0,"ownername":"Derdave1"},{"id":"4036428759","owner":"39116183@N06","secret":"370782b254","server":"2632","farm":3,"title":"University 518","ispublic":1,"isfriend":0,"isfamily":0,"ownername":"furlonga2"},{"id":"23566157192","owner":"75487768@N04","secret":"98f117fc75","server":"5827","farm":6,"title":"university","ispublic":1,"isfriend":0,"isfamily":0,"ownername":"barnyz"},{"id":"15804643422","owner":"68592492@N07","secret":"39287c5698","server":"5609","farm":6,"title":"#University","ispublic":1,"isfriend":0,"isfamily":0,"ownername":"CB023"},{"id":"2477235604","owner":"7350467@N04","secret":"a8c222803b","server":"3124","farm":4,"title":"University","ispublic":1,"isfriend":0,"isfamily":0,"ownername":"Ahsan Jahanzeb"},{"id":"4036423235","owner":"39116183@N06","secret":"09780b90d5","server":"3480","farm":4,"title":"University 502","ispublic":1,"isfriend":0,"isfamily":0,"ownername":"furlonga2"},{"id":"4034694686","owner":"39116183@N06","secret":"086078bc15","server":"2534","farm":3,"title":"University 254","ispublic":1,"isfriend":0,"isfamily":0,"ownername":"furlonga2"},{"id":"401667231","owner":"47068271@N00","secret":"4504dea6f8","server":"170","farm":1,"title":"my university","ispublic":1,"isfriend":0,"isfamily":0,"ownername":"acdm3863"},{"id":"3048510370","owner":"24666317@N02","secret":"f1a525db3e","server":"3007","farm":4,"title":"university","ispublic":1,"isfriend":0,"isfamily":0,"ownername":"geologia83"},{"id":"15756911131","owner":"75487768@N04","secret":"fb8f6b7491","server":"3940","farm":4,"title":"Mannheim university","ispublic":1,"isfriend":0,"isfamily":0,"ownername":"barnyz"},{"id":"481580250","owner":"53244164@N00","secret":"31bd13a1e2","server":"181","farm":1,"title":"University","ispublic":1,"isfriend":0,"isfamily":0,"ownername":"x-av"},{"id":"4974230527","owner":"26722809@N03","secret":"5039d7bd2f","server":"4154","farm":5,"title":"university","ispublic":1,"isfriend":0,"isfamily":0,"ownername":"stadtlandschaft"},{"id":"4037211734","owner":"39116183@N06","secret":"9993501f5a","server":"3499","farm":4,"title":"University 595","ispublic":1,"isfriend":0,"isfamily":0,"ownername":"furlonga2"}]},"stat":"ok"}