{"photos":{"page":1,"pages":57942,"perpage":15,"total":"869119","photo":[{"id":"5375928771","owner":"58689472@N08","secret":"8c299ba57b","server":"5082","farm":6,"title":"Valley","ispublic":1,"isfriend":0,"isfamily":0,"ownername":"IvarsB"},{"id":"44973485151","owner":"8114397@N03","secret":"a166a97f99","server":"1946","farm":2,"title":"Valley","ispublic":1,"isfriend":0,"isfamily":0,"ownername":"davekpcv"},{"id":"8466964048","owner":"89904893@N00","secret":"112dbb0be2","server":"8233","farm":9,"title":"Valley","ispublic":1,"isfriend":0,"isfamily":0,"ownername":"Dmitry Shakin"},{"id":"8263176332","owner":"90475107@N00","secret":"affdaf2280","server":"8498","farm":9,"title":"valley.","ispublic":1,"isfriend":0,"isfamily":0,"ownername":"krnjn"},{"id":"16081501011","owner":"59288687@N07","secret":"b2373a4f25","server":"7501","farm":8,"title":"Valley vortex","ispublic":1,"isfriend":0,"isfamily":0,"ownername":"J\u00e9r\u00e9mie Freiburger"},{"id":"8147811076","owner":"56819623@N07","secret":"e45ef3fbc3","server":"8333","farm":9,"title":"amazing valley","ispublic":1,"isfriend":0,"isfamily":0,"ownername":"edoardo.gobattoni"},{"id":"8372720974","owner":"85314460@N02","secret":"f07810dc8d","server":"8095","farm":9,"title":"Valley","ispublic":1,"isfriend":0,"isfamily":0,"ownername":"Kari Siren"},{"id":"9492251327","owner":"100140702@N04","secret":"84ecb45d23","server":"2891","farm":3,"title":"Valley","ispublic":1,"isfriend":0,"isfamily":0,"ownername":"Conor Cullen"},{"id":"24635030261","owner":"22006819@N04","secret":"def899db51","server":"1560","farm":2,"title":"Valley","ispublic":1,"isfriend":0,"isfamily":0,"ownername":"o\u0161iantis"},{"id":"9920211843","owner":"68089229@N06","secret":"84250fdc93","server":"7443","farm":8,"title":"Valley","ispublic":1,"isfriend":0,"isfamily":0,"ownername":"oatsy40"},{"id":"3713830690","owner":"56519376@N00","secret":"cd41d395e0","server":"3488","farm":4,"title":"Valley","ispublic":1,"isfriend":0,"isfamily":0,"ownername":"Anand Ramaswami"},{"id":"4272998221","owner":"46526942@N04","secret":"0771cae0a1","server":"4016","farm":5,"title":"valley","ispublic":1,"isfriend":0,"isfamily":0,"ownername":"\u30ea\u30e3\u30de"},{"id":"8924812102","owner":"62274725@N00","secret":"3e6a11e236","server":"7418","farm":8,"title":"Thimphu valley","ispublic":1,"isfriend":0,"isfamily":0,"ownername":"Nagesh Kamath"},{"id":"6578263","owner":"40018021@N00","secret":"9d13cbd7fc","server":"4","farm":1,"title":"valley","ispublic":1,"isfriend":0,"isfamily":0,"ownername":"BergMattias"},{"id":"2030344896","owner":"66001866@N00","secret":"e7f80706a8","server":"2363","farm":3,"title":"Valley","ispublic":1,"isfriend":0,"isfamily":0,"ownername":"Dave Trott"}]},"stat":"ok"}