{"photos":{"page":1,"pages":3284,"perpage":15,"total":"49251","photo":[{"id":"2807492452","owner":"24522557@N07","secret":"586a097d23","server":"3148","farm":4,"title":"River Buck","ispublic":1,"isfriend":0,"isfamily":0,"ownername":"Dean Pearson"},{"id":"8665607903","owner":"23563006@N08","secret":"87c73c8b2b","server":"8253","farm":9,"title":"Velvet","ispublic":1,"isfriend":0,"isfamily":0,"ownername":"FeeBeeDee"},{"id":"8666709452","owner":"23563006@N08","secret":"73872a219e","server":"8243","farm":9,"title":"Velvet","ispublic":1,"isfriend":0,"isfamily":0,"ownername":"FeeBeeDee"},{"id":"8665610059","owner":"23563006@N08","secret":"affdc94783","server":"8253","farm":9,"title":"Velvet","ispublic":1,"isfriend":0,"isfamily":0,"ownername":"FeeBeeDee"},{"id":"8666707330","owner":"23563006@N08","secret":"9f581c91eb","server":"8255","farm":9,"title":"Velvet","ispublic":1,"isfriend":0,"isfamily":0,"ownername":"FeeBeeDee"},{"id":"5225446823","owner":"45266927@N03","secret":"36f4fcdc73","server":"5246","farm":6,"title":"Red velvet!","ispublic":1,"isfriend":0,"isfamily":0,"ownername":"Lei \u00e8 ree"},{"id":"15895723287","owner":"102899303@N07","secret":"8138f5babd","server":"7506","farm":8,"title":"red velvet","ispublic":1,"isfriend":0,"isfamily":0,"ownername":"mabumarion"},{"id":"9700293804","owner":"76220129@N02","secret":"279a19fbd8","server":"7340","farm":8,"title":"Green Velvet","ispublic":1,"isfriend":0,"isfamily":0,"ownername":"A. Gosewehr"},{"id":"276429956","owner":"38173926@N00","secret":"895bec804f","server":"93","farm":1,"title":"Vintage Velvet","ispublic":1,"isfriend":0,"isfamily":0,"ownername":"*Heather Bailey*"},{"id":"375710340","owner":"73728072@N00","secret":"5de0c11b31","server":"124","farm":1,"title":"velvet","ispublic":1,"isfriend":0,"isfamily":0,"ownername":"Sivan Miller"},{"id":"16011298682","owner":"91530577@N07","secret":"6ea8435591","server":"7476","farm":8,"title":"Velvet under the light","ispublic":1,"isfriend":0,"isfamily":0,"ownername":"Siminis"},{"id":"26598463070","owner":"134696025@N03","secret":"fc820e025d","server":"7675","farm":8,"title":"Velvet touch","ispublic":1,"isfriend":0,"isfamily":0,"ownername":"Velvet Pines"},{"id":"646062836","owner":"65651666@N00","secret":"adf21686c8","server":"1205","farm":2,"title":"Velvet","ispublic":1,"isfriend":0,"isfamily":0,"ownername":"hunky"},{"id":"1895770122","owner":"12091143@N08","secret":"9eef8134fe","server":"2240","farm":3,"title":"Velvet","ispublic":1,"isfriend":0,"isfamily":0,"ownername":"John Adkins II"},{"id":"3371479949","owner":"31226001@N05","secret":"093b5d8a4f","server":"3462","farm":4,"title":"@velvet","ispublic":1,"isfriend":0,"isfamily":0,"ownername":"moony Wang"}]},"stat":"ok"}