{"photos":{"page":1,"pages":148402,"perpage":15,"total":"2226022","photo":[{"id":"8455559220","owner":"69148745@N02","secret":"71f68ffc5c","server":"8227","farm":9,"title":"walk","ispublic":1,"isfriend":0,"isfamily":0,"ownername":"land[e]scape"},{"id":"5596698592","owner":"12180696@N04","secret":"31b89f07d0","server":"5143","farm":6,"title":"Walk","ispublic":1,"isfriend":0,"isfamily":0,"ownername":"_My Hero Is Gone_"},{"id":"6702399565","owner":"23033833@N04","secret":"14e6f60010","server":"7170","farm":8,"title":"walk","ispublic":1,"isfriend":0,"isfamily":0,"ownername":"theojames"},{"id":"3364285005","owner":"75481513@N00","secret":"015070f237","server":"3622","farm":4,"title":"walk away","ispublic":1,"isfriend":0,"isfamily":0,"ownername":"Kliment*"},{"id":"5388906379","owner":"12939520@N08","secret":"13099daa20","server":"5297","farm":6,"title":"a walk","ispublic":1,"isfriend":0,"isfamily":0,"ownername":"IAM2034"},{"id":"4013503611","owner":"8600577@N07","secret":"192ba87552","server":"3523","farm":4,"title":"Walk your path","ispublic":1,"isfriend":0,"isfamily":0,"ownername":"mathiole"},{"id":"4028656483","owner":"24975160@N06","secret":"b00a79f10c","server":"2645","farm":3,"title":"Walk Away","ispublic":1,"isfriend":0,"isfamily":0,"ownername":"IshtiaQ Ahmed revival to Photography"},{"id":"2754987384","owner":"25014540@N06","secret":"a35c411144","server":"3050","farm":4,"title":"walking","ispublic":1,"isfriend":0,"isfamily":0,"ownername":"cicciobombo www.ivanosalonia.com"},{"id":"16067982819","owner":"107528169@N03","secret":"c53e271817","server":"7558","farm":8,"title":"An Autumn Walk Amongst the Trees","ispublic":1,"isfriend":0,"isfamily":0,"ownername":"Adrena Photography"},{"id":"4125288737","owner":"8710082@N03","secret":"98d0b4ba0d","server":"2662","farm":3,"title":"Walk walk","ispublic":1,"isfriend":0,"isfamily":0,"ownername":"simonGman"},{"id":"5209994879","owner":"32677294@N07","secret":"b6a463f344","server":"5010","farm":6,"title":"walk","ispublic":1,"isfriend":0,"isfamily":0,"ownername":"VinTije"},{"id":"2391644321","owner":"9767123@N08","secret":"7d111afe24","server":"3247","farm":4,"title":"Walk On By","ispublic":1,"isfriend":0,"isfamily":0,"ownername":"vonhaupt"},{"id":"14265084261","owner":"12463666@N03","secret":"5050a8da6b","server":"2929","farm":3,"title":"You May Walk Now","ispublic":1,"isfriend":0,"isfamily":0,"ownername":"2bmolar"},{"id":"4567912880","owner":"29468339@N02","secret":"4989027a78","server":"4013","farm":5,"title":"Walk along the Glacier","ispublic":1,"isfriend":0,"isfamily":0,"ownername":"@Doug88888"},{"id":"16225004669","owner":"80046198@N00","secret":"2743838b4f","server":"7348","farm":8,"title":"Walk..","ispublic":1,"isfriend":0,"isfamily":0,"ownername":"areyarey"}]},"stat":"ok"}