{"photos":{"page":1,"pages":76417,"perpage":15,"total":"1146250","photo":[{"id":"32243126247","owner":"43424533@N07","secret":"f9c44f4201","server":"7807","farm":8,"title":"Wall","ispublic":1,"isfriend":0,"isfamily":0,"ownername":"tsu55"},{"id":"35063637370","owner":"93829702@N05","secret":"09436f55a2","server":"4199","farm":5,"title":"Wall","ispublic":1,"isfriend":0,"isfamily":0,"ownername":"maddpete"},{"id":"9187958964","owner":"36526853@N02","secret":"eeb42809c5","server":"5531","farm":6,"title":"Wall.","ispublic":1,"isfriend":0,"isfamily":0,"ownername":"Izabela Accorroni"},{"id":"15794121085","owner":"50551022@N06","secret":"b27d4f63f4","server":"7465","farm":8,"title":"Wall","ispublic":1,"isfriend":0,"isfamily":0,"ownername":"Evgeny Galanin"},{"id":"8395346967","owner":"61548286@N02","secret":"08fe2e3143","server":"8052","farm":9,"title":"wall","ispublic":1,"isfriend":0,"isfamily":0,"ownername":"angelo0690"},{"id":"8237037006","owner":"44507430@N00","secret":"d9343b5a5b","server":"8337","farm":9,"title":"brick wall","ispublic":1,"isfriend":0,"isfamily":0,"ownername":"gabster_ro"},{"id":"6690163827","owner":"64310593@N06","secret":"429e1e7e04","server":"7017","farm":8,"title":"Wall","ispublic":1,"isfriend":0,"isfamily":0,"ownername":"southseadave"},{"id":"4790990884","owner":"93416311@N00","secret":"bbc7ab34e2","server":"4119","farm":5,"title":"Wall","ispublic":1,"isfriend":0,"isfamily":0,"ownername":"Tim Green aka atoach"},{"id":"13916335733","owner":"96117318@N08","secret":"1e92f0db93","server":"3742","farm":4,"title":"wall","ispublic":1,"isfriend":0,"isfamily":0,"ownername":"pellebuys"},{"id":"2420965201","owner":"93416311@N00","secret":"3b388f6815","server":"2156","farm":3,"title":"Wall","ispublic":1,"isfriend":0,"isfamily":0,"ownername":"Tim Green aka atoach"},{"id":"5999476244","owner":"64640644@N04","secret":"bbd61591ee","server":"6143","farm":7,"title":"Wall","ispublic":1,"isfriend":0,"isfamily":0,"ownername":"lvntcpkn"},{"id":"29507970547","owner":"52755911@N03","secret":"d51fcda7be","server":"1873","farm":2,"title":"Wall","ispublic":1,"isfriend":0,"isfamily":0,"ownername":"SammCox"},{"id":"6166281485","owner":"98173310@N00","secret":"44990e6332","server":"6177","farm":7,"title":"wall","ispublic":1,"isfriend":0,"isfamily":0,"ownername":"olivr\u2122"},{"id":"46456241975","owner":"11504370@N00","secret":"2d86262537","server":"7923","farm":8,"title":"Wall","ispublic":1,"isfriend":0,"isfamily":0,"ownername":"jmachoo"},{"id":"36886589675","owner":"133899195@N08","secret":"5daaeea483","server":"4404","farm":5,"title":"Wall","ispublic":1,"isfriend":0,"isfamily":0,"ownername":"pratikpatelcs"}]},"stat":"ok"}