{"photos":{"page":1,"pages":4874,"perpage":15,"total":"73099","photo":[{"id":"5154272969","owner":"82707233@N00","secret":"82e32698c7","server":"4130","farm":5,"title":"wardrobe remix","ispublic":1,"isfriend":0,"isfamily":0,"ownername":".elsie*cake."},{"id":"5350963750","owner":"15599490@N00","secret":"58d4b3e9d7","server":"5121","farm":6,"title":"Wardrobe","ispublic":1,"isfriend":0,"isfamily":0,"ownername":"Skulleigh"},{"id":"4947246792","owner":"82707233@N00","secret":"87062698a8","server":"4098","farm":5,"title":"Wardrobe Remix August 31, 2010","ispublic":1,"isfriend":0,"isfamily":0,"ownername":".elsie*cake."},{"id":"3946814540","owner":"82707233@N00","secret":"80a21e124a","server":"2652","farm":3,"title":"wardrobe remix [Sept. 22, 2009]","ispublic":1,"isfriend":0,"isfamily":0,"ownername":".elsie*cake."},{"id":"4819196734","owner":"82707233@N00","secret":"2edccdc585","server":"4075","farm":5,"title":"wardrobe remix july 22, 2010","ispublic":1,"isfriend":0,"isfamily":0,"ownername":".elsie*cake."},{"id":"4736890618","owner":"82707233@N00","secret":"25580cefc1","server":"4096","farm":5,"title":"wardrobe remix [june 26th, 2010]","ispublic":1,"isfriend":0,"isfamily":0,"ownername":".elsie*cake."},{"id":"4994785414","owner":"82707233@N00","secret":"d087706513","server":"4078","farm":5,"title":"wardrobe remix sept. 15, 2010","ispublic":1,"isfriend":0,"isfamily":0,"ownername":".elsie*cake."},{"id":"7970110982","owner":"27573864@N02","secret":"fe51f554d7","server":"8035","farm":9,"title":"WARDROBE queen","ispublic":1,"isfriend":0,"isfamily":0,"ownername":"N A Y E E M"},{"id":"6509462099","owner":"60089861@N08","secret":"d2db70f000","server":"7003","farm":8,"title":"The Doll Wardrobe","ispublic":1,"isfriend":0,"isfamily":0,"ownername":"rainwaltz"},{"id":"7462186554","owner":"40137420@N05","secret":"a2e66c366c","server":"8018","farm":9,"title":"The Wardrobe","ispublic":1,"isfriend":0,"isfamily":0,"ownername":"Robert Weinraub"},{"id":"4531316814","owner":"41417247@N04","secret":"38c269decd","server":"4019","farm":5,"title":"Invisible Wardrobe  3","ispublic":1,"isfriend":0,"isfamily":0,"ownername":"jaboopee"},{"id":"5037326163","owner":"82707233@N00","secret":"a5472b323a","server":"4112","farm":5,"title":"Wardrobe Remix (in the new shop!)","ispublic":1,"isfriend":0,"isfamily":0,"ownername":".elsie*cake."},{"id":"2757440717","owner":"8461218@N03","secret":"194aa7e65c","server":"3021","farm":4,"title":"wardrobe","ispublic":1,"isfriend":0,"isfamily":0,"ownername":"laura*tm"},{"id":"14560849164","owner":"55867640@N05","secret":"eec054e809","server":"2905","farm":3,"title":"wicca's  wardrobe","ispublic":1,"isfriend":0,"isfamily":0,"ownername":"Alon Alphaville"},{"id":"13285667215","owner":"36965077@N06","secret":"2c0f1e0f97","server":"2808","farm":3,"title":"Wicca's Wardrobe for SAVIAD","ispublic":1,"isfriend":0,"isfamily":0,"ownername":"Angels \u24dc\u24d8\u24db\u24d4\u24dd\u24d0"}]},"stat":"ok"}