{"photos":{"page":1,"pages":27402,"perpage":15,"total":"411024","photo":[{"id":"6276459794","owner":"61929320@N04","secret":"c93f35e357","server":"6119","farm":7,"title":"warm","ispublic":1,"isfriend":0,"isfamily":0,"ownername":"sofiadelmare"},{"id":"3127479566","owner":"29886427@N07","secret":"96d71f881d","server":"3260","farm":4,"title":"Warm","ispublic":1,"isfriend":0,"isfamily":0,"ownername":"So Late - Ludivine Sagnier .......nell"},{"id":"19514081225","owner":"62944627@N03","secret":"75a90f6f45","server":"535","farm":1,"title":"And the Warm Light Shines Through","ispublic":1,"isfriend":0,"isfamily":0,"ownername":"Irina Sofia Deschanel"},{"id":"3195800003","owner":"14224031@N03","secret":"af1b01111e","server":"3513","farm":4,"title":"Warm-keh...","ispublic":1,"isfriend":0,"isfamily":0,"ownername":"Mary Trebilco"},{"id":"8624950339","owner":"72036844@N04","secret":"df2448ba31","server":"8400","farm":9,"title":"Warm Hand Awaits","ispublic":1,"isfriend":0,"isfamily":0,"ownername":"Tim Lydy"},{"id":"11220386924","owner":"84265631@N04","secret":"da33735121","server":"7314","farm":8,"title":"Warm","ispublic":1,"isfriend":0,"isfamily":0,"ownername":"Elizabeth_211"},{"id":"10968586203","owner":"74571557@N07","secret":"9bb879e013","server":"7392","farm":8,"title":"Warming Sunrise","ispublic":1,"isfriend":0,"isfamily":0,"ownername":"RTA Photography"},{"id":"14084064396","owner":"96280707@N05","secret":"c3b3e658b3","server":"2929","farm":3,"title":"Warm sunset","ispublic":1,"isfriend":0,"isfamily":0,"ownername":"zmonarski.m"},{"id":"22739886123","owner":"94616401@N02","secret":"d286aa2970","server":"5692","farm":6,"title":"Warm","ispublic":1,"isfriend":0,"isfamily":0,"ownername":"Felicity Berkleef Photography"},{"id":"4203137515","owner":"31502736@N06","secret":"0197237127","server":"2765","farm":3,"title":"Warm welcome in a Samburu Village","ispublic":1,"isfriend":0,"isfamily":0,"ownername":"mikel.hendriks"},{"id":"5718067588","owner":"13715436@N00","secret":"329748d64f","server":"3047","farm":4,"title":"Warming Light","ispublic":1,"isfriend":0,"isfamily":0,"ownername":"Brenda Boisvert"},{"id":"5358787600","owner":"37767699@N00","secret":"d4368e32ec","server":"5043","farm":6,"title":"Warm Light","ispublic":1,"isfriend":0,"isfamily":0,"ownername":"jack4pics"},{"id":"3307073443","owner":"24522097@N04","secret":"67d58b00d0","server":"3448","farm":4,"title":"'WARM HOT BATH'   -  Best viewed large!","ispublic":1,"isfriend":0,"isfamily":0,"ownername":"Mundilfari*"},{"id":"6959939921","owner":"36607702@N08","secret":"d34f944aec","server":"7068","farm":8,"title":"A Warm and Fuzzy Feeling","ispublic":1,"isfriend":0,"isfamily":0,"ownername":"jackaloha2"},{"id":"11910067253","owner":"10641418@N00","secret":"39c30798e9","server":"5536","farm":6,"title":"Warm Light","ispublic":1,"isfriend":0,"isfamily":0,"ownername":".Brian Kerr Photography."}]},"stat":"ok"}