{"photos":{"page":1,"pages":23326,"perpage":15,"total":"349881","photo":[{"id":"8328873089","owner":"69148745@N02","secret":"4f068a8733","server":"8078","farm":9,"title":"star wars 2013 - may the force be with you! :))","ispublic":1,"isfriend":0,"isfamily":0,"ownername":"land[e]scape"},{"id":"4785450630","owner":"34330548@N07","secret":"c388d2cb71","server":"4134","farm":5,"title":"Star Wars Again (Explored)","ispublic":1,"isfriend":0,"isfamily":0,"ownername":"~Urban Prowler~ (www.anshumm.com)"},{"id":"5605998596","owner":"47018679@N02","secret":"73530c7ee1","server":"5222","farm":6,"title":"Empire AT War","ispublic":1,"isfriend":0,"isfamily":0,"ownername":"Shobrick"},{"id":"5354972155","owner":"49036575@N02","secret":"e879779d6b","server":"5170","farm":6,"title":"Star Wars : Lego adventure","ispublic":1,"isfriend":0,"isfamily":0,"ownername":"Zed The Dragon"},{"id":"14374260932","owner":"47697314@N02","secret":"73c414f951","server":"5236","farm":6,"title":"Sith War Droid Mark I","ispublic":1,"isfriend":0,"isfamily":0,"ownername":"N-11 Ordo"},{"id":"7069421009","owner":"23397895@N08","secret":"a47cd50880","server":"7184","farm":8,"title":"Super Wars!","ispublic":1,"isfriend":0,"isfamily":0,"ownername":"Oky - Space Ranger"},{"id":"3515416448","owner":"78289576@N00","secret":"0ea1c840f6","server":"3616","farm":4,"title":"wars result","ispublic":1,"isfriend":0,"isfamily":0,"ownername":"AgusValenz"},{"id":"8711728056","owner":"49413995@N06","secret":"8401ca7301","server":"8409","farm":9,"title":"Star Wars Day On The Death Star","ispublic":1,"isfriend":0,"isfamily":0,"ownername":"MinifigNick"},{"id":"7690463140","owner":"69148745@N02","secret":"434d84f50c","server":"8425","farm":9,"title":"Star Wars - The Flowers Will Rise Aigain","ispublic":1,"isfriend":0,"isfamily":0,"ownername":"land[e]scape"},{"id":"6007744869","owner":"49036575@N02","secret":"419143673b","server":"6026","farm":7,"title":"Star Wars : Lego adventure","ispublic":1,"isfriend":0,"isfamily":0,"ownername":"Zed The Dragon"},{"id":"5997276534","owner":"49036575@N02","secret":"e123807b67","server":"6149","farm":7,"title":"Star Wars : Lego adventure","ispublic":1,"isfriend":0,"isfamily":0,"ownername":"Zed The Dragon"},{"id":"15804078937","owner":"78006269@N04","secret":"cc98036fe5","server":"7536","farm":8,"title":"Star Wars Battlefront- Geonosis Galactic Conquest","ispublic":1,"isfriend":0,"isfamily":0,"ownername":"Brickwielder"},{"id":"8034663580","owner":"40704019@N05","secret":"0a6b11bf04","server":"8454","farm":9,"title":"Star Wars : The Clone Wars - Season 5 Premieres Tomorrow!","ispublic":1,"isfriend":0,"isfamily":0,"ownername":"MGF Customs\/Reviews"},{"id":"5990495041","owner":"49036575@N02","secret":"9a6e652983","server":"6131","farm":7,"title":"Star Wars : Lego adventure","ispublic":1,"isfriend":0,"isfamily":0,"ownername":"Zed The Dragon"},{"id":"6168296997","owner":"49036575@N02","secret":"6cbed8136e","server":"6160","farm":7,"title":"Star Wars : Lego adventure","ispublic":1,"isfriend":0,"isfamily":0,"ownername":"Zed The Dragon"}]},"stat":"ok"}