{"photos":{"page":1,"pages":357366,"perpage":15,"total":"5360483","photo":[{"id":"13183482194","owner":"36587311@N08","secret":"014092fc55","server":"7078","farm":8,"title":"water","ispublic":1,"isfriend":0,"isfamily":0,"ownername":"\u25baCubaGallery"},{"id":"7334375668","owner":"36587311@N08","secret":"4e6d2d32f9","server":"7225","farm":8,"title":"water","ispublic":1,"isfriend":0,"isfamily":0,"ownername":"\u25baCubaGallery"},{"id":"11019116053","owner":"36587311@N08","secret":"bd4453362f","server":"7380","farm":8,"title":"water","ispublic":1,"isfriend":0,"isfamily":0,"ownername":"\u25baCubaGallery"},{"id":"10816045446","owner":"36587311@N08","secret":"5140f16582","server":"5479","farm":6,"title":"water","ispublic":1,"isfriend":0,"isfamily":0,"ownername":"\u25baCubaGallery"},{"id":"3914422717","owner":"36587311@N08","secret":"2d111a0134","server":"2490","farm":3,"title":"water","ispublic":1,"isfriend":0,"isfamily":0,"ownername":"\u25baCubaGallery"},{"id":"19040000589","owner":"62118446@N03","secret":"e35e7ee182","server":"329","farm":1,"title":"water","ispublic":1,"isfriend":0,"isfamily":0,"ownername":"cbrutel"},{"id":"11745235144","owner":"55959716@N08","secret":"e4141f58a9","server":"2827","farm":3,"title":"water","ispublic":1,"isfriend":0,"isfamily":0,"ownername":"Philocycler"},{"id":"6930567747","owner":"36587311@N08","secret":"55c59c4c1e","server":"7207","farm":8,"title":"water","ispublic":1,"isfriend":0,"isfamily":0,"ownername":"\u25baCubaGallery"},{"id":"12922970884","owner":"36587311@N08","secret":"f9bd8d5f5a","server":"3791","farm":4,"title":"water","ispublic":1,"isfriend":0,"isfamily":0,"ownername":"\u25baCubaGallery"},{"id":"3952816905","owner":"27376687@N05","secret":"288b7905fe","server":"3513","farm":4,"title":"Water","ispublic":1,"isfriend":0,"isfamily":0,"ownername":"raffacama"},{"id":"2104059653","owner":"21644167@N04","secret":"fd629093a3","server":"2249","farm":3,"title":"water","ispublic":1,"isfriend":0,"isfamily":0,"ownername":"Bahman Farzad"},{"id":"5461700592","owner":"21692577@N02","secret":"5ed1da2e71","server":"5180","farm":6,"title":"water","ispublic":1,"isfriend":0,"isfamily":0,"ownername":"Danny VB"},{"id":"14013760739","owner":"80226011@N06","secret":"16644ca833","server":"5490","farm":6,"title":"water","ispublic":1,"isfriend":0,"isfamily":0,"ownername":"Blueocean64"},{"id":"15052482695","owner":"80226011@N06","secret":"89bd3f7756","server":"5571","farm":6,"title":"water","ispublic":1,"isfriend":0,"isfamily":0,"ownername":"Blueocean64"},{"id":"12944333364","owner":"36587311@N08","secret":"1b1457568e","server":"7402","farm":8,"title":"water","ispublic":1,"isfriend":0,"isfamily":0,"ownername":"\u25baCubaGallery"}]},"stat":"ok"}