{"photos":{"page":1,"pages":29848,"perpage":15,"total":"447707","photo":[{"id":"13448709564","owner":"73422502@N08","secret":"86846d2bae","server":"3731","farm":4,"title":"Waterfront","ispublic":1,"isfriend":0,"isfamily":0,"ownername":"Zeeyolq Photography"},{"id":"5028799968","owner":"34869895@N06","secret":"9e671336b9","server":"4144","farm":5,"title":"South Africa. Cape Town, V & A Waterfront","ispublic":1,"isfriend":0,"isfamily":0,"ownername":"dimaruss34"},{"id":"5380310687","owner":"42698214@N02","secret":"2fcde1dd61","server":"5089","farm":6,"title":"Seattle Waterfront","ispublic":1,"isfriend":0,"isfamily":0,"ownername":"Sebastian (sibbiblue)"},{"id":"12797996964","owner":"35614822@N08","secret":"f5efc2ae2d","server":"7329","farm":8,"title":"Sunset Over Willamette River Along Portland Waterfront","ispublic":1,"isfriend":0,"isfamily":0,"ownername":"David Gn Photography"},{"id":"3347990239","owner":"84041910@N00","secret":"4653b5611f","server":"3633","farm":4,"title":"Pier 66 - Seattle Waterfront at Dusk","ispublic":1,"isfriend":0,"isfamily":0,"ownername":"moog55"},{"id":"13397856264","owner":"117776998@N03","secret":"9b24c4c107","server":"3701","farm":4,"title":"Stockholm Waterfront","ispublic":1,"isfriend":0,"isfamily":0,"ownername":"Ian Fong"},{"id":"13092839304","owner":"60703488@N00","secret":"f9d1cb2899","server":"7430","farm":8,"title":"Newport Waterfront","ispublic":1,"isfriend":0,"isfamily":0,"ownername":"pete4ducks"},{"id":"16769676287","owner":"76069050@N08","secret":"bf86ed4391","server":"7591","farm":8,"title":"Waterfront","ispublic":1,"isfriend":0,"isfamily":0,"ownername":"Alessandro Giorgi Art Photography"},{"id":"14016083065","owner":"34036173@N07","secret":"378fd3754c","server":"5272","farm":6,"title":"Hawaii - Honolulu Waterfront","ispublic":1,"isfriend":0,"isfamily":0,"ownername":"Yen Baet"},{"id":"6199745847","owner":"45259344@N04","secret":"cec11bcb38","server":"6179","farm":7,"title":"Liverpool Waterfront @Night","ispublic":1,"isfriend":0,"isfamily":0,"ownername":"Hazeldon73"},{"id":"8435314341","owner":"38059062@N05","secret":"0d9fe4c246","server":"8071","farm":9,"title":"waterfront","ispublic":1,"isfriend":0,"isfamily":0,"ownername":"Andy Kennelly"},{"id":"19829205948","owner":"99837883@N00","secret":"53fa5d7968","server":"258","farm":1,"title":"Waterfront Blues","ispublic":1,"isfriend":0,"isfamily":0,"ownername":"Synapped"},{"id":"11796685285","owner":"79236358@N05","secret":"8cb76892bb","server":"7366","farm":8,"title":"London Bridge City Pier and Thames waterfront","ispublic":1,"isfriend":0,"isfamily":0,"ownername":"Luca Battistella Photography"},{"id":"16773949806","owner":"65328977@N08","secret":"3d77e220f1","server":"8739","farm":9,"title":"Colorful Waterfront","ispublic":1,"isfriend":0,"isfamily":0,"ownername":"spiritusmentis"},{"id":"14787403437","owner":"62501682@N00","secret":"d9d13a4ff2","server":"5584","farm":6,"title":"Boats in front of Castel dell'Ovo on the waterfront in Naples, Italy","ispublic":1,"isfriend":0,"isfamily":0,"ownername":"diana_robinson"}]},"stat":"ok"}