{"photos":{"page":1,"pages":3131,"perpage":15,"total":"46952","photo":[{"id":"6115722074","owner":"32889716@N04","secret":"bbeac66cce","server":"6072","farm":7,"title":"Medieval waters","ispublic":1,"isfriend":0,"isfamily":0,"ownername":"motiqua"},{"id":"14109554683","owner":"49088478@N05","secret":"c1ee7c6887","server":"7302","farm":8,"title":"Sun's Rays Evening Time---Laguna Beach, California USA (Explore, May 2, 2014)","ispublic":1,"isfriend":0,"isfamily":0,"ownername":"jackwickes"},{"id":"41814538132","owner":"32039444@N05","secret":"9a84b4c633","server":"971","farm":1,"title":"Running Waters","ispublic":1,"isfriend":0,"isfamily":0,"ownername":"shelshots"},{"id":"43437759744","owner":"129360348@N06","secret":"875f74d1c4","server":"1875","farm":2,"title":"Waters...","ispublic":1,"isfriend":0,"isfamily":0,"ownername":"jeangrgoire_marin"},{"id":"20540919802","owner":"123804894@N05","secret":"3891e71e5b","server":"740","farm":1,"title":"Water","ispublic":1,"isfriend":0,"isfamily":0,"ownername":"RoddieU2"},{"id":"6264961474","owner":"48571183@N08","secret":"88f66ddd7e","server":"6111","farm":7,"title":"Calm Waters","ispublic":1,"isfriend":0,"isfamily":0,"ownername":"J Montero"},{"id":"9492875911","owner":"88953333@N05","secret":"1a77c91306","server":"2828","farm":3,"title":"Ornamental Waters","ispublic":1,"isfriend":0,"isfamily":0,"ownername":"cuppyuppycake"},{"id":"22489425632","owner":"98949308@N06","secret":"5cdb212225","server":"760","farm":1,"title":"rocky waters","ispublic":1,"isfriend":0,"isfamily":0,"ownername":"tbourley"},{"id":"42306810312","owner":"94681631@N05","secret":"d3957e114e","server":"1727","farm":2,"title":"Tumbling Waters","ispublic":1,"isfriend":0,"isfamily":0,"ownername":"dolf botha photography"},{"id":"5351711443","owner":"58184115@N08","secret":"0c898157e7","server":"5241","farm":6,"title":"open_waters","ispublic":1,"isfriend":0,"isfamily":0,"ownername":"laurenbarwickphotography"},{"id":"4877716853","owner":"52935817@N08","secret":"b6a1be7513","server":"4135","farm":5,"title":"","ispublic":1,"isfriend":0,"isfamily":0,"ownername":"katekinkade"},{"id":"3024076595","owner":"26083386@N05","secret":"c66720d734","server":"3018","farm":4,"title":"waters","ispublic":1,"isfriend":0,"isfamily":0,"ownername":"sha_shin"},{"id":"6350099831","owner":"20226958@N00","secret":"253c97e9eb","server":"6031","farm":7,"title":"Turbulent Waters","ispublic":1,"isfriend":0,"isfamily":0,"ownername":"floridafale"},{"id":"5175648969","owner":"44125107@N05","secret":"6d5eec3a91","server":"4126","farm":5,"title":"Coniston Waters","ispublic":1,"isfriend":0,"isfamily":0,"ownername":"Paul-Whittingham"},{"id":"1846940112","owner":"17623112@N03","secret":"48231922fa","server":"2009","farm":3,"title":"IMG_1346","ispublic":1,"isfriend":0,"isfamily":0,"ownername":"brian_fisher"}]},"stat":"ok"}