{"photos":{"page":1,"pages":152,"perpage":15,"total":"2266","photo":[{"id":"3264871881","owner":"33945090@N08","secret":"cec2d68a66","server":"3452","farm":4,"title":"werewolves","ispublic":1,"isfriend":0,"isfamily":0,"ownername":"Danielle \/ Williams"},{"id":"1198695231","owner":"18781303@N00","secret":"68c5d08519","server":"1279","farm":2,"title":"Werewolf","ispublic":1,"isfriend":0,"isfamily":0,"ownername":"Gamethyme"},{"id":"1199561298","owner":"18781303@N00","secret":"70bb46284c","server":"1424","farm":2,"title":"Werewolves","ispublic":1,"isfriend":0,"isfamily":0,"ownername":"Gamethyme"},{"id":"1199562070","owner":"18781303@N00","secret":"d212c8a439","server":"1246","farm":2,"title":"Werewolves","ispublic":1,"isfriend":0,"isfamily":0,"ownername":"Gamethyme"},{"id":"2512796975","owner":"26813694@N06","secret":"c15a8cb38d","server":"3098","farm":4,"title":"Werewolves kids","ispublic":1,"isfriend":0,"isfamily":0,"ownername":"vanhelsingrrr"},{"id":"179795389","owner":"34708024@N00","secret":"bc411f4f62","server":"73","farm":1,"title":"werewolf!","ispublic":1,"isfriend":0,"isfamily":0,"ownername":"genevra2006"},{"id":"4092997253","owner":"44522047@N04","secret":"f46caf1a2e","server":"2796","farm":3,"title":"WereWolf","ispublic":1,"isfriend":0,"isfamily":0,"ownername":"DeathsScythe"},{"id":"6134806617","owner":"51071182@N03","secret":"5308db6969","server":"6163","farm":7,"title":"Clawd Wolf","ispublic":1,"isfriend":0,"isfamily":0,"ownername":"10tally1"},{"id":"6939748825","owner":"10132471@N06","secret":"c7e4daa17c","server":"7205","farm":8,"title":"Woofs","ispublic":1,"isfriend":0,"isfamily":0,"ownername":"adam e. roth"},{"id":"5720547393","owner":"62875801@N05","secret":"8e2baffffa","server":"3477","farm":4,"title":"lego werewolves","ispublic":1,"isfriend":0,"isfamily":0,"ownername":"lego-my-lego"},{"id":"1346919695","owner":"12994570@N05","secret":"fad0f8ffb2","server":"1209","farm":2,"title":"Werewolf Woman04","ispublic":1,"isfriend":0,"isfamily":0,"ownername":"The Lycanthrope"},{"id":"15025576688","owner":"104264975@N06","secret":"7e49a8ee5e","server":"3896","farm":4,"title":"Werewolves","ispublic":1,"isfriend":0,"isfamily":0,"ownername":"Morse_Photography"},{"id":"1354242669","owner":"13146945@N07","secret":"aa648ca60a","server":"1094","farm":2,"title":"Werewolf Woman02","ispublic":1,"isfriend":0,"isfamily":0,"ownername":"Werewolf Within"},{"id":"5721105118","owner":"62875801@N05","secret":"59aa466013","server":"3116","farm":4,"title":"lego werewolves","ispublic":1,"isfriend":0,"isfamily":0,"ownername":"lego-my-lego"}]},"stat":"ok"}