{"photos":{"page":1,"pages":25254,"perpage":15,"total":"378803","photo":[{"id":"6040578667","owner":"66357113@N04","secret":"ea41dddf9c","server":"6192","farm":7,"title":"Wet","ispublic":1,"isfriend":0,"isfamily":0,"ownername":"Jasenka Photo"},{"id":"2772148487","owner":"21692577@N02","secret":"8ee1c66060","server":"3205","farm":4,"title":"Wet","ispublic":1,"isfriend":0,"isfamily":0,"ownername":"Danny VB"},{"id":"6121687193","owner":"22462473@N08","secret":"c14eb4014c","server":"6078","farm":7,"title":"wet","ispublic":1,"isfriend":0,"isfamily":0,"ownername":"daisysteed75"},{"id":"6296908813","owner":"53928360@N00","secret":"4cdf5df837","server":"6052","farm":7,"title":"wet","ispublic":1,"isfriend":0,"isfamily":0,"ownername":"1bluecanoe"},{"id":"12938501434","owner":"16706821@N00","secret":"e89e8cccf0","server":"3691","farm":4,"title":"Wet","ispublic":1,"isfriend":0,"isfamily":0,"ownername":"Kinosam"},{"id":"17124157061","owner":"73422502@N08","secret":"e6f469ffeb","server":"7673","farm":8,"title":"Wet","ispublic":1,"isfriend":0,"isfamily":0,"ownername":"Zeeyolq Photography"},{"id":"10725000204","owner":"101142329@N04","secret":"e14b5dc681","server":"2828","farm":3,"title":"Wet","ispublic":1,"isfriend":0,"isfamily":0,"ownername":"tittidufva"},{"id":"2250499373","owner":"90864836@N00","secret":"172e096777","server":"2050","farm":3,"title":"wet","ispublic":1,"isfriend":0,"isfamily":0,"ownername":"*SO-CALLED BLYTHE* by so-called anna"},{"id":"14611797792","owner":"10681652@N06","secret":"8589f761e7","server":"3874","farm":4,"title":"wet","ispublic":1,"isfriend":0,"isfamily":0,"ownername":"miserablespice"},{"id":"4711336805","owner":"29579985@N03","secret":"31779155a8","server":"4071","farm":5,"title":"Wet","ispublic":1,"isfriend":0,"isfamily":0,"ownername":"LEADiya"},{"id":"6252164358","owner":"68539189@N07","secret":"e66f60f8c3","server":"6104","farm":7,"title":"Wet","ispublic":1,"isfriend":0,"isfamily":0,"ownername":"CS Goodkind"},{"id":"258252959","owner":"84547855@N00","secret":"0f37a0b383","server":"88","farm":1,"title":"wet","ispublic":1,"isfriend":0,"isfamily":0,"ownername":"fisher_kris"},{"id":"16626603198","owner":"35371811@N05","secret":"2ef4f0531b","server":"8745","farm":9,"title":"wet","ispublic":1,"isfriend":0,"isfamily":0,"ownername":"eliseoutof"},{"id":"44699319124","owner":"136595469@N08","secret":"6b573f2978","server":"1943","farm":2,"title":"*Wet*","ispublic":1,"isfriend":0,"isfamily":0,"ownername":"claire artistandpoet Stroke Survivor"},{"id":"14710712828","owner":"57761680@N03","secret":"23a510d040","server":"5588","farm":6,"title":"wet","ispublic":1,"isfriend":0,"isfamily":0,"ownername":"Photos by Sven Becker"}]},"stat":"ok"}