{"photos":{"page":1,"pages":9903,"perpage":15,"total":"148537","photo":[{"id":"7471104002","owner":"97183838@N00","secret":"169c3077ba","server":"8147","farm":9,"title":"Whale","ispublic":1,"isfriend":0,"isfamily":0,"ownername":"Steven & Joey Thompson"},{"id":"35442938494","owner":"12736916@N07","secret":"473386f51f","server":"4302","farm":5,"title":"Whale","ispublic":1,"isfriend":0,"isfamily":0,"ownername":"Yukari W. H"},{"id":"9392240520","owner":"67932155@N08","secret":"9e447d0773","server":"7379","farm":8,"title":"Whale","ispublic":1,"isfriend":0,"isfamily":0,"ownername":"mvo2012"},{"id":"14585780320","owner":"36977085@N05","secret":"7aa1c57cbe","server":"2924","farm":3,"title":"Whale","ispublic":1,"isfriend":0,"isfamily":0,"ownername":"Ryan Origami"},{"id":"2693670723","owner":"28842876@N02","secret":"98456d80b0","server":"3227","farm":4,"title":"Whale","ispublic":1,"isfriend":0,"isfamily":0,"ownername":"dino.mitex"},{"id":"167054878","owner":"55882039@N00","secret":"f915897091","server":"55","farm":1,"title":"Whales","ispublic":1,"isfriend":0,"isfamily":0,"ownername":"sohoisp"},{"id":"5745800064","owner":"38887655@N06","secret":"b8749db52a","server":"3283","farm":4,"title":"Whale bones","ispublic":1,"isfriend":0,"isfamily":0,"ownername":"Martin-Klein"},{"id":"44217923782","owner":"129149294@N02","secret":"b27a39da66","server":"1877","farm":2,"title":"Whale","ispublic":1,"isfriend":0,"isfamily":0,"ownername":"lebeguep"},{"id":"2876780974","owner":"28338365@N04","secret":"5437a81659","server":"3103","farm":4,"title":"Whale","ispublic":1,"isfriend":0,"isfamily":0,"ownername":"antoninthe954"},{"id":"14792037476","owner":"87961435@N00","secret":"662bc55298","server":"3858","farm":4,"title":"Whales","ispublic":1,"isfriend":0,"isfamily":0,"ownername":"fiatlux"},{"id":"14815039125","owner":"87961435@N00","secret":"d86075f1fe","server":"3869","farm":4,"title":"Whales","ispublic":1,"isfriend":0,"isfamily":0,"ownername":"fiatlux"},{"id":"8639127127","owner":"49721095@N04","secret":"73e43db792","server":"8534","farm":9,"title":"whale","ispublic":1,"isfriend":0,"isfamily":0,"ownername":"Di Katsko"},{"id":"3645451823","owner":"39244520@N07","secret":"805b5d239a","server":"3395","farm":4,"title":"WHALE","ispublic":1,"isfriend":0,"isfamily":0,"ownername":"Nishida Shatner"},{"id":"6593852335","owner":"43341832@N08","secret":"6d6a7dc0d3","server":"7031","farm":8,"title":"whale","ispublic":1,"isfriend":0,"isfamily":0,"ownername":"Nicole Boardman"},{"id":"33108078883","owner":"24614388@N00","secret":"0dcae4efe8","server":"3935","farm":4,"title":"Whale","ispublic":1,"isfriend":0,"isfamily":0,"ownername":"evil robot 6"}]},"stat":"ok"}