{"photos":{"page":1,"pages":278663,"perpage":15,"total":"4179937","photo":[{"id":"4840326565","owner":"21644167@N04","secret":"d7fbeee992","server":"4090","farm":5,"title":"White","ispublic":1,"isfriend":0,"isfamily":0,"ownername":"Bahman Farzad"},{"id":"11754164213","owner":"50254641@N06","secret":"a79fc61052","server":"2836","farm":3,"title":"White","ispublic":1,"isfriend":0,"isfamily":0,"ownername":"MarcipanCat"},{"id":"5831390287","owner":"41894168711@N01","secret":"bdef6ac246","server":"2798","farm":3,"title":"White","ispublic":1,"isfriend":0,"isfamily":0,"ownername":"Georgie Sharp"},{"id":"3314361181","owner":"27981470@N00","secret":"a937879f13","server":"3543","farm":4,"title":"White","ispublic":1,"isfriend":0,"isfamily":0,"ownername":"gbsngrhm"},{"id":"5456384862","owner":"27409143@N00","secret":"cf7cbe094c","server":"5139","farm":6,"title":"White","ispublic":1,"isfriend":0,"isfamily":0,"ownername":"kb_vaidya"},{"id":"8569959044","owner":"22163926@N05","secret":"d918e0867c","server":"8511","farm":9,"title":"white","ispublic":1,"isfriend":0,"isfamily":0,"ownername":"WalrusTexas"},{"id":"4631251940","owner":"41210978@N06","secret":"6bdb673471","server":"4011","farm":5,"title":"White","ispublic":1,"isfriend":0,"isfamily":0,"ownername":"Chris H12"},{"id":"29655655553","owner":"124706007@N05","secret":"fce62abca5","server":"5614","farm":6,"title":"White","ispublic":1,"isfriend":0,"isfamily":0,"ownername":"Sa Mu"},{"id":"12208657444","owner":"77065560@N04","secret":"e3cfe486c4","server":"5521","farm":6,"title":"white","ispublic":1,"isfriend":0,"isfamily":0,"ownername":"VanDaan-"},{"id":"5693731007","owner":"47875353@N06","secret":"0241d087db","server":"3105","farm":4,"title":"White","ispublic":1,"isfriend":0,"isfamily":0,"ownername":"uiethma"},{"id":"6042515593","owner":"38462407@N00","secret":"c596d1e71b","server":"6196","farm":7,"title":"White","ispublic":1,"isfriend":0,"isfamily":0,"ownername":"Ed Walker"},{"id":"27498979311","owner":"136288961@N08","secret":"236c50fa7f","server":"7383","farm":8,"title":"White","ispublic":1,"isfriend":0,"isfamily":0,"ownername":"R. W Photo"},{"id":"3356191105","owner":"72469849@N00","secret":"14d1ac1ae6","server":"3553","farm":4,"title":"White","ispublic":1,"isfriend":0,"isfamily":0,"ownername":"ania115"},{"id":"23922443620","owner":"118106855@N05","secret":"35b4d2b55b","server":"1545","farm":2,"title":"White","ispublic":1,"isfriend":0,"isfamily":0,"ownername":"Barb120459"},{"id":"7141891797","owner":"36589460@N05","secret":"5a8ae83cc2","server":"7246","farm":8,"title":"White","ispublic":1,"isfriend":0,"isfamily":0,"ownername":"mennomenno."}]},"stat":"ok"}