{"photos":{"page":1,"pages":68816,"perpage":15,"total":"1032237","photo":[{"id":"4788671211","owner":"51344063@N04","secret":"4449152f52","server":"4140","farm":5,"title":"wild","ispublic":1,"isfriend":0,"isfamily":0,"ownername":"fr8junkie"},{"id":"41861404524","owner":"153352659@N03","secret":"5f9e7143e3","server":"1737","farm":2,"title":"Wild Flowers","ispublic":1,"isfriend":0,"isfamily":0,"ownername":"Just Click's With A Camera"},{"id":"2158562541","owner":"21401525@N04","secret":"45dfbabc1b","server":"2058","farm":3,"title":"| Wild |","ispublic":1,"isfriend":0,"isfamily":0,"ownername":"| Francisco |"},{"id":"9378774451","owner":"98475059@N02","secret":"bb1cee0fd4","server":"3816","farm":4,"title":"Wild","ispublic":1,"isfriend":0,"isfamily":0,"ownername":"MaiqGomez"},{"id":"2735635694","owner":"9212560@N08","secret":"088c77297a","server":"3208","farm":4,"title":"Wild","ispublic":1,"isfriend":0,"isfamily":0,"ownername":"~ Virginia R ~"},{"id":"15316460411","owner":"97361323@N02","secret":"5613548bc8","server":"3914","farm":4,"title":"Wild","ispublic":1,"isfriend":0,"isfamily":0,"ownername":"lobanovaleksey"},{"id":"13999973727","owner":"79000412@N04","secret":"670ae67380","server":"2936","farm":3,"title":"wild","ispublic":1,"isfriend":0,"isfamily":0,"ownername":"Carola Cappellari"},{"id":"4257593598","owner":"44390321@N02","secret":"1eb0dfd861","server":"4068","farm":5,"title":"Wild","ispublic":1,"isfriend":0,"isfamily":0,"ownername":"Mary Pebble"},{"id":"16558698559","owner":"21342666@N00","secret":"51e91bf428","server":"7623","farm":8,"title":"Wild","ispublic":1,"isfriend":0,"isfamily":0,"ownername":"Grace Pedulla Dillon"},{"id":"3233935972","owner":"18205125@N07","secret":"bb8b740938","server":"3407","farm":4,"title":"wild ?","ispublic":1,"isfriend":0,"isfamily":0,"ownername":"Ioan POPOVICI"},{"id":"15115538908","owner":"56819623@N07","secret":"5d8eb3e035","server":"5596","farm":6,"title":"wild cyclamen","ispublic":1,"isfriend":0,"isfamily":0,"ownername":"edoardo.gobattoni"},{"id":"4348184678","owner":"30427164@N03","secret":"69e8f79d51","server":"2801","farm":3,"title":"wild","ispublic":1,"isfriend":0,"isfamily":0,"ownername":"zoeza"},{"id":"5859319198","owner":"59793553@N07","secret":"be427aa15b","server":"5318","farm":6,"title":"Wild","ispublic":1,"isfriend":0,"isfamily":0,"ownername":"hefemistudios"},{"id":"17238500451","owner":"113355306@N06","secret":"3e0b79ef04","server":"5345","farm":6,"title":"wild","ispublic":1,"isfriend":0,"isfamily":0,"ownername":"Zo\u00e9 Cavaro"},{"id":"4765889400","owner":"14587295@N08","secret":"79cdce9a25","server":"4081","farm":5,"title":"Wild","ispublic":1,"isfriend":0,"isfamily":0,"ownername":"negib"}]},"stat":"ok"}