{"photos":{"page":1,"pages":1388,"perpage":15,"total":"20807","photo":[{"id":"15782311","owner":"81581881@N00","secret":"43da0987d1","server":"10","farm":1,"title":"Willows","ispublic":1,"isfriend":0,"isfamily":0,"ownername":"With A Twist"},{"id":"14911578297","owner":"58202472@N02","secret":"08d46132ab","server":"5577","farm":6,"title":"The Willows","ispublic":1,"isfriend":0,"isfamily":0,"ownername":"jessica-h"},{"id":"10582491466","owner":"52749884@N02","secret":"4427096ee9","server":"5491","farm":6,"title":"Willows","ispublic":1,"isfriend":0,"isfamily":0,"ownername":"Bad Kicker"},{"id":"16957893247","owner":"10396813@N04","secret":"7680717536","server":"8762","farm":9,"title":"Willow","ispublic":1,"isfriend":0,"isfamily":0,"ownername":"myeralan"},{"id":"4175349850","owner":"81529845@N00","secret":"9f7177e89a","server":"2777","farm":3,"title":"december willow","ispublic":1,"isfriend":0,"isfamily":0,"ownername":"another peri"},{"id":"5678986861","owner":"80992738@N00","secret":"7b92a2ca31","server":"5148","farm":6,"title":"Cemetery Pond","ispublic":1,"isfriend":0,"isfamily":0,"ownername":"Mr. Ducke"},{"id":"5601456191","owner":"52890198@N07","secret":"4f336e9ecd","server":"5270","farm":6,"title":"Willow","ispublic":1,"isfriend":0,"isfamily":0,"ownername":"michellejaworski"},{"id":"5732170968","owner":"56825776@N00","secret":"74d0c566c9","server":"3497","farm":4,"title":"Willow Pond View","ispublic":1,"isfriend":0,"isfamily":0,"ownername":"Tim Noonan"},{"id":"6889311642","owner":"42163476@N06","secret":"42e3865483","server":"7092","farm":8,"title":"Water and willows","ispublic":1,"isfriend":0,"isfamily":0,"ownername":"Timbuckto."},{"id":"8755438555","owner":"40646519@N00","secret":"0a565d921d","server":"3759","farm":4,"title":"Willows","ispublic":1,"isfriend":0,"isfamily":0,"ownername":"Joe Shlabotnik"},{"id":"3474604708","owner":"67832671@N00","secret":"110a42188c","server":"3541","farm":4,"title":"Willows","ispublic":1,"isfriend":0,"isfamily":0,"ownername":"donsutherland1"},{"id":"7658680510","owner":"14143447@N06","secret":"76b1a8c048","server":"8023","farm":9,"title":"bird island","ispublic":1,"isfriend":0,"isfamily":0,"ownername":"grannie annie taggs"},{"id":"7383202964","owner":"56874700@N00","secret":"b09bbb6a4d","server":"7101","farm":8,"title":"pond and willows - Public Gardens, Boston, 14 June 2012","ispublic":1,"isfriend":0,"isfamily":0,"ownername":"mwms1916"},{"id":"6309569084","owner":"65524191@N08","secret":"67b01de130","server":"6237","farm":7,"title":"Willows Richmond 2","ispublic":1,"isfriend":0,"isfamily":0,"ownername":"JoanSJ"},{"id":"3437090089","owner":"66419582@N00","secret":"35f805d5a3","server":"3329","farm":4,"title":"willows","ispublic":1,"isfriend":0,"isfamily":0,"ownername":"alisabethmix"}]},"stat":"ok"}