{"photos":{"page":1,"pages":27052,"perpage":15,"total":"405773","photo":[{"id":"3847424879","owner":"25757100@N08","secret":"fd8855ea28","server":"2563","farm":3,"title":"wind","ispublic":1,"isfriend":0,"isfamily":0,"ownername":"livanich"},{"id":"5370529735","owner":"36708561@N02","secret":"8bda8ab81c","server":"5245","farm":6,"title":"Wind","ispublic":1,"isfriend":0,"isfamily":0,"ownername":"John Gilchrist"},{"id":"2755752149","owner":"29493648@N06","secret":"88db240e04","server":"3194","farm":4,"title":"wind","ispublic":1,"isfriend":0,"isfamily":0,"ownername":"Nicemind"},{"id":"5817017145","owner":"23856908@N00","secret":"b030225922","server":"5303","farm":6,"title":"wind","ispublic":1,"isfriend":0,"isfamily":0,"ownername":"bluefam"},{"id":"2318640253","owner":"8028661@N05","secret":"f3c71b85cc","server":"3112","farm":4,"title":"Wind","ispublic":1,"isfriend":0,"isfamily":0,"ownername":"Mi che le"},{"id":"16079831476","owner":"93269402@N08","secret":"42b14069f3","server":"7561","farm":8,"title":"wind","ispublic":1,"isfriend":0,"isfamily":0,"ownername":"Bhalalhaika"},{"id":"9774026434","owner":"7618350@N07","secret":"cf1c70725d","server":"3806","farm":4,"title":"wind","ispublic":1,"isfriend":0,"isfamily":0,"ownername":"javier balseiro"},{"id":"5911910580","owner":"79968992@N00","secret":"196b237b43","server":"6027","farm":7,"title":"wind","ispublic":1,"isfriend":0,"isfamily":0,"ownername":"Paul Tixier"},{"id":"4401976081","owner":"27032209@N08","secret":"8d130c1740","server":"4014","farm":5,"title":"Wind","ispublic":1,"isfriend":0,"isfamily":0,"ownername":"Abstract-Thinking"},{"id":"3509798515","owner":"28105990@N04","secret":"caa0fee6ff","server":"3583","farm":4,"title":"wind","ispublic":1,"isfriend":0,"isfamily":0,"ownername":"kona49"},{"id":"6798441376","owner":"77426081@N02","secret":"386532776b","server":"7066","farm":8,"title":"Wind","ispublic":1,"isfriend":0,"isfamily":0,"ownername":"Pitiejkey Photography"},{"id":"16062952723","owner":"35298818@N00","secret":"93cfdb3a11","server":"8594","farm":9,"title":"Wind","ispublic":1,"isfriend":0,"isfamily":0,"ownername":"mLao, bored"},{"id":"6243445264","owner":"31357607@N06","secret":"4e67701138","server":"6155","farm":7,"title":"WIND","ispublic":1,"isfriend":0,"isfamily":0,"ownername":"Ana Magalhaes Fotografia"},{"id":"8105768515","owner":"36350577@N02","secret":"b899b769d3","server":"8474","farm":9,"title":"Wind","ispublic":1,"isfriend":0,"isfamily":0,"ownername":"Kishanm05"},{"id":"14554422903","owner":"115295868@N06","secret":"80fbe81c36","server":"3923","farm":4,"title":"wind","ispublic":1,"isfriend":0,"isfamily":0,"ownername":"http:\/\/walkingphoto.altervista.org\/"}]},"stat":"ok"}