{"photos":{"page":1,"pages":43044,"perpage":15,"total":"645651","photo":[{"id":"8830525962","owner":"30982237@N02","secret":"78b8f3136f","server":"8257","farm":9,"title":"wine","ispublic":1,"isfriend":0,"isfamily":0,"ownername":"bugklop"},{"id":"5849247082","owner":"28562261@N00","secret":"6a032c744f","server":"2653","farm":3,"title":"Wine","ispublic":1,"isfriend":0,"isfamily":0,"ownername":"Aaron.Su"},{"id":"5882143417","owner":"26444507@N07","secret":"ce8d64cb6f","server":"5222","farm":6,"title":"Wine","ispublic":1,"isfriend":0,"isfamily":0,"ownername":"curiousanderson"},{"id":"12910349865","owner":"49587167@N00","secret":"cff147f42e","server":"7425","farm":8,"title":"Wine","ispublic":1,"isfriend":0,"isfamily":0,"ownername":"Matt Peoples"},{"id":"11096157926","owner":"93623529@N08","secret":"a07762276d","server":"3721","farm":4,"title":"Wine","ispublic":1,"isfriend":0,"isfamily":0,"ownername":"nap boligao"},{"id":"4060639956","owner":"12306261@N00","secret":"49ff45328a","server":"2546","farm":3,"title":"Wine","ispublic":1,"isfriend":0,"isfamily":0,"ownername":"nickbrett"},{"id":"6348558553","owner":"53826819@N07","secret":"bc7f9a2eee","server":"6111","farm":7,"title":"wine","ispublic":1,"isfriend":0,"isfamily":0,"ownername":"Ter-ra"},{"id":"7610536194","owner":"49937022@N07","secret":"55e0dab3c7","server":"8014","farm":9,"title":"Wine","ispublic":1,"isfriend":0,"isfamily":0,"ownername":"claudiarndt"},{"id":"6889374846","owner":"53326337@N00","secret":"bb000002ca","server":"7074","farm":8,"title":"Wine","ispublic":1,"isfriend":0,"isfamily":0,"ownername":"quinn.anya"},{"id":"9119098796","owner":"33883997@N05","secret":"06470de708","server":"3716","farm":4,"title":"Wine","ispublic":1,"isfriend":0,"isfamily":0,"ownername":"kharizmatik"},{"id":"6392398675","owner":"70390421@N02","secret":"15ce7516e1","server":"7152","farm":8,"title":"Wine","ispublic":1,"isfriend":0,"isfamily":0,"ownername":"doesmeedin"},{"id":"6187815515","owner":"67165132@N03","secret":"6e59bd5774","server":"6164","farm":7,"title":"Wine","ispublic":1,"isfriend":0,"isfamily":0,"ownername":"scarlethargrave"},{"id":"6063294331","owner":"35237090315@N01","secret":"cfaebf779e","server":"6202","farm":7,"title":"Wines","ispublic":1,"isfriend":0,"isfamily":0,"ownername":"stuandgravy"},{"id":"5766065214","owner":"29150107@N03","secret":"2480552e0d","server":"3129","farm":4,"title":"Wine","ispublic":1,"isfriend":0,"isfamily":0,"ownername":"Bria69"},{"id":"5381354847","owner":"57092456@N05","secret":"f4959ca7a6","server":"5083","farm":6,"title":"Wine","ispublic":1,"isfriend":0,"isfamily":0,"ownername":"thoughtfuldev"}]},"stat":"ok"}