{"photos":{"page":1,"pages":10116,"perpage":15,"total":"151732","photo":[{"id":"7100443917","owner":"22028250@N04","secret":"3122e73987","server":"5151","farm":6,"title":"Wires","ispublic":1,"isfriend":0,"isfamily":0,"ownername":"skepticalview"},{"id":"1185530863","owner":"87463936@N00","secret":"1f9df8a7e5","server":"1434","farm":2,"title":"wires","ispublic":1,"isfriend":0,"isfamily":0,"ownername":"ztephen"},{"id":"5580067718","owner":"48280455@N02","secret":"51c81cd390","server":"5178","farm":6,"title":"Wire","ispublic":1,"isfriend":0,"isfamily":0,"ownername":"ondrograf"},{"id":"13194591675","owner":"97609496@N07","secret":"80a20d29d5","server":"3772","farm":4,"title":"Wires","ispublic":1,"isfriend":0,"isfamily":0,"ownername":"Jyrki Liikanen"},{"id":"28093430199","owner":"57949897@N00","secret":"0df1bc9983","server":"4655","farm":5,"title":"Wired","ispublic":1,"isfriend":0,"isfamily":0,"ownername":"Jerzy Durczak"},{"id":"3627688525","owner":"23988820@N00","secret":"5148dcbdce","server":"3634","farm":4,"title":"wire","ispublic":1,"isfriend":0,"isfamily":0,"ownername":"ottomata"},{"id":"5460812133","owner":"99442018@N00","secret":"86548cd0d4","server":"5292","farm":6,"title":"wired.","ispublic":1,"isfriend":0,"isfamily":0,"ownername":"Kaz.."},{"id":"5162683277","owner":"50400072@N06","secret":"333c18209b","server":"4059","farm":5,"title":"Wired","ispublic":1,"isfriend":0,"isfamily":0,"ownername":"Maria Offin"},{"id":"515690781","owner":"32425609@N00","secret":"4d7356b2f4","server":"243","farm":1,"title":"wire","ispublic":1,"isfriend":0,"isfamily":0,"ownername":"tadworks"},{"id":"33029261065","owner":"151659169@N08","secret":"ceca1a1c55","server":"2570","farm":3,"title":"Wire","ispublic":1,"isfriend":0,"isfamily":0,"ownername":"mikestunyog"},{"id":"2518150549","owner":"69183075@N00","secret":"abecebdccf","server":"2360","farm":3,"title":"Wires","ispublic":1,"isfriend":0,"isfamily":0,"ownername":"lauraschmitz"},{"id":"14267965905","owner":"100146665@N04","secret":"8ae1cdf1b2","server":"3825","farm":4,"title":"Wired","ispublic":1,"isfriend":0,"isfamily":0,"ownername":"p r o j e c t s h i f t e r"},{"id":"15387863021","owner":"48232993@N00","secret":"937b018d38","server":"2943","farm":3,"title":"overhead wires and cloud","ispublic":1,"isfriend":0,"isfamily":0,"ownername":"ophis"},{"id":"14593227703","owner":"12355917@N00","secret":"8978686c53","server":"2903","farm":3,"title":"barbed wire","ispublic":1,"isfriend":0,"isfamily":0,"ownername":"Jackal1"},{"id":"6055167419","owner":"59413791@N07","secret":"6171401a5e","server":"6194","farm":7,"title":"Wire","ispublic":1,"isfriend":0,"isfamily":0,"ownername":"Merri Harrison-Quarles"}]},"stat":"ok"}