{"photos":{"page":1,"pages":9215,"perpage":15,"total":"138215","photo":[{"id":"2744424907","owner":"23191029@N03","secret":"b86512a376","server":"3252","farm":4,"title":"witch","ispublic":1,"isfriend":0,"isfamily":0,"ownername":"pepp 2012"},{"id":"22629149932","owner":"24992592@N06","secret":"641060f241","server":"637","farm":1,"title":"Witches ???...","ispublic":1,"isfriend":0,"isfamily":0,"ownername":"Jean et Coco"},{"id":"15558049601","owner":"20892134@N06","secret":"5ffd66fe57","server":"3943","farm":4,"title":"Witches ~","ispublic":1,"isfriend":0,"isfamily":0,"ownername":"voo_doolady"},{"id":"84428658","owner":"56597995@N00","secret":"678e940158","server":"42","farm":1,"title":"...fly witch, fly...","ispublic":1,"isfriend":0,"isfamily":0,"ownername":"dhammza"},{"id":"3303318548","owner":"28913262@N03","secret":"3908c9c80e","server":"3513","farm":4,"title":"Which Witch is Which","ispublic":1,"isfriend":0,"isfamily":0,"ownername":"S@ilor"},{"id":"17261122222","owner":"128511564@N03","secret":"c2d579da93","server":"7711","farm":8,"title":"witch","ispublic":1,"isfriend":0,"isfamily":0,"ownername":"Heidi Spiegler"},{"id":"8143292785","owner":"58142461@N07","secret":"48d7d48974","server":"8187","farm":9,"title":"Witch Spire","ispublic":1,"isfriend":0,"isfamily":0,"ownername":"Siercon and Coral"},{"id":"10596444245","owner":"8188882@N05","secret":"a5a810ba14","server":"5486","farm":6,"title":"The Witches ~ I can hear the scream of the leaves, squeezed by the wind ... as they invade the coldest village","ispublic":1,"isfriend":0,"isfamily":0,"ownername":"DinosaursAreNotDead"},{"id":"7883151772","owner":"81086238@N05","secret":"64a024dd34","server":"7113","farm":8,"title":"Witch and Little Frog","ispublic":1,"isfriend":0,"isfamily":0,"ownername":"SweeP_64"},{"id":"11024936493","owner":"39538941@N05","secret":"3f6cd0c976","server":"7306","farm":8,"title":"Season of the Witch","ispublic":1,"isfriend":0,"isfamily":0,"ownername":"\u265b RicoRacer Flux \u265b"},{"id":"3566148204","owner":"94881465@N00","secret":"f02aeef448","server":"3643","farm":4,"title":"The Harz Witch Project","ispublic":1,"isfriend":0,"isfamily":0,"ownername":"Batram"},{"id":"5782330036","owner":"34842354@N04","secret":"0088990476","server":"5024","farm":6,"title":"Bullet Witch","ispublic":1,"isfriend":0,"isfamily":0,"ownername":"Luiz_Pontel"},{"id":"24026978319","owner":"16176711@N02","secret":"4221fb0b57","server":"1647","farm":2,"title":"Witch","ispublic":1,"isfriend":0,"isfamily":0,"ownername":"conall.."},{"id":"10490886615","owner":"68457575@N05","secret":"15cc60dc3d","server":"3789","farm":4,"title":"Season of the Witch: The Snake Charmer","ispublic":1,"isfriend":0,"isfamily":0,"ownername":"-Fashion Teller House-"},{"id":"18093811673","owner":"49303724@N07","secret":"21276c5b31","server":"424","farm":1,"title":"Witch","ispublic":1,"isfriend":0,"isfamily":0,"ownername":"Harry Potts"}]},"stat":"ok"}