{"photos":{"page":1,"pages":21331,"perpage":15,"total":"319954","photo":[{"id":"5767909554","owner":"9453805@N07","secret":"458f82dff9","server":"3516","farm":4,"title":"Wolf 18","ispublic":1,"isfriend":0,"isfamily":0,"ownername":"Dan Newcomb Photography"},{"id":"148292918","owner":"99582559@N00","secret":"266dec39e8","server":"56","farm":1,"title":"blue-eyed wolf","ispublic":1,"isfriend":0,"isfamily":0,"ownername":"blue-eyed wolf"},{"id":"10894408424","owner":"41229622@N02","secret":"1c69683539","server":"5478","farm":6,"title":"Wolf","ispublic":1,"isfriend":0,"isfamily":0,"ownername":"CarinaMcKee"},{"id":"6994239253","owner":"85081332@N00","secret":"ab2253305b","server":"7209","farm":8,"title":"Wolf","ispublic":1,"isfriend":0,"isfamily":0,"ownername":"pe_ha45"},{"id":"8468252269","owner":"85081332@N00","secret":"bf25d01351","server":"8527","farm":9,"title":"Wolf","ispublic":1,"isfriend":0,"isfamily":0,"ownername":"pe_ha45"},{"id":"5767911832","owner":"9453805@N07","secret":"6840a9c92c","server":"5062","farm":6,"title":"Wolf 8","ispublic":1,"isfriend":0,"isfamily":0,"ownername":"Dan Newcomb Photography"},{"id":"16655977091","owner":"22220556@N07","secret":"da64b3c696","server":"7286","farm":8,"title":"Wolf... your next.","ispublic":1,"isfriend":0,"isfamily":0,"ownername":"lantusman"},{"id":"5890690868","owner":"9453805@N07","secret":"4c88183b64","server":"5235","farm":6,"title":"Wolf 1","ispublic":1,"isfriend":0,"isfamily":0,"ownername":"Dan Newcomb Photography"},{"id":"5767908426","owner":"9453805@N07","secret":"f310a4269e","server":"3488","farm":4,"title":"Wolf 23","ispublic":1,"isfriend":0,"isfamily":0,"ownername":"Dan Newcomb Photography"},{"id":"8207233358","owner":"85081332@N00","secret":"7b7465348f","server":"8341","farm":9,"title":"Wolf","ispublic":1,"isfriend":0,"isfamily":0,"ownername":"pe_ha45"},{"id":"4372092081","owner":"28739209@N06","secret":"7153701c7d","server":"4067","farm":5,"title":"Wolf Brothers","ispublic":1,"isfriend":0,"isfamily":0,"ownername":"Eve'sNature"},{"id":"8536845415","owner":"25269155@N06","secret":"c90bb62c10","server":"8233","farm":9,"title":"wolf","ispublic":1,"isfriend":0,"isfamily":0,"ownername":"photoluver1"},{"id":"15617901453","owner":"74347473@N02","secret":"04f9cf4f51","server":"7568","farm":8,"title":"Wolf","ispublic":1,"isfriend":0,"isfamily":0,"ownername":"BernieErnieJr"},{"id":"4333040740","owner":"89116575@N00","secret":"c1f09983cc","server":"2752","farm":3,"title":"Wolf","ispublic":1,"isfriend":0,"isfamily":0,"ownername":"Dennis from Atlanta"},{"id":"11947023844","owner":"114471179@N08","secret":"389a609712","server":"7447","farm":8,"title":"Wolf","ispublic":1,"isfriend":0,"isfamily":0,"ownername":"JanniePhoto"}]},"stat":"ok"}