{"photos":{"page":1,"pages":192454,"perpage":15,"total":"2886808","photo":[{"id":"20736261469","owner":"22163926@N05","secret":"02822ed0e8","server":"571","farm":1,"title":"women","ispublic":1,"isfriend":0,"isfamily":0},{"id":"4551288204","owner":"21692577@N02","secret":"5c6f37e3ca","server":"4069","farm":5,"title":"Women Beach Volleyball","ispublic":1,"isfriend":0,"isfamily":0},{"id":"15804347027","owner":"22163926@N05","secret":"35f5936ab2","server":"8624","farm":9,"title":"women","ispublic":1,"isfriend":0,"isfamily":0},{"id":"6133100386","owner":"21692577@N02","secret":"36b8d2264a","server":"6169","farm":7,"title":"Women Celebrating","ispublic":1,"isfriend":0,"isfamily":0},{"id":"5851423804","owner":"21692577@N02","secret":"0aed73e6bb","server":"5262","farm":6,"title":"Women Beach Volleyball tournament","ispublic":1,"isfriend":0,"isfamily":0},{"id":"18601501219","owner":"21692577@N02","secret":"d224edba1b","server":"307","farm":1,"title":"Women Volleyball","ispublic":1,"isfriend":0,"isfamily":0},{"id":"7668909102","owner":"21692577@N02","secret":"96a5de94dc","server":"7270","farm":8,"title":"Women Beach Volleyball","ispublic":1,"isfriend":0,"isfamily":0},{"id":"5935128097","owner":"21692577@N02","secret":"d0a0d3b2cf","server":"6017","farm":7,"title":"women volleyball","ispublic":1,"isfriend":0,"isfamily":0},{"id":"14370089486","owner":"119678691@N02","secret":"fba8457c54","server":"2938","farm":3,"title":"Women","ispublic":1,"isfriend":0,"isfamily":0},{"id":"15682636112","owner":"21692577@N02","secret":"6f03cb4dfd","server":"7558","farm":8,"title":"Women Volleyball","ispublic":1,"isfriend":0,"isfamily":0},{"id":"14960986650","owner":"21692577@N02","secret":"36ca98aa39","server":"5589","farm":6,"title":"CQE#2  Women Beach volleyball tournament @ Montreal, Boucherville, Quebec","ispublic":1,"isfriend":0,"isfamily":0},{"id":"15787674304","owner":"21692577@N02","secret":"fe4791f6c7","server":"7296","farm":8,"title":"Carabins de Montreal vs McGill Martlets - indoor women volleyball","ispublic":1,"isfriend":0,"isfamily":0},{"id":"15100708657","owner":"21692577@N02","secret":"55a3595416","server":"3899","farm":4,"title":"Beach volleyball women tournament in Montreal.","ispublic":1,"isfriend":0,"isfamily":0},{"id":"5838086952","owner":"21692577@N02","secret":"70d52eedec","server":"5114","farm":6,"title":"Women beach volleyball tournament","ispublic":1,"isfriend":0,"isfamily":0},{"id":"14715241736","owner":"21692577@N02","secret":"b39bded278","server":"3879","farm":4,"title":"Women Volleyball","ispublic":1,"isfriend":0,"isfamily":0}]},"stat":"ok"}