{"photos":{"page":1,"pages":16126,"perpage":15,"total":"241878","photo":[{"id":"9620470794","owner":"43237229@N00","secret":"86e7e7272d","server":"5490","farm":6,"title":"wool!","ispublic":1,"isfriend":0,"isfamily":0,"ownername":"novamade"},{"id":"1479328806","owner":"44124266283@N01","secret":"ed07b48f8b","server":"1353","farm":2,"title":"Wool","ispublic":1,"isfriend":0,"isfamily":0,"ownername":"gilest"},{"id":"1479327484","owner":"44124266283@N01","secret":"5edaad6265","server":"1077","farm":2,"title":"Wool","ispublic":1,"isfriend":0,"isfamily":0,"ownername":"gilest"},{"id":"3383389505","owner":"45505510@N00","secret":"396006306f","server":"3447","farm":4,"title":"Wool","ispublic":1,"isfriend":0,"isfamily":0,"ownername":"thecraftinista"},{"id":"6178745304","owner":"28494098@N07","secret":"3ed75b9a1d","server":"6168","farm":7,"title":"Wool...","ispublic":1,"isfriend":0,"isfamily":0,"ownername":"Darcy Moore"},{"id":"2415317002","owner":"53649124@N00","secret":"3d864fd8fb","server":"3203","farm":4,"title":"Wool!","ispublic":1,"isfriend":0,"isfamily":0,"ownername":"Spin Spin"},{"id":"15358028943","owner":"10773784@N05","secret":"103e7f4957","server":"8637","farm":9,"title":"Wool","ispublic":1,"isfriend":0,"isfamily":0,"ownername":"custombase"},{"id":"984010515","owner":"56233103@N00","secret":"378150116c","server":"1438","farm":2,"title":"Wool","ispublic":1,"isfriend":0,"isfamily":0,"ownername":"bildlek"},{"id":"4941734732","owner":"92388598@N00","secret":"010a90a56c","server":"4082","farm":5,"title":"Wool","ispublic":1,"isfriend":0,"isfamily":0,"ownername":"quimby"},{"id":"426184464","owner":"38173926@N00","secret":"7ca4199625","server":"175","farm":1,"title":"Wool Strips","ispublic":1,"isfriend":0,"isfamily":0,"ownername":"*Heather Bailey*"},{"id":"3317201090","owner":"35782194@N07","secret":"98c72d10cf","server":"3455","farm":4,"title":"Wool","ispublic":1,"isfriend":0,"isfamily":0,"ownername":"H. L. Priday"},{"id":"2074924","owner":"38325049@N00","secret":"ca93b49431","server":"2","farm":1,"title":"wool","ispublic":1,"isfriend":0,"isfamily":0,"ownername":"88ZERO"},{"id":"128442771","owner":"58872339@N00","secret":"3632563868","server":"1","farm":1,"title":"Wool","ispublic":1,"isfriend":0,"isfamily":0,"ownername":"merialc"},{"id":"3150115990","owner":"65697095@N00","secret":"ebe8fc483b","server":"3261","farm":4,"title":"wool","ispublic":1,"isfriend":0,"isfamily":0,"ownername":"miss_fee"},{"id":"5490633761","owner":"9200905@N06","secret":"aba66eb55a","server":"5259","farm":6,"title":"Wool!","ispublic":1,"isfriend":0,"isfamily":0,"ownername":"jbuike"}]},"stat":"ok"}