{"photos":{"page":1,"pages":1205,"perpage":15,"total":"18066","photo":[{"id":"8696946152","owner":"94712541@N06","secret":"21ef1f2219","server":"8256","farm":9,"title":"worms","ispublic":1,"isfriend":0,"isfamily":0,"ownername":"roddy780"},{"id":"6340512205","owner":"69755235@N03","secret":"e00807592d","server":"6100","farm":7,"title":"HPIM2186","ispublic":1,"isfriend":0,"isfamily":0,"ownername":"heghog"},{"id":"12894896463","owner":"33234576@N00","secret":"5db9747838","server":"3693","farm":4,"title":"Worm Bin Intruder","ispublic":1,"isfriend":0,"isfamily":0,"ownername":"wildsheepchase"},{"id":"9367056976","owner":"45272606@N02","secret":"d3d61b246c","server":"3832","farm":4,"title":"Worms","ispublic":1,"isfriend":0,"isfamily":0,"ownername":"Nick Brick"},{"id":"7250044104","owner":"39664175@N05","secret":"c28e045980","server":"8026","farm":9,"title":"Dom zu Worms","ispublic":1,"isfriend":0,"isfamily":0,"ownername":"HJKr"},{"id":"4118240766","owner":"38892765@N06","secret":"d1ebf4573c","server":"2796","farm":3,"title":"worms","ispublic":1,"isfriend":0,"isfamily":0,"ownername":"OBIT :)"},{"id":"3006487916","owner":"10014980@N04","secret":"4b97e8df85","server":"3158","farm":4,"title":"worms","ispublic":1,"isfriend":0,"isfamily":0,"ownername":"Mistur Pants"},{"id":"6982242204","owner":"71641788@N00","secret":"7fe67654b3","server":"7182","farm":8,"title":"Worms","ispublic":1,"isfriend":0,"isfamily":0,"ownername":"goatsgreetings"},{"id":"696820958","owner":"49689199@N00","secret":"a19eaa3e58","server":"1291","farm":2,"title":"Worms","ispublic":1,"isfriend":0,"isfamily":0,"ownername":"Matthias Rosenkranz"},{"id":"1593442555","owner":"39899004@N00","secret":"a01ffd07b3","server":"2080","farm":3,"title":"Worms","ispublic":1,"isfriend":0,"isfamily":0,"ownername":"ultraman0069"},{"id":"35164987463","owner":"150273311@N05","secret":"dfcbec4520","server":"4297","farm":5,"title":"Worms","ispublic":1,"isfriend":0,"isfamily":0,"ownername":"barwickart-22"},{"id":"469827091","owner":"32803725@N00","secret":"c4a9f8457d","server":"220","farm":1,"title":"worms","ispublic":1,"isfriend":0,"isfamily":0,"ownername":"ianthes"},{"id":"3005650951","owner":"10014980@N04","secret":"e1c1eb7cd3","server":"3230","farm":4,"title":"worms","ispublic":1,"isfriend":0,"isfamily":0,"ownername":"Mistur Pants"},{"id":"696823168","owner":"49689199@N00","secret":"6a70c4819d","server":"1084","farm":2,"title":"Worms","ispublic":1,"isfriend":0,"isfamily":0,"ownername":"Matthias Rosenkranz"},{"id":"11824484213","owner":"28975765@N07","secret":"2a98d01cef","server":"2875","farm":3,"title":"Worms","ispublic":1,"isfriend":0,"isfamily":0,"ownername":"Patrick M\u00fcller"}]},"stat":"ok"}