{"photos":{"page":1,"pages":397,"perpage":15,"total":"5952","photo":[{"id":"4458714596","owner":"27598588@N03","secret":"2dfa5d87b4","server":"2790","farm":3,"title":"Wrath","ispublic":1,"isfriend":0,"isfamily":0,"ownername":"lutman123"},{"id":"4944869664","owner":"34757743@N08","secret":"b5c74bf6a2","server":"4079","farm":5,"title":"Wrath","ispublic":1,"isfriend":0,"isfamily":0,"ownername":"Steve.D.Hammond."},{"id":"15439537415","owner":"109947673@N07","secret":"0428399688","server":"3934","farm":4,"title":"Wrath","ispublic":1,"isfriend":0,"isfamily":0,"ownername":"\u2022 Ruy Pereira"},{"id":"9153318409","owner":"8633878@N02","secret":"8376db5f00","server":"7361","farm":8,"title":"wrath","ispublic":1,"isfriend":0,"isfamily":0,"ownername":"ina_flickr"},{"id":"3394913414","owner":"32148457@N05","secret":"208f6a830c","server":"3597","farm":4,"title":"wrath","ispublic":1,"isfriend":0,"isfamily":0,"ownername":"pixie-lee"},{"id":"525361034","owner":"52869530@N00","secret":"1e15ec2e97","server":"1185","farm":2,"title":"wrath","ispublic":1,"isfriend":0,"isfamily":0,"ownername":"clinton grobler"},{"id":"3526519528","owner":"35985438@N05","secret":"eee4e74890","server":"3402","farm":4,"title":"Wrath","ispublic":1,"isfriend":0,"isfamily":0,"ownername":"Maya.Adir"},{"id":"10843793964","owner":"91154020@N04","secret":"c02384f8b3","server":"3784","farm":4,"title":"Wrath","ispublic":1,"isfriend":0,"isfamily":0,"ownername":"marianna raskin"},{"id":"7166246235","owner":"60997349@N02","secret":"4289629c14","server":"7213","farm":8,"title":"WRATH","ispublic":1,"isfriend":0,"isfamily":0,"ownername":"siliaFX"},{"id":"2197041312","owner":"8353651@N03","secret":"c99860b18b","server":"2247","farm":3,"title":"Wrath","ispublic":1,"isfriend":0,"isfamily":0,"ownername":"Lady Harlequin"},{"id":"4528999397","owner":"44902492@N06","secret":"641b084c45","server":"4030","farm":5,"title":"Wrath","ispublic":1,"isfriend":0,"isfamily":0,"ownername":"Sarah Hinckley"},{"id":"4149030194","owner":"37862741@N07","secret":"969326df16","server":"2551","farm":3,"title":"Wrath","ispublic":1,"isfriend":0,"isfamily":0,"ownername":"Jessica Bontekoe"},{"id":"3006340960","owner":"32090279@N04","secret":"ba364911f2","server":"3049","farm":4,"title":"Wrath","ispublic":1,"isfriend":0,"isfamily":0,"ownername":"xcyberaverx"},{"id":"11367648396","owner":"65643351@N03","secret":"3b46c9f04a","server":"2863","farm":3,"title":"Wrath","ispublic":1,"isfriend":0,"isfamily":0,"ownername":"Gabriela.S.Sanchez"},{"id":"4837870811","owner":"26592210@N08","secret":"9d3713f686","server":"4129","farm":5,"title":"Wrath","ispublic":1,"isfriend":0,"isfamily":0,"ownername":"Jacob J"}]},"stat":"ok"}