{"photos":{"page":1,"pages":244,"perpage":15,"total":"3655","photo":[{"id":"4787230191","owner":"28538076@N00","secret":"2a72f9051d","server":"4139","farm":5,"title":"Wrinkle","ispublic":1,"isfriend":0,"isfamily":0,"ownername":"filmvanalledag"},{"id":"6826568930","owner":"68177867@N00","secret":"c143fdfc5e","server":"7049","farm":8,"title":"Wrinkles","ispublic":1,"isfriend":0,"isfamily":0,"ownername":"avinashbhat"},{"id":"4152076713","owner":"45201322@N06","secret":"5c0f647d02","server":"2599","farm":3,"title":"Wrinkle","ispublic":1,"isfriend":0,"isfamily":0,"ownername":"OurPhotoAWeek"},{"id":"15373923881","owner":"53497265@N05","secret":"ea0d49c8be","server":"3843","farm":4,"title":"Wrinkles","ispublic":1,"isfriend":0,"isfamily":0,"ownername":"Miha Pavlin"},{"id":"9113419563","owner":"97914983@N04","secret":"c38955fff8","server":"2875","farm":3,"title":"Wrinkles","ispublic":1,"isfriend":0,"isfamily":0,"ownername":"silvianemedi"},{"id":"4508295811","owner":"26031271@N05","secret":"b4efb34350","server":"4066","farm":5,"title":"wrinkle","ispublic":1,"isfriend":0,"isfamily":0,"ownername":"tracylarsen"},{"id":"4074266036","owner":"32593687@N08","secret":"f986788588","server":"2437","farm":3,"title":"Wrinkle!","ispublic":1,"isfriend":0,"isfamily":0,"ownername":"Little Wang"},{"id":"2281993040","owner":"11019045@N00","secret":"6281cfb0dc","server":"3175","farm":4,"title":"~ Wrinkles ~","ispublic":1,"isfriend":0,"isfamily":0,"ownername":"Leonardo Martins"},{"id":"4715989367","owner":"50544274@N05","secret":"226aeeb512","server":"4023","farm":5,"title":"Wrinkle","ispublic":1,"isfriend":0,"isfamily":0,"ownername":"Garrett A."},{"id":"30554993617","owner":"152592777@N03","secret":"04699b4f3c","server":"1945","farm":2,"title":"Wrinkle","ispublic":1,"isfriend":0,"isfamily":0,"ownername":"Keizerphoto"},{"id":"6351371949","owner":"43175472@N03","secret":"12163f86df","server":"6109","farm":7,"title":"Wrinkled","ispublic":1,"isfriend":0,"isfamily":0,"ownername":"Sam Beddoes"},{"id":"6094945188","owner":"66931702@N07","secret":"dca5df0a9f","server":"6087","farm":7,"title":"Wrinkle","ispublic":1,"isfriend":0,"isfamily":0,"ownername":"cpsullivan1"},{"id":"123163684","owner":"28386649@N00","secret":"566c3e416b","server":"40","farm":1,"title":"wrinkle!","ispublic":1,"isfriend":0,"isfamily":0,"ownername":"ladelentes"},{"id":"2286884554","owner":"24025713@N05","secret":"3d5598bc29","server":"2061","farm":3,"title":"Wrinkles","ispublic":1,"isfriend":0,"isfamily":0,"ownername":"Andrea Fields"},{"id":"5657982314","owner":"31918035@N04","secret":"867c16e263","server":"5262","farm":6,"title":"Wrinkle","ispublic":1,"isfriend":0,"isfamily":0,"ownername":"HarBarBar"}]},"stat":"ok"}