{"photos":{"page":1,"pages":149102,"perpage":15,"total":"2236523","photo":[{"id":"3103907114","owner":"21644167@N04","secret":"b444abc2ea","server":"3273","farm":4,"title":"Yellow","ispublic":1,"isfriend":0,"isfamily":0,"ownername":"Bahman Farzad"},{"id":"6921674642","owner":"27409143@N00","secret":"0e76863c50","server":"7247","farm":8,"title":"Yellow","ispublic":1,"isfriend":0,"isfamily":0,"ownername":"kb_vaidya"},{"id":"8277152710","owner":"55959716@N08","secret":"68618c5a5c","server":"8202","farm":9,"title":"yellow","ispublic":1,"isfriend":0,"isfamily":0,"ownername":"Philocycler"},{"id":"6826630116","owner":"12060958@N05","secret":"566920a714","server":"7062","farm":8,"title":"Yellow","ispublic":1,"isfriend":0,"isfamily":0,"ownername":"Angelo Bosco"},{"id":"17050868668","owner":"66549102@N04","secret":"cde41b68f1","server":"5460","farm":6,"title":"yellow","ispublic":1,"isfriend":0,"isfamily":0,"ownername":"VooDoo Works"},{"id":"4198278188","owner":"9134056@N05","secret":"9971cb407b","server":"2696","farm":3,"title":"Yellow","ispublic":1,"isfriend":0,"isfamily":0,"ownername":"John(cardwellpix)"},{"id":"5603273698","owner":"39138751@N04","secret":"03c70e9df5","server":"5143","farm":6,"title":"Yellow","ispublic":1,"isfriend":0,"isfamily":0,"ownername":"heisajo"},{"id":"14786130562","owner":"97620489@N06","secret":"2f1f3f53e0","server":"5583","farm":6,"title":"Yellow","ispublic":1,"isfriend":0,"isfamily":0,"ownername":"W Geronimo"},{"id":"14028819878","owner":"91753462@N07","secret":"aff3820590","server":"5511","farm":6,"title":"Yellow","ispublic":1,"isfriend":0,"isfamily":0,"ownername":"decipherment"},{"id":"20461785151","owner":"109004424@N02","secret":"1043716140","server":"299","farm":1,"title":"#Yellow","ispublic":1,"isfriend":0,"isfamily":0,"ownername":"MoustafaElian"},{"id":"9290539243","owner":"8721305@N05","secret":"f3874237d0","server":"3763","farm":4,"title":"Yellow","ispublic":1,"isfriend":0,"isfamily":0,"ownername":"Jim Cumming"},{"id":"12121318405","owner":"77108378@N06","secret":"7faecb280f","server":"5484","farm":6,"title":"~ yellow ~","ispublic":1,"isfriend":0,"isfamily":0,"ownername":"~lzee~by~the~Sea~"},{"id":"2443436196","owner":"7246385@N03","secret":"19982f3c87","server":"3214","farm":4,"title":"Yellow!","ispublic":1,"isfriend":0,"isfamily":0,"ownername":"Tokkes"},{"id":"5262118476","owner":"26085061@N05","secret":"7711f8fc7b","server":"5044","farm":6,"title":"Yellow","ispublic":1,"isfriend":0,"isfamily":0,"ownername":"ATSICHLAS"},{"id":"353350016","owner":"30467225@N00","secret":"9a4a16f906","server":"156","farm":1,"title":"YelloW","ispublic":1,"isfriend":0,"isfamily":0,"ownername":"_mey_"}]},"stat":"ok"}